1,"[5, 3, 6, 4]"
2,"[4, 5, 6, 1]"
3,"[3, 5, 2, 1]"
4,"[1, 5, 3, 4]"
5,"[4, 1, 2, 5]"
6,"[3, 6, 2, 5]"
7,"[6, 4, 1, 5]"
8,"[1, 6, 2, 4]"
9,"[6, 3, 1, 2]"
10,"[5, 3, 4, 1]"
11,"[5, 1, 3, 4]"
12,"[1, 6, 3, 5]"
13,"[4, 6, 2, 1]"
14,"[1, 5, 6, 2]"
15,"[4, 5, 1, 6]"
16,"[3, 5, 1, 2]"
17,"[3, 5, 4, 6]"
18,"[2, 1, 4, 5]"
19,"[1, 2, 4, 6]"
20,"[6, 5, 4, 3]"
21,"[5, 3, 2, 4]"
22,"[6, 4, 1, 5]"
23,"[2, 1, 6, 5]"
24,"[4, 2, 6, 5]"
25,"[5, 6, 4, 2]"
26,"[1, 6, 3, 2]"
27,"[6, 1, 2, 3]"
28,"[1, 3, 5, 4]"
29,"[3, 1, 6, 4]"
30,"[6, 5, 1, 3]"
31,"[2, 3, 1, 6]"
32,"[6, 4, 5, 1]"
33,"[4, 6, 3, 5]"
34,"[5, 3, 2, 4]"
35,"[1, 3, 2, 4]"
36,"[2, 4, 5, 3]"
37,"[2, 6, 3, 5]"
38,"[5, 1, 2, 6]"
39,"[1, 4, 6, 5]"
40,"[5, 6, 1, 4]"
41,"[3, 5, 2, 4]"
42,"[5, 4, 6, 3]"
43,"[4, 6, 3, 5]"
44,"[5, 6, 3, 4]"
45,"[5, 4, 6, 1]"
46,"[5, 4, 1, 2]"
47,"[2, 5, 6, 1]"
48,"[1, 5, 4, 2]"
49,"[5, 1, 3, 4]"
50,"[5, 6, 1, 4]"
51,"[6, 2, 5, 1]"
52,"[6, 3, 1, 4]"
53,"[2, 4, 6, 1]"
54,"[6, 1, 5, 4]"
55,"[6, 3, 4, 5]"
56,"[6, 2, 3, 1]"
57,"[4, 2, 3, 6]"
58,"[5, 1, 3, 6]"
59,"[3, 5, 6, 1]"
60,"[2, 6, 4, 1]"
61,"[6, 2, 4, 1]"
62,"[5, 6, 1, 4]"
63,"[3, 1, 2, 6]"
64,"[6, 2, 1, 5]"
65,"[2, 3, 5, 1]"
66,"[3, 6, 5, 4]"
67,"[2, 3, 6, 1]"
68,"[2, 5, 3, 4]"
69,"[1, 3, 6, 2]"
70,"[3, 2, 5, 1]"
71,"[4, 5, 6, 2]"
72,"[5, 2, 3, 1]"
73,"[2, 3, 1, 5]"
74,"[3, 6, 2, 1]"
75,"[6, 4, 1, 2]"
76,"[5, 6, 2, 3]"
77,"[6, 5, 3, 4]"
78,"[1, 6, 4, 3]"
79,"[2, 5, 4, 3]"
80,"[5, 6, 2, 3]"
81,"[6, 3, 1, 5]"
82,"[6, 5, 2, 1]"
83,"[4, 6, 2, 3]"
84,"[5, 3, 6, 1]"
85,"[4, 3, 1, 5]"
86,"[5, 1, 6, 2]"
87,"[2, 3, 1, 6]"
88,"[3, 6, 2, 4]"
89,"[6, 4, 3, 5]"
90,"[1, 4, 6, 2]"
91,"[5, 6, 2, 4]"
92,"[2, 5, 3, 6]"
93,"[1, 2, 4, 5]"
94,"[4, 5, 6, 3]"
95,"[4, 1, 3, 2]"
96,"[2, 6, 4, 1]"
97,"[4, 6, 2, 5]"
98,"[4, 5, 1, 6]"
99,"[1, 2, 3, 5]"
100,"[4, 1, 3, 5]"
101,"[6, 2, 3, 5]"
102,"[4, 6, 3, 5]"
103,"[6, 5, 1, 3]"
104,"[3, 4, 1, 6]"
105,"[4, 5, 1, 6]"
106,"[2, 5, 6, 1]"
107,"[1, 3, 4, 6]"
108,"[4, 6, 1, 3]"
109,"[3, 6, 2, 1]"
110,"[6, 5, 4, 1]"
111,"[3, 4, 5, 1]"
112,"[2, 1, 6, 5]"
113,"[4, 6, 1, 5]"
114,"[1, 2, 6, 5]"
115,"[6, 3, 5, 1]"
116,"[6, 2, 1, 3]"
117,"[1, 2, 4, 6]"
118,"[3, 2, 6, 1]"
119,"[6, 3, 4, 2]"
120,"[1, 6, 4, 5]"
121,"[6, 1, 2, 3]"
122,"[6, 4, 1, 5]"
123,"[5, 3, 2, 6]"
124,"[3, 4, 6, 2]"
125,"[4, 6, 1, 5]"
126,"[4, 1, 2, 6]"
127,"[2, 4, 5, 6]"
128,"[6, 3, 5, 2]"
129,"[6, 2, 5, 4]"
130,"[5, 2, 4, 3]"
131,"[4, 6, 5, 3]"
132,"[6, 5, 1, 2]"
133,"[6, 3, 1, 2]"
134,"[1, 2, 5, 6]"
135,"[2, 4, 1, 5]"
136,"[5, 6, 3, 4]"
137,"[6, 1, 4, 3]"
138,"[2, 3, 4, 5]"
139,"[6, 1, 2, 4]"
140,"[1, 3, 5, 2]"
141,"[3, 2, 4, 1]"
142,"[4, 6, 5, 1]"
143,"[6, 4, 3, 2]"
144,"[3, 4, 6, 5]"
145,"[3, 5, 4, 6]"
146,"[1, 6, 3, 2]"
147,"[6, 3, 4, 5]"
148,"[3, 4, 6, 2]"
149,"[6, 2, 5, 4]"
150,"[6, 2, 5, 3]"
151,"[6, 5, 4, 1]"
152,"[5, 6, 4, 3]"
153,"[1, 6, 4, 3]"
154,"[1, 4, 5, 2]"
155,"[5, 1, 3, 4]"
156,"[3, 5, 6, 2]"
157,"[5, 6, 2, 4]"
158,"[4, 6, 3, 5]"
159,"[6, 2, 3, 4]"
160,"[5, 6, 1, 3]"
161,"[6, 1, 5, 2]"
162,"[2, 1, 6, 4]"
163,"[4, 1, 6, 5]"
164,"[4, 1, 5, 6]"
165,"[3, 6, 2, 4]"
166,"[1, 2, 6, 5]"
167,"[6, 2, 4, 5]"
168,"[6, 1, 4, 3]"
169,"[1, 5, 3, 2]"
170,"[3, 5, 2, 6]"
171,"[6, 1, 5, 4]"
172,"[2, 3, 1, 4]"
173,"[6, 5, 1, 2]"
174,"[4, 1, 6, 3]"
175,"[1, 2, 3, 4]"
176,"[5, 2, 3, 1]"
177,"[6, 3, 4, 5]"
178,"[1, 4, 6, 5]"
179,"[6, 5, 1, 3]"
180,"[6, 2, 3, 4]"
181,"[6, 5, 1, 4]"
182,"[2, 5, 3, 4]"
183,"[2, 3, 4, 5]"
184,"[2, 3, 6, 5]"
185,"[4, 3, 1, 6]"
186,"[4, 1, 2, 6]"
187,"[5, 2, 3, 6]"
188,"[1, 5, 6, 2]"
189,"[4, 3, 5, 6]"
190,"[1, 5, 6, 4]"
191,"[1, 5, 2, 4]"
192,"[6, 2, 4, 5]"
193,"[6, 3, 1, 5]"
194,"[5, 6, 3, 4]"
195,"[1, 6, 4, 5]"
196,"[5, 1, 6, 4]"
197,"[6, 4, 3, 1]"
198,"[4, 5, 6, 2]"
199,"[5, 1, 3, 6]"
200,"[3, 1, 4, 2]"
201,"[2, 4, 6, 5]"
202,"[5, 2, 6, 3]"
203,"[6, 2, 5, 3]"
204,"[4, 2, 1, 3]"
205,"[3, 6, 1, 4]"
206,"[4, 2, 5, 1]"
207,"[6, 4, 5, 2]"
208,"[3, 6, 1, 2]"
209,"[2, 4, 1, 6]"
210,"[4, 5, 1, 2]"
211,"[3, 4, 1, 2]"
212,"[1, 6, 4, 5]"
213,"[4, 5, 3, 1]"
214,"[3, 4, 2, 5]"
215,"[1, 5, 6, 2]"
216,"[2, 6, 3, 5]"
217,"[1, 4, 6, 2]"
218,"[2, 4, 1, 3]"
219,"[5, 3, 6, 4]"
220,"[6, 3, 5, 2]"
221,"[1, 2, 5, 3]"
222,"[2, 5, 6, 1]"
223,"[2, 5, 4, 1]"
224,"[3, 2, 6, 1]"
225,"[6, 4, 5, 3]"
226,"[2, 3, 5, 6]"
227,"[5, 3, 6, 4]"
228,"[3, 6, 5, 4]"
229,"[2, 5, 6, 4]"
230,"[4, 6, 5, 2]"
231,"[3, 5, 6, 2]"
232,"[6, 1, 3, 5]"
233,"[6, 4, 5, 1]"
234,"[4, 5, 1, 3]"
235,"[1, 6, 4, 2]"
236,"[3, 6, 1, 2]"
237,"[6, 5, 1, 2]"
238,"[3, 6, 2, 5]"
239,"[5, 4, 6, 1]"
240,"[5, 4, 1, 3]"
241,"[3, 1, 4, 6]"
242,"[3, 5, 6, 4]"
243,"[4, 2, 5, 6]"
244,"[1, 3, 4, 2]"
245,"[6, 4, 2, 1]"
246,"[4, 5, 2, 1]"
247,"[1, 6, 4, 3]"
248,"[1, 5, 3, 2]"
249,"[5, 2, 4, 3]"
250,"[3, 6, 4, 1]"
251,"[2, 4, 6, 3]"
252,"[4, 3, 1, 6]"
253,"[5, 1, 6, 2]"
254,"[1, 5, 6, 3]"
255,"[6, 5, 3, 4]"
