-T UDP -a 10.0.33.1 -rp 12701 -b 56 -k 4 -c 1400 -d 10  -m rttm
-T UDP -a 10.0.33.1 -rp 12711 -b 220 -k 4 -c 1400 -d 20  -m rttm
-T UDP -a 10.0.34.1 -rp 12721 -b 204 -k 4 -c 1400 -d 30  -m rttm
-T UDP -a 10.0.34.1 -rp 12731 -b 56 -k 4 -c 1400 -d 40  -m rttm
-T UDP -a 10.0.32.1 -rp 12741 -b 112 -k 4 -c 1400 -d 50  -m rttm
-T UDP -a 10.0.32.1 -rp 12751 -b 120 -k 4 -c 1400 -d 60  -m rttm
-T UDP -a 10.0.29.1 -rp 12761 -b 116 -k 4 -c 1400 -d 70  -m rttm
-T UDP -a 10.0.29.1 -rp 12771 -b 120 -k 10240 -c 1400 -d 80 -m rttm
-T UDP -a 10.0.27.1 -rp 12781 -b 136 -k 4 -c 1400 -d 90  -m rttm
-T UDP -a 10.0.27.1 -rp 12791 -b 208 -k 4 -c 1400 -d 100  -m rttm
-T UDP -a 10.0.25.1 -rp 12801 -b 112 -k 4 -c 1400 -d 110  -m rttm
-T UDP -a 10.0.25.1 -rp 12811 -b 180 -k 4 -c 1400 -d 120  -m rttm
-T UDP -a 10.0.24.1 -rp 12821 -b 188 -k 4 -c 1400 -d 130  -m rttm
-T UDP -a 10.0.24.1 -rp 12831 -b 164 -k 4 -c 1400 -d 140  -m rttm
-T UDP -a 10.0.28.1 -rp 12841 -b 156 -k 4 -c 1400 -d 150  -m rttm
-T UDP -a 10.0.28.1 -rp 12851 -b 232 -k 10240 -c 1400 -d 160 -m rttm
