28,0,
30,0,
32,0,
34,0,
36,0,
38,0,
40,0,
42,0,
44,0,
46,0,
48,0,
50,0,
52,0,
54,0,
56,0,
58,0,
60,0,
62,0,
64,0,
66,0,
68,0,
70,0,"2-2,1-1,3-1"
72,0,"2-2,1-1,3-1"
74,0,"2-3,1-1,3-1"
76,0,"2-3,1-1,3-1"
78,0,"2-2,1-1,3-1"
80,0,"2-2,1-1,3-1"
82,0,"2-2,1-1,3-1"
84,0,"2-1,1-1,3-1"
87,0,"2-1,1-1,3-1"
89,0,"2-1,1-1,3-1"
91,0,"2-1,1-1,3-1"
93,0,"2-1,1-1,3-1"
95,0,"2-1,1-1,3-1"
97,0,"2-1,1-1,3-1"
99,0,"2-1,1-1,3-1"
101,0,"2-1,1-1,3-1"
103,0,"2-1,1-1,3-1"
105,0,"2-1,1-1,3-1"
107,0,"2-1,1-1,3-1"
109,0,"2-1,1-1,3-1"
111,0,"2-1,1-1,3-1"
113,0,"2-1,1-1,3-1"
115,0,"2-1,1-1,3-1"
117,0,"2-1,1-1,3-1"
119,0,"2-1,1-1,3-1"
121,0,"2-1,1-1,3-1"
123,0,"2-1,1-1,3-1"
125,0,"2-1,1-1,3-1"
127,0,"2-1,1-1,3-1"
129,0,"2-1,1-1,3-1"
131,0,"2-1,1-1,3-1"
133,0,"2-1,1-1,3-1"
135,0,"2-1,1-1,3-1"
137,0,"2-1,1-1,3-1"
139,0,"2-1,1-1,3-1"
141,0,"2-1,1-1,3-1"
