1462405908,0,0,0.0
2,0,0,0.0
4,0,0,0.0
6,0,0,0.0
8,0,0,0.0
10,0,0,0.0
12,0,0,0.0
14,0,0,0.0
16,0,0,0.0
18,0,0,0.0
20,0,0,0.0
22,0,0,0.0
24,0,0,0.0
26,0,0,0.0
28,0,0,0.0
30,0,0,0.0
32,0,0,0.0
34,0,0,0.0
36,0,0,0.0
38,0,0,0.0
40,0,0,0.0
42,0,0,0.0
44,0,0,0.0
46,0,0,0.0
48,0,0,0.0
50,0,0,0.0
52,0,0,0.0
54,0,0,0.0
56,0,0,0.0
58,0,0,0.0
60,0,0,0.0
62,0,0,0.0
64,0,0,0.0
66,0,0,0.0
68,3,7,2.33333333333
70,3,7,2.33333333333
72,3,6,2.0
74,4,7,1.75
76,5,8,1.6
78,4,6,1.5
80,4,6,1.5
82,4,7,1.75
84,4,6,1.5
87,4,6,1.5
89,3,5,1.66666666667
91,3,5,1.66666666667
93,3,5,1.66666666667
95,3,5,1.66666666667
97,3,5,1.66666666667
99,3,5,1.66666666667
101,3,5,1.66666666667
103,3,5,1.66666666667
105,0,0,0.0
107,0,0,0.0
109,0,0,0.0
111,0,0,0.0
113,0,0,0.0
115,0,0,0.0
117,0,0,0.0
119,0,0,0.0
121,0,0,0.0
123,0,0,0.0
125,0,0,0.0
127,0,0,0.0
129,0,0,0.0
131,0,0,0.0
133,0,0,0.0
135,0,0,0.0
137,0,0,0.0
139,0,0,0.0
141,0,0,0.0
