-T UDP -a 10.0.0.27 -rp 11691 -b 196 -k 2620 -c 450 -d 100 
-T UDP -a 10.0.0.26 -rp 11701 -b 48 -k 1970 -c 380 -d 200 
-T UDP -a 10.0.0.21 -rp 11711 -b 4 -k 1200 -c 990 -d 300 
-T UDP -a 10.0.0.22 -rp 11721 -b 228 -k 3620 -c 920 -d 400 
-T UDP -a 10.0.0.24 -rp 11731 -b 132 -k 1720 -c 480 -d 500 
-T UDP -a 10.0.0.30 -rp 11741 -b 56 -k 180 -c 330 -d 600 
-T UDP -a 10.0.0.33 -rp 11751 -b 8 -k 1010 -c 990 -d 700 
-T UDP -a 10.0.0.29 -rp 11761 -b 84 -k 3800 -c 250 -d 800 
-T UDP -a 10.0.0.31 -rp 11771 -b 164 -k 2560 -c 600 -d 900 
-T UDP -a 10.0.0.35 -rp 11781 -b 20 -k 700 -c 490 -d 1000 
-T UDP -a 10.0.0.36 -rp 11791 -b 200 -k 2190 -c 350 -d 1100 
-T UDP -a 10.0.0.32 -rp 11801 -b 192 -k 1560 -c 420 -d 1200 
-T UDP -a 10.0.0.28 -rp 11811 -b 108 -k 2500 -c 340 -d 1300 
