18,3,00:00:00:00:00:05-0
20,3,00:00:00:00:00:05-0
22,3,00:00:00:00:00:05-0
24,3,00:00:00:00:00:05-0
26,3,00:00:00:00:00:05-0
28,3,00:00:00:00:00:05-0
30,3,00:00:00:00:00:05-0
32,3,00:00:00:00:00:05-0
34,3,00:00:00:00:00:05-0
36,3,00:00:00:00:00:05-0
38,3,00:00:00:00:00:05-0
40,3,00:00:00:00:00:05-0
42,3,00:00:00:00:00:05-0
44,3,00:00:00:00:00:05-0
46,3,00:00:00:00:00:05-0
48,3,00:00:00:00:00:05-0
50,3,00:00:00:00:00:05-0
52,3,00:00:00:00:00:05-0
54,3,00:00:00:00:00:05-0
56,3,00:00:00:00:00:05-0
58,3,00:00:00:00:00:05-0
60,3,00:00:00:00:00:05-7
62,3,00:00:00:00:00:05-7
64,3,00:00:00:00:00:05-7
66,3,00:00:00:00:00:05-7
68,3,00:00:00:00:00:05-7
70,3,00:00:00:00:00:05-7
72,3,00:00:00:00:00:05-7
74,3,00:00:00:00:00:05-7
76,3,00:00:00:00:00:05-7
78,3,00:00:00:00:00:05-7
80,3,00:00:00:00:00:05-7
82,3,00:00:00:00:00:05-7
84,3,00:00:00:00:00:05-7
86,3,00:00:00:00:00:05-7
88,3,00:00:00:00:00:05-7
90,3,00:00:00:00:00:05-7
92,3,00:00:00:00:00:05-7
94,3,00:00:00:00:00:05-7
96,3,00:00:00:00:00:05-0
98,3,00:00:00:00:00:05-0
100,3,00:00:00:00:00:05-0
103,3,00:00:00:00:00:05-0
105,3,00:00:00:00:00:05-0
107,3,00:00:00:00:00:05-0
109,3,00:00:00:00:00:05-0
111,3,00:00:00:00:00:05-0
113,3,00:00:00:00:00:05-0
115,3,00:00:00:00:00:05-0
117,3,00:00:00:00:00:05-0
119,3,00:00:00:00:00:05-0
121,3,00:00:00:00:00:05-0
123,3,00:00:00:00:00:05-0
125,3,00:00:00:00:00:05-0
127,3,00:00:00:00:00:05-0
129,3,00:00:00:00:00:05-0
131,3,00:00:00:00:00:05-0
133,3,00:00:00:00:00:05-0
