Source,Destination,Weight,TotalNodes: 23,TotalLinks: 22,src,dst
1,3,1,,,A,W
1,4,1,,,A,V
1,2,1,,,A,Y
2,7,1,,,Y,D
2,23,1,,,Y,Z
3,6,1,,,W,E
3,10,1,,,W,I
5,8,1,,,B,H
6,9,1,,,E,C
6,15,1,,,E,G
7,13,1,,,D,F
7,14,1,,,D,X
9,11,1,,,C,K
9,12,1,,,C,P
10,17,1,,,I,M
11,18,1,,,K,L
12,16,1,,,P,U
17,19,1,,,M,R
18,22,1,,,L,S
18,20,1,,,L,O
19,21,1,,,R,T
5,7,1,,,B,D
