Source,Destination,Weight,TotalNodes: 128,TotalLinks: 30,src,dst
1,2,1
1,3,1
2,4,1
2,5,5
3,6,1
3,7,7
4,8,9
4,9,9
5,10,10
5,11,11
6,12,12
6,13,13
7,14,14
7,15,15
8,16,10
8,17,11
9,18,10
9,19,10
10,20,20
10,21,21
11,22,22
11,23,23
12,24,1
12,25,1
13,26,1
13,27,1
14,28,1
14,29,1
15,30,1
15,31,1
16,32,1
16,33,1
17,34,1
17,35,1
18,36,1
18,37,1
19,38,1
19,39,1
20,40,1
20,41,1
21,42,1
21,43,1
22,44,1
22,45,1
23,46,1
23,47,1
24,48,1
24,49,1
25,50,1
25,51,1
26,52,1
26,53,1
27,54,1
27,55,1
28,56,1
28,57,1
29,58,1
29,59,1
30,60,1
30,61,1
31,62,1
31,63,1
32,64,1
32,65,1
33,66,1
33,67,1
34,68,1
34,69,1
35,70,1
35,71,1
36,72,1
36,73,1
37,74,1
37,75,1
38,76,1
38,77,1
39,78,1
39,79,1
40,80,1
40,81,1
41,82,1
41,83,1
42,84,1
42,85,1
43,86,1
43,87,1
44,88,1
44,89,1
45,90,1
45,91,1
46,92,1
46,93,1
47,94,1
47,95,1
48,96,1
48,97,1
49,98,1
49,99,1
50,100,1
50,101,1
51,102,1
51,103,1
52,104,1
52,105,1
53,106,1
53,107,1
54,108,1
54,109,1
55,110,1
55,111,1
56,112,1
56,113,1
57,114,1
57,115,1
58,116,1
58,117,1
59,118,1
59,119,1
60,120,1
60,121,1
61,122,1
61,123,1
62,124,1
62,125,1
63,126,1
63,127,1
64,128,1
64,129,1