56,0,
57,0,
58,0,
59,1,"3:1::[[1, EthAddr('00:00:00:00:00:05'), EthAddr('00:00:00:00:00:02')]]"
60,1,"3:1::[[1, EthAddr('00:00:00:00:00:05'), EthAddr('00:00:00:00:00:02')]]"
61,2,"1:1::[[2, EthAddr('00:00:00:00:00:01'), EthAddr('00:00:00:00:00:04')]],3:1::[[1, EthAddr('00:00:00:00:00:05'), EthAddr('00:00:00:00:00:02')]]"
62,3,"1:1::[[2, EthAddr('00:00:00:00:00:01'), EthAddr('00:00:00:00:00:04')]],2:1::[[3, EthAddr('00:00:00:00:00:03'), EthAddr('00:00:00:00:00:06')]],3:1::[[1, EthAddr('00:00:00:00:00:05'), EthAddr('00:00:00:00:00:02')]]"
63,4,"1:1::[[2, EthAddr('00:00:00:00:00:01'), EthAddr('00:00:00:00:00:04')]],2:2::[[3, EthAddr('00:00:00:00:00:03'), EthAddr('00:00:00:00:00:06')], [3, EthAddr('00:00:00:00:00:06'), EthAddr('00:00:00:00:00:01')]],3:1::[[1, EthAddr('00:00:00:00:00:05'), EthAddr('00:00:00:00:00:02')]]"
64,5,"1:1::[[2, EthAddr('00:00:00:00:00:01'), EthAddr('00:00:00:00:00:04')]],2:3::[[3, EthAddr('00:00:00:00:00:03'), EthAddr('00:00:00:00:00:06')], [3, EthAddr('00:00:00:00:00:06'), EthAddr('00:00:00:00:00:01')], [3, EthAddr('00:00:00:00:00:01'), EthAddr('00:00:00:00:00:05')]],3:1::[[1, EthAddr('00:00:00:00:00:05'), EthAddr('00:00:00:00:00:02')]]"
65,5,"1:1::[[2, EthAddr('00:00:00:00:00:01'), EthAddr('00:00:00:00:00:04')]],2:3::[[3, EthAddr('00:00:00:00:00:03'), EthAddr('00:00:00:00:00:06')], [3, EthAddr('00:00:00:00:00:06'), EthAddr('00:00:00:00:00:01')], [3, EthAddr('00:00:00:00:00:01'), EthAddr('00:00:00:00:00:05')]],3:1::[[1, EthAddr('00:00:00:00:00:05'), EthAddr('00:00:00:00:00:02')]]"
66,5,"1:1::[[2, EthAddr('00:00:00:00:00:01'), EthAddr('00:00:00:00:00:04')]],2:3::[[3, EthAddr('00:00:00:00:00:03'), EthAddr('00:00:00:00:00:06')], [3, EthAddr('00:00:00:00:00:06'), EthAddr('00:00:00:00:00:01')], [3, EthAddr('00:00:00:00:00:01'), EthAddr('00:00:00:00:00:05')]],3:1::[[1, EthAddr('00:00:00:00:00:05'), EthAddr('00:00:00:00:00:02')]]"
67,5,"1:1::[[2, EthAddr('00:00:00:00:00:01'), EthAddr('00:00:00:00:00:04')]],2:3::[[3, EthAddr('00:00:00:00:00:03'), EthAddr('00:00:00:00:00:06')], [3, EthAddr('00:00:00:00:00:06'), EthAddr('00:00:00:00:00:01')], [3, EthAddr('00:00:00:00:00:01'), EthAddr('00:00:00:00:00:05')]],3:1::[[1, EthAddr('00:00:00:00:00:05'), EthAddr('00:00:00:00:00:02')]]"
68,5,"1:1::[[2, EthAddr('00:00:00:00:00:01'), EthAddr('00:00:00:00:00:04')]],2:3::[[3, EthAddr('00:00:00:00:00:03'), EthAddr('00:00:00:00:00:06')], [3, EthAddr('00:00:00:00:00:06'), EthAddr('00:00:00:00:00:01')], [3, EthAddr('00:00:00:00:00:01'), EthAddr('00:00:00:00:00:05')]],3:1::[[1, EthAddr('00:00:00:00:00:05'), EthAddr('00:00:00:00:00:02')]]"
69,6,"1:1::[[2, EthAddr('00:00:00:00:00:01'), EthAddr('00:00:00:00:00:04')]],2:3::[[3, EthAddr('00:00:00:00:00:03'), EthAddr('00:00:00:00:00:06')], [3, EthAddr('00:00:00:00:00:06'), EthAddr('00:00:00:00:00:01')], [3, EthAddr('00:00:00:00:00:01'), EthAddr('00:00:00:00:00:05')]],3:2::[[1, EthAddr('00:00:00:00:00:05'), EthAddr('00:00:00:00:00:02')], [1, EthAddr('00:00:00:00:00:02'), EthAddr('00:00:00:00:00:03')]]"
70,7,"1:1::[[2, EthAddr('00:00:00:00:00:01'), EthAddr('00:00:00:00:00:04')]],2:4::[[3, EthAddr('00:00:00:00:00:03'), EthAddr('00:00:00:00:00:06')], [3, EthAddr('00:00:00:00:00:06'), EthAddr('00:00:00:00:00:01')], [3, EthAddr('00:00:00:00:00:01'), EthAddr('00:00:00:00:00:05')], [1, EthAddr('00:00:00:00:00:06'), EthAddr('00:00:00:00:00:01')]],3:2::[[1, EthAddr('00:00:00:00:00:05'), EthAddr('00:00:00:00:00:02')], [1, EthAddr('00:00:00:00:00:02'), EthAddr('00:00:00:00:00:03')]]"
71,8,"1:2::[[2, EthAddr('00:00:00:00:00:01'), EthAddr('00:00:00:00:00:04')], [2, EthAddr('00:00:00:00:00:04'), EthAddr('00:00:00:00:00:06')]],2:4::[[3, EthAddr('00:00:00:00:00:03'), EthAddr('00:00:00:00:00:06')], [3, EthAddr('00:00:00:00:00:06'), EthAddr('00:00:00:00:00:01')], [3, EthAddr('00:00:00:00:00:01'), EthAddr('00:00:00:00:00:05')], [1, EthAddr('00:00:00:00:00:06'), EthAddr('00:00:00:00:00:01')]],3:2::[[1, EthAddr('00:00:00:00:00:05'), EthAddr('00:00:00:00:00:02')], [1, EthAddr('00:00:00:00:00:02'), EthAddr('00:00:00:00:00:03')]]"
72,9,"1:2::[[2, EthAddr('00:00:00:00:00:01'), EthAddr('00:00:00:00:00:04')], [2, EthAddr('00:00:00:00:00:04'), EthAddr('00:00:00:00:00:06')]],2:4::[[3, EthAddr('00:00:00:00:00:03'), EthAddr('00:00:00:00:00:06')], [3, EthAddr('00:00:00:00:00:06'), EthAddr('00:00:00:00:00:01')], [3, EthAddr('00:00:00:00:00:01'), EthAddr('00:00:00:00:00:05')], [1, EthAddr('00:00:00:00:00:06'), EthAddr('00:00:00:00:00:01')]],3:3::[[1, EthAddr('00:00:00:00:00:05'), EthAddr('00:00:00:00:00:02')], [1, EthAddr('00:00:00:00:00:02'), EthAddr('00:00:00:00:00:03')], [1, EthAddr('00:00:00:00:00:03'), EthAddr('00:00:00:00:00:02')]]"
73,10,"1:3::[[2, EthAddr('00:00:00:00:00:01'), EthAddr('00:00:00:00:00:04')], [2, EthAddr('00:00:00:00:00:04'), EthAddr('00:00:00:00:00:06')], [1, EthAddr('00:00:00:00:00:04'), EthAddr('00:00:00:00:00:03')]],2:4::[[3, EthAddr('00:00:00:00:00:03'), EthAddr('00:00:00:00:00:06')], [3, EthAddr('00:00:00:00:00:06'), EthAddr('00:00:00:00:00:01')], [3, EthAddr('00:00:00:00:00:01'), EthAddr('00:00:00:00:00:05')], [1, EthAddr('00:00:00:00:00:06'), EthAddr('00:00:00:00:00:01')]],3:3::[[1, EthAddr('00:00:00:00:00:05'), EthAddr('00:00:00:00:00:02')], [1, EthAddr('00:00:00:00:00:02'), EthAddr('00:00:00:00:00:03')], [1, EthAddr('00:00:00:00:00:03'), EthAddr('00:00:00:00:00:02')]]"
74,11,"1:4::[[2, EthAddr('00:00:00:00:00:01'), EthAddr('00:00:00:00:00:04')], [2, EthAddr('00:00:00:00:00:04'), EthAddr('00:00:00:00:00:06')], [1, EthAddr('00:00:00:00:00:04'), EthAddr('00:00:00:00:00:03')], [2, EthAddr('00:00:00:00:00:06'), EthAddr('00:00:00:00:00:03')]],2:4::[[3, EthAddr('00:00:00:00:00:03'), EthAddr('00:00:00:00:00:06')], [3, EthAddr('00:00:00:00:00:06'), EthAddr('00:00:00:00:00:01')], [3, EthAddr('00:00:00:00:00:01'), EthAddr('00:00:00:00:00:05')], [1, EthAddr('00:00:00:00:00:06'), EthAddr('00:00:00:00:00:01')]],3:3::[[1, EthAddr('00:00:00:00:00:05'), EthAddr('00:00:00:00:00:02')], [1, EthAddr('00:00:00:00:00:02'), EthAddr('00:00:00:00:00:03')], [1, EthAddr('00:00:00:00:00:03'), EthAddr('00:00:00:00:00:02')]]"
75,12,"1:5::[[2, EthAddr('00:00:00:00:00:01'), EthAddr('00:00:00:00:00:04')], [2, EthAddr('00:00:00:00:00:04'), EthAddr('00:00:00:00:00:06')], [1, EthAddr('00:00:00:00:00:04'), EthAddr('00:00:00:00:00:03')], [2, EthAddr('00:00:00:00:00:06'), EthAddr('00:00:00:00:00:03')], [3, EthAddr('00:00:00:00:00:04'), EthAddr('00:00:00:00:00:06')]],2:4::[[3, EthAddr('00:00:00:00:00:03'), EthAddr('00:00:00:00:00:06')], [3, EthAddr('00:00:00:00:00:06'), EthAddr('00:00:00:00:00:01')], [3, EthAddr('00:00:00:00:00:01'), EthAddr('00:00:00:00:00:05')], [1, EthAddr('00:00:00:00:00:06'), EthAddr('00:00:00:00:00:01')]],3:3::[[1, EthAddr('00:00:00:00:00:05'), EthAddr('00:00:00:00:00:02')], [1, EthAddr('00:00:00:00:00:02'), EthAddr('00:00:00:00:00:03')], [1, EthAddr('00:00:00:00:00:03'), EthAddr('00:00:00:00:00:02')]]"
76,13,"1:6::[[2, EthAddr('00:00:00:00:00:01'), EthAddr('00:00:00:00:00:04')], [2, EthAddr('00:00:00:00:00:04'), EthAddr('00:00:00:00:00:06')], [1, EthAddr('00:00:00:00:00:04'), EthAddr('00:00:00:00:00:03')], [2, EthAddr('00:00:00:00:00:06'), EthAddr('00:00:00:00:00:03')], [3, EthAddr('00:00:00:00:00:04'), EthAddr('00:00:00:00:00:06')], [2, EthAddr('00:00:00:00:00:03'), EthAddr('00:00:00:00:00:04')]],2:4::[[3, EthAddr('00:00:00:00:00:03'), EthAddr('00:00:00:00:00:06')], [3, EthAddr('00:00:00:00:00:06'), EthAddr('00:00:00:00:00:01')], [3, EthAddr('00:00:00:00:00:01'), EthAddr('00:00:00:00:00:05')], [1, EthAddr('00:00:00:00:00:06'), EthAddr('00:00:00:00:00:01')]],3:3::[[1, EthAddr('00:00:00:00:00:05'), EthAddr('00:00:00:00:00:02')], [1, EthAddr('00:00:00:00:00:02'), EthAddr('00:00:00:00:00:03')], [1, EthAddr('00:00:00:00:00:03'), EthAddr('00:00:00:00:00:02')]]"
77,13,"1:6::[[2, EthAddr('00:00:00:00:00:01'), EthAddr('00:00:00:00:00:04')], [2, EthAddr('00:00:00:00:00:04'), EthAddr('00:00:00:00:00:06')], [1, EthAddr('00:00:00:00:00:04'), EthAddr('00:00:00:00:00:03')], [2, EthAddr('00:00:00:00:00:06'), EthAddr('00:00:00:00:00:03')], [3, EthAddr('00:00:00:00:00:04'), EthAddr('00:00:00:00:00:06')], [2, EthAddr('00:00:00:00:00:03'), EthAddr('00:00:00:00:00:04')]],2:4::[[3, EthAddr('00:00:00:00:00:03'), EthAddr('00:00:00:00:00:06')], [3, EthAddr('00:00:00:00:00:06'), EthAddr('00:00:00:00:00:01')], [3, EthAddr('00:00:00:00:00:01'), EthAddr('00:00:00:00:00:05')], [1, EthAddr('00:00:00:00:00:06'), EthAddr('00:00:00:00:00:01')]],3:3::[[1, EthAddr('00:00:00:00:00:05'), EthAddr('00:00:00:00:00:02')], [1, EthAddr('00:00:00:00:00:02'), EthAddr('00:00:00:00:00:03')], [1, EthAddr('00:00:00:00:00:03'), EthAddr('00:00:00:00:00:02')]]"
78,13,"1:6::[[2, EthAddr('00:00:00:00:00:01'), EthAddr('00:00:00:00:00:04')], [2, EthAddr('00:00:00:00:00:04'), EthAddr('00:00:00:00:00:06')], [1, EthAddr('00:00:00:00:00:04'), EthAddr('00:00:00:00:00:03')], [2, EthAddr('00:00:00:00:00:06'), EthAddr('00:00:00:00:00:03')], [3, EthAddr('00:00:00:00:00:04'), EthAddr('00:00:00:00:00:06')], [2, EthAddr('00:00:00:00:00:03'), EthAddr('00:00:00:00:00:04')]],2:4::[[3, EthAddr('00:00:00:00:00:03'), EthAddr('00:00:00:00:00:06')], [3, EthAddr('00:00:00:00:00:06'), EthAddr('00:00:00:00:00:01')], [3, EthAddr('00:00:00:00:00:01'), EthAddr('00:00:00:00:00:05')], [1, EthAddr('00:00:00:00:00:06'), EthAddr('00:00:00:00:00:01')]],3:3::[[1, EthAddr('00:00:00:00:00:05'), EthAddr('00:00:00:00:00:02')], [1, EthAddr('00:00:00:00:00:02'), EthAddr('00:00:00:00:00:03')], [1, EthAddr('00:00:00:00:00:03'), EthAddr('00:00:00:00:00:02')]]"
79,13,"1:6::[[2, EthAddr('00:00:00:00:00:01'), EthAddr('00:00:00:00:00:04')], [2, EthAddr('00:00:00:00:00:04'), EthAddr('00:00:00:00:00:06')], [1, EthAddr('00:00:00:00:00:04'), EthAddr('00:00:00:00:00:03')], [2, EthAddr('00:00:00:00:00:06'), EthAddr('00:00:00:00:00:03')], [3, EthAddr('00:00:00:00:00:04'), EthAddr('00:00:00:00:00:06')], [2, EthAddr('00:00:00:00:00:03'), EthAddr('00:00:00:00:00:04')]],2:4::[[3, EthAddr('00:00:00:00:00:03'), EthAddr('00:00:00:00:00:06')], [3, EthAddr('00:00:00:00:00:06'), EthAddr('00:00:00:00:00:01')], [3, EthAddr('00:00:00:00:00:01'), EthAddr('00:00:00:00:00:05')], [1, EthAddr('00:00:00:00:00:06'), EthAddr('00:00:00:00:00:01')]],3:3::[[1, EthAddr('00:00:00:00:00:05'), EthAddr('00:00:00:00:00:02')], [1, EthAddr('00:00:00:00:00:02'), EthAddr('00:00:00:00:00:03')], [1, EthAddr('00:00:00:00:00:03'), EthAddr('00:00:00:00:00:02')]]"
80,13,"1:6::[[2, EthAddr('00:00:00:00:00:01'), EthAddr('00:00:00:00:00:04')], [2, EthAddr('00:00:00:00:00:04'), EthAddr('00:00:00:00:00:06')], [1, EthAddr('00:00:00:00:00:04'), EthAddr('00:00:00:00:00:03')], [2, EthAddr('00:00:00:00:00:06'), EthAddr('00:00:00:00:00:03')], [3, EthAddr('00:00:00:00:00:04'), EthAddr('00:00:00:00:00:06')], [2, EthAddr('00:00:00:00:00:03'), EthAddr('00:00:00:00:00:04')]],2:4::[[3, EthAddr('00:00:00:00:00:03'), EthAddr('00:00:00:00:00:06')], [3, EthAddr('00:00:00:00:00:06'), EthAddr('00:00:00:00:00:01')], [3, EthAddr('00:00:00:00:00:01'), EthAddr('00:00:00:00:00:05')], [1, EthAddr('00:00:00:00:00:06'), EthAddr('00:00:00:00:00:01')]],3:3::[[1, EthAddr('00:00:00:00:00:05'), EthAddr('00:00:00:00:00:02')], [1, EthAddr('00:00:00:00:00:02'), EthAddr('00:00:00:00:00:03')], [1, EthAddr('00:00:00:00:00:03'), EthAddr('00:00:00:00:00:02')]]"
81,13,"1:6::[[2, EthAddr('00:00:00:00:00:01'), EthAddr('00:00:00:00:00:04')], [2, EthAddr('00:00:00:00:00:04'), EthAddr('00:00:00:00:00:06')], [1, EthAddr('00:00:00:00:00:04'), EthAddr('00:00:00:00:00:03')], [2, EthAddr('00:00:00:00:00:06'), EthAddr('00:00:00:00:00:03')], [3, EthAddr('00:00:00:00:00:04'), EthAddr('00:00:00:00:00:06')], [2, EthAddr('00:00:00:00:00:03'), EthAddr('00:00:00:00:00:04')]],2:4::[[3, EthAddr('00:00:00:00:00:03'), EthAddr('00:00:00:00:00:06')], [3, EthAddr('00:00:00:00:00:06'), EthAddr('00:00:00:00:00:01')], [3, EthAddr('00:00:00:00:00:01'), EthAddr('00:00:00:00:00:05')], [1, EthAddr('00:00:00:00:00:06'), EthAddr('00:00:00:00:00:01')]],3:3::[[1, EthAddr('00:00:00:00:00:05'), EthAddr('00:00:00:00:00:02')], [1, EthAddr('00:00:00:00:00:02'), EthAddr('00:00:00:00:00:03')], [1, EthAddr('00:00:00:00:00:03'), EthAddr('00:00:00:00:00:02')]]"
82,13,"1:6::[[2, EthAddr('00:00:00:00:00:01'), EthAddr('00:00:00:00:00:04')], [2, EthAddr('00:00:00:00:00:04'), EthAddr('00:00:00:00:00:06')], [1, EthAddr('00:00:00:00:00:04'), EthAddr('00:00:00:00:00:03')], [2, EthAddr('00:00:00:00:00:06'), EthAddr('00:00:00:00:00:03')], [3, EthAddr('00:00:00:00:00:04'), EthAddr('00:00:00:00:00:06')], [2, EthAddr('00:00:00:00:00:03'), EthAddr('00:00:00:00:00:04')]],2:4::[[3, EthAddr('00:00:00:00:00:03'), EthAddr('00:00:00:00:00:06')], [3, EthAddr('00:00:00:00:00:06'), EthAddr('00:00:00:00:00:01')], [3, EthAddr('00:00:00:00:00:01'), EthAddr('00:00:00:00:00:05')], [1, EthAddr('00:00:00:00:00:06'), EthAddr('00:00:00:00:00:01')]],3:3::[[1, EthAddr('00:00:00:00:00:05'), EthAddr('00:00:00:00:00:02')], [1, EthAddr('00:00:00:00:00:02'), EthAddr('00:00:00:00:00:03')], [1, EthAddr('00:00:00:00:00:03'), EthAddr('00:00:00:00:00:02')]]"
83,13,"1:6::[[2, EthAddr('00:00:00:00:00:01'), EthAddr('00:00:00:00:00:04')], [2, EthAddr('00:00:00:00:00:04'), EthAddr('00:00:00:00:00:06')], [1, EthAddr('00:00:00:00:00:04'), EthAddr('00:00:00:00:00:03')], [2, EthAddr('00:00:00:00:00:06'), EthAddr('00:00:00:00:00:03')], [3, EthAddr('00:00:00:00:00:04'), EthAddr('00:00:00:00:00:06')], [2, EthAddr('00:00:00:00:00:03'), EthAddr('00:00:00:00:00:04')]],2:4::[[3, EthAddr('00:00:00:00:00:03'), EthAddr('00:00:00:00:00:06')], [3, EthAddr('00:00:00:00:00:06'), EthAddr('00:00:00:00:00:01')], [3, EthAddr('00:00:00:00:00:01'), EthAddr('00:00:00:00:00:05')], [1, EthAddr('00:00:00:00:00:06'), EthAddr('00:00:00:00:00:01')]],3:3::[[1, EthAddr('00:00:00:00:00:05'), EthAddr('00:00:00:00:00:02')], [1, EthAddr('00:00:00:00:00:02'), EthAddr('00:00:00:00:00:03')], [1, EthAddr('00:00:00:00:00:03'), EthAddr('00:00:00:00:00:02')]]"
84,13,"1:6::[[2, EthAddr('00:00:00:00:00:01'), EthAddr('00:00:00:00:00:04')], [2, EthAddr('00:00:00:00:00:04'), EthAddr('00:00:00:00:00:06')], [1, EthAddr('00:00:00:00:00:04'), EthAddr('00:00:00:00:00:03')], [2, EthAddr('00:00:00:00:00:06'), EthAddr('00:00:00:00:00:03')], [3, EthAddr('00:00:00:00:00:04'), EthAddr('00:00:00:00:00:06')], [2, EthAddr('00:00:00:00:00:03'), EthAddr('00:00:00:00:00:04')]],2:4::[[3, EthAddr('00:00:00:00:00:03'), EthAddr('00:00:00:00:00:06')], [3, EthAddr('00:00:00:00:00:06'), EthAddr('00:00:00:00:00:01')], [3, EthAddr('00:00:00:00:00:01'), EthAddr('00:00:00:00:00:05')], [1, EthAddr('00:00:00:00:00:06'), EthAddr('00:00:00:00:00:01')]],3:3::[[1, EthAddr('00:00:00:00:00:05'), EthAddr('00:00:00:00:00:02')], [1, EthAddr('00:00:00:00:00:02'), EthAddr('00:00:00:00:00:03')], [1, EthAddr('00:00:00:00:00:03'), EthAddr('00:00:00:00:00:02')]]"
85,13,"1:6::[[2, EthAddr('00:00:00:00:00:01'), EthAddr('00:00:00:00:00:04')], [2, EthAddr('00:00:00:00:00:04'), EthAddr('00:00:00:00:00:06')], [1, EthAddr('00:00:00:00:00:04'), EthAddr('00:00:00:00:00:03')], [2, EthAddr('00:00:00:00:00:06'), EthAddr('00:00:00:00:00:03')], [3, EthAddr('00:00:00:00:00:04'), EthAddr('00:00:00:00:00:06')], [2, EthAddr('00:00:00:00:00:03'), EthAddr('00:00:00:00:00:04')]],2:4::[[3, EthAddr('00:00:00:00:00:03'), EthAddr('00:00:00:00:00:06')], [3, EthAddr('00:00:00:00:00:06'), EthAddr('00:00:00:00:00:01')], [3, EthAddr('00:00:00:00:00:01'), EthAddr('00:00:00:00:00:05')], [1, EthAddr('00:00:00:00:00:06'), EthAddr('00:00:00:00:00:01')]],3:3::[[1, EthAddr('00:00:00:00:00:05'), EthAddr('00:00:00:00:00:02')], [1, EthAddr('00:00:00:00:00:02'), EthAddr('00:00:00:00:00:03')], [1, EthAddr('00:00:00:00:00:03'), EthAddr('00:00:00:00:00:02')]]"
86,13,"1:6::[[2, EthAddr('00:00:00:00:00:01'), EthAddr('00:00:00:00:00:04')], [2, EthAddr('00:00:00:00:00:04'), EthAddr('00:00:00:00:00:06')], [1, EthAddr('00:00:00:00:00:04'), EthAddr('00:00:00:00:00:03')], [2, EthAddr('00:00:00:00:00:06'), EthAddr('00:00:00:00:00:03')], [3, EthAddr('00:00:00:00:00:04'), EthAddr('00:00:00:00:00:06')], [2, EthAddr('00:00:00:00:00:03'), EthAddr('00:00:00:00:00:04')]],2:4::[[3, EthAddr('00:00:00:00:00:03'), EthAddr('00:00:00:00:00:06')], [3, EthAddr('00:00:00:00:00:06'), EthAddr('00:00:00:00:00:01')], [3, EthAddr('00:00:00:00:00:01'), EthAddr('00:00:00:00:00:05')], [1, EthAddr('00:00:00:00:00:06'), EthAddr('00:00:00:00:00:01')]],3:3::[[1, EthAddr('00:00:00:00:00:05'), EthAddr('00:00:00:00:00:02')], [1, EthAddr('00:00:00:00:00:02'), EthAddr('00:00:00:00:00:03')], [1, EthAddr('00:00:00:00:00:03'), EthAddr('00:00:00:00:00:02')]]"
87,13,"1:6::[[2, EthAddr('00:00:00:00:00:01'), EthAddr('00:00:00:00:00:04')], [2, EthAddr('00:00:00:00:00:04'), EthAddr('00:00:00:00:00:06')], [1, EthAddr('00:00:00:00:00:04'), EthAddr('00:00:00:00:00:03')], [2, EthAddr('00:00:00:00:00:06'), EthAddr('00:00:00:00:00:03')], [3, EthAddr('00:00:00:00:00:04'), EthAddr('00:00:00:00:00:06')], [2, EthAddr('00:00:00:00:00:03'), EthAddr('00:00:00:00:00:04')]],2:4::[[3, EthAddr('00:00:00:00:00:03'), EthAddr('00:00:00:00:00:06')], [3, EthAddr('00:00:00:00:00:06'), EthAddr('00:00:00:00:00:01')], [3, EthAddr('00:00:00:00:00:01'), EthAddr('00:00:00:00:00:05')], [1, EthAddr('00:00:00:00:00:06'), EthAddr('00:00:00:00:00:01')]],3:3::[[1, EthAddr('00:00:00:00:00:05'), EthAddr('00:00:00:00:00:02')], [1, EthAddr('00:00:00:00:00:02'), EthAddr('00:00:00:00:00:03')], [1, EthAddr('00:00:00:00:00:03'), EthAddr('00:00:00:00:00:02')]]"
88,13,"1:6::[[2, EthAddr('00:00:00:00:00:01'), EthAddr('00:00:00:00:00:04')], [2, EthAddr('00:00:00:00:00:04'), EthAddr('00:00:00:00:00:06')], [1, EthAddr('00:00:00:00:00:04'), EthAddr('00:00:00:00:00:03')], [2, EthAddr('00:00:00:00:00:06'), EthAddr('00:00:00:00:00:03')], [3, EthAddr('00:00:00:00:00:04'), EthAddr('00:00:00:00:00:06')], [2, EthAddr('00:00:00:00:00:03'), EthAddr('00:00:00:00:00:04')]],2:4::[[3, EthAddr('00:00:00:00:00:03'), EthAddr('00:00:00:00:00:06')], [3, EthAddr('00:00:00:00:00:06'), EthAddr('00:00:00:00:00:01')], [3, EthAddr('00:00:00:00:00:01'), EthAddr('00:00:00:00:00:05')], [1, EthAddr('00:00:00:00:00:06'), EthAddr('00:00:00:00:00:01')]],3:3::[[1, EthAddr('00:00:00:00:00:05'), EthAddr('00:00:00:00:00:02')], [1, EthAddr('00:00:00:00:00:02'), EthAddr('00:00:00:00:00:03')], [1, EthAddr('00:00:00:00:00:03'), EthAddr('00:00:00:00:00:02')]]"
89,13,"1:6::[[2, EthAddr('00:00:00:00:00:01'), EthAddr('00:00:00:00:00:04')], [2, EthAddr('00:00:00:00:00:04'), EthAddr('00:00:00:00:00:06')], [1, EthAddr('00:00:00:00:00:04'), EthAddr('00:00:00:00:00:03')], [2, EthAddr('00:00:00:00:00:06'), EthAddr('00:00:00:00:00:03')], [3, EthAddr('00:00:00:00:00:04'), EthAddr('00:00:00:00:00:06')], [2, EthAddr('00:00:00:00:00:03'), EthAddr('00:00:00:00:00:04')]],2:4::[[3, EthAddr('00:00:00:00:00:03'), EthAddr('00:00:00:00:00:06')], [3, EthAddr('00:00:00:00:00:06'), EthAddr('00:00:00:00:00:01')], [3, EthAddr('00:00:00:00:00:01'), EthAddr('00:00:00:00:00:05')], [1, EthAddr('00:00:00:00:00:06'), EthAddr('00:00:00:00:00:01')]],3:3::[[1, EthAddr('00:00:00:00:00:05'), EthAddr('00:00:00:00:00:02')], [1, EthAddr('00:00:00:00:00:02'), EthAddr('00:00:00:00:00:03')], [1, EthAddr('00:00:00:00:00:03'), EthAddr('00:00:00:00:00:02')]]"
90,13,"1:6::[[2, EthAddr('00:00:00:00:00:01'), EthAddr('00:00:00:00:00:04')], [2, EthAddr('00:00:00:00:00:04'), EthAddr('00:00:00:00:00:06')], [1, EthAddr('00:00:00:00:00:04'), EthAddr('00:00:00:00:00:03')], [2, EthAddr('00:00:00:00:00:06'), EthAddr('00:00:00:00:00:03')], [3, EthAddr('00:00:00:00:00:04'), EthAddr('00:00:00:00:00:06')], [2, EthAddr('00:00:00:00:00:03'), EthAddr('00:00:00:00:00:04')]],2:4::[[3, EthAddr('00:00:00:00:00:03'), EthAddr('00:00:00:00:00:06')], [3, EthAddr('00:00:00:00:00:06'), EthAddr('00:00:00:00:00:01')], [3, EthAddr('00:00:00:00:00:01'), EthAddr('00:00:00:00:00:05')], [1, EthAddr('00:00:00:00:00:06'), EthAddr('00:00:00:00:00:01')]],3:3::[[1, EthAddr('00:00:00:00:00:05'), EthAddr('00:00:00:00:00:02')], [1, EthAddr('00:00:00:00:00:02'), EthAddr('00:00:00:00:00:03')], [1, EthAddr('00:00:00:00:00:03'), EthAddr('00:00:00:00:00:02')]]"
