%!PS-Adobe-2.0
%%Title: case1.ps
%%Creator: gnuplot 4.6 patchlevel 6
%%CreationDate: Tue May  3 09:42:49 2016
%%DocumentFonts: (atend)
%%BoundingBox: 50 50 43250 172850
%%Orientation: Landscape
%%Pages: (atend)
%%EndComments
%%BeginProlog
/gnudict 256 dict def
gnudict begin
%
% The following true/false flags may be edited by hand if desired.
% The unit line width and grayscale image gamma correction may also be changed.
%
/Color false def
/Blacktext false def
/Solid false def
/Dashlength 1 def
/Landscape true def
/Level1 false def
/Rounded false def
/ClipToBoundingBox false def
/SuppressPDFMark false def
/TransparentPatterns false def
/gnulinewidth 5.000 def
/userlinewidth gnulinewidth def
/Gamma 1.0 def
/BackgroundColor {-1.000 -1.000 -1.000} def
%
/vshift -46 def
/dl1 {
  10.0 Dashlength mul mul
  Rounded { currentlinewidth 0.75 mul sub dup 0 le { pop 0.01 } if } if
} def
/dl2 {
  10.0 Dashlength mul mul
  Rounded { currentlinewidth 0.75 mul add } if
} def
/hpt_ 31.5 def
/vpt_ 31.5 def
/hpt hpt_ def
/vpt vpt_ def
/doclip {
  ClipToBoundingBox {
    newpath 50 50 moveto 43250 50 lineto 43250 172850 lineto 50 172850 lineto closepath
    clip
  } if
} def
%
% Gnuplot Prolog Version 4.6 (September 2012)
%
%/SuppressPDFMark true def
%
/M {moveto} bind def
/L {lineto} bind def
/R {rmoveto} bind def
/V {rlineto} bind def
/N {newpath moveto} bind def
/Z {closepath} bind def
/C {setrgbcolor} bind def
/f {rlineto fill} bind def
/g {setgray} bind def
/Gshow {show} def   % May be redefined later in the file to support UTF-8
/vpt2 vpt 2 mul def
/hpt2 hpt 2 mul def
/Lshow {currentpoint stroke M 0 vshift R 
	Blacktext {gsave 0 setgray show grestore} {show} ifelse} def
/Rshow {currentpoint stroke M dup stringwidth pop neg vshift R
	Blacktext {gsave 0 setgray show grestore} {show} ifelse} def
/Cshow {currentpoint stroke M dup stringwidth pop -2 div vshift R 
	Blacktext {gsave 0 setgray show grestore} {show} ifelse} def
/UP {dup vpt_ mul /vpt exch def hpt_ mul /hpt exch def
  /hpt2 hpt 2 mul def /vpt2 vpt 2 mul def} def
/DL {Color {setrgbcolor Solid {pop []} if 0 setdash}
 {pop pop pop 0 setgray Solid {pop []} if 0 setdash} ifelse} def
/BL {stroke userlinewidth 2 mul setlinewidth
	Rounded {1 setlinejoin 1 setlinecap} if} def
/AL {stroke userlinewidth 2 div setlinewidth
	Rounded {1 setlinejoin 1 setlinecap} if} def
/UL {dup gnulinewidth mul /userlinewidth exch def
	dup 1 lt {pop 1} if 10 mul /udl exch def} def
/PL {stroke userlinewidth setlinewidth
	Rounded {1 setlinejoin 1 setlinecap} if} def
3.8 setmiterlimit
% Default Line colors
/LCw {1 1 1} def
/LCb {0 0 0} def
/LCa {0 0 0} def
/LC0 {1 0 0} def
/LC1 {0 1 0} def
/LC2 {0 0 1} def
/LC3 {1 0 1} def
/LC4 {0 1 1} def
/LC5 {1 1 0} def
/LC6 {0 0 0} def
/LC7 {1 0.3 0} def
/LC8 {0.5 0.5 0.5} def
% Default Line Types
/LTw {PL [] 1 setgray} def
/LTb {BL [] LCb DL} def
/LTa {AL [1 udl mul 2 udl mul] 0 setdash LCa setrgbcolor} def
/LT0 {PL [] LC0 DL} def
/LT1 {PL [4 dl1 2 dl2] LC1 DL} def
/LT2 {PL [2 dl1 3 dl2] LC2 DL} def
/LT3 {PL [1 dl1 1.5 dl2] LC3 DL} def
/LT4 {PL [6 dl1 2 dl2 1 dl1 2 dl2] LC4 DL} def
/LT5 {PL [3 dl1 3 dl2 1 dl1 3 dl2] LC5 DL} def
/LT6 {PL [2 dl1 2 dl2 2 dl1 6 dl2] LC6 DL} def
/LT7 {PL [1 dl1 2 dl2 6 dl1 2 dl2 1 dl1 2 dl2] LC7 DL} def
/LT8 {PL [2 dl1 2 dl2 2 dl1 2 dl2 2 dl1 2 dl2 2 dl1 4 dl2] LC8 DL} def
/Pnt {stroke [] 0 setdash gsave 1 setlinecap M 0 0 V stroke grestore} def
/Dia {stroke [] 0 setdash 2 copy vpt add M
  hpt neg vpt neg V hpt vpt neg V
  hpt vpt V hpt neg vpt V closepath stroke
  Pnt} def
/Pls {stroke [] 0 setdash vpt sub M 0 vpt2 V
  currentpoint stroke M
  hpt neg vpt neg R hpt2 0 V stroke
 } def
/Box {stroke [] 0 setdash 2 copy exch hpt sub exch vpt add M
  0 vpt2 neg V hpt2 0 V 0 vpt2 V
  hpt2 neg 0 V closepath stroke
  Pnt} def
/Crs {stroke [] 0 setdash exch hpt sub exch vpt add M
  hpt2 vpt2 neg V currentpoint stroke M
  hpt2 neg 0 R hpt2 vpt2 V stroke} def
/TriU {stroke [] 0 setdash 2 copy vpt 1.12 mul add M
  hpt neg vpt -1.62 mul V
  hpt 2 mul 0 V
  hpt neg vpt 1.62 mul V closepath stroke
  Pnt} def
/Star {2 copy Pls Crs} def
/BoxF {stroke [] 0 setdash exch hpt sub exch vpt add M
  0 vpt2 neg V hpt2 0 V 0 vpt2 V
  hpt2 neg 0 V closepath fill} def
/TriUF {stroke [] 0 setdash vpt 1.12 mul add M
  hpt neg vpt -1.62 mul V
  hpt 2 mul 0 V
  hpt neg vpt 1.62 mul V closepath fill} def
/TriD {stroke [] 0 setdash 2 copy vpt 1.12 mul sub M
  hpt neg vpt 1.62 mul V
  hpt 2 mul 0 V
  hpt neg vpt -1.62 mul V closepath stroke
  Pnt} def
/TriDF {stroke [] 0 setdash vpt 1.12 mul sub M
  hpt neg vpt 1.62 mul V
  hpt 2 mul 0 V
  hpt neg vpt -1.62 mul V closepath fill} def
/DiaF {stroke [] 0 setdash vpt add M
  hpt neg vpt neg V hpt vpt neg V
  hpt vpt V hpt neg vpt V closepath fill} def
/Pent {stroke [] 0 setdash 2 copy gsave
  translate 0 hpt M 4 {72 rotate 0 hpt L} repeat
  closepath stroke grestore Pnt} def
/PentF {stroke [] 0 setdash gsave
  translate 0 hpt M 4 {72 rotate 0 hpt L} repeat
  closepath fill grestore} def
/Circle {stroke [] 0 setdash 2 copy
  hpt 0 360 arc stroke Pnt} def
/CircleF {stroke [] 0 setdash hpt 0 360 arc fill} def
/C0 {BL [] 0 setdash 2 copy moveto vpt 90 450 arc} bind def
/C1 {BL [] 0 setdash 2 copy moveto
	2 copy vpt 0 90 arc closepath fill
	vpt 0 360 arc closepath} bind def
/C2 {BL [] 0 setdash 2 copy moveto
	2 copy vpt 90 180 arc closepath fill
	vpt 0 360 arc closepath} bind def
/C3 {BL [] 0 setdash 2 copy moveto
	2 copy vpt 0 180 arc closepath fill
	vpt 0 360 arc closepath} bind def
/C4 {BL [] 0 setdash 2 copy moveto
	2 copy vpt 180 270 arc closepath fill
	vpt 0 360 arc closepath} bind def
/C5 {BL [] 0 setdash 2 copy moveto
	2 copy vpt 0 90 arc
	2 copy moveto
	2 copy vpt 180 270 arc closepath fill
	vpt 0 360 arc} bind def
/C6 {BL [] 0 setdash 2 copy moveto
	2 copy vpt 90 270 arc closepath fill
	vpt 0 360 arc closepath} bind def
/C7 {BL [] 0 setdash 2 copy moveto
	2 copy vpt 0 270 arc closepath fill
	vpt 0 360 arc closepath} bind def
/C8 {BL [] 0 setdash 2 copy moveto
	2 copy vpt 270 360 arc closepath fill
	vpt 0 360 arc closepath} bind def
/C9 {BL [] 0 setdash 2 copy moveto
	2 copy vpt 270 450 arc closepath fill
	vpt 0 360 arc closepath} bind def
/C10 {BL [] 0 setdash 2 copy 2 copy moveto vpt 270 360 arc closepath fill
	2 copy moveto
	2 copy vpt 90 180 arc closepath fill
	vpt 0 360 arc closepath} bind def
/C11 {BL [] 0 setdash 2 copy moveto
	2 copy vpt 0 180 arc closepath fill
	2 copy moveto
	2 copy vpt 270 360 arc closepath fill
	vpt 0 360 arc closepath} bind def
/C12 {BL [] 0 setdash 2 copy moveto
	2 copy vpt 180 360 arc closepath fill
	vpt 0 360 arc closepath} bind def
/C13 {BL [] 0 setdash 2 copy moveto
	2 copy vpt 0 90 arc closepath fill
	2 copy moveto
	2 copy vpt 180 360 arc closepath fill
	vpt 0 360 arc closepath} bind def
/C14 {BL [] 0 setdash 2 copy moveto
	2 copy vpt 90 360 arc closepath fill
	vpt 0 360 arc} bind def
/C15 {BL [] 0 setdash 2 copy vpt 0 360 arc closepath fill
	vpt 0 360 arc closepath} bind def
/Rec {newpath 4 2 roll moveto 1 index 0 rlineto 0 exch rlineto
	neg 0 rlineto closepath} bind def
/Square {dup Rec} bind def
/Bsquare {vpt sub exch vpt sub exch vpt2 Square} bind def
/S0 {BL [] 0 setdash 2 copy moveto 0 vpt rlineto BL Bsquare} bind def
/S1 {BL [] 0 setdash 2 copy vpt Square fill Bsquare} bind def
/S2 {BL [] 0 setdash 2 copy exch vpt sub exch vpt Square fill Bsquare} bind def
/S3 {BL [] 0 setdash 2 copy exch vpt sub exch vpt2 vpt Rec fill Bsquare} bind def
/S4 {BL [] 0 setdash 2 copy exch vpt sub exch vpt sub vpt Square fill Bsquare} bind def
/S5 {BL [] 0 setdash 2 copy 2 copy vpt Square fill
	exch vpt sub exch vpt sub vpt Square fill Bsquare} bind def
/S6 {BL [] 0 setdash 2 copy exch vpt sub exch vpt sub vpt vpt2 Rec fill Bsquare} bind def
/S7 {BL [] 0 setdash 2 copy exch vpt sub exch vpt sub vpt vpt2 Rec fill
	2 copy vpt Square fill Bsquare} bind def
/S8 {BL [] 0 setdash 2 copy vpt sub vpt Square fill Bsquare} bind def
/S9 {BL [] 0 setdash 2 copy vpt sub vpt vpt2 Rec fill Bsquare} bind def
/S10 {BL [] 0 setdash 2 copy vpt sub vpt Square fill 2 copy exch vpt sub exch vpt Square fill
	Bsquare} bind def
/S11 {BL [] 0 setdash 2 copy vpt sub vpt Square fill 2 copy exch vpt sub exch vpt2 vpt Rec fill
	Bsquare} bind def
/S12 {BL [] 0 setdash 2 copy exch vpt sub exch vpt sub vpt2 vpt Rec fill Bsquare} bind def
/S13 {BL [] 0 setdash 2 copy exch vpt sub exch vpt sub vpt2 vpt Rec fill
	2 copy vpt Square fill Bsquare} bind def
/S14 {BL [] 0 setdash 2 copy exch vpt sub exch vpt sub vpt2 vpt Rec fill
	2 copy exch vpt sub exch vpt Square fill Bsquare} bind def
/S15 {BL [] 0 setdash 2 copy Bsquare fill Bsquare} bind def
/D0 {gsave translate 45 rotate 0 0 S0 stroke grestore} bind def
/D1 {gsave translate 45 rotate 0 0 S1 stroke grestore} bind def
/D2 {gsave translate 45 rotate 0 0 S2 stroke grestore} bind def
/D3 {gsave translate 45 rotate 0 0 S3 stroke grestore} bind def
/D4 {gsave translate 45 rotate 0 0 S4 stroke grestore} bind def
/D5 {gsave translate 45 rotate 0 0 S5 stroke grestore} bind def
/D6 {gsave translate 45 rotate 0 0 S6 stroke grestore} bind def
/D7 {gsave translate 45 rotate 0 0 S7 stroke grestore} bind def
/D8 {gsave translate 45 rotate 0 0 S8 stroke grestore} bind def
/D9 {gsave translate 45 rotate 0 0 S9 stroke grestore} bind def
/D10 {gsave translate 45 rotate 0 0 S10 stroke grestore} bind def
/D11 {gsave translate 45 rotate 0 0 S11 stroke grestore} bind def
/D12 {gsave translate 45 rotate 0 0 S12 stroke grestore} bind def
/D13 {gsave translate 45 rotate 0 0 S13 stroke grestore} bind def
/D14 {gsave translate 45 rotate 0 0 S14 stroke grestore} bind def
/D15 {gsave translate 45 rotate 0 0 S15 stroke grestore} bind def
/DiaE {stroke [] 0 setdash vpt add M
  hpt neg vpt neg V hpt vpt neg V
  hpt vpt V hpt neg vpt V closepath stroke} def
/BoxE {stroke [] 0 setdash exch hpt sub exch vpt add M
  0 vpt2 neg V hpt2 0 V 0 vpt2 V
  hpt2 neg 0 V closepath stroke} def
/TriUE {stroke [] 0 setdash vpt 1.12 mul add M
  hpt neg vpt -1.62 mul V
  hpt 2 mul 0 V
  hpt neg vpt 1.62 mul V closepath stroke} def
/TriDE {stroke [] 0 setdash vpt 1.12 mul sub M
  hpt neg vpt 1.62 mul V
  hpt 2 mul 0 V
  hpt neg vpt -1.62 mul V closepath stroke} def
/PentE {stroke [] 0 setdash gsave
  translate 0 hpt M 4 {72 rotate 0 hpt L} repeat
  closepath stroke grestore} def
/CircE {stroke [] 0 setdash 
  hpt 0 360 arc stroke} def
/Opaque {gsave closepath 1 setgray fill grestore 0 setgray closepath} def
/DiaW {stroke [] 0 setdash vpt add M
  hpt neg vpt neg V hpt vpt neg V
  hpt vpt V hpt neg vpt V Opaque stroke} def
/BoxW {stroke [] 0 setdash exch hpt sub exch vpt add M
  0 vpt2 neg V hpt2 0 V 0 vpt2 V
  hpt2 neg 0 V Opaque stroke} def
/TriUW {stroke [] 0 setdash vpt 1.12 mul add M
  hpt neg vpt -1.62 mul V
  hpt 2 mul 0 V
  hpt neg vpt 1.62 mul V Opaque stroke} def
/TriDW {stroke [] 0 setdash vpt 1.12 mul sub M
  hpt neg vpt 1.62 mul V
  hpt 2 mul 0 V
  hpt neg vpt -1.62 mul V Opaque stroke} def
/PentW {stroke [] 0 setdash gsave
  translate 0 hpt M 4 {72 rotate 0 hpt L} repeat
  Opaque stroke grestore} def
/CircW {stroke [] 0 setdash 
  hpt 0 360 arc Opaque stroke} def
/BoxFill {gsave Rec 1 setgray fill grestore} def
/Density {
  /Fillden exch def
  currentrgbcolor
  /ColB exch def /ColG exch def /ColR exch def
  /ColR ColR Fillden mul Fillden sub 1 add def
  /ColG ColG Fillden mul Fillden sub 1 add def
  /ColB ColB Fillden mul Fillden sub 1 add def
  ColR ColG ColB setrgbcolor} def
/BoxColFill {gsave Rec PolyFill} def
/PolyFill {gsave Density fill grestore grestore} def
/h {rlineto rlineto rlineto gsave closepath fill grestore} bind def
%
% PostScript Level 1 Pattern Fill routine for rectangles
% Usage: x y w h s a XX PatternFill
%	x,y = lower left corner of box to be filled
%	w,h = width and height of box
%	  a = angle in degrees between lines and x-axis
%	 XX = 0/1 for no/yes cross-hatch
%
/PatternFill {gsave /PFa [ 9 2 roll ] def
  PFa 0 get PFa 2 get 2 div add PFa 1 get PFa 3 get 2 div add translate
  PFa 2 get -2 div PFa 3 get -2 div PFa 2 get PFa 3 get Rec
  TransparentPatterns {} {gsave 1 setgray fill grestore} ifelse
  clip
  currentlinewidth 0.5 mul setlinewidth
  /PFs PFa 2 get dup mul PFa 3 get dup mul add sqrt def
  0 0 M PFa 5 get rotate PFs -2 div dup translate
  0 1 PFs PFa 4 get div 1 add floor cvi
	{PFa 4 get mul 0 M 0 PFs V} for
  0 PFa 6 get ne {
	0 1 PFs PFa 4 get div 1 add floor cvi
	{PFa 4 get mul 0 2 1 roll M PFs 0 V} for
 } if
  stroke grestore} def
%
/languagelevel where
 {pop languagelevel} {1} ifelse
 2 lt
	{/InterpretLevel1 true def}
	{/InterpretLevel1 Level1 def}
 ifelse
%
% PostScript level 2 pattern fill definitions
%
/Level2PatternFill {
/Tile8x8 {/PaintType 2 /PatternType 1 /TilingType 1 /BBox [0 0 8 8] /XStep 8 /YStep 8}
	bind def
/KeepColor {currentrgbcolor [/Pattern /DeviceRGB] setcolorspace} bind def
<< Tile8x8
 /PaintProc {0.5 setlinewidth pop 0 0 M 8 8 L 0 8 M 8 0 L stroke} 
>> matrix makepattern
/Pat1 exch def
<< Tile8x8
 /PaintProc {0.5 setlinewidth pop 0 0 M 8 8 L 0 8 M 8 0 L stroke
	0 4 M 4 8 L 8 4 L 4 0 L 0 4 L stroke}
>> matrix makepattern
/Pat2 exch def
<< Tile8x8
 /PaintProc {0.5 setlinewidth pop 0 0 M 0 8 L
	8 8 L 8 0 L 0 0 L fill}
>> matrix makepattern
/Pat3 exch def
<< Tile8x8
 /PaintProc {0.5 setlinewidth pop -4 8 M 8 -4 L
	0 12 M 12 0 L stroke}
>> matrix makepattern
/Pat4 exch def
<< Tile8x8
 /PaintProc {0.5 setlinewidth pop -4 0 M 8 12 L
	0 -4 M 12 8 L stroke}
>> matrix makepattern
/Pat5 exch def
<< Tile8x8
 /PaintProc {0.5 setlinewidth pop -2 8 M 4 -4 L
	0 12 M 8 -4 L 4 12 M 10 0 L stroke}
>> matrix makepattern
/Pat6 exch def
<< Tile8x8
 /PaintProc {0.5 setlinewidth pop -2 0 M 4 12 L
	0 -4 M 8 12 L 4 -4 M 10 8 L stroke}
>> matrix makepattern
/Pat7 exch def
<< Tile8x8
 /PaintProc {0.5 setlinewidth pop 8 -2 M -4 4 L
	12 0 M -4 8 L 12 4 M 0 10 L stroke}
>> matrix makepattern
/Pat8 exch def
<< Tile8x8
 /PaintProc {0.5 setlinewidth pop 0 -2 M 12 4 L
	-4 0 M 12 8 L -4 4 M 8 10 L stroke}
>> matrix makepattern
/Pat9 exch def
/Pattern1 {PatternBgnd KeepColor Pat1 setpattern} bind def
/Pattern2 {PatternBgnd KeepColor Pat2 setpattern} bind def
/Pattern3 {PatternBgnd KeepColor Pat3 setpattern} bind def
/Pattern4 {PatternBgnd KeepColor Landscape {Pat5} {Pat4} ifelse setpattern} bind def
/Pattern5 {PatternBgnd KeepColor Landscape {Pat4} {Pat5} ifelse setpattern} bind def
/Pattern6 {PatternBgnd KeepColor Landscape {Pat9} {Pat6} ifelse setpattern} bind def
/Pattern7 {PatternBgnd KeepColor Landscape {Pat8} {Pat7} ifelse setpattern} bind def
} def
%
%
%End of PostScript Level 2 code
%
/PatternBgnd {
  TransparentPatterns {} {gsave 1 setgray fill grestore} ifelse
} def
%
% Substitute for Level 2 pattern fill codes with
% grayscale if Level 2 support is not selected.
%
/Level1PatternFill {
/Pattern1 {0.250 Density} bind def
/Pattern2 {0.500 Density} bind def
/Pattern3 {0.750 Density} bind def
/Pattern4 {0.125 Density} bind def
/Pattern5 {0.375 Density} bind def
/Pattern6 {0.625 Density} bind def
/Pattern7 {0.875 Density} bind def
} def
%
% Now test for support of Level 2 code
%
Level1 {Level1PatternFill} {Level2PatternFill} ifelse
%
/Symbol-Oblique /Symbol findfont [1 0 .167 1 0 0] makefont
dup length dict begin {1 index /FID eq {pop pop} {def} ifelse} forall
currentdict end definefont pop
Level1 SuppressPDFMark or 
{} {
/SDict 10 dict def
systemdict /pdfmark known not {
  userdict /pdfmark systemdict /cleartomark get put
} if
SDict begin [
  /Title (case1.ps)
  /Subject (gnuplot plot)
  /Creator (gnuplot 4.6 patchlevel 6)
  /Author (mininet)
%  /Producer (gnuplot)
%  /Keywords ()
  /CreationDate (Tue May  3 09:42:49 2016)
  /DOCINFO pdfmark
end
} ifelse
end
%%EndProlog
%%Page: 1 1
gnudict begin
gsave
doclip
50 50 translate
0.100 0.100 scale
90 rotate
0 -432000 translate
0 setgray
newpath
(Helvetica) findfont 140 scalefont setfont
BackgroundColor 0 lt 3 1 roll 0 lt exch 0 lt or or not {gsave BackgroundColor C clippath fill grestore} if
1.000 UL
LTb
686 25809 M
63 0 V
-147 0 R
( 0) Rshow
1.000 UL
LTb
686 76530 M
63 0 V
-147 0 R
( 20) Rshow
1.000 UL
LTb
686 127251 M
63 0 V
-147 0 R
( 40) Rshow
1.000 UL
LTb
686 177973 M
63 0 V
-147 0 R
( 60) Rshow
1.000 UL
LTb
686 228694 M
63 0 V
-147 0 R
( 80) Rshow
1.000 UL
LTb
686 279415 M
63 0 V
-147 0 R
( 100) Rshow
1.000 UL
LTb
686 330136 M
63 0 V
-147 0 R
( 120) Rshow
1.000 UL
LTb
686 380858 M
63 0 V
-147 0 R
( 140) Rshow
1.000 UL
LTb
686 431579 M
63 0 V
-147 0 R
( 160) Rshow
1.000 UL
LTb
686 448 M
0 63 V
0 431068 R
0 -63 V
686 308 M
( 61) Cshow
1.000 UL
LTb
86887 448 M
0 63 V
0 431068 R
0 -63 V
86887 308 M
( 62) Cshow
1.000 UL
LTb
173088 448 M
0 63 V
0 431068 R
0 -63 V
0 -431208 R
( 63) Cshow
1.000 UL
LTb
259289 448 M
0 63 V
0 431068 R
0 -63 V
0 -431208 R
( 64) Cshow
1.000 UL
LTb
345490 448 M
0 63 V
0 431068 R
0 -63 V
0 -431208 R
( 65) Cshow
1.000 UL
LTb
431691 448 M
0 63 V
0 431068 R
0 -63 V
0 -431208 R
( 66) Cshow
1.000 UL
LTb
517892 448 M
0 63 V
0 431068 R
0 -63 V
0 -431208 R
( 67) Cshow
1.000 UL
LTb
604093 448 M
0 63 V
0 431068 R
0 -63 V
0 -431208 R
( 68) Cshow
1.000 UL
LTb
690294 448 M
0 63 V
0 431068 R
0 -63 V
0 -431208 R
( 69) Cshow
1.000 UL
LTb
776495 448 M
0 63 V
0 431068 R
0 -63 V
0 -431208 R
( 70) Cshow
1.000 UL
LTb
862697 448 M
0 63 V
0 431068 R
0 -63 V
0 -431208 R
( 71) Cshow
1.000 UL
LTb
948898 448 M
0 63 V
0 431068 R
0 -63 V
0 -431208 R
( 72) Cshow
1.000 UL
LTb
1035099 448 M
0 63 V
0 431068 R
0 -63 V
0 -431208 R
( 73) Cshow
1.000 UL
LTb
1121300 448 M
0 63 V
0 431068 R
0 -63 V
0 -431208 R
( 74) Cshow
1.000 UL
LTb
1207501 448 M
0 63 V
0 431068 R
0 -63 V
0 -431208 R
( 75) Cshow
1.000 UL
LTb
1293702 448 M
0 63 V
0 431068 R
0 -63 V
0 -431208 R
( 76) Cshow
1.000 UL
LTb
1379903 448 M
0 63 V
0 431068 R
0 -63 V
0 -431208 R
( 77) Cshow
1.000 UL
LTb
1466104 448 M
0 63 V
0 431068 R
0 -63 V
0 -431208 R
( 78) Cshow
1.000 UL
LTb
1552305 448 M
0 63 V
0 431068 R
0 -63 V
0 -431208 R
( 79) Cshow
1.000 UL
LTb
1638506 448 M
0 63 V
0 431068 R
0 -63 V
0 -431208 R
( 80) Cshow
1.000 UL
LTb
1724707 448 M
0 63 V
0 431068 R
0 -63 V
0 -431208 R
( 81) Cshow
1.000 UL
LTb
1724707 39642 M
-63 0 V
147 0 R
( 0) Lshow
1.000 UL
LTb
1724707 118029 M
-63 0 V
147 0 R
( 2) Lshow
1.000 UL
LTb
1724707 196417 M
-63 0 V
147 0 R
( 4) Lshow
1.000 UL
LTb
1724707 274804 M
-63 0 V
147 0 R
( 6) Lshow
1.000 UL
LTb
1724707 353192 M
-63 0 V
147 0 R
( 8) Lshow
1.000 UL
LTb
1724707 431579 M
-63 0 V
147 0 R
( 10) Lshow
1.000 UL
LTb
1.000 UL
LTb
686 431579 N
686 448 L
1724021 0 V
0 431131 V
686 431579 L
Z stroke
LCb setrgbcolor
112 216013 M
currentpoint gsave translate -270 rotate 0 0 M
(Average Path Deviation) Cshow
grestore
LTb
LCb setrgbcolor
1725196 216013 M
currentpoint gsave translate -270 rotate 0 0 M
(Total Number of Redirections) Cshow
grestore
LTb
LCb setrgbcolor
862696 98 M
(Time in Seconds) Cshow
LTb
862696 431789 M
(Service Instance Re-location Scenario) Cshow
0.700 UP
1.000 UL
LTb
% Begin plot #1
1.500 UP
2.000 UL
LT0
0.00 0.38 0.68 C LCb setrgbcolor
1727367 216083 M
(Avg. Path Deviation) Rshow
LT0
0.00 0.38 0.68 C 1727451 216083 M
380 0 V
686 363105 M
86201 0 V
86201 -83690 V
259289 101891 L
86201 0 V
431691 76530 L
517892 25809 L
86201 0 V
86201 25360 V
776495 25809 L
86202 25360 V
948898 25809 L
86201 0 V
86201 0 V
86201 0 V
86201 0 V
86201 0 V
86201 0 V
86201 0 V
86201 0 V
stroke
LCw setrgbcolor
2.100 UP
686 363105 CircleF
1.500 UP
2.000 UL
LT0
0.00 0.38 0.68 C 686 363105 CircleF
LCw setrgbcolor
2.100 UP
86887 363105 CircleF
1.500 UP
2.000 UL
LT0
0.00 0.38 0.68 C 86887 363105 CircleF
LCw setrgbcolor
2.100 UP
173088 279415 CircleF
1.500 UP
2.000 UL
LT0
0.00 0.38 0.68 C 173088 279415 CircleF
LCw setrgbcolor
2.100 UP
259289 101891 CircleF
1.500 UP
2.000 UL
LT0
0.00 0.38 0.68 C 259289 101891 CircleF
LCw setrgbcolor
2.100 UP
345490 101891 CircleF
1.500 UP
2.000 UL
LT0
0.00 0.38 0.68 C 345490 101891 CircleF
LCw setrgbcolor
2.100 UP
431691 76530 CircleF
1.500 UP
2.000 UL
LT0
0.00 0.38 0.68 C 431691 76530 CircleF
LCw setrgbcolor
2.100 UP
517892 25809 CircleF
1.500 UP
2.000 UL
LT0
0.00 0.38 0.68 C 517892 25809 CircleF
LCw setrgbcolor
2.100 UP
604093 25809 CircleF
1.500 UP
2.000 UL
LT0
0.00 0.38 0.68 C 604093 25809 CircleF
LCw setrgbcolor
2.100 UP
690294 51169 CircleF
1.500 UP
2.000 UL
LT0
0.00 0.38 0.68 C 690294 51169 CircleF
LCw setrgbcolor
2.100 UP
776495 25809 CircleF
1.500 UP
2.000 UL
LT0
0.00 0.38 0.68 C 776495 25809 CircleF
LCw setrgbcolor
2.100 UP
862697 51169 CircleF
1.500 UP
2.000 UL
LT0
0.00 0.38 0.68 C 862697 51169 CircleF
LCw setrgbcolor
2.100 UP
948898 25809 CircleF
1.500 UP
2.000 UL
LT0
0.00 0.38 0.68 C 948898 25809 CircleF
LCw setrgbcolor
2.100 UP
1035099 25809 CircleF
1.500 UP
2.000 UL
LT0
0.00 0.38 0.68 C 1035099 25809 CircleF
LCw setrgbcolor
2.100 UP
1121300 25809 CircleF
1.500 UP
2.000 UL
LT0
0.00 0.38 0.68 C 1121300 25809 CircleF
LCw setrgbcolor
2.100 UP
1207501 25809 CircleF
1.500 UP
2.000 UL
LT0
0.00 0.38 0.68 C 1207501 25809 CircleF
LCw setrgbcolor
2.100 UP
1293702 25809 CircleF
1.500 UP
2.000 UL
LT0
0.00 0.38 0.68 C 1293702 25809 CircleF
LCw setrgbcolor
2.100 UP
1379903 25809 CircleF
1.500 UP
2.000 UL
LT0
0.00 0.38 0.68 C 1379903 25809 CircleF
LCw setrgbcolor
2.100 UP
1466104 25809 CircleF
1.500 UP
2.000 UL
LT0
0.00 0.38 0.68 C 1466104 25809 CircleF
LCw setrgbcolor
2.100 UP
1552305 25809 CircleF
1.500 UP
2.000 UL
LT0
0.00 0.38 0.68 C 1552305 25809 CircleF
LCw setrgbcolor
2.100 UP
1638506 25809 CircleF
1.500 UP
2.000 UL
LT0
0.00 0.38 0.68 C 1638506 25809 CircleF
LCw setrgbcolor
2.100 UP
1727641 216083 CircleF
1.500 UP
2.000 UL
LT0
0.00 0.38 0.68 C 1727641 216083 CircleF
% End plot #1
% Begin plot #2
1.500 UP
2.000 UL
LT0
1.00 0.00 0.00 C LCb setrgbcolor
1727367 215943 M
(Total # of Redirections) Rshow
LT0
1.00 0.00 0.00 C 1727451 215943 M
380 0 V
173088 78835 M
86201 39194 V
86201 39194 V
86201 39194 V
86201 39193 V
86201 0 V
86201 0 V
86201 39194 V
86202 0 V
86201 0 V
86201 0 V
86201 0 V
86201 0 V
86201 0 V
86201 0 V
86201 0 V
86201 0 V
86201 0 V
86201 0 V
stroke
LCw setrgbcolor
2.100 UP
173088 78835 CircleF
1.500 UP
2.000 UL
LT0
1.00 0.00 0.00 C 173088 78835 CircleF
LCw setrgbcolor
2.100 UP
259289 118029 CircleF
1.500 UP
2.000 UL
LT0
1.00 0.00 0.00 C 259289 118029 CircleF
LCw setrgbcolor
2.100 UP
345490 157223 CircleF
1.500 UP
2.000 UL
LT0
1.00 0.00 0.00 C 345490 157223 CircleF
LCw setrgbcolor
2.100 UP
431691 196417 CircleF
1.500 UP
2.000 UL
LT0
1.00 0.00 0.00 C 431691 196417 CircleF
LCw setrgbcolor
2.100 UP
517892 235610 CircleF
1.500 UP
2.000 UL
LT0
1.00 0.00 0.00 C 517892 235610 CircleF
LCw setrgbcolor
2.100 UP
604093 235610 CircleF
1.500 UP
2.000 UL
LT0
1.00 0.00 0.00 C 604093 235610 CircleF
LCw setrgbcolor
2.100 UP
690294 235610 CircleF
1.500 UP
2.000 UL
LT0
1.00 0.00 0.00 C 690294 235610 CircleF
LCw setrgbcolor
2.100 UP
776495 274804 CircleF
1.500 UP
2.000 UL
LT0
1.00 0.00 0.00 C 776495 274804 CircleF
LCw setrgbcolor
2.100 UP
862697 274804 CircleF
1.500 UP
2.000 UL
LT0
1.00 0.00 0.00 C 862697 274804 CircleF
LCw setrgbcolor
2.100 UP
948898 274804 CircleF
1.500 UP
2.000 UL
LT0
1.00 0.00 0.00 C 948898 274804 CircleF
LCw setrgbcolor
2.100 UP
1035099 274804 CircleF
1.500 UP
2.000 UL
LT0
1.00 0.00 0.00 C 1035099 274804 CircleF
LCw setrgbcolor
2.100 UP
1121300 274804 CircleF
1.500 UP
2.000 UL
LT0
1.00 0.00 0.00 C 1121300 274804 CircleF
LCw setrgbcolor
2.100 UP
1207501 274804 CircleF
1.500 UP
2.000 UL
LT0
1.00 0.00 0.00 C 1207501 274804 CircleF
LCw setrgbcolor
2.100 UP
1293702 274804 CircleF
1.500 UP
2.000 UL
LT0
1.00 0.00 0.00 C 1293702 274804 CircleF
LCw setrgbcolor
2.100 UP
1379903 274804 CircleF
1.500 UP
2.000 UL
LT0
1.00 0.00 0.00 C 1379903 274804 CircleF
LCw setrgbcolor
2.100 UP
1466104 274804 CircleF
1.500 UP
2.000 UL
LT0
1.00 0.00 0.00 C 1466104 274804 CircleF
LCw setrgbcolor
2.100 UP
1552305 274804 CircleF
1.500 UP
2.000 UL
LT0
1.00 0.00 0.00 C 1552305 274804 CircleF
LCw setrgbcolor
2.100 UP
1638506 274804 CircleF
1.500 UP
2.000 UL
LT0
1.00 0.00 0.00 C 1638506 274804 CircleF
LCw setrgbcolor
2.100 UP
1724707 274804 CircleF
1.500 UP
2.000 UL
LT0
1.00 0.00 0.00 C 1724707 274804 CircleF
LCw setrgbcolor
2.100 UP
1727641 215943 CircleF
1.500 UP
2.000 UL
LT0
1.00 0.00 0.00 C 1727641 215943 CircleF
% End plot #2
1.000 UL
LTb
686 431579 N
686 448 L
1724021 0 V
0 431131 V
686 431579 L
Z stroke
0.700 UP
1.000 UL
LTb
stroke
grestore
end
showpage
%%Trailer
%%DocumentFonts: Helvetica
%%Pages: 1
