63,1,"1:1::[[2, EthAddr('00:00:00:00:00:01'), EthAddr('00:00:00:00:00:04')]]"
64,2,"1:1::[[2, EthAddr('00:00:00:00:00:01'), EthAddr('00:00:00:00:00:04')]],2:1::[[3, EthAddr('00:00:00:00:00:03'), EthAddr('00:00:00:00:00:06')]]"
65,3,"1:1::[[2, EthAddr('00:00:00:00:00:01'), EthAddr('00:00:00:00:00:04')]],2:1::[[3, EthAddr('00:00:00:00:00:03'), EthAddr('00:00:00:00:00:06')]],3:1::[[1, EthAddr('00:00:00:00:00:05'), EthAddr('00:00:00:00:00:02')]]"
66,4,"1:2::[[2, EthAddr('00:00:00:00:00:01'), EthAddr('00:00:00:00:00:04')], [3, EthAddr('00:00:00:00:00:04'), EthAddr('00:00:00:00:00:05')]],2:1::[[3, EthAddr('00:00:00:00:00:03'), EthAddr('00:00:00:00:00:06')]],3:1::[[1, EthAddr('00:00:00:00:00:05'), EthAddr('00:00:00:00:00:02')]]"
67,5,"1:2::[[2, EthAddr('00:00:00:00:00:01'), EthAddr('00:00:00:00:00:04')], [3, EthAddr('00:00:00:00:00:04'), EthAddr('00:00:00:00:00:05')]],2:2::[[3, EthAddr('00:00:00:00:00:03'), EthAddr('00:00:00:00:00:06')], [1, EthAddr('00:00:00:00:00:06'), EthAddr('00:00:00:00:00:01')]],3:1::[[1, EthAddr('00:00:00:00:00:05'), EthAddr('00:00:00:00:00:02')]]"
68,5,"1:2::[[2, EthAddr('00:00:00:00:00:01'), EthAddr('00:00:00:00:00:04')], [3, EthAddr('00:00:00:00:00:04'), EthAddr('00:00:00:00:00:05')]],2:2::[[3, EthAddr('00:00:00:00:00:03'), EthAddr('00:00:00:00:00:06')], [1, EthAddr('00:00:00:00:00:06'), EthAddr('00:00:00:00:00:01')]],3:1::[[1, EthAddr('00:00:00:00:00:05'), EthAddr('00:00:00:00:00:02')]]"
69,5,"1:2::[[2, EthAddr('00:00:00:00:00:01'), EthAddr('00:00:00:00:00:04')], [3, EthAddr('00:00:00:00:00:04'), EthAddr('00:00:00:00:00:05')]],2:2::[[3, EthAddr('00:00:00:00:00:03'), EthAddr('00:00:00:00:00:06')], [1, EthAddr('00:00:00:00:00:06'), EthAddr('00:00:00:00:00:01')]],3:1::[[1, EthAddr('00:00:00:00:00:05'), EthAddr('00:00:00:00:00:02')]]"
70,6,"1:3::[[2, EthAddr('00:00:00:00:00:01'), EthAddr('00:00:00:00:00:04')], [3, EthAddr('00:00:00:00:00:04'), EthAddr('00:00:00:00:00:05')], [1, EthAddr('00:00:00:00:00:05'), EthAddr('00:00:00:00:00:03')]],2:2::[[3, EthAddr('00:00:00:00:00:03'), EthAddr('00:00:00:00:00:06')], [1, EthAddr('00:00:00:00:00:06'), EthAddr('00:00:00:00:00:01')]],3:1::[[1, EthAddr('00:00:00:00:00:05'), EthAddr('00:00:00:00:00:02')]]"
71,6,"1:3::[[2, EthAddr('00:00:00:00:00:01'), EthAddr('00:00:00:00:00:04')], [3, EthAddr('00:00:00:00:00:04'), EthAddr('00:00:00:00:00:05')], [1, EthAddr('00:00:00:00:00:05'), EthAddr('00:00:00:00:00:03')]],2:2::[[3, EthAddr('00:00:00:00:00:03'), EthAddr('00:00:00:00:00:06')], [1, EthAddr('00:00:00:00:00:06'), EthAddr('00:00:00:00:00:01')]],3:1::[[1, EthAddr('00:00:00:00:00:05'), EthAddr('00:00:00:00:00:02')]]"
72,6,"1:3::[[2, EthAddr('00:00:00:00:00:01'), EthAddr('00:00:00:00:00:04')], [3, EthAddr('00:00:00:00:00:04'), EthAddr('00:00:00:00:00:05')], [1, EthAddr('00:00:00:00:00:05'), EthAddr('00:00:00:00:00:03')]],2:2::[[3, EthAddr('00:00:00:00:00:03'), EthAddr('00:00:00:00:00:06')], [1, EthAddr('00:00:00:00:00:06'), EthAddr('00:00:00:00:00:01')]],3:1::[[1, EthAddr('00:00:00:00:00:05'), EthAddr('00:00:00:00:00:02')]]"
73,6,"1:3::[[2, EthAddr('00:00:00:00:00:01'), EthAddr('00:00:00:00:00:04')], [3, EthAddr('00:00:00:00:00:04'), EthAddr('00:00:00:00:00:05')], [1, EthAddr('00:00:00:00:00:05'), EthAddr('00:00:00:00:00:03')]],2:2::[[3, EthAddr('00:00:00:00:00:03'), EthAddr('00:00:00:00:00:06')], [1, EthAddr('00:00:00:00:00:06'), EthAddr('00:00:00:00:00:01')]],3:1::[[1, EthAddr('00:00:00:00:00:05'), EthAddr('00:00:00:00:00:02')]]"
74,6,"1:3::[[2, EthAddr('00:00:00:00:00:01'), EthAddr('00:00:00:00:00:04')], [3, EthAddr('00:00:00:00:00:04'), EthAddr('00:00:00:00:00:05')], [1, EthAddr('00:00:00:00:00:05'), EthAddr('00:00:00:00:00:03')]],2:2::[[3, EthAddr('00:00:00:00:00:03'), EthAddr('00:00:00:00:00:06')], [1, EthAddr('00:00:00:00:00:06'), EthAddr('00:00:00:00:00:01')]],3:1::[[1, EthAddr('00:00:00:00:00:05'), EthAddr('00:00:00:00:00:02')]]"
75,6,"1:3::[[2, EthAddr('00:00:00:00:00:01'), EthAddr('00:00:00:00:00:04')], [3, EthAddr('00:00:00:00:00:04'), EthAddr('00:00:00:00:00:05')], [1, EthAddr('00:00:00:00:00:05'), EthAddr('00:00:00:00:00:03')]],2:2::[[3, EthAddr('00:00:00:00:00:03'), EthAddr('00:00:00:00:00:06')], [1, EthAddr('00:00:00:00:00:06'), EthAddr('00:00:00:00:00:01')]],3:1::[[1, EthAddr('00:00:00:00:00:05'), EthAddr('00:00:00:00:00:02')]]"
76,6,"1:3::[[2, EthAddr('00:00:00:00:00:01'), EthAddr('00:00:00:00:00:04')], [3, EthAddr('00:00:00:00:00:04'), EthAddr('00:00:00:00:00:05')], [1, EthAddr('00:00:00:00:00:05'), EthAddr('00:00:00:00:00:03')]],2:2::[[3, EthAddr('00:00:00:00:00:03'), EthAddr('00:00:00:00:00:06')], [1, EthAddr('00:00:00:00:00:06'), EthAddr('00:00:00:00:00:01')]],3:1::[[1, EthAddr('00:00:00:00:00:05'), EthAddr('00:00:00:00:00:02')]]"
77,6,"1:3::[[2, EthAddr('00:00:00:00:00:01'), EthAddr('00:00:00:00:00:04')], [3, EthAddr('00:00:00:00:00:04'), EthAddr('00:00:00:00:00:05')], [1, EthAddr('00:00:00:00:00:05'), EthAddr('00:00:00:00:00:03')]],2:2::[[3, EthAddr('00:00:00:00:00:03'), EthAddr('00:00:00:00:00:06')], [1, EthAddr('00:00:00:00:00:06'), EthAddr('00:00:00:00:00:01')]],3:1::[[1, EthAddr('00:00:00:00:00:05'), EthAddr('00:00:00:00:00:02')]]"
78,6,"1:3::[[2, EthAddr('00:00:00:00:00:01'), EthAddr('00:00:00:00:00:04')], [3, EthAddr('00:00:00:00:00:04'), EthAddr('00:00:00:00:00:05')], [1, EthAddr('00:00:00:00:00:05'), EthAddr('00:00:00:00:00:03')]],2:2::[[3, EthAddr('00:00:00:00:00:03'), EthAddr('00:00:00:00:00:06')], [1, EthAddr('00:00:00:00:00:06'), EthAddr('00:00:00:00:00:01')]],3:1::[[1, EthAddr('00:00:00:00:00:05'), EthAddr('00:00:00:00:00:02')]]"
79,6,"1:3::[[2, EthAddr('00:00:00:00:00:01'), EthAddr('00:00:00:00:00:04')], [3, EthAddr('00:00:00:00:00:04'), EthAddr('00:00:00:00:00:05')], [1, EthAddr('00:00:00:00:00:05'), EthAddr('00:00:00:00:00:03')]],2:2::[[3, EthAddr('00:00:00:00:00:03'), EthAddr('00:00:00:00:00:06')], [1, EthAddr('00:00:00:00:00:06'), EthAddr('00:00:00:00:00:01')]],3:1::[[1, EthAddr('00:00:00:00:00:05'), EthAddr('00:00:00:00:00:02')]]"
80,6,"1:3::[[2, EthAddr('00:00:00:00:00:01'), EthAddr('00:00:00:00:00:04')], [3, EthAddr('00:00:00:00:00:04'), EthAddr('00:00:00:00:00:05')], [1, EthAddr('00:00:00:00:00:05'), EthAddr('00:00:00:00:00:03')]],2:2::[[3, EthAddr('00:00:00:00:00:03'), EthAddr('00:00:00:00:00:06')], [1, EthAddr('00:00:00:00:00:06'), EthAddr('00:00:00:00:00:01')]],3:1::[[1, EthAddr('00:00:00:00:00:05'), EthAddr('00:00:00:00:00:02')]]"
81,6,"1:3::[[2, EthAddr('00:00:00:00:00:01'), EthAddr('00:00:00:00:00:04')], [3, EthAddr('00:00:00:00:00:04'), EthAddr('00:00:00:00:00:05')], [1, EthAddr('00:00:00:00:00:05'), EthAddr('00:00:00:00:00:03')]],2:2::[[3, EthAddr('00:00:00:00:00:03'), EthAddr('00:00:00:00:00:06')], [1, EthAddr('00:00:00:00:00:06'), EthAddr('00:00:00:00:00:01')]],3:1::[[1, EthAddr('00:00:00:00:00:05'), EthAddr('00:00:00:00:00:02')]]"
