19,3,
20,3,
21,3,
22,3,
23,3,
24,3,
25,3,
26,3,
27,3,
28,3,
29,3,
30,3,
31,3,
32,3,
33,3,
34,3,
35,3,
36,3,
37,3,
38,3,
39,3,
40,3,
41,3,
42,3,
43,3,
44,3,
45,3,
46,3,
47,3,
48,3,
49,3,
50,3,
51,3,
52,3,
53,3,
54,3,
55,3,
56,3,
57,3,
58,3,
59,3,
60,3,
62,3,
63,3,
64,3,
65,3,
66,3,
67,3,
68,3,
69,3,
70,3,"1-1,2-1"
71,3,"1-1,2-1"
72,3,"1-1,2-1"
73,3,"1-1,2-1"
74,3,"1-1,2-1"
75,3,"1-1,2-1"
76,3,"1-1,2-1"
77,3,"1-1,2-1"
78,3,"1-1,2-1"
79,3,"1-1,2-1"
80,3,"1-1,2-1"
81,3,"1-1,2-1"
82,3,"1-1,2-1"
83,3,"1-1,2-1"
84,3,"1-1,2-1"
85,3,"1-1,2-1"
86,3,"1-1,2-1"
87,3,"1-1,2-1"
88,3,"1-1,2-1"
89,3,"1-1,2-1"
90,3,"1-1,2-1"
91,3,"1-1,2-1"
92,3,"1-1,2-1"
93,3,"1-1,2-1"
94,3,"1-1,2-1"
95,3,"1-1,2-1"
96,3,"1-1,2-1"
97,3,"1-1,2-1"
98,3,"1-1,2-1"
99,3,"1-1,2-1"
100,3,"1-1,2-1"
101,3,"1-1,2-1"
102,3,"1-1,2-1"
103,3,"1-1,2-1"
104,3,"1-1,2-1"
105,3,"1-1,2-1"
106,3,"1-1,2-1"
107,3,"1-1,2-1"
108,3,"1-1,2-1"
109,3,"1-1,2-1"
110,3,"1-1,2-1"
111,3,"1-1,2-1"
112,3,"1-1,2-1"
113,3,"1-1,2-1"
114,3,"1-1,2-1"
115,3,"1-1,2-1"
116,3,"1-1,2-1"
117,3,"1-1,2-1"
118,3,"1-1,2-1"
119,3,"1-1,2-1"
120,3,"1-1,2-1"
121,3,"1-1,2-1"
122,3,"1-1,2-1"
123,3,"1-1,2-1"
124,3,"1-1,2-1"
125,3,"1-1,2-1"
126,3,"1-1,2-1"
127,3,"1-1,2-1"
129,3,"1-1,2-1"
130,3,"1-1,2-1"
131,3,"1-1,2-1"
132,3,"1-1,2-1"
133,3,"1-1,2-1"
134,3,"1-1,2-1"
135,3,"1-1,2-1"
