-T UDP -a 10.0.0.23 -rp 10901 -b 104 -k 4 -c 1400 -d 10  -m rttm
-T UDP -a 10.0.0.23 -rp 10911 -b 200 -k 4 -c 1400 -d 20  -m rttm
-T UDP -a 10.0.0.27 -rp 10921 -b 108 -k 4 -c 1400 -d 30  -m rttm
-T UDP -a 10.0.0.27 -rp 10931 -b 92 -k 4 -c 1400 -d 40  -m rttm
-T UDP -a 10.0.0.36 -rp 10941 -b 196 -k 4 -c 1400 -d 50  -m rttm
-T UDP -a 10.0.0.36 -rp 10951 -b 8 -k 4 -c 1400 -d 60  -m rttm
-T UDP -a 10.0.0.22 -rp 10961 -b 88 -k 4 -c 1400 -d 70  -m rttm
-T UDP -a 10.0.0.22 -rp 10971 -b 36 -k 4 -c 1400 -d 80  -m rttm
-T UDP -a 10.0.0.24 -rp 10981 -b 212 -k 4 -c 1400 -d 90  -m rttm
-T UDP -a 10.0.0.24 -rp 10991 -b 48 -k 4 -c 1400 -d 100  -m rttm
-T UDP -a 10.0.0.35 -rp 11001 -b 148 -k 4 -c 1400 -d 110  -m rttm
-T UDP -a 10.0.0.35 -rp 11011 -b 108 -k 4 -c 1400 -d 120  -m rttm
-T UDP -a 10.0.0.31 -rp 11021 -b 240 -k 4 -c 1400 -d 130  -m rttm
-T UDP -a 10.0.0.31 -rp 11031 -b 64 -k 4 -c 1400 -d 140  -m rttm
-T UDP -a 10.0.0.26 -rp 11041 -b 168 -k 4 -c 1400 -d 150  -m rttm
-T UDP -a 10.0.0.26 -rp 11051 -b 132 -k 4 -c 1400 -d 160  -m rttm
-T UDP -a 10.0.0.34 -rp 11061 -b 136 -k 4 -c 1400 -d 170  -m rttm
-T UDP -a 10.0.0.34 -rp 11071 -b 60 -k 4 -c 1400 -d 180  -m rttm
-T UDP -a 10.0.0.32 -rp 11081 -b 200 -k 4 -c 1400 -d 190  -m rttm
-T UDP -a 10.0.0.32 -rp 11091 -b 56 -k 4 -c 1400 -d 200  -m rttm
-T UDP -a 10.0.0.33 -rp 11101 -b 164 -k 4 -c 1400 -d 210  -m rttm
-T UDP -a 10.0.0.33 -rp 11111 -b 168 -k 4 -c 1400 -d 220  -m rttm
-T UDP -a 10.0.0.28 -rp 11121 -b 120 -k 4 -c 1400 -d 230  -m rttm
-T UDP -a 10.0.0.28 -rp 11131 -b 152 -k 4 -c 1400 -d 240  -m rttm
-T UDP -a 10.0.0.21 -rp 11141 -b 224 -k 4 -c 1400 -d 250  -m rttm
-T UDP -a 10.0.0.21 -rp 11151 -b 104 -k 4 -c 1400 -d 260  -m rttm
-T UDP -a 10.0.0.29 -rp 11161 -b 136 -k 4 -c 1400 -d 270  -m rttm
-T UDP -a 10.0.0.29 -rp 11171 -b 56 -k 4 -c 1400 -d 280  -m rttm
-T UDP -a 10.0.0.30 -rp 11181 -b 104 -k 4 -c 1400 -d 290  -m rttm
-T UDP -a 10.0.0.30 -rp 11191 -b 160 -k 4 -c 1400 -d 300  -m rttm
