-T UDP -a 10.0.32.1 -rp 13601 -b 188 -k 4 -c 1400 -d 10  -m rttm
-T UDP -a 10.0.32.1 -rp 13611 -b 212 -k 4 -c 1400 -d 20  -m rttm
-T UDP -a 10.0.26.1 -rp 13621 -b 124 -k 4 -c 1400 -d 30  -m rttm
-T UDP -a 10.0.26.1 -rp 13631 -b 252 -k 4 -c 1400 -d 40  -m rttm
-T UDP -a 10.0.35.1 -rp 13641 -b 172 -k 4 -c 1400 -d 50  -m rttm
-T UDP -a 10.0.35.1 -rp 13651 -b 72 -k 4 -c 1400 -d 60  -m rttm
-T UDP -a 10.0.29.1 -rp 13661 -b 176 -k 4 -c 1400 -d 70  -m rttm
-T UDP -a 10.0.29.1 -rp 13671 -b 104 -k 4 -c 1400 -d 80  -m rttm
-T UDP -a 10.0.24.1 -rp 13681 -b 24 -k 4 -c 1400 -d 90  -m rttm
-T UDP -a 10.0.24.1 -rp 13691 -b 56 -k 4 -c 1400 -d 100  -m rttm
-T UDP -a 10.0.36.1 -rp 13701 -b 32 -k 4 -c 1400 -d 110  -m rttm
-T UDP -a 10.0.36.1 -rp 13711 -b 36 -k 4 -c 1400 -d 120  -m rttm
-T UDP -a 10.0.22.1 -rp 13721 -b 164 -k 4 -c 1400 -d 130  -m rttm
-T UDP -a 10.0.22.1 -rp 13731 -b 80 -k 4 -c 1400 -d 140  -m rttm
-T UDP -a 10.0.21.1 -rp 13741 -b 36 -k 4 -c 1400 -d 150  -m rttm
-T UDP -a 10.0.21.1 -rp 13751 -b 192 -k 4 -c 1400 -d 160  -m rttm
-T UDP -a 10.0.27.1 -rp 13761 -b 244 -k 4 -c 1400 -d 170  -m rttm
-T UDP -a 10.0.27.1 -rp 13771 -b 52 -k 4 -c 1400 -d 180  -m rttm
-T UDP -a 10.0.25.1 -rp 13781 -b 12 -k 4 -c 1400 -d 190  -m rttm
-T UDP -a 10.0.25.1 -rp 13791 -b 28 -k 4 -c 1400 -d 200  -m rttm
-T UDP -a 10.0.30.1 -rp 13801 -b 120 -k 4 -c 1400 -d 210  -m rttm
-T UDP -a 10.0.30.1 -rp 13811 -b 204 -k 4 -c 1400 -d 220  -m rttm
-T UDP -a 10.0.31.1 -rp 13821 -b 108 -k 4 -c 1400 -d 230  -m rttm
-T UDP -a 10.0.31.1 -rp 13831 -b 60 -k 4 -c 1400 -d 240  -m rttm
-T UDP -a 10.0.23.1 -rp 13841 -b 236 -k 4 -c 1400 -d 250  -m rttm
-T UDP -a 10.0.23.1 -rp 13851 -b 40 -k 4 -c 1400 -d 260  -m rttm
-T UDP -a 10.0.33.1 -rp 13861 -b 96 -k 4 -c 1400 -d 270  -m rttm
-T UDP -a 10.0.33.1 -rp 13871 -b 100 -k 4 -c 1400 -d 280  -m rttm
-T UDP -a 10.0.34.1 -rp 13881 -b 192 -k 4 -c 1400 -d 290  -m rttm
-T UDP -a 10.0.34.1 -rp 13891 -b 8 -k 4 -c 1400 -d 300  -m rttm
