-T UDP -a 10.0.25.1 -rp 13001 -b 56 -k 4 -c 1400 -d 10  -m rttm
-T UDP -a 10.0.25.1 -rp 13011 -b 244 -k 4 -c 1400 -d 20  -m rttm
-T UDP -a 10.0.26.1 -rp 13021 -b 120 -k 4 -c 1400 -d 30  -m rttm
-T UDP -a 10.0.26.1 -rp 13031 -b 132 -k 4 -c 1400 -d 40  -m rttm
-T UDP -a 10.0.24.1 -rp 13041 -b 160 -k 4 -c 1400 -d 50  -m rttm
-T UDP -a 10.0.24.1 -rp 13051 -b 40 -k 4 -c 1400 -d 60  -m rttm
-T UDP -a 10.0.35.1 -rp 13061 -b 132 -k 4 -c 1400 -d 70  -m rttm
-T UDP -a 10.0.35.1 -rp 13071 -b 252 -k 4 -c 1400 -d 80  -m rttm
-T UDP -a 10.0.30.1 -rp 13081 -b 212 -k 4 -c 1400 -d 90  -m rttm
-T UDP -a 10.0.30.1 -rp 13091 -b 4 -k 4 -c 1400 -d 100  -m rttm
-T UDP -a 10.0.29.1 -rp 13101 -b 108 -k 4 -c 1400 -d 110  -m rttm
-T UDP -a 10.0.29.1 -rp 13111 -b 220 -k 4 -c 1400 -d 120  -m rttm
-T UDP -a 10.0.21.1 -rp 13121 -b 176 -k 4 -c 1400 -d 130  -m rttm
-T UDP -a 10.0.21.1 -rp 13131 -b 184 -k 4 -c 1400 -d 140  -m rttm
-T UDP -a 10.0.33.1 -rp 13141 -b 144 -k 4 -c 1400 -d 150  -m rttm
-T UDP -a 10.0.33.1 -rp 13151 -b 84 -k 4 -c 1400 -d 160  -m rttm
-T UDP -a 10.0.27.1 -rp 13161 -b 144 -k 4 -c 1400 -d 170  -m rttm
-T UDP -a 10.0.27.1 -rp 13171 -b 112 -k 4 -c 1400 -d 180  -m rttm
-T UDP -a 10.0.36.1 -rp 13181 -b 92 -k 4 -c 1400 -d 190  -m rttm
-T UDP -a 10.0.36.1 -rp 13191 -b 128 -k 4 -c 1400 -d 200  -m rttm
-T UDP -a 10.0.23.1 -rp 13201 -b 232 -k 4 -c 1400 -d 210  -m rttm
-T UDP -a 10.0.23.1 -rp 13211 -b 172 -k 4 -c 1400 -d 220  -m rttm
-T UDP -a 10.0.34.1 -rp 13221 -b 100 -k 4 -c 1400 -d 230  -m rttm
-T UDP -a 10.0.34.1 -rp 13231 -b 148 -k 4 -c 1400 -d 240  -m rttm
-T UDP -a 10.0.32.1 -rp 13241 -b 240 -k 4 -c 1400 -d 250  -m rttm
-T UDP -a 10.0.32.1 -rp 13251 -b 200 -k 4 -c 1400 -d 260  -m rttm
-T UDP -a 10.0.28.1 -rp 13261 -b 24 -k 4 -c 1400 -d 270  -m rttm
-T UDP -a 10.0.28.1 -rp 13271 -b 152 -k 4 -c 1400 -d 280  -m rttm
-T UDP -a 10.0.31.1 -rp 13281 -b 212 -k 4 -c 1400 -d 290  -m rttm
-T UDP -a 10.0.31.1 -rp 13291 -b 180 -k 4 -c 1400 -d 300  -m rttm
