Number of Multiplexed Flows per NF,CFS,Batch,RR,CFS-BKPR,BATCH-BKPR,RR-BKPR
1,0.52,0.67,0.39,0.75,0.78,0.93
2,0.64,0.8,0.03,0.77,0.84,0.82
3,0.71,0.81,0.4,0.93,0.93,0.88
4,0.62,0.72,0.84,0.75,0.89,0.96
5,0.71,0.83,0.46,0.78,0.92,0.8
6,0.71,0.82,0.59,0.92,1.05,0.94
