TX h6-eth0: 0 kB/s RX h6-eth0: 57 kB/s
TX h6-eth0: 0 kB/s RX h6-eth0: 57 kB/s
TX h6-eth0: 0 kB/s RX h6-eth0: 58 kB/s
TX h6-eth0: 0 kB/s RX h6-eth0: 57 kB/s
TX h6-eth0: 0 kB/s RX h6-eth0: 58 kB/s
TX h6-eth0: 0 kB/s RX h6-eth0: 58 kB/s
TX h6-eth0: 0 kB/s RX h6-eth0: 57 kB/s
TX h6-eth0: 0 kB/s RX h6-eth0: 56 kB/s
TX h6-eth0: 0 kB/s RX h6-eth0: 56 kB/s
TX h6-eth0: 0 kB/s RX h6-eth0: 57 kB/s
TX h6-eth0: 0 kB/s RX h6-eth0: 57 kB/s
