-T UDP -a 10.0.23.1 -rp 10901 -b 104 -k 10240 -c 1400 -d 10 -m rttm
-T UDP -a 10.0.23.1 -rp 10911 -b 200 -k 10240 -c 1400 -d 20 -m rttm
-T UDP -a 10.0.27.1 -rp 10921 -b 108 -k 10240 -c 1400 -d 30 -m rttm
-T UDP -a 10.0.27.1 -rp 10931 -b 92 -k 10240 -c 1400 -d 40 -m rttm
-T UDP -a 10.0.36.1 -rp 10941 -b 196 -k 10240 -c 1400 -d 50 -m rttm
-T UDP -a 10.0.36.1 -rp 10951 -b 8 -k 10240 -c 1400 -d 60 -m rttm
-T UDP -a 10.0.22.1 -rp 10961 -b 88 -k 10240 -c 1400 -d 70 -m rttm
-T UDP -a 10.0.22.1 -rp 10971 -b 36 -k 10240 -c 1400 -d 80 -m rttm
-T UDP -a 10.0.24.1 -rp 10981 -b 212 -k 10240 -c 1400 -d 90 -m rttm
-T UDP -a 10.0.24.1 -rp 10991 -b 48 -k 10240 -c 1400 -d 100 -m rttm
-T UDP -a 10.0.35.1 -rp 11001 -b 148 -k 10240 -c 1400 -d 110 -m rttm
-T UDP -a 10.0.35.1 -rp 11011 -b 108 -k 10240 -c 1400 -d 120 -m rttm
-T UDP -a 10.0.31.1 -rp 11021 -b 240 -k 10240 -c 1400 -d 130 -m rttm
-T UDP -a 10.0.31.1 -rp 11031 -b 64 -k 10240 -c 1400 -d 140 -m rttm
-T UDP -a 10.0.26.1 -rp 11041 -b 168 -k 10240 -c 1400 -d 150 -m rttm
-T UDP -a 10.0.26.1 -rp 11051 -b 132 -k 10240 -c 1400 -d 160 -m rttm
