Number of. Flows,CFS,Batch,RR/FIFO,CFS-BKPR,Batch-BKPR,RR/FIFO-BKPR
1,1.49,1.67,1.18,2.31,2.32,2.3
2,0.2,0.2,0.01,1.58,1.93,1.63
3,0.98,0.98,0.02,3.77,3.77,3.77
4,0.49,0.68,0.004,3.06,3.27,2.79
5,0.49,0.69,0.01,1.59,1.92,1.78
6,0.98,0.98,0.03,3.76,3.77,3.76
