1457624169,4,"2-3,3-2,8-1,17-1,7-1"
1457624174,4,"2-3,3-2,7-2,8-2,17-2"
1457624179,4,"7-4,2-3,8-3,3-3,17-2"
1457624184,4,"7-5,2-4,8-3,3-3,17-2,5-1"
1457624189,4,"7-5,2-4,8-3,3-3,17-2,5-2"
1457624194,4,"7-5,2-4,17-4,8-3,3-3,5-2,20-2"
1457624199,4,"7-7,2-4,17-4,8-4,3-3,5-2,20-2"
1457624204,4,"7-7,2-5,17-4,8-3,3-2,5-2,20-2"
1457624209,4,"7-6,2-5,17-3,3-3,8-2,5-2,20-2"
1457624214,4,"7-6,2-5,17-3,3-3,8-2,5-2,20-2"
1457624219,4,"7-7,2-5,17-3,3-3,8-2,20-2,5-1"
1457624224,4,"7-6,2-5,3-3,17-2,8-2,20-2,5-1"
1457624229,4,"7-8,2-5,3-5,8-3,17-2,20-2,5-1"
1457624234,4,"7-8,3-7,2-5,8-3,17-2,20-1,5-1"
1457624239,4,"7-8,3-7,2-4,8-3,17-1,20-1,5-1"
1457624244,4,"7-7,3-7,2-5,8-2,17-1,20-1,5-1"
1457624249,4,"3-6,7-6,2-3,8-2,17-1,20-1,5-1"
1457624254,4,"7-5,3-4,2-3,8-1,17-1,20-1,5-1"
1457624259,4,"7-6,3-3,2-2,8-1,17-1,20-1,5-1,12-1"
1457624264,4,"7-7,3-2,2-2,8-1,17-1,20-1,5-1,12-1"
1457624269,4,"7-7,8-3,2-2,3-2,17-1,20-1,5-1,12-1"
1457624274,4,"7-6,8-3,2-2,3-1,17-1,20-1,5-1,12-1"
1457624279,4,"7-3,8-3,2-1,3-1,17-1,20-1,5-1,12-1"
1457624284,4,"7-3,8-3,2-1,3-1,17-1,20-1,5-1,12-1"
1457624289,4,"8-2,7-1,2-1,3-1,17-1,20-1,5-1,12-1"
1457624294,4,"8-2,7-1,2-1,3-1,17-1,20-1,5-1,12-1"
1457624300,4,"8-1,7-1,2-1,3-1,17-1,20-1,5-1,12-1"
1457624305,4,"8-1,7-1,2-1,3-1,17-1,20-1,5-1,12-1"
1457624310,4,"8-1,7-1,2-1,3-1,17-1,20-1,5-1,12-1"
1457624315,4,"8-1,7-1,2-1,3-1,17-1,20-1,5-1,12-1"
1457624320,4,"8-1,7-1,2-1,3-1,17-1,20-1,5-1,12-1"
1457624325,4,"8-1,7-1,2-1,3-1,17-1,20-1,5-1,12-1"
1457624330,4,"8-1,7-1,2-1,3-1,17-1,20-1,5-1,12-1"
1457624335,4,"8-1,7-1,2-1,3-1,17-1,20-1,5-1,12-1"
1457624340,4,"8-1,7-1,2-1,3-1,17-1,20-1,5-1,12-1"
1457624345,4,"8-1,7-1,2-1,3-1,17-1,20-1,5-1,12-1"
1457624350,4,"8-1,7-1,2-1,3-1,17-1,20-1,5-1,12-1"
1457624355,4,"8-1,7-1,2-1,3-1,17-1,20-1,5-1,12-1"
1457624360,4,"8-1,7-1,2-1,3-1,17-1,20-1,5-1,12-1"
1457624365,4,"8-1,7-1,2-1,3-1,17-1,20-1,5-1,12-1"
1457624370,4,"8-1,7-1,2-1,3-1,17-1,20-1,5-1,12-1"
1457624375,4,"8-1,7-1,2-1,3-1,17-1,20-1,5-1,12-1"
1457624380,4,"8-1,7-1,2-1,3-1,17-1,20-1,5-1,12-1"
1457624385,4,"8-1,7-1,2-1,3-1,17-1,20-1,5-1,12-1"
1457624390,4,"8-1,7-1,2-1,3-1,17-1,20-1,5-1,12-1"
1457624395,4,"8-1,7-1,2-1,3-1,17-1,20-1,5-1,12-1"
1457624400,4,"8-1,7-1,2-1,3-1,17-1,20-1,5-1,12-1"
1457624405,4,"8-1,7-1,2-1,3-1,17-1,20-1,5-1,12-1"
1457624410,4,"8-1,7-1,2-1,3-1,17-1,20-1,5-1,12-1"
1457624415,4,"8-1,7-1,2-1,3-1,17-1,20-1,5-1,12-1"
1457624420,4,"8-1,7-1,2-1,3-1,17-1,20-1,5-1,12-1"
1457624425,4,"8-1,7-1,2-1,3-1,17-1,20-1,5-1,12-1"
1457624430,4,"8-1,7-1,2-1,3-1,17-1,20-1,5-1,12-1"
1457624435,4,"8-1,7-1,2-1,3-1,17-1,20-1,5-1,12-1"
1457624440,4,"8-1,7-1,2-1,3-1,17-1,20-1,5-1,12-1"
1457624445,4,"8-1,7-1,2-1,3-1,17-1,20-1,5-1,12-1"
1457624450,4,"8-1,7-1,2-1,3-1,17-1,20-1,5-1,12-1"
1457624455,4,"8-1,7-1,2-1,3-1,17-1,20-1,5-1,12-1"
1457624460,4,"8-1,7-1,2-1,3-1,17-1,20-1,5-1,12-1"
1457624465,4,"8-1,7-1,2-1,3-1,17-1,20-1,5-1,12-1"
1457624470,4,"8-1,7-1,2-1,3-1,17-1,20-1,5-1,12-1"
1457624475,4,"8-1,7-1,2-1,3-1,17-1,20-1,5-1,12-1"
1457624480,4,"8-1,7-1,2-1,3-1,17-1,20-1,5-1,12-1"
1457624485,4,"8-1,7-1,2-1,3-1,17-1,20-1,5-1,12-1"
1457624490,4,"8-1,7-1,2-1,3-1,17-1,20-1,5-1,12-1"
1457624495,4,"8-1,7-1,2-1,3-1,17-1,20-1,5-1,12-1"
1457624500,4,"8-1,7-1,2-1,3-1,17-1,20-1,5-1,12-1"
1457624505,4,"8-1,7-1,2-1,3-1,17-1,20-1,5-1,12-1"
1457624510,4,"8-1,7-1,2-1,3-1,17-1,20-1,5-1,12-1"
1457624515,4,"8-1,7-1,2-1,3-1,17-1,20-1,5-1,12-1"
1457624520,4,"8-1,7-1,2-1,3-1,17-1,20-1,5-1,12-1"
1457624525,4,"8-1,7-1,2-1,3-1,17-1,20-1,5-1,12-1"
1457624530,4,"8-1,7-1,2-1,3-1,17-1,20-1,5-1,12-1"
1457624535,4,"8-1,7-1,2-1,3-1,17-1,20-1,5-1,12-1"
1457624540,4,"8-1,7-1,2-1,3-1,17-1,20-1,5-1,12-1"
1457624545,4,"8-1,7-1,2-1,3-1,17-1,20-1,5-1,12-1"
1457624550,4,"8-1,7-1,2-1,3-1,17-1,20-1,5-1,12-1"
1457624555,4,"8-1,7-1,2-1,3-1,17-1,20-1,5-1,12-1"
1457624560,4,"8-1,7-1,2-1,3-1,17-1,20-1,5-1,12-1"
1457624565,4,"8-1,7-1,2-1,3-1,17-1,20-1,5-1,12-1"
1457624570,4,"8-1,7-1,2-1,3-1,17-1,20-1,5-1,12-1"
1457624575,4,"8-1,7-1,2-1,3-1,17-1,20-1,5-1,12-1"
1457624580,4,"8-1,7-1,2-1,3-1,17-1,20-1,5-1,12-1"
1457624585,4,"8-1,7-1,2-1,3-1,17-1,20-1,5-1,12-1"
1457624590,4,"8-1,7-1,2-1,3-1,17-1,20-1,5-1,12-1"
1457624595,4,"8-1,7-1,2-1,3-1,17-1,20-1,5-1,12-1"
1457624600,4,"8-1,7-1,2-1,3-1,17-1,20-1,5-1,12-1"
1457624605,4,"8-1,7-1,2-1,3-1,17-1,20-1,5-1,12-1"
1457624610,4,"8-1,7-1,2-1,3-1,17-1,20-1,5-1,12-1"
1457624615,4,"8-1,7-1,2-1,3-1,17-1,20-1,5-1,12-1"
1457624620,4,"8-1,7-1,2-1,3-1,17-1,20-1,5-1,12-1"
1457624625,4,"8-1,7-1,2-1,3-1,17-1,20-1,5-1,12-1"
1457624630,4,"8-1,7-1,2-1,3-1,17-1,20-1,5-1,12-1"
1457624635,4,"8-1,7-1,2-1,3-1,17-1,20-1,5-1,12-1"
1457624640,4,"8-1,7-1,2-1,3-1,17-1,20-1,5-1,12-1"
1457624645,4,"8-1,7-1,2-1,3-1,17-1,20-1,5-1,12-1"
1457624651,4,"8-1,7-1,2-1,3-1,17-1,20-1,5-1,12-1"
1457624656,4,"8-1,7-1,2-1,3-1,17-1,20-1,5-1,12-1"
1457624661,4,"8-1,7-1,2-1,3-1,17-1,20-1,5-1,12-1"
1457624666,4,"8-1,7-1,2-1,3-1,17-1,20-1,5-1,12-1"
1457624671,4,"8-1,7-1,2-1,3-1,17-1,20-1,5-1,12-1"
1457624676,4,"8-1,7-1,2-1,3-1,17-1,20-1,5-1,12-1"
1457624681,4,"8-1,7-1,2-1,3-1,17-1,20-1,5-1,12-1"
1457624686,4,"8-1,7-1,2-1,3-1,17-1,20-1,5-1,12-1"
1457624691,4,"8-1,7-1,2-1,3-1,17-1,20-1,5-1,12-1"
1457624696,4,"8-1,7-1,2-1,3-1,17-1,20-1,5-1,12-1"
1457624701,4,"8-1,7-1,2-1,3-1,17-1,20-1,5-1,12-1"
1457624706,4,"8-1,7-1,2-1,3-1,17-1,20-1,5-1,12-1"
1457624711,4,"8-1,7-1,2-1,3-1,17-1,20-1,5-1,12-1"
1457624716,4,"8-1,7-1,2-1,3-1,17-1,20-1,5-1,12-1"
1457624721,4,"8-1,7-1,2-1,3-1,17-1,20-1,5-1,12-1"
1457624726,4,"8-1,7-1,2-1,3-1,17-1,20-1,5-1,12-1"
1457624731,4,"8-1,7-1,2-1,3-1,17-1,20-1,5-1,12-1"
1457624736,4,"8-1,7-1,2-1,3-1,17-1,20-1,5-1,12-1"
1457624741,4,"8-1,7-1,2-1,3-1,17-1,20-1,5-1,12-1"
1457624746,4,"8-1,7-1,2-1,3-1,17-1,20-1,5-1,12-1"
1457624751,4,"8-1,7-1,2-1,3-1,17-1,20-1,5-1,12-1"
1457624756,4,"8-1,7-1,2-1,3-1,17-1,20-1,5-1,12-1"
1457624761,4,"8-1,7-1,2-1,3-1,17-1,20-1,5-1,12-1"
1457624766,4,"8-1,7-1,2-1,3-1,17-1,20-1,5-1,12-1"
1457624771,4,"8-1,7-1,2-1,3-1,17-1,20-1,5-1,12-1"
1457624776,4,"8-1,7-1,2-1,3-1,17-1,20-1,5-1,12-1"
1457624781,4,"8-1,7-1,2-1,3-1,17-1,20-1,5-1,12-1"
1457624786,4,"8-1,7-1,2-1,3-1,17-1,20-1,5-1,12-1"
1457624791,4,"8-1,7-1,2-1,3-1,17-1,20-1,5-1,12-1"
1457624796,4,"8-1,7-1,2-1,3-1,17-1,20-1,5-1,12-1"
1457624801,4,"8-1,7-1,2-1,3-1,17-1,20-1,5-1,12-1"
1457624806,4,"8-1,7-1,2-1,3-1,17-1,20-1,5-1,12-1"
1457624811,4,"8-1,7-1,2-1,3-1,17-1,20-1,5-1,12-1"
1457624816,4,"8-1,7-1,2-1,3-1,17-1,20-1,5-1,12-1"
1457624821,4,"8-1,7-1,2-1,3-1,17-1,20-1,5-1,12-1"
1457624826,4,"8-1,7-1,2-1,3-1,17-1,20-1,5-1,12-1"
1457624831,4,"8-1,7-1,2-1,3-1,17-1,20-1,5-1,12-1"
1457624836,4,"8-1,7-1,2-1,3-1,17-1,20-1,5-1,12-1"
1457624841,4,"8-1,7-1,2-1,3-1,17-1,20-1,5-1,12-1"
1457624846,4,"8-1,7-1,2-1,3-1,17-1,20-1,5-1,12-1"
1457624851,4,"8-1,7-1,2-1,3-1,17-1,20-1,5-1,12-1"
1457624856,4,"8-1,7-1,2-1,3-1,17-1,20-1,5-1,12-1"
1457624861,4,"8-1,7-1,2-1,3-1,17-1,20-1,5-1,12-1"
1457624866,4,"8-1,7-1,2-1,3-1,17-1,20-1,5-1,12-1"
1457624871,4,"8-1,7-1,2-1,3-1,17-1,20-1,5-1,12-1"
1457624876,4,"8-1,7-1,2-1,3-1,17-1,20-1,5-1,12-1"
1457624881,4,"8-1,7-1,2-1,3-1,17-1,20-1,5-1,12-1"
1457624886,4,"8-1,7-1,2-1,3-1,17-1,20-1,5-1,12-1"
1457624891,4,"8-1,7-1,2-1,3-1,17-1,20-1,5-1,12-1"
1457624896,4,"8-1,7-1,2-1,3-1,17-1,20-1,5-1,12-1"
1457624901,4,"8-1,7-1,2-1,3-1,17-1,20-1,5-1,12-1"
1457624906,4,"8-1,7-1,2-1,3-1,17-1,20-1,5-1,12-1"
1457624911,4,"8-1,7-1,2-1,3-1,17-1,20-1,5-1,12-1"
1457624916,4,"8-1,7-1,2-1,3-1,17-1,20-1,5-1,12-1"
1457624921,4,"8-1,7-1,2-1,3-1,17-1,20-1,5-1,12-1"
1457624926,4,"8-1,7-1,2-1,3-1,17-1,20-1,5-1,12-1"
1457624931,4,"8-1,7-1,2-1,3-1,17-1,20-1,5-1,12-1"
1457624936,4,"8-1,7-1,2-1,3-1,17-1,20-1,5-1,12-1"
1457624941,4,"8-1,7-1,2-1,3-1,17-1,20-1,5-1,12-1"
1457624946,4,"8-1,7-1,2-1,3-1,17-1,20-1,5-1,12-1"
1457624951,4,"8-1,7-1,2-1,3-1,17-1,20-1,5-1,12-1"
1457624956,4,"8-1,7-1,2-1,3-1,17-1,20-1,5-1,12-1"
1457624961,4,"8-1,7-1,2-1,3-1,17-1,20-1,5-1,12-1"
1457624966,4,"8-1,7-1,2-1,3-1,17-1,20-1,5-1,12-1"
1457624971,4,"8-1,7-1,2-1,3-1,17-1,20-1,5-1,12-1"
1457624976,4,"8-1,7-1,2-1,3-1,17-1,20-1,5-1,12-1"
1457624981,4,"8-1,7-1,2-1,3-1,17-1,20-1,5-1,12-1"
1457624986,4,"8-1,7-1,2-1,3-1,17-1,20-1,5-1,12-1"
1457624991,4,"8-1,7-1,2-1,3-1,17-1,20-1,5-1,12-1"
1457624996,4,"8-1,7-1,2-1,3-1,17-1,20-1,5-1,12-1"
1457625001,4,"8-1,7-1,2-1,3-1,17-1,20-1,5-1,12-1"
1457625006,4,"8-1,7-1,2-1,3-1,17-1,20-1,5-1,12-1"
1457625012,4,"8-1,7-1,2-1,3-1,17-1,20-1,5-1,12-1"
1457625017,4,"8-1,7-1,2-1,3-1,17-1,20-1,5-1,12-1"
1457625022,4,"8-1,7-1,2-1,3-1,17-1,20-1,5-1,12-1"
1457625027,4,"8-1,7-1,2-1,3-1,17-1,20-1,5-1,12-1"
1457625032,4,"8-1,7-1,2-1,3-1,17-1,20-1,5-1,12-1"
1457625037,4,"8-1,7-1,2-1,3-1,17-1,20-1,5-1,12-1"
1457625042,4,"8-1,7-1,2-1,3-1,17-1,20-1,5-1,12-1"
1457625047,4,"8-1,7-1,2-1,3-1,17-1,20-1,5-1,12-1"
1457625052,4,"8-1,7-1,2-1,3-1,17-1,20-1,5-1,12-1"
1457625057,4,"8-1,7-1,2-1,3-1,17-1,20-1,5-1,12-1"
1457625062,4,"8-1,7-1,2-1,3-1,17-1,20-1,5-1,12-1"
1457625067,4,"8-1,7-1,2-1,3-1,17-1,20-1,5-1,12-1"
1457625072,4,"8-1,7-1,2-1,3-1,17-1,20-1,5-1,12-1"
1457625077,4,"8-1,7-1,2-1,3-1,17-1,20-1,5-1,12-1"
1457625082,4,"8-1,7-1,2-1,3-1,17-1,20-1,5-1,12-1"
1457625087,4,"8-1,7-1,2-1,3-1,17-1,20-1,5-1,12-1"
1457625092,4,"8-1,7-1,2-1,3-1,17-1,20-1,5-1,12-1"
1457625097,4,"8-1,7-1,2-1,3-1,17-1,20-1,5-1,12-1"
1457625102,4,"8-1,7-1,2-1,3-1,17-1,20-1,5-1,12-1"
1457625107,4,"8-1,7-1,2-1,3-1,17-1,20-1,5-1,12-1"
1457625112,4,"8-1,7-1,2-1,3-1,17-1,20-1,5-1,12-1"
1457625117,4,"8-1,7-1,2-1,3-1,17-1,20-1,5-1,12-1"
1457625122,4,"8-1,7-1,2-1,3-1,17-1,20-1,5-1,12-1"
1457625127,4,"8-1,7-1,2-1,3-1,17-1,20-1,5-1,12-1"
1457625132,4,"8-1,7-1,2-1,3-1,17-1,20-1,5-1,12-1"
1457625137,4,"8-1,7-1,2-1,3-1,17-1,20-1,5-1,12-1"
1457625142,4,"8-1,7-1,2-1,3-1,17-1,20-1,5-1,12-1"
1457625147,4,"8-1,7-1,2-1,3-1,17-1,20-1,5-1,12-1"
1457625152,4,"8-1,7-1,2-1,3-1,17-1,20-1,5-1,12-1"
1457625157,4,"8-1,7-1,2-1,3-1,17-1,20-1,5-1,12-1"
1457625162,4,"8-1,7-1,2-1,3-1,17-1,20-1,5-1,12-1"
1457625167,4,"8-1,7-1,2-1,3-1,17-1,20-1,5-1,12-1"
1457625172,4,"8-1,7-1,2-1,3-1,17-1,20-1,5-1,12-1"
1457625177,4,"8-1,7-1,2-1,3-1,17-1,20-1,5-1,12-1"
1457625182,4,"8-1,7-1,2-1,3-1,17-1,20-1,5-1,12-1"
1457625187,4,"8-1,7-1,2-1,3-1,17-1,20-1,5-1,12-1"
1457625192,4,"8-1,7-1,2-1,3-1,17-1,20-1,5-1,12-1"
1457625197,4,"8-1,7-1,2-1,3-1,17-1,20-1,5-1,12-1"
1457625202,4,"8-1,7-1,2-1,3-1,17-1,20-1,5-1,12-1"
1457625207,4,"8-1,7-1,2-1,3-1,17-1,20-1,5-1,12-1"
1457625212,4,"8-1,7-1,2-1,3-1,17-1,20-1,5-1,12-1"
1457625217,4,"8-1,7-1,2-1,3-1,17-1,20-1,5-1,12-1"
1457625222,4,"8-1,7-1,2-1,3-1,17-1,20-1,5-1,12-1"
1457625227,4,"8-1,7-1,2-1,3-1,17-1,20-1,5-1,12-1"
1457625232,4,"8-1,7-1,2-1,3-1,17-1,20-1,5-1,12-1"
1457625237,4,"8-1,7-1,2-1,3-1,17-1,20-1,5-1,12-1"
1457625242,4,"8-1,7-1,2-1,3-1,17-1,20-1,5-1,12-1"
1457625247,4,"8-1,7-1,2-1,3-1,17-1,20-1,5-1,12-1"
1457625252,4,"8-1,7-1,2-1,3-1,17-1,20-1,5-1,12-1"
1457625257,4,"8-1,7-1,2-1,3-1,17-1,20-1,5-1,12-1"
1457625262,4,"8-1,7-1,2-1,3-1,17-1,20-1,5-1,12-1"
1457625267,4,"8-1,7-1,2-1,3-1,17-1,20-1,5-1,12-1"
1457625272,4,"8-1,7-1,2-1,3-1,17-1,20-1,5-1,12-1"
1457625277,4,"8-1,7-1,2-1,3-1,17-1,20-1,5-1,12-1"
1457625282,4,"8-1,7-1,2-1,3-1,17-1,20-1,5-1,12-1"
1457625287,4,"8-1,7-1,2-1,3-1,17-1,20-1,5-1,12-1"
