28,1,
30,1,
32,1,
34,1,
36,1,
38,1,
40,1,
42,1,
44,1,
46,1,
48,1,
50,1,
52,1,
54,1,
56,1,
58,1,
60,1,
62,1,
64,1,
66,1,
68,1,
70,1,2-1
72,1,2-1
74,1,2-1
76,1,"2-1,3-1"
78,1,"2-1,3-1"
80,1,"2-1,3-1"
82,1,"2-1,3-1,1-1"
84,1,"2-1,3-1,1-1"
87,1,"2-1,3-1,1-1"
89,1,"2-1,3-1,1-1"
91,1,"2-1,3-1,1-1"
93,1,"2-1,3-1,1-1"
95,1,"2-1,3-1,1-1"
97,1,"2-1,3-1,1-1"
99,1,"2-1,3-1,1-1"
101,1,"2-1,3-1,1-1"
103,1,"2-1,3-1,1-1"
105,1,"2-1,3-1,1-1"
107,1,"2-1,3-1,1-1"
109,1,"2-1,3-1,1-1"
111,1,"2-1,3-1,1-1"
113,1,"2-1,3-1,1-1"
115,1,"2-1,3-1,1-1"
117,1,"2-1,3-1,1-1"
119,1,"2-1,3-1,1-1"
121,1,"2-1,3-1,1-1"
123,1,"2-1,3-1,1-1"
125,1,"2-1,3-1,1-1"
127,1,"2-1,3-1,1-1"
129,1,"2-1,3-1,1-1"
131,1,"2-1,3-1,1-1"
133,1,"2-1,3-1,1-1"
135,1,"2-1,3-1,1-1"
137,1,"2-1,3-1,1-1"
139,1,"2-1,3-1,1-1"
141,1,"2-1,3-1,1-1"
