0,0,0,
1,0,0,
2,0,0,
3,0,0,
4,0,0,
5,0,0,
6,0,0,
7,0,0,
8,0,0,
9,0,0,
10,0,0,
11,0,0,
12,0,0,
13,0,0,
14,0,0,
15,0,0,
16,0,0,
17,0,0,
18,0,0,
19,0,0,
20,0,0,
21,0,0,
22,0,0,
23,0,0,
24,0,0,
25,0,0,
26,0,0,
27,0,0,
28,0,0,
29,0,0,
30,0,0,
31,0,0,
32,0,0,
33,0,0,
34,0,0,
35,0,0,
36,0,0,
37,0,0,
38,0,0,
39,0,0,
41,0,0,
42,0,0,
43,0,0,
44,0,0,
45,0,0,
46,0,0,
47,0,0,
48,0,0,
49,0,0,
50,0,0,
51,3.40576922771,1,1:3.40576922771
52,2.6302469866,1,1:2.6302469866
53,0,0,
54,0,0,
55,0,0,
56,0,0,
57,0,0,
58,0,0,
59,0,0,
60,0,0,
61,0,0,
62,4.03336724615,1,1:4.03336724615
63,3.63070853788,1,1:3.63070853788
64,4.82064720975,1,1:4.82064720975
65,4.2078740449,1,1:4.2078740449
66,3.97073214661,1,1:3.97073214661
67,5.30653984531,1,1:5.30653984531
68,5.34252858456,1,1:5.34252858456
69,4.98243393699,1,1:4.98243393699
70,5.13322482422,1,1:5.13322482422
71,5.29894316269,1,1:5.29894316269
72,5.32308476339,1,1:5.32308476339
73,5.14896413294,1,1:5.14896413294
74,5.13547710318,1,1:5.13547710318
75,5.12610683941,1,1:5.12610683941
76,4.83876237808,1,1:4.83876237808
77,4.95513791062,1,1:4.95513791062
79,5.20755235578,1,1:5.20755235578
80,3.69759817572,1,1:3.69759817572
81,0,0,
82,0,0,
83,0,0,
84,0,0,
85,0,0,
86,0,0,
87,0,0,
88,0,0,
89,0,0,
90,0,0,
91,0,0,
92,0,0,
93,0,0,
94,0,0,
95,0,0,
96,0,0,
97,0,0,
98,0,0,
99,0,0,
100,0,0,
101,0,0,
102,0,0,
103,0,0,
104,0,0,
105,0,0,
106,0,0,
107,0,0,
108,0,0,
109,0,0,
110,0,0,
111,0,0,
112,0,0,
113,0,0,
114,0,0,
115,0,0,
116,0,0,
117,0,0,
118,0,0,
119,0,0,
