28,2,00:00:00:00:00:03-0
30,2,00:00:00:00:00:03-0
32,2,00:00:00:00:00:03-0
34,2,00:00:00:00:00:03-0
36,2,00:00:00:00:00:03-0
38,2,00:00:00:00:00:03-0
40,2,00:00:00:00:00:03-0
42,2,00:00:00:00:00:03-0
44,2,00:00:00:00:00:03-0
46,2,00:00:00:00:00:03-0
48,2,00:00:00:00:00:03-0
50,2,00:00:00:00:00:03-0
52,2,00:00:00:00:00:03-0
54,2,00:00:00:00:00:03-0
56,2,00:00:00:00:00:03-0
58,2,00:00:00:00:00:03-0
60,2,00:00:00:00:00:03-0
62,2,00:00:00:00:00:03-0
64,2,00:00:00:00:00:03-0
66,2,00:00:00:00:00:03-0
68,2,00:00:00:00:00:03-7
70,2,00:00:00:00:00:03-7
72,2,00:00:00:00:00:03-7
74,2,00:00:00:00:00:06-7
76,2,00:00:00:00:00:06-16
78,2,00:00:00:00:00:06-16
80,2,00:00:00:00:00:01-7
82,2,00:00:00:00:00:01-7
84,2,00:00:00:00:00:01-7
87,2,00:00:00:00:00:01-7
89,2,00:00:00:00:00:01-7
91,2,00:00:00:00:00:01-7
93,2,00:00:00:00:00:01-7
95,2,00:00:00:00:00:01-7
97,2,00:00:00:00:00:01-7
99,2,00:00:00:00:00:01-7
101,2,00:00:00:00:00:01-7
103,2,00:00:00:00:00:01-7
105,2,00:00:00:00:00:01-0
107,2,00:00:00:00:00:01-0
109,2,00:00:00:00:00:01-0
111,2,00:00:00:00:00:01-0
113,2,00:00:00:00:00:01-0
115,2,00:00:00:00:00:01-0
117,2,00:00:00:00:00:01-0
119,2,00:00:00:00:00:01-0
121,2,00:00:00:00:00:01-0
123,2,00:00:00:00:00:01-0
125,2,00:00:00:00:00:01-0
127,2,00:00:00:00:00:01-0
129,2,00:00:00:00:00:01-0
131,2,00:00:00:00:00:01-0
133,2,00:00:00:00:00:01-0
135,2,00:00:00:00:00:01-0
137,2,00:00:00:00:00:01-0
139,2,00:00:00:00:00:01-0
141,2,00:00:00:00:00:01-0
