28,1,00:00:00:00:00:01-0
30,1,00:00:00:00:00:01-0
32,1,00:00:00:00:00:01-0
34,1,00:00:00:00:00:01-0
36,1,00:00:00:00:00:01-0
38,1,00:00:00:00:00:01-0
40,1,00:00:00:00:00:01-0
42,1,00:00:00:00:00:01-0
44,1,00:00:00:00:00:01-0
46,1,00:00:00:00:00:01-0
48,1,00:00:00:00:00:01-0
50,1,00:00:00:00:00:01-0
52,1,00:00:00:00:00:01-0
54,1,00:00:00:00:00:01-0
56,1,00:00:00:00:00:01-0
58,1,00:00:00:00:00:01-0
60,1,00:00:00:00:00:01-0
62,1,00:00:00:00:00:01-0
64,1,00:00:00:00:00:01-0
66,1,00:00:00:00:00:01-0
68,1,00:00:00:00:00:01-7
70,1,00:00:00:00:00:01-7
72,1,00:00:00:00:00:04-7
74,1,00:00:00:00:00:04-16
76,1,00:00:00:00:00:04-16
78,1,00:00:00:00:00:05-7
80,1,00:00:00:00:00:05-16
82,1,00:00:00:00:00:03-7
84,1,00:00:00:00:00:06-7
87,1,00:00:00:00:00:06-7
89,1,00:00:00:00:00:06-0
91,1,00:00:00:00:00:06-0
93,1,00:00:00:00:00:06-0
95,1,00:00:00:00:00:06-0
97,1,00:00:00:00:00:06-0
99,1,00:00:00:00:00:06-0
101,1,00:00:00:00:00:06-0
103,1,00:00:00:00:00:06-0
105,1,00:00:00:00:00:06-0
107,1,00:00:00:00:00:06-0
109,1,00:00:00:00:00:06-0
111,1,00:00:00:00:00:06-0
113,1,00:00:00:00:00:06-0
115,1,00:00:00:00:00:06-0
117,1,00:00:00:00:00:06-0
119,1,00:00:00:00:00:06-0
121,1,00:00:00:00:00:06-0
123,1,00:00:00:00:00:06-0
125,1,00:00:00:00:00:06-0
127,1,00:00:00:00:00:06-0
129,1,00:00:00:00:00:06-0
131,1,00:00:00:00:00:06-0
133,1,00:00:00:00:00:06-0
135,1,00:00:00:00:00:06-0
137,1,00:00:00:00:00:06-0
139,1,00:00:00:00:00:06-0
141,1,00:00:00:00:00:06-0
