-T UDP -a 10.0.25.1 -rp 13001 -b 56 -k 4 -c 1400 -d 10  -m rttm
-T UDP -a 10.0.25.1 -rp 13011 -b 244 -k 4 -c 1400 -d 20  -m rttm
-T UDP -a 10.0.26.1 -rp 13021 -b 120 -k 4 -c 1400 -d 30  -m rttm
-T UDP -a 10.0.26.1 -rp 13031 -b 132 -k 4 -c 1400 -d 40  -m rttm
