-T UDP -a 10.0.0.28 -rp 10161 -b 180 -k 1610 -c 520 -d 5 
-T UDP -a 10.0.0.26 -rp 10171 -b 196 -k 2430 -c 510 -d 10 
-T UDP -a 10.0.0.24 -rp 10181 -b 84 -k 3200 -c 880 -d 15 
-T UDP -a 10.0.0.31 -rp 10191 -b 224 -k 2450 -c 830 -d 20 
