-T UDP -a 10.0.0.25 -rp 10281 -b 68 -k 510 -c 320 -d 5 
-T UDP -a 10.0.0.21 -rp 10291 -b 248 -k 3580 -c 890 -d 10 
-T UDP -a 10.0.0.24 -rp 10301 -b 220 -k 3610 -c 990 -d 15 
-T UDP -a 10.0.0.31 -rp 10311 -b 208 -k 1530 -c 390 -d 20 
