-T UDP -a 10.0.0.34 -rp 10121 -b 180 -k 1300 -c 670 -d 5 
-T UDP -a 10.0.0.21 -rp 10131 -b 184 -k 3130 -c 500 -d 10 
-T UDP -a 10.0.0.31 -rp 10141 -b 8 -k 1900 -c 750 -d 15 
-T UDP -a 10.0.0.23 -rp 10151 -b 216 -k 3120 -c 970 -d 20 
