WARNING:openflow.discovery_sk:Link [00-00-00-00-00-01.5 -> 00-00-00-00-00-02.3] Added! 
WARNING:forwarding.l2_multi_sk:Learned SRC0 00:00:00:00:00:01 at 00-00-00-00-00-01.1
WARNING:forwarding.l2_multi_sk:Learned SRC0 00:00:00:00:00:04 at 00-00-00-00-00-02.2
WARNING:forwarding.l2_multi_sk:Learned SRC0 00:00:00:00:00:09 at 00-00-00-00-00-03.3
WARNING:forwarding.l2_multi_sk:Learned SRC0 00:00:00:00:00:02 at 00-00-00-00-00-01.2
WARNING:forwarding.l2_multi_sk:Learned SRC0 00:00:00:00:00:03 at 00-00-00-00-00-02.1
WARNING:forwarding.l2_multi_sk:Learned SRC0 00:00:00:00:00:06 at 00-00-00-00-00-03.2
WARNING:forwarding.l2_multi_sk:Learned SRC0 00:00:00:00:00:08 at 00-00-00-00-00-01.4
WARNING:forwarding.l2_multi_sk:Learned SRC0 00:00:00:00:00:07 at 00-00-00-00-00-01.3
WARNING:forwarding.l2_multi_sk:Learned SRC0 00:00:00:00:00:05 at 00-00-00-00-00-03.1
WARNING:forwarding.l2_multi_sk:Learned SRC0 00:00:00:00:00:10 at 00-00-00-00-00-03.4
WARNING:openflow.discovery_sk:Link [00-00-00-00-00-03.5 -> 00-00-00-00-00-02.4] Added! 
WARNING:openflow.discovery_sk:Link [00-00-00-00-00-02.4 -> 00-00-00-00-00-03.5] Added! 
WARNING:openflow.discovery_sk:Link [00-00-00-00-00-02.3 -> 00-00-00-00-00-01.5] Added! 
WARNING:openflow.discovery_sk:<addto_svcdict> New Service:0 Detected at:00:00:00:00:00:02, 10.0.0.2, 1-2
WARNING:openflow.discovery_sk:<addto_svcdict> Existing Service:0 Detected at 00:00:00:00:00:04, 10.0.0.4, 2-2
WARNING:openflow.discovery_sk:<addto_svcdict> Existing Service:0 Detected at 00:00:00:00:00:06, 10.0.0.6, 3-2
WARNING:openflow.discovery_sk:<addto_svcdict> New Service:1 Detected at:00:00:00:00:00:01, 10.0.0.1, 1-1
WARNING:openflow.discovery_sk:<addto_svcdict> New Service:2 Detected at:00:00:00:00:00:03, 10.0.0.3, 2-1
WARNING:openflow.discovery_sk:<addto_svcdict> New Service:3 Detected at:00:00:00:00:00:05, 10.0.0.5, 3-1
WARNING:openflow.discovery_sk:Link [00-00-00-00-00-03.1 -> 00-00-00-00-00-02.1] Added! 
WARNING:forwarding.l2_multi_sk:skip Unlearned 00:00:00:00:00:05
WARNING:openflow.discovery_sk:Link [00-00-00-00-00-02.1 -> 00-00-00-00-00-01.2] Added! 
WARNING:forwarding.l2_multi_sk:skip Unlearned 00:00:00:00:00:02
WARNING:forwarding.l2_multi_sk:SYN:1, ACK:1, FIN:0 RST:0
WARNING:forwarding.l2_multi_sk:Installing UDP/TCP[6] Path for Service[3] VID[83] -->[[(00-00-00-00-00-01, 3, 5), (00-00-00-00-00-02, 3, 4), (00-00-00-00-00-03, 5, 1)]]
WARNING:forwarding.l2_multi_sk:Flow already in flow table! skip processing
WARNING:forwarding.l2_multi_sk:Flow already in flow table! skip processing
WARNING:forwarding.l2_multi_sk:Flow already in flow table! skip processing
WARNING:forwarding.l2_multi_sk:Flow already in flow table! skip processing
WARNING:forwarding.l2_multi_sk:Installing UDP/TCP[6] Path for Service[2] VID[50] -->[[(00-00-00-00-00-03, 1, 5), (00-00-00-00-00-02, 4, 1)]]
WARNING:forwarding.l2_multi_sk:Installing UDP/TCP[6] Path for Service[1] VID[17] -->[[(00-00-00-00-00-02, 1, 3), (00-00-00-00-00-01, 5, 1)]]
WARNING:forwarding.l2_multi_sk:At:[1462310427.86] Installing Path to End Destination with SVC_CHAIN[3] -->[[(00-00-00-00-00-01, 1, 5), (00-00-00-00-00-02, 3, 4), (00-00-00-00-00-03, 5, 3)]]
WARNING:openflow.discovery_sk:Trying to instantiate [1] instances for Service[1], svc_loc_info_list[[[0, '00:00:00:00:00:04', '10.0.0.4', 2, 2]]]
WARNING:openflow.discovery_sk:New Instance [[0, '00:00:00:00:00:04', '10.0.0.4', 2, 2]] instantiated for existing Service:[1]
WARNING:openflow.discovery_sk:Popped from svc_dict[0]the Item[[0, '00:00:00:00:00:04', '10.0.0.4', 2, 2]] for key[1] 
WARNING:forwarding.l2_multi_sk:ReDirecting path for Service[1] for IP[10.0.0.7] from [00:00:00:00:00:01] to [00:00:00:00:00:04]
WARNING:forwarding.l2_multi_sk:Installing UDP/TCP[6] Path for Service[1] VID[65] -->[[(00-00-00-00-00-02, 1, 2)]]
WARNING:openflow.discovery_sk:bringdown_service_instace_for_svc([1:[0, '00:00:00:00:00:01', '10.0.0.1', 1, 1]]):completed!
WARNING:forwarding.l2_multi_sk:Skipped processing the Explicitly Deleted rule on sw_dpid[2]
WARNING:forwarding.l2_multi_sk:Flow already in flow table! skip processing
WARNING:forwarding.l2_multi_sk:At:[1462310429.24] Installing Path to End Destination with SVC_CHAIN[3] -->[[(00-00-00-00-00-02, 2, 4), (00-00-00-00-00-03, 5, 3)]]
WARNING:forwarding.l2_multi_sk:Flow already in flow table! skip processing
WARNING:forwarding.l2_multi_sk:Flow already in flow table! skip processing
WARNING:forwarding.l2_multi_sk:Flow already in flow table! skip processing
WARNING:forwarding.l2_multi_sk:Flow already in flow table! skip processing
WARNING:forwarding.l2_multi_sk:Flow already in flow table! skip processing
WARNING:forwarding.l2_multi_sk:Flow already in flow table! skip processing
WARNING:openflow.discovery_sk:Trying to instantiate [1] instances for Service[2], svc_loc_info_list[[[0, '00:00:00:00:00:06', '10.0.0.6', 3, 2]]]
WARNING:openflow.discovery_sk:New Instance [[0, '00:00:00:00:00:06', '10.0.0.6', 3, 2]] instantiated for existing Service:[2]
WARNING:openflow.discovery_sk:Popped from svc_dict[0]the Item[[0, '00:00:00:00:00:06', '10.0.0.6', 3, 2]] for key[2] 
WARNING:forwarding.l2_multi_sk:ReDirecting path for Service[2] for IP[10.0.0.7] from [00:00:00:00:00:03] to [00:00:00:00:00:06]
WARNING:forwarding.l2_multi_sk:Installing UDP/TCP[6] Path for Service[2] VID[98] -->[[(00-00-00-00-00-03, 1, 2)]]
WARNING:openflow.discovery_sk:bringdown_service_instace_for_svc([2:[0, '00:00:00:00:00:03', '10.0.0.3', 2, 1]]):completed!
WARNING:forwarding.l2_multi_sk:Skipped processing the Explicitly Deleted rule on sw_dpid[3]
WARNING:forwarding.l2_multi_sk:Flow already in flow table! skip processing
WARNING:forwarding.l2_multi_sk:Flow already in flow table! skip processing
WARNING:forwarding.l2_multi_sk:Flow already in flow table! skip processing
WARNING:forwarding.l2_multi_sk:Flow already in flow table! skip processing
WARNING:forwarding.l2_multi_sk:Flow already in flow table! skip processing
WARNING:forwarding.l2_multi_sk:Installing UDP/TCP[6] Path for Service[1] VID[65] -->[[(00-00-00-00-00-03, 2, 5), (00-00-00-00-00-02, 4, 2)]]
WARNING:forwarding.l2_multi_sk:Flow already in flow table! skip processing
WARNING:openflow.discovery_sk:Trying to instantiate [1] instances for Service[3], svc_loc_info_list[[[0, '00:00:00:00:00:02', '10.0.0.2', 1, 2]]]
WARNING:openflow.discovery_sk:New Instance [[0, '00:00:00:00:00:02', '10.0.0.2', 1, 2]] instantiated for existing Service:[3]
WARNING:openflow.discovery_sk:Popped from svc_dict[0]the Item[[0, '00:00:00:00:00:02', '10.0.0.2', 1, 2]] for key[3] 
WARNING:forwarding.l2_multi_sk:ReDirecting path for Service[3] for IP[10.0.0.7] from [00:00:00:00:00:05] to [00:00:00:00:00:02]
WARNING:forwarding.l2_multi_sk:Installing UDP/TCP[6] Path for Service[3] VID[35] -->[[(00-00-00-00-00-01, 3, 2)]]
WARNING:openflow.discovery_sk:bringdown_service_instace_for_svc([3:[0, '00:00:00:00:00:05', '10.0.0.5', 3, 1]]):completed!
WARNING:forwarding.l2_multi_sk:Skipped processing the Explicitly Deleted rule on sw_dpid[1]
WARNING:forwarding.l2_multi_sk:Flow already in flow table! skip processing
WARNING:forwarding.l2_multi_sk:Flow already in flow table! skip processing
WARNING:forwarding.l2_multi_sk:Flow already in flow table! skip processing
WARNING:forwarding.l2_multi_sk:Flow already in flow table! skip processing
WARNING:forwarding.l2_multi_sk:Flow already in flow table! skip processing
WARNING:forwarding.l2_multi_sk:Flow already in flow table! skip processing
WARNING:forwarding.l2_multi_sk:Flow already in flow table! skip processing
WARNING:forwarding.l2_multi_sk:Flow already in flow table! skip processing
WARNING:forwarding.l2_multi_sk:Installing UDP/TCP[6] Path for Service[2] VID[98] -->[[(00-00-00-00-00-01, 2, 5), (00-00-00-00-00-02, 3, 4), (00-00-00-00-00-03, 5, 2)]]
WARNING:openflow.discovery_sk:Trying to instantiate [1] instances for Service[1], svc_loc_info_list[[[0, '00:00:00:00:00:05', '10.0.0.5', 3, 1]]]
WARNING:openflow.discovery_sk:New Instance [[0, '00:00:00:00:00:05', '10.0.0.5', 3, 1]] instantiated for existing Service:[1]
WARNING:openflow.discovery_sk:Popped from svc_dict[0]the Item[[0, '00:00:00:00:00:05', '10.0.0.5', 3, 1]] for key[1] 
WARNING:forwarding.l2_multi_sk:ReDirecting path for Service[1] for IP[10.0.0.7] from [00:00:00:00:00:04] to [00:00:00:00:00:05]
WARNING:forwarding.l2_multi_sk:Installing UDP/TCP[6] Path for Service[1] VID[81] -->[[(00-00-00-00-00-02, 1, 4), (00-00-00-00-00-03, 5, 1)]]
WARNING:openflow.discovery_sk:bringdown_service_instace_for_svc([1:[0, '00:00:00:00:00:04', '10.0.0.4', 2, 2]]):completed!
WARNING:forwarding.l2_multi_sk:Skipped processing the Explicitly Deleted rule on sw_dpid[2]
WARNING:openflow.discovery_sk:Trying to instantiate [1] instances for Service[1], svc_loc_info_list[[[0, '00:00:00:00:00:03', '10.0.0.3', 2, 1]]]
WARNING:openflow.discovery_sk:New Instance [[0, '00:00:00:00:00:03', '10.0.0.3', 2, 1]] instantiated for existing Service:[1]
WARNING:openflow.discovery_sk:Popped from svc_dict[0]the Item[[0, '00:00:00:00:00:03', '10.0.0.3', 2, 1]] for key[1] 
WARNING:forwarding.l2_multi_sk:ReDirecting path for Service[1] for IP[10.0.0.7] from [00:00:00:00:00:05] to [00:00:00:00:00:03]
WARNING:forwarding.l2_multi_sk:Installing UDP/TCP[6] Path for Service[1] VID[49] -->[[(00-00-00-00-00-02, 1, 1)]]
WARNING:openflow.discovery_sk:bringdown_service_instace_for_svc([1:[0, '00:00:00:00:00:05', '10.0.0.5', 3, 1]]):completed!
WARNING:forwarding.l2_multi_sk:Skipped processing the Explicitly Deleted rule on sw_dpid[2]
WARNING:openflow.discovery_sk:Trying to instantiate [1] instances for Service[2], svc_loc_info_list[[[0, '00:00:00:00:00:01', '10.0.0.1', 1, 1]]]
WARNING:openflow.discovery_sk:New Instance [[0, '00:00:00:00:00:01', '10.0.0.1', 1, 1]] instantiated for existing Service:[2]
WARNING:openflow.discovery_sk:Popped from svc_dict[0]the Item[[0, '00:00:00:00:00:01', '10.0.0.1', 1, 1]] for key[2] 
WARNING:forwarding.l2_multi_sk:ReDirecting path for Service[2] for IP[10.0.0.7] from [00:00:00:00:00:06] to [00:00:00:00:00:01]
WARNING:forwarding.l2_multi_sk:Installing UDP/TCP[6] Path for Service[2] VID[18] -->[[(00-00-00-00-00-03, 1, 5), (00-00-00-00-00-02, 4, 3), (00-00-00-00-00-01, 5, 1)]]
WARNING:openflow.discovery_sk:bringdown_service_instace_for_svc([2:[0, '00:00:00:00:00:06', '10.0.0.6', 3, 2]]):completed!
WARNING:forwarding.l2_multi_sk:Skipped processing the Explicitly Deleted rule on sw_dpid[3]
WARNING:openflow.discovery_sk:Trying to instantiate [1] instances for Service[2], svc_loc_info_list[[[0, '00:00:00:00:00:05', '10.0.0.5', 3, 1]]]
WARNING:openflow.discovery_sk:New Instance [[0, '00:00:00:00:00:05', '10.0.0.5', 3, 1]] instantiated for existing Service:[2]
WARNING:openflow.discovery_sk:Popped from svc_dict[0]the Item[[0, '00:00:00:00:00:05', '10.0.0.5', 3, 1]] for key[2] 
WARNING:forwarding.l2_multi_sk:ReDirecting path for Service[2] for IP[10.0.0.7] from [00:00:00:00:00:01] to [00:00:00:00:00:05]
WARNING:forwarding.l2_multi_sk:Installing UDP/TCP[6] Path for Service[2] VID[82] -->[[(00-00-00-00-00-03, 1, 1)]]
WARNING:openflow.discovery_sk:bringdown_service_instace_for_svc([2:[0, '00:00:00:00:00:01', '10.0.0.1', 1, 1]]):completed!
WARNING:forwarding.l2_multi_sk:Skipped processing the Explicitly Deleted rule on sw_dpid[3]
WARNING:openflow.discovery_sk: Record Not found for Mac_Addr_2(Wrong):00:00:00:00:00:04, svc_id: 1, value:0
WARNING:openflow.discovery_sk: Record Not found for Mac_Addr_2(Wrong):00:00:00:00:00:06, svc_id: 2, value:0
WARNING:forwarding.l2_multi_sk:Could not retrieve path for the removed flow at sw[1]< perhaps due to redirection case> 
WARNING:forwarding.l2_multi_sk:Could not retrieve path for the removed flow at sw[1]< perhaps due to redirection case> 
WARNING:forwarding.l2_multi_sk:Could not retrieve path for the removed flow at sw[2]< perhaps due to redirection case> 
WARNING:forwarding.l2_multi_sk:Could not retrieve path for the removed flow at sw[3]< perhaps due to redirection case> 
WARNING:openflow.discovery_sk:Link [00-00-00-00-00-01.5 -> 00-00-00-00-00-02.3] Removed! 
WARNING:openflow.discovery_sk:Link [00-00-00-00-00-02.3 -> 00-00-00-00-00-01.5] Removed! 
ERROR:forwarding.l2_multi_sk:Switch Disconnect [00-00-00-00-00-01 1]
WARNING:openflow.discovery_sk:Link [00-00-00-00-00-03.5 -> 00-00-00-00-00-02.4] Removed! 
WARNING:openflow.discovery_sk:Link [00-00-00-00-00-02.4 -> 00-00-00-00-00-03.5] Removed! 
ERROR:forwarding.l2_multi_sk:Switch Disconnect [00-00-00-00-00-03 2]
ERROR:forwarding.l2_multi_sk:Switch Disconnect [00-00-00-00-00-02 3]
