9,3,0
10,3,0
11,3,0
12,3,0
13,3,0
14,3,0
15,3,0
16,3,0
17,3,0
18,3,0
19,3,0
20,3,0
21,3,0
22,3,0
23,3,0
24,3,0
25,3,0
26,3,0
27,3,0
28,3,0
29,3,0
30,3,0
31,3,0
32,3,0
33,3,0
34,3,0
35,3,0
36,3,0
37,3,0
38,3,0
39,3,0
40,3,0
41,3,0
42,3,0
43,3,0
44,3,0
45,3,0
46,3,0
47,3,0
48,3,0
49,3,0
50,3,0
51,3,0
52,3,0
53,3,0
54,3,0
55,3,0
56,3,0
57,3,00:00:00:00:00:05-1
59,3,00:00:00:00:00:05-1
60,3,00:00:00:00:00:05-1
61,3,00:00:00:00:00:05-1
62,3,00:00:00:00:00:02-1
63,3,00:00:00:00:00:02-1
64,3,00:00:00:00:00:02-1
65,3,00:00:00:00:00:02-1
66,3,00:00:00:00:00:02-1
67,3,00:00:00:00:00:02-1
68,3,00:00:00:00:00:02-1
69,3,00:00:00:00:00:02-1
70,3,00:00:00:00:00:02-1
71,3,00:00:00:00:00:02-1
72,3,00:00:00:00:00:02-1
73,3,00:00:00:00:00:02-1
74,3,00:00:00:00:00:02-1
75,3,00:00:00:00:00:02-1
76,3,00:00:00:00:00:02-1
77,3,00:00:00:00:00:02-1
78,3,00:00:00:00:00:02-1
79,3,00:00:00:00:00:02-1
80,3,00:00:00:00:00:02-1
81,3,00:00:00:00:00:02-1
82,3,00:00:00:00:00:02-1
83,3,00:00:00:00:00:02-1
84,3,00:00:00:00:00:02-1
85,3,00:00:00:00:00:02-1
86,3,00:00:00:00:00:02-1
87,3,00:00:00:00:00:02-1
88,3,00:00:00:00:00:02-1
89,3,00:00:00:00:00:02-1
90,3,00:00:00:00:00:02-1
91,3,00:00:00:00:00:02-1
92,3,00:00:00:00:00:02-1
93,3,00:00:00:00:00:02-1
94,3,00:00:00:00:00:02-1
95,3,00:00:00:00:00:02-1
96,3,00:00:00:00:00:02-1
97,3,00:00:00:00:00:02-1
98,3,00:00:00:00:00:02-1
99,3,00:00:00:00:00:02-1
100,3,00:00:00:00:00:02-1
101,3,00:00:00:00:00:02-1
102,3,00:00:00:00:00:02-1
103,3,00:00:00:00:00:02-1
104,3,00:00:00:00:00:02-1
105,3,00:00:00:00:00:02-1
106,3,00:00:00:00:00:02-1
107,3,00:00:00:00:00:02-1
108,3,00:00:00:00:00:02-1
109,3,00:00:00:00:00:02-1
110,3,00:00:00:00:00:02-1
111,3,00:00:00:00:00:02-1
112,3,00:00:00:00:00:02-1
113,3,00:00:00:00:00:02-1
115,3,00:00:00:00:00:02-1
116,3,00:00:00:00:00:02-1
117,3,00:00:00:00:00:02-1
118,3,00:00:00:00:00:02-1
119,3,00:00:00:00:00:02-1
120,3,00:00:00:00:00:02-1
121,3,00:00:00:00:00:02-1
122,3,00:00:00:00:00:02-1
123,3,00:00:00:00:00:02-1
124,3,00:00:00:00:00:02-1
125,3,00:00:00:00:00:02-1
