-T UDP -a 10.0.24.1 -rp 10601 -b 92 -k 4 -c 1400 -d 10 
-T UDP -a 10.0.24.1 -rp 10611 -b 192 -k 4 -c 1400 -d 20 
-T UDP -a 10.0.36.1 -rp 10621 -b 136 -k 4 -c 1400 -d 30 
-T UDP -a 10.0.36.1 -rp 10631 -b 116 -k 4 -c 1400 -d 40 
-T UDP -a 10.0.35.1 -rp 10641 -b 84 -k 4 -c 1400 -d 50 
-T UDP -a 10.0.35.1 -rp 10651 -b 136 -k 4 -c 1400 -d 60 
-T UDP -a 10.0.30.1 -rp 10661 -b 36 -k 4 -c 1400 -d 70 
-T UDP -a 10.0.30.1 -rp 10671 -b 48 -k 4 -c 1400 -d 80 
-T UDP -a 10.0.22.1 -rp 10681 -b 132 -k 4 -c 1400 -d 90 
-T UDP -a 10.0.22.1 -rp 10691 -b 156 -k 4 -c 1400 -d 100 
-T UDP -a 10.0.25.1 -rp 10701 -b 168 -k 4 -c 1400 -d 110 
-T UDP -a 10.0.25.1 -rp 10711 -b 48 -k 4 -c 1400 -d 120 
-T UDP -a 10.0.32.1 -rp 10721 -b 132 -k 4 -c 1400 -d 130 
-T UDP -a 10.0.32.1 -rp 10731 -b 88 -k 4 -c 1400 -d 140 
-T UDP -a 10.0.34.1 -rp 10741 -b 192 -k 4 -c 1400 -d 150 
-T UDP -a 10.0.34.1 -rp 10751 -b 212 -k 4 -c 1400 -d 160 
-T UDP -a 10.0.27.1 -rp 10761 -b 152 -k 4 -c 1400 -d 170 
-T UDP -a 10.0.27.1 -rp 10771 -b 236 -k 4 -c 1400 -d 180 
-T UDP -a 10.0.31.1 -rp 10781 -b 92 -k 4 -c 1400 -d 190 
-T UDP -a 10.0.31.1 -rp 10791 -b 184 -k 4 -c 1400 -d 200 
-T UDP -a 10.0.21.1 -rp 10801 -b 236 -k 4 -c 1400 -d 210 
-T UDP -a 10.0.21.1 -rp 10811 -b 20 -k 4 -c 1400 -d 220 
-T UDP -a 10.0.23.1 -rp 10821 -b 220 -k 4 -c 1400 -d 230 
-T UDP -a 10.0.23.1 -rp 10831 -b 108 -k 4 -c 1400 -d 240 
-T UDP -a 10.0.26.1 -rp 10841 -b 132 -k 4 -c 1400 -d 250 
-T UDP -a 10.0.26.1 -rp 10851 -b 236 -k 4 -c 1400 -d 260 
-T UDP -a 10.0.28.1 -rp 10861 -b 216 -k 4 -c 1400 -d 270 
-T UDP -a 10.0.28.1 -rp 10871 -b 244 -k 4 -c 1400 -d 280 
-T UDP -a 10.0.29.1 -rp 10881 -b 8 -k 4 -c 1400 -d 290 
-T UDP -a 10.0.29.1 -rp 10891 -b 236 -k 4 -c 1400 -d 300 
