-T UDP -a 10.0.0.28 -rp 10301 -b 40 -k 4 -c 1400 -d 10 
-T UDP -a 10.0.0.28 -rp 10311 -b 68 -k 4 -c 1400 -d 20 
-T UDP -a 10.0.0.36 -rp 10321 -b 36 -k 4 -c 1400 -d 30 
-T UDP -a 10.0.0.36 -rp 10331 -b 212 -k 4 -c 1400 -d 40 
-T UDP -a 10.0.0.34 -rp 10341 -b 140 -k 4 -c 1400 -d 50 
-T UDP -a 10.0.0.34 -rp 10351 -b 192 -k 4 -c 1400 -d 60 
-T UDP -a 10.0.0.25 -rp 10361 -b 124 -k 4 -c 1400 -d 70 
-T UDP -a 10.0.0.25 -rp 10371 -b 168 -k 4 -c 1400 -d 80 
-T UDP -a 10.0.0.33 -rp 10381 -b 228 -k 4 -c 1400 -d 90 
-T UDP -a 10.0.0.33 -rp 10391 -b 64 -k 4 -c 1400 -d 100 
-T UDP -a 10.0.0.31 -rp 10401 -b 224 -k 4 -c 1400 -d 110 
-T UDP -a 10.0.0.31 -rp 10411 -b 36 -k 4 -c 1400 -d 120 
-T UDP -a 10.0.0.27 -rp 10421 -b 160 -k 4 -c 1400 -d 130 
-T UDP -a 10.0.0.27 -rp 10431 -b 252 -k 4 -c 1400 -d 140 
-T UDP -a 10.0.0.35 -rp 10441 -b 36 -k 4 -c 1400 -d 150 
-T UDP -a 10.0.0.35 -rp 10451 -b 236 -k 4 -c 1400 -d 160 
-T UDP -a 10.0.0.32 -rp 10461 -b 28 -k 4 -c 1400 -d 170 
-T UDP -a 10.0.0.32 -rp 10471 -b 196 -k 4 -c 1400 -d 180 
-T UDP -a 10.0.0.21 -rp 10481 -b 88 -k 4 -c 1400 -d 190 
-T UDP -a 10.0.0.21 -rp 10491 -b 172 -k 4 -c 1400 -d 200 
-T UDP -a 10.0.0.24 -rp 10501 -b 40 -k 4 -c 1400 -d 210 
-T UDP -a 10.0.0.24 -rp 10511 -b 80 -k 4 -c 1400 -d 220 
-T UDP -a 10.0.0.22 -rp 10521 -b 168 -k 4 -c 1400 -d 230 
-T UDP -a 10.0.0.22 -rp 10531 -b 104 -k 4 -c 1400 -d 240 
-T UDP -a 10.0.0.26 -rp 10541 -b 116 -k 4 -c 1400 -d 250 
-T UDP -a 10.0.0.26 -rp 10551 -b 16 -k 4 -c 1400 -d 260 
-T UDP -a 10.0.0.23 -rp 10561 -b 204 -k 4 -c 1400 -d 270 
-T UDP -a 10.0.0.23 -rp 10571 -b 44 -k 4 -c 1400 -d 280 
-T UDP -a 10.0.0.30 -rp 10581 -b 204 -k 4 -c 1400 -d 290 
-T UDP -a 10.0.0.30 -rp 10591 -b 180 -k 4 -c 1400 -d 300 
