-T UDP -a 10.0.0.29 -rp 11801 -b 244 -k 10240 -c 1400 -d 10 -m rttm
-T UDP -a 10.0.0.29 -rp 11811 -b 12 -k 10240 -c 1400 -d 20 -m rttm
-T UDP -a 10.0.0.28 -rp 11821 -b 228 -k 10240 -c 1400 -d 30 -m rttm
-T UDP -a 10.0.0.28 -rp 11831 -b 172 -k 10240 -c 1400 -d 40 -m rttm
-T UDP -a 10.0.0.25 -rp 11841 -b 248 -k 10240 -c 1400 -d 50 -m rttm
-T UDP -a 10.0.0.25 -rp 11851 -b 16 -k 10240 -c 1400 -d 60 -m rttm
-T UDP -a 10.0.0.31 -rp 11861 -b 156 -k 10240 -c 1400 -d 70 -m rttm
-T UDP -a 10.0.0.31 -rp 11871 -b 192 -k 10240 -c 1400 -d 80 -m rttm
-T UDP -a 10.0.0.27 -rp 11881 -b 132 -k 10240 -c 1400 -d 90 -m rttm
-T UDP -a 10.0.0.27 -rp 11891 -b 236 -k 10240 -c 1400 -d 100 -m rttm
-T UDP -a 10.0.0.34 -rp 11901 -b 64 -k 10240 -c 1400 -d 110 -m rttm
-T UDP -a 10.0.0.34 -rp 11911 -b 52 -k 10240 -c 1400 -d 120 -m rttm
-T UDP -a 10.0.0.26 -rp 11921 -b 184 -k 10240 -c 1400 -d 130 -m rttm
-T UDP -a 10.0.0.26 -rp 11931 -b 160 -k 10240 -c 1400 -d 140 -m rttm
-T UDP -a 10.0.0.22 -rp 11941 -b 76 -k 10240 -c 1400 -d 150 -m rttm
-T UDP -a 10.0.0.22 -rp 11951 -b 204 -k 10240 -c 1400 -d 160 -m rttm
