-T UDP -a 10.0.0.28 -rp 10301 -b 40 -k 10240 -c 1400 -d 10 -m rttm
-T UDP -a 10.0.0.28 -rp 10311 -b 68 -k 10240 -c 1400 -d 20 -m rttm
-T UDP -a 10.0.0.36 -rp 10321 -b 36 -k 10240 -c 1400 -d 30 -m rttm
-T UDP -a 10.0.0.36 -rp 10331 -b 212 -k 10240 -c 1400 -d 40 -m rttm
-T UDP -a 10.0.0.34 -rp 10341 -b 140 -k 10240 -c 1400 -d 50 -m rttm
-T UDP -a 10.0.0.34 -rp 10351 -b 192 -k 10240 -c 1400 -d 60 -m rttm
-T UDP -a 10.0.0.25 -rp 10361 -b 124 -k 10240 -c 1400 -d 70 -m rttm
-T UDP -a 10.0.0.25 -rp 10371 -b 168 -k 10240 -c 1400 -d 80 -m rttm
-T UDP -a 10.0.0.33 -rp 10381 -b 228 -k 10240 -c 1400 -d 90 -m rttm
-T UDP -a 10.0.0.33 -rp 10391 -b 64 -k 10240 -c 1400 -d 100 -m rttm
-T UDP -a 10.0.0.31 -rp 10401 -b 224 -k 10240 -c 1400 -d 110 -m rttm
-T UDP -a 10.0.0.31 -rp 10411 -b 36 -k 10240 -c 1400 -d 120 -m rttm
-T UDP -a 10.0.0.27 -rp 10421 -b 160 -k 10240 -c 1400 -d 130 -m rttm
-T UDP -a 10.0.0.27 -rp 10431 -b 252 -k 10240 -c 1400 -d 140 -m rttm
-T UDP -a 10.0.0.35 -rp 10441 -b 36 -k 10240 -c 1400 -d 150 -m rttm
-T UDP -a 10.0.0.35 -rp 10451 -b 236 -k 10240 -c 1400 -d 160 -m rttm
