switch,function,ip,mac,sp
1,1100,10.0.0.1,00:00:00:00:00:01,0
2,1100,10.0.0.2,00:00:00:00:00:02,0
3,1101,10.0.0.3,00:00:00:00:00:03,0
4,1100,10.0.0.4,00:00:00:00:00:04,0
2,1101,10.0.0.2,00:00:00:00:00:02,0
3,0000,10.0.0.3,00:00:00:00:00:03,0
4,1101,10.0.0.4,00:00:00:00:00:04,0
5,1101,10.0.0.5,00:00:00:00:00:05,0

