-T UDP -a 10.0.0.29 -rp 10101 -b 132 -k 80 -c 730 -d 5 
-T UDP -a 10.0.0.31 -rp 10111 -b 136 -k 1430 -c 620 -d 10 
-T UDP -a 10.0.0.23 -rp 10121 -b 40 -k 2250 -c 270 -d 15 
-T UDP -a 10.0.0.27 -rp 10131 -b 228 -k 3280 -c 390 -d 20 
-T UDP -a 10.0.0.28 -rp 10141 -b 76 -k 3820 -c 950 -d 25 
-T UDP -a 10.0.0.36 -rp 10151 -b 236 -k 830 -c 300 -d 30 
-T UDP -a 10.0.0.32 -rp 10161 -b 100 -k 3910 -c 280 -d 35 
-T UDP -a 10.0.0.24 -rp 10171 -b 12 -k 290 -c 420 -d 40 
-T UDP -a 10.0.0.34 -rp 10181 -b 20 -k 970 -c 510 -d 45 
-T UDP -a 10.0.0.30 -rp 10191 -b 152 -k 170 -c 340 -d 50 
