-T UDP -a 10.0.0.35 -rp 10301 -b 112 -k 3350 -c 900 -d 5 
-T UDP -a 10.0.0.32 -rp 10311 -b 116 -k 860 -c 860 -d 10 
-T UDP -a 10.0.0.22 -rp 10321 -b 8 -k 2220 -c 450 -d 15 
-T UDP -a 10.0.0.34 -rp 10331 -b 228 -k 3860 -c 310 -d 20 
-T UDP -a 10.0.0.36 -rp 10341 -b 240 -k 850 -c 510 -d 25 
-T UDP -a 10.0.0.31 -rp 10351 -b 152 -k 710 -c 250 -d 30 
-T UDP -a 10.0.0.26 -rp 10361 -b 132 -k 3800 -c 800 -d 35 
-T UDP -a 10.0.0.33 -rp 10371 -b 108 -k 3570 -c 570 -d 40 
-T UDP -a 10.0.0.23 -rp 10381 -b 76 -k 1440 -c 600 -d 45 
-T UDP -a 10.0.0.28 -rp 10391 -b 92 -k 2290 -c 980 -d 50 
