-T UDP -a 10.0.0.25 -rp 10701 -b 164 -k 1030 -c 930 -d 5 
-T UDP -a 10.0.0.29 -rp 10711 -b 156 -k 2240 -c 520 -d 10 
-T UDP -a 10.0.0.33 -rp 10721 -b 232 -k 3000 -c 410 -d 15 
-T UDP -a 10.0.0.30 -rp 10731 -b 208 -k 2900 -c 420 -d 20 
-T UDP -a 10.0.0.27 -rp 10741 -b 236 -k 1580 -c 370 -d 25 
-T UDP -a 10.0.0.36 -rp 10751 -b 164 -k 3340 -c 750 -d 30 
-T UDP -a 10.0.0.26 -rp 10761 -b 204 -k 2240 -c 950 -d 35 
-T UDP -a 10.0.0.21 -rp 10771 -b 128 -k 2610 -c 350 -d 40 
-T UDP -a 10.0.0.31 -rp 10781 -b 232 -k 3340 -c 770 -d 45 
-T UDP -a 10.0.0.22 -rp 10791 -b 184 -k 2650 -c 310 -d 50 
