-T TCP -a 10.0.0.22 -rp 10681 -b 132 -k 4 -c 1400 -d 90 -m rttm
-T TCP -a 10.0.0.24 -rp 10611 -b 192 -k 4 -c 1400 -d 20 -m rttm
-T TCP -a 10.0.0.32 -rp 10721 -b 132 -k 4 -c 1400 -d 130 -m rttm
-T TCP -a 10.0.0.24 -rp 10601 -b 92 -k 4 -c 1400 -d 10 -m rttm
-T TCP -a 10.0.0.22 -rp 10691 -b 156 -k 4 -c 1400 -d 100 -m rttm
-T TCP -a 10.0.0.30 -rp 10671 -b 48 -k 10240 -c 1400 -d 80 -m rttm
-T TCP -a 10.0.0.36 -rp 10631 -b 116 -k 4 -c 1400 -d 40 -m rttm
-T TCP -a 10.0.0.25 -rp 10711 -b 48 -k 4 -c 1400 -d 120 -m rttm
-T TCP -a 10.0.0.36 -rp 10621 -b 136 -k 4 -c 1400 -d 30 -m rttm
-T TCP -a 10.0.0.30 -rp 10661 -b 36 -k 4 -c 1400 -d 70 -m rttm
-T TCP -a 10.0.0.34 -rp 10741 -b 192 -k 4 -c 1400 -d 150 -m rttm
-T TCP -a 10.0.0.35 -rp 10651 -b 136 -k 4 -c 1400 -d 60 -m rttm
-T TCP -a 10.0.0.34 -rp 10751 -b 212 -k 10240 -c 1400 -d 160 -m rttm
-T TCP -a 10.0.0.32 -rp 10731 -b 88 -k 4 -c 1400 -d 140 -m rttm
-T TCP -a 10.0.0.25 -rp 10701 -b 168 -k 4 -c 1400 -d 110 -m rttm
-T TCP -a 10.0.0.35 -rp 10641 -b 84 -k 4 -c 1400 -d 50 -m rttm
