-T UDP -a 10.0.22.1 -rp 10561 -b 228 -k 60 -c 1400 -d 2 
-T UDP -a 10.0.21.1 -rp 10571 -b 112 -k 180 -c 1400 -d 4 
-T UDP -a 10.0.33.1 -rp 10581 -b 168 -k 50 -c 1400 -d 6 
-T UDP -a 10.0.24.1 -rp 10591 -b 32 -k 150 -c 1400 -d 8 
-T UDP -a 10.0.27.1 -rp 10601 -b 76 -k 90 -c 1400 -d 10 
-T UDP -a 10.0.34.1 -rp 10611 -b 128 -k 30 -c 1400 -d 12 
-T UDP -a 10.0.32.1 -rp 10621 -b 68 -k 90 -c 1400 -d 14 
