-T UDP -a 10.0.0.36 -rp 10631 -b 96 -k 20 -c 1400 -d 2 
-T UDP -a 10.0.0.23 -rp 10641 -b 140 -k 160 -c 1400 -d 4 
-T UDP -a 10.0.0.30 -rp 10651 -b 88 -k 160 -c 1400 -d 6 
-T UDP -a 10.0.0.25 -rp 10661 -b 16 -k 170 -c 1400 -d 8 
-T UDP -a 10.0.0.31 -rp 10671 -b 136 -k 20 -c 1400 -d 10 
-T UDP -a 10.0.0.21 -rp 10681 -b 136 -k 50 -c 1400 -d 12 
-T UDP -a 10.0.0.29 -rp 10691 -b 200 -k 30 -c 1400 -d 14 
