-T UDP -a 10.0.0.33 -rp 10351 -b 88 -k 60 -c 1400 -d 2 
-T UDP -a 10.0.0.23 -rp 10361 -b 236 -k 200 -c 1400 -d 4 
-T UDP -a 10.0.0.34 -rp 10371 -b 76 -k 90 -c 1400 -d 6 
-T UDP -a 10.0.0.28 -rp 10381 -b 200 -k 70 -c 1400 -d 8 
-T UDP -a 10.0.0.31 -rp 10391 -b 24 -k 130 -c 1400 -d 10 
-T UDP -a 10.0.0.27 -rp 10401 -b 28 -k 150 -c 1400 -d 12 
-T UDP -a 10.0.0.24 -rp 10411 -b 172 -k 180 -c 1400 -d 14 
