Host,Switch,Weight,TotalNodes: 5,TotalLinks: 30,src,dst
1,2,1,,,h1,s2
2,2,1,,,h2,s2
3,3,1,,,h3,s3
4,3,1,,,h4,s3
5,5,1,,,h5,s5
6,7,1,,,h6,s7
7,7,1,,,h7,s7
8,8,1,,,h8,s8
9,8,1,,,h9,s8
10,10,1,,,h10,s10
11,12,1,,,h11,s12
12,12,1,,,h12,s12
13,13,1,,,h13,s13
14,13,1,,,h14,s13
15,15,1,,,h15,s15
16,17,1,,,h16,s17
17,17,1,,,h17,s17
18,18,1,,,h18,s18
19,18,1,,,h19,s18
20,20,1,,,h20,s20
21,4,1,,,h21,s4
22,4,1,,,h22,s4
23,5,1,,,h23,s5
24,5,1,,,h24,s5
25,9,1,,,h25,s9
26,9,1,,,h26,s9
27,10,1,,,h27,s10
28,10,1,,,h28,s10
29,14,1,,,h29,s14
30,14,1,,,h30,s14
31,15,1,,,h31,s15
32,15,1,,,h32,s15
33,19,1,,,h33,s19
34,19,1,,,h34,s19
35,20,1,,,h35,s20
36,20,1,,,h36,s20
