19,2,
20,2,
21,2,
22,2,
23,2,
24,2,
25,2,
26,2,
27,2,
28,2,
29,2,
30,2,
31,2,
32,2,
33,2,
34,2,
35,2,
36,2,
37,2,
38,2,
39,2,
40,2,
41,2,
42,2,
43,2,
44,2,
45,2,
46,2,
47,2,
48,2,
49,2,
50,2,
51,2,
52,2,
54,2,
55,2,
56,2,
57,2,
58,2,
59,2,
60,2,3-1
61,2,3-1
62,2,3-1
63,2,3-1
64,2,3-1
65,2,3-1
66,2,"3-1,2-1"
67,2,"3-1,2-1"
68,2,"3-1,2-1"
69,2,"3-1,2-1"
70,2,"3-1,2-1"
71,2,"3-1,2-1"
72,2,"3-1,2-1"
73,2,"3-1,2-1"
74,2,"3-1,2-1,1-1"
75,2,"3-1,2-1,1-1"
76,2,"3-1,2-1,1-1"
77,2,"3-1,2-1,1-1"
78,2,"3-1,2-1,1-1"
79,2,"3-1,2-1,1-1"
80,2,"3-1,2-1,1-1"
81,2,"3-1,2-1,1-1"
82,2,"3-1,2-1,1-1"
83,2,"3-1,2-1,1-1"
84,2,"3-1,2-1,1-1"
85,2,"3-1,2-1,1-1"
86,2,"3-1,2-1,1-1"
87,2,"3-1,2-1,1-1"
88,2,"3-1,2-1,1-1"
89,2,"3-1,2-1,1-1"
90,2,"3-1,2-1,1-1"
91,2,"3-1,2-1,1-1"
92,2,"3-1,2-1,1-1"
93,2,"3-1,2-1,1-1"
94,2,"3-1,2-1,1-1"
95,2,"3-1,2-1,1-1"
96,2,"3-1,2-1,1-1"
97,2,"3-1,2-1,1-1"
98,2,"3-1,2-1,1-1"
99,2,"3-1,2-1,1-1"
100,2,"3-1,2-1,1-1"
101,2,"3-1,2-1,1-1"
102,2,"3-1,2-1,1-1"
103,2,"3-1,2-1,1-1"
104,2,"3-1,2-1,1-1"
105,2,"3-1,2-1,1-1"
106,2,"3-1,2-1,1-1"
107,2,"3-1,2-1,1-1"
108,2,"3-1,2-1,1-1"
110,2,"3-1,2-1,1-1"
111,2,"3-1,2-1,1-1"
112,2,"3-1,2-1,1-1"
113,2,"3-1,2-1,1-1"
114,2,"3-1,2-1,1-1"
115,2,"3-1,2-1,1-1"
116,2,"3-1,2-1,1-1"
117,2,"3-1,2-1,1-1"
118,2,"3-1,2-1,1-1"
119,2,"3-1,2-1,1-1"
120,2,"3-1,2-1,1-1"
121,2,"3-1,2-1,1-1"
122,2,"3-1,2-1,1-1"
123,2,"3-1,2-1,1-1"
124,2,"3-1,2-1,1-1"
125,2,"3-1,2-1,1-1"
126,2,"3-1,2-1,1-1"
127,2,"3-1,2-1,1-1"
128,2,"3-1,2-1,1-1"
129,2,"3-1,2-1,1-1"
130,2,"3-1,2-1,1-1"
131,2,"3-1,2-1,1-1"
132,2,"3-1,2-1,1-1"
133,2,"3-1,2-1,1-1"
134,2,"3-1,2-1,1-1"
135,2,"3-1,2-1,1-1"
136,2,"3-1,2-1,1-1"
137,2,"3-1,2-1,1-1"
138,2,"3-1,2-1,1-1"
139,2,"3-1,2-1,1-1"
140,2,"3-1,2-1,1-1"
141,2,"3-1,2-1,1-1"
142,2,"3-1,2-1,1-1"
143,2,"3-1,2-1,1-1"
