19,1,00:00:00:00:00:01-0
20,1,00:00:00:00:00:01-0
21,1,00:00:00:00:00:01-0
22,1,00:00:00:00:00:01-0
23,1,00:00:00:00:00:01-0
24,1,00:00:00:00:00:01-0
25,1,00:00:00:00:00:01-0
26,1,00:00:00:00:00:01-0
27,1,00:00:00:00:00:01-0
28,1,00:00:00:00:00:01-0
29,1,00:00:00:00:00:01-0
30,1,00:00:00:00:00:01-0
31,1,00:00:00:00:00:01-0
32,1,00:00:00:00:00:01-0
33,1,00:00:00:00:00:01-0
34,1,00:00:00:00:00:01-0
35,1,00:00:00:00:00:01-0
36,1,00:00:00:00:00:01-0
37,1,00:00:00:00:00:01-0
38,1,00:00:00:00:00:01-0
39,1,00:00:00:00:00:01-0
40,1,00:00:00:00:00:01-0
41,1,00:00:00:00:00:01-0
42,1,00:00:00:00:00:01-0
43,1,00:00:00:00:00:01-0
44,1,00:00:00:00:00:01-0
45,1,00:00:00:00:00:01-0
46,1,00:00:00:00:00:01-0
47,1,00:00:00:00:00:01-0
48,1,00:00:00:00:00:01-0
49,1,00:00:00:00:00:01-0
50,1,00:00:00:00:00:01-0
51,1,00:00:00:00:00:01-0
52,1,00:00:00:00:00:01-0
54,1,00:00:00:00:00:01-0
55,1,00:00:00:00:00:01-0
56,1,00:00:00:00:00:01-0
57,1,00:00:00:00:00:01-0
58,1,00:00:00:00:00:01-0
59,1,00:00:00:00:00:01-0
60,1,00:00:00:00:00:01-7
61,1,00:00:00:00:00:04-7
62,1,00:00:00:00:00:04-16
63,1,00:00:00:00:00:03-0
64,1,00:00:00:00:00:03-0
65,1,00:00:00:00:00:03-0
66,1,00:00:00:00:00:03-0
67,1,00:00:00:00:00:03-0
68,1,00:00:00:00:00:03-0
69,1,00:00:00:00:00:03-0
70,1,00:00:00:00:00:03-7
71,1,00:00:00:00:00:03-7
72,1,00:00:00:00:00:01-7
73,1,00:00:00:00:00:01-7
74,1,00:00:00:00:00:01-7
75,1,00:00:00:00:00:01-7
76,1,00:00:00:00:00:01-7
77,1,00:00:00:00:00:01-7
78,1,00:00:00:00:00:01-7
79,1,00:00:00:00:00:01-7
80,1,00:00:00:00:00:01-7
81,1,00:00:00:00:00:01-7
82,1,00:00:00:00:00:01-7
83,1,00:00:00:00:00:01-7
84,1,00:00:00:00:00:01-7
85,1,00:00:00:00:00:01-7
86,1,00:00:00:00:00:01-7
87,1,00:00:00:00:00:01-7
88,1,00:00:00:00:00:01-7
89,1,00:00:00:00:00:01-7
90,1,00:00:00:00:00:01-7
91,1,00:00:00:00:00:01-7
92,1,00:00:00:00:00:01-7
93,1,00:00:00:00:00:01-7
94,1,00:00:00:00:00:01-7
95,1,00:00:00:00:00:01-7
96,1,00:00:00:00:00:01-7
97,1,00:00:00:00:00:01-7
98,1,00:00:00:00:00:01-7
99,1,00:00:00:00:00:01-7
100,1,00:00:00:00:00:01-7
101,1,00:00:00:00:00:01-7
102,1,00:00:00:00:00:01-7
103,1,00:00:00:00:00:01-7
104,1,00:00:00:00:00:01-7
105,1,00:00:00:00:00:01-7
106,1,00:00:00:00:00:01-7
107,1,00:00:00:00:00:01-7
108,1,00:00:00:00:00:01-7
110,1,00:00:00:00:00:01-7
111,1,00:00:00:00:00:01-7
112,1,00:00:00:00:00:01-7
113,1,00:00:00:00:00:01-7
114,1,00:00:00:00:00:01-7
115,1,00:00:00:00:00:01-7
116,1,00:00:00:00:00:01-7
117,1,00:00:00:00:00:01-7
118,1,00:00:00:00:00:01-7
119,1,00:00:00:00:00:01-7
120,1,00:00:00:00:00:01-7
121,1,00:00:00:00:00:01-7
122,1,00:00:00:00:00:01-7
123,1,00:00:00:00:00:01-7
124,1,00:00:00:00:00:01-7
125,1,00:00:00:00:00:01-7
126,1,00:00:00:00:00:01-7
127,1,00:00:00:00:00:01-7
128,1,00:00:00:00:00:01-7
129,1,00:00:00:00:00:01-7
130,1,00:00:00:00:00:01-7
131,1,00:00:00:00:00:01-7
132,1,00:00:00:00:00:01-7
133,1,00:00:00:00:00:01-7
134,1,00:00:00:00:00:01-7
135,1,00:00:00:00:00:01-7
136,1,00:00:00:00:00:01-7
137,1,00:00:00:00:00:01-7
138,1,00:00:00:00:00:01-7
139,1,00:00:00:00:00:01-7
140,1,00:00:00:00:00:01-7
141,1,00:00:00:00:00:01-7
142,1,00:00:00:00:00:01-7
143,1,00:00:00:00:00:01-7
