0,0,0.0
2,0,0.0
4,0,0.0
6,0,0.0
8,0,0.0
10,0,0.0
12,0,0.0
14,0,0.0
16,0,0.0
18,0,0.0
20,0,0.0
22,0,0.0
24,0,0.0
26,0,0.0
28,0,0.0
30,0,0.0
32,0,0.0
34,0,0.0
36,0,0.0
38,0,0.0
40,0,0.0
42,0,0.0
44,0,0.0
46,0,0.0
48,0,0.0
50,0,0.0
52,0,0.0
54,0,0.0
56,0,0.0
58,0,0.0
60,0,0.0
62,0,0.0
64,0,0.0
66,0,0.0
68,4,2.5
70,4,2.5
72,5,2.125
74,6,2.0
76,6,1.625
78,6,1.375
80,6,1.375
82,5,1.375
84,5,1.25
87,5,1.25
89,4,1.5
91,4,1.5
93,4,1.5
95,4,1.5
97,4,1.5
99,4,1.5
101,4,1.5
103,4,1.5
105,0,0.0
107,0,0.0
109,0,0.0
111,0,0.0
113,0,0.0
115,0,0.0
117,0,0.0
119,0,0.0
121,0,0.0
123,0,0.0
125,0,0.0
127,0,0.0
129,0,0.0
131,0,0.0
133,0,0.0
135,0,0.0
137,0,0.0
139,0,0.0
141,0,0.0
