0,0,0,
1,0,0,
2,0,0,
3,0,0,
4,0,0,
5,0,0,
6,0,0,
7,0,0,
8,0,0,
9,0,0,
10,0,0,
11,0,0,
12,0,0,
13,0,0,
14,0,0,
15,0,0,
16,0,0,
17,0,0,
18,0,0,
19,0,0,
20,0,0,
21,0,0,
22,0,0,
23,0,0,
24,0,0,
25,0,0,
26,0,0,
27,0,0,
28,0,0,
29,0,0,
30,0,0,
31,0,0,
32,0,0,
33,0,0,
34,0,0,
35,0,0,
36,0,0,
37,0,0,
38,0,0,
39,0,0,
40,0,0,
41,0,0,
42,0,0,
43,0,0,
45,0,0,
46,0,0,
47,0,0,
48,0,0,
49,0,0,
50,0,0,
51,0,0,
52,0,0,
53,0,0,
54,0,0,
55,0,0,
56,0,0,
57,0,0,
58,4.17376851671,1,2:4.17376851671
59,3.14757606251,1,2:3.14757606251
60,3.20443140095,1,2:3.20443140095
61,2.28755757213,1,2:2.28755757213
62,3.12966344288,1,2:3.12966344288
63,3.71284308235,1,2:3.71284308235
64,3.47492533756,1,2:3.47492533756
65,3.44525021873,1,2:3.44525021873
66,3.38728226391,1,2:3.38728226391
67,5.41819627173,1,2:5.41819627173
68,5.40264379499,1,2:5.40264379499
69,4.9828874567,1,2:4.9828874567
70,4.99159943472,1,2:4.99159943472
71,7.93533857296,1,2:7.93533857296
72,5.27423778017,1,2:5.27423778017
73,5.25934071655,1,2:5.25934071655
74,5.02261667833,1,2:5.02261667833
75,5.0174904943,1,2:5.0174904943
76,4.84880008481,1,2:4.84880008481
77,4.94820481698,1,2:4.94820481698
78,5.30081088825,1,2:5.30081088825
79,3.8373582854,1,2:3.8373582854
80,0,0,
81,0,0,
82,0,0,
83,0,0,
84,0,0,
85,0,0,
86,0,0,
87,0,0,
88,0,0,
89,0,0,
91,0,0,
92,0,0,
93,0,0,
94,0,0,
95,0,0,
96,0,0,
97,0,0,
98,0,0,
99,0,0,
100,0,0,
101,0,0,
102,0,0,
103,0,0,
104,0,0,
105,0,0,
106,0,0,
107,0,0,
108,0,0,
109,0,0,
110,0,0,
111,0,0,
112,0,0,
113,0,0,
114,0,0,
115,0,0,
116,0,0,
117,0,0,
118,0,0,
119,0,0,
