switch,function,ip,mac,sp
1,0001,10.0.0.1,00:00:00:00:00:01,0
1,0000,10.0.0.2,00:00:00:00:00:02,0
2,0010,10.0.0.3,00:00:00:00:00:03,0
2,0000,10.0.0.4,00:00:00:00:00:04,0
3,0011,10.0.0.5,00:00:00:00:00:05,0
3,0000,10.0.0.6,00:00:00:00:00:06,0

