-T UDP -a 10.0.0.27 -rp 10141 -b 236 -k 2060 -c 290 -d 5 
-T UDP -a 10.0.0.25 -rp 10151 -b 252 -k 840 -c 590 -d 10 
-T UDP -a 10.0.0.24 -rp 10161 -b 196 -k 50 -c 550 -d 15 
-T UDP -a 10.0.0.21 -rp 10171 -b 204 -k 1530 -c 380 -d 20 
-T UDP -a 10.0.0.30 -rp 10181 -b 128 -k 660 -c 350 -d 25 
-T UDP -a 10.0.0.32 -rp 10191 -b 84 -k 2800 -c 490 -d 30 
-T UDP -a 10.0.0.26 -rp 10201 -b 20 -k 3810 -c 370 -d 35 
