-T UDP -a 10.0.0.22 -rp 10771 -b 172 -k 2910 -c 480 -d 5 
-T UDP -a 10.0.0.26 -rp 10781 -b 80 -k 3360 -c 620 -d 10 
-T UDP -a 10.0.0.23 -rp 10791 -b 52 -k 30 -c 760 -d 15 
-T UDP -a 10.0.0.36 -rp 10801 -b 88 -k 1800 -c 750 -d 20 
-T UDP -a 10.0.0.21 -rp 10811 -b 232 -k 1100 -c 460 -d 25 
-T UDP -a 10.0.0.25 -rp 10821 -b 60 -k 2940 -c 860 -d 30 
-T UDP -a 10.0.0.35 -rp 10831 -b 16 -k 330 -c 270 -d 35 
