-T UDP -a 10.0.0.21 -rp 10981 -b 84 -k 1940 -c 590 -d 5 
-T UDP -a 10.0.0.24 -rp 10991 -b 176 -k 2240 -c 410 -d 10 
-T UDP -a 10.0.0.36 -rp 11001 -b 72 -k 1590 -c 500 -d 15 
-T UDP -a 10.0.0.29 -rp 11011 -b 216 -k 1500 -c 760 -d 20 
-T UDP -a 10.0.0.25 -rp 11021 -b 212 -k 3900 -c 270 -d 25 
-T UDP -a 10.0.0.26 -rp 11031 -b 88 -k 2820 -c 740 -d 30 
-T UDP -a 10.0.0.27 -rp 11041 -b 252 -k 2620 -c 290 -d 35 
