-T UDP -a 10.0.0.36 -rp 10841 -b 204 -k 960 -c 580 -d 5 
-T UDP -a 10.0.0.21 -rp 10851 -b 24 -k 1720 -c 500 -d 10 
-T UDP -a 10.0.0.23 -rp 10861 -b 192 -k 1480 -c 980 -d 15 
-T UDP -a 10.0.0.25 -rp 10871 -b 204 -k 610 -c 660 -d 20 
-T UDP -a 10.0.0.22 -rp 10881 -b 64 -k 160 -c 780 -d 25 
-T UDP -a 10.0.0.35 -rp 10891 -b 120 -k 900 -c 400 -d 30 
-T UDP -a 10.0.0.31 -rp 10901 -b 172 -k 570 -c 760 -d 35 
