switch,function,ip,mac,sp
1,1101,10.0.0.1,00:00:00:00:00:01,0
2,1111,10.0.0.2,00:00:00:00:00:02,0
3,1011,10.0.0.3,00:00:00:00:00:03,0
1,0000,10.0.0.1,00:00:00:00:00:01,0
2,0000,10.0.0.2,00:00:00:00:00:02,0
3,0000,10.0.0.3,00:00:00:00:00:03,0
4,0000,10.0.0.4,00:00:00:00:00:04,0
4,0000,10.0.0.4,00:00:00:00:00:04,0
5,0000,10.0.0.5,00:00:00:00:00:05,0
7,0000,10.0.0.7,00:00:00:00:00:07,0
16,0000,10.0.0.16,00:00:00:00:00:16,0
17,0000,10.0.0.17,00:00:00:00:00:17,0
18,0000,10.0.0.18,00:00:00:00:00:18,0
18,0000,10.0.0.18,00:00:00:00:00:18,0
21,0000,10.0.0.21,00:00:00:00:00:21,0
21,0000,10.0.0.21,00:00:00:00:00:21,0
22,0000,10.0.0.22,00:00:00:00:00:22,0
23,0000,10.0.0.23,00:00:00:00:00:23,0
28,0000,10.0.0.28,00:00:00:00:00:28,0
30,0000,10.0.0.30,00:00:00:00:00:30,0


