switch,function,ip,mac,sp
2,0001,10.0.0.1,00:00:00:00:00:01,0
2,0010,10.0.0.2,00:00:00:00:00:02,0
3,0011,10.0.0.3,00:00:00:00:00:03,0
3,0100,10.0.0.4,00:00:00:00:00:04,0
5,0000,10.0.0.5,00:00:00:00:00:05,0
7,0110,10.0.0.6,00:00:00:00:00:06,0
7,0101,10.0.0.6,00:00:00:00:00:07,0
8,0100,10.0.0.8,00:00:00:00:00:08,0
8,0010,10.0.0.9,00:00:00:00:00:09,0
10,0000,10.0.0.10,00:00:00:00:00:10,0
12,0000,10.0.0.11,00:00:00:00:00:11,0
12,0000,10.0.0.12,00:00:00:00:00:12,0
13,0000,10.0.0.13,00:00:00:00:00:13,0
13,0000,10.0.0.14,00:00:00:00:00:14,0
15,0000,10.0.0.15,00:00:00:00:00:15,0
17,0000,10.0.0.16,00:00:00:00:00:16,0
17,0000,10.0.0.17,00:00:00:00:00:17,0
18,0000,10.0.0.18,00:00:00:00:00:18,0
18,0000,10.0.0.19,00:00:00:00:00:19,0
20,0000,10.0.0.20,00:00:00:00:00:20,0
