1,"[3, 2, 4]"
2,"[5, 6, 4]"
3,"[3, 6, 2]"
4,"[5, 3, 6]"
5,"[3, 4, 1]"
6,"[1, 6, 3]"
7,"[2, 5, 6]"
8,"[5, 1, 6]"
9,"[2, 5, 4]"
10,"[6, 1, 5]"
11,"[6, 2, 5]"
12,"[6, 3, 5]"
13,"[5, 3, 6]"
14,"[3, 2, 6]"
15,"[4, 2, 1]"
16,"[2, 3, 4]"
17,"[2, 5, 1]"
18,"[5, 3, 1]"
19,"[3, 6, 4]"
20,"[2, 6, 4]"
21,"[2, 6, 4]"
22,"[5, 3, 4]"
23,"[1, 2, 6]"
24,"[5, 6, 1]"
25,"[2, 4, 6]"
26,"[2, 1, 5]"
27,"[5, 2, 3]"
28,"[5, 1, 3]"
29,"[4, 2, 6]"
30,"[3, 1, 5]"
31,"[6, 2, 4]"
32,"[6, 3, 5]"
33,"[6, 1, 2]"
34,"[4, 2, 3]"
35,"[2, 3, 6]"
36,"[6, 2, 4]"
37,"[2, 6, 1]"
38,"[1, 2, 6]"
39,"[4, 1, 6]"
40,"[2, 4, 5]"
41,"[6, 2, 1]"
42,"[4, 5, 3]"
43,"[6, 3, 2]"
44,"[1, 2, 6]"
45,"[4, 2, 3]"
46,"[6, 2, 1]"
47,"[6, 5, 3]"
48,"[2, 6, 4]"
49,"[1, 5, 2]"
50,"[1, 6, 3]"
51,"[6, 2, 3]"
52,"[4, 2, 5]"
53,"[1, 6, 5]"
54,"[6, 4, 5]"
55,"[3, 5, 6]"
56,"[5, 4, 3]"
57,"[4, 5, 2]"
58,"[5, 1, 6]"
59,"[6, 1, 2]"
60,"[1, 6, 5]"
61,"[4, 6, 3]"
62,"[6, 5, 3]"
63,"[1, 3, 4]"
64,"[4, 2, 6]"
65,"[1, 4, 5]"
66,"[6, 2, 4]"
67,"[1, 5, 3]"
68,"[4, 2, 1]"
69,"[6, 5, 3]"
70,"[1, 6, 3]"
71,"[4, 1, 2]"
72,"[6, 3, 4]"
73,"[4, 1, 6]"
74,"[1, 3, 5]"
75,"[6, 5, 2]"
76,"[2, 5, 6]"
77,"[3, 5, 1]"
78,"[6, 4, 3]"
79,"[4, 6, 1]"
80,"[6, 1, 5]"
81,"[5, 4, 6]"
82,"[3, 5, 1]"
83,"[1, 6, 5]"
84,"[1, 5, 6]"
85,"[5, 2, 6]"
86,"[3, 6, 2]"
87,"[2, 5, 6]"
88,"[5, 3, 2]"
89,"[4, 5, 2]"
90,"[4, 2, 6]"
91,"[2, 4, 6]"
92,"[2, 5, 1]"
93,"[3, 1, 2]"
94,"[4, 5, 1]"
95,"[1, 6, 4]"
96,"[4, 5, 1]"
97,"[2, 6, 1]"
98,"[4, 1, 2]"
99,"[6, 4, 2]"
100,"[2, 1, 5]"
101,"[3, 1, 6]"
102,"[3, 4, 1]"
103,"[5, 1, 3]"
104,"[4, 6, 1]"
105,"[3, 6, 5]"
106,"[5, 6, 4]"
107,"[2, 3, 5]"
108,"[6, 4, 3]"
109,"[6, 4, 2]"
110,"[3, 5, 1]"
111,"[5, 2, 4]"
112,"[5, 6, 1]"
113,"[4, 2, 6]"
114,"[1, 6, 4]"
115,"[5, 4, 6]"
116,"[3, 2, 5]"
117,"[6, 3, 4]"
118,"[5, 2, 4]"
119,"[2, 1, 4]"
120,"[4, 1, 5]"
121,"[6, 5, 2]"
122,"[1, 4, 2]"
123,"[5, 6, 2]"
124,"[6, 2, 1]"
125,"[1, 6, 3]"
126,"[3, 4, 2]"
127,"[6, 1, 2]"
128,"[6, 4, 3]"
129,"[3, 1, 5]"
130,"[4, 6, 5]"
131,"[6, 1, 2]"
132,"[5, 6, 2]"
133,"[6, 3, 4]"
134,"[4, 3, 6]"
135,"[6, 4, 3]"
136,"[2, 5, 1]"
137,"[5, 6, 4]"
138,"[6, 4, 3]"
139,"[4, 3, 5]"
140,"[4, 2, 6]"
141,"[4, 6, 3]"
142,"[2, 5, 1]"
143,"[2, 4, 1]"
144,"[2, 5, 6]"
145,"[3, 2, 6]"
146,"[6, 3, 1]"
147,"[6, 3, 4]"
148,"[2, 4, 6]"
149,"[1, 4, 5]"
150,"[4, 6, 3]"
151,"[2, 3, 6]"
152,"[5, 6, 2]"
153,"[1, 3, 4]"
154,"[5, 3, 1]"
155,"[5, 6, 1]"
156,"[2, 5, 4]"
157,"[4, 3, 2]"
158,"[2, 3, 1]"
159,"[1, 3, 6]"
160,"[4, 5, 3]"
161,"[5, 3, 4]"
162,"[6, 4, 1]"
163,"[3, 6, 4]"
164,"[1, 6, 5]"
165,"[4, 1, 6]"
166,"[6, 1, 5]"
167,"[6, 5, 4]"
168,"[6, 1, 5]"
169,"[4, 3, 2]"
170,"[4, 3, 6]"
171,"[5, 6, 4]"
172,"[4, 6, 5]"
173,"[2, 6, 3]"
174,"[3, 4, 6]"
175,"[3, 4, 2]"
176,"[3, 4, 6]"
177,"[4, 5, 6]"
178,"[5, 6, 2]"
179,"[5, 6, 3]"
180,"[4, 1, 5]"
181,"[2, 3, 6]"
182,"[1, 4, 6]"
183,"[5, 3, 1]"
184,"[3, 4, 6]"
185,"[6, 1, 3]"
186,"[3, 1, 6]"
187,"[5, 2, 1]"
188,"[2, 4, 5]"
189,"[4, 6, 5]"
190,"[2, 4, 6]"
191,"[2, 5, 1]"
192,"[5, 6, 1]"
193,"[6, 5, 3]"
194,"[2, 6, 3]"
195,"[1, 4, 2]"
196,"[3, 6, 4]"
197,"[5, 4, 1]"
198,"[2, 3, 6]"
199,"[6, 3, 4]"
200,"[4, 1, 2]"
201,"[4, 3, 1]"
202,"[5, 2, 1]"
203,"[2, 3, 4]"
204,"[3, 5, 6]"
205,"[6, 5, 3]"
206,"[6, 4, 5]"
207,"[3, 2, 1]"
208,"[1, 4, 3]"
209,"[2, 1, 6]"
210,"[1, 2, 3]"
211,"[3, 4, 1]"
212,"[6, 1, 2]"
213,"[2, 4, 6]"
214,"[3, 4, 2]"
215,"[5, 1, 3]"
216,"[5, 3, 4]"
217,"[6, 2, 1]"
218,"[1, 2, 6]"
219,"[5, 4, 2]"
220,"[1, 4, 3]"
221,"[5, 6, 3]"
222,"[5, 6, 4]"
223,"[6, 3, 2]"
224,"[6, 5, 3]"
225,"[5, 4, 1]"
226,"[4, 5, 1]"
227,"[5, 6, 1]"
228,"[6, 3, 1]"
229,"[2, 6, 4]"
230,"[3, 1, 6]"
231,"[4, 3, 6]"
232,"[5, 3, 1]"
233,"[2, 1, 3]"
234,"[3, 2, 4]"
235,"[2, 3, 5]"
236,"[6, 4, 5]"
237,"[3, 6, 1]"
238,"[6, 4, 1]"
239,"[3, 5, 2]"
240,"[2, 6, 5]"
241,"[1, 4, 6]"
242,"[2, 4, 6]"
243,"[6, 1, 2]"
244,"[4, 5, 6]"
245,"[1, 4, 5]"
246,"[2, 5, 6]"
247,"[6, 5, 4]"
248,"[6, 3, 4]"
249,"[4, 1, 6]"
250,"[4, 5, 1]"
251,"[6, 1, 5]"
252,"[5, 1, 6]"
253,"[1, 6, 5]"
254,"[6, 4, 2]"
255,"[3, 5, 6]"
