Source,Destination,Weight,TotalNodes: 315,TotalLinks: 314,src,dst
1,11,1,,,San+Jose+CA4062,San+Jose+CA4132
1,9,1,,,San+Jose+CA4062,San+Jose+CA4095
1,10,1,,,San+Jose+CA4062,San+Jose+CA6405
1,2,4,,,San+Jose+CA4062,Anaheim+CA4101
1,8,1,,,San+Jose+CA4062,San+Jose+CA6742
1,3,1,,,San+Jose+CA4062,San+Jose+CA4119
1,6,4,,,San+Jose+CA4062,Anaheim+CA4099
1,5,21,,,San+Jose+CA4062,Relay+MD4110
1,7,1,,,San+Jose+CA4062,San+Jose+CA4112
1,4,7,,,San+Jose+CA4062,Tacoma+WA3251
1,12,16,,,San+Jose+CA4062,Chicago+IL4037
2,105,1,,,Anaheim+CA4101,Anaheim+CA6702
2,24,11,,,Anaheim+CA4101,Dallas+TX2635
2,94,1,,,Anaheim+CA4101,Anaheim+CA6539
2,20,1,,,Anaheim+CA4101,Anaheim+CA4073
2,103,1,,,Anaheim+CA4101,Anaheim+CA6520
2,18,1,,,Anaheim+CA4101,Anaheim+CA6564
2,96,1,,,Anaheim+CA4101,Anaheim+CA6744
2,101,1,,,Anaheim+CA4101,Anaheim+CA6684
2,26,11,,,Anaheim+CA4101,Dallas+TX4080
2,22,1,,,Anaheim+CA4101,Anaheim+CA4100
2,95,1,,,Anaheim+CA4101,Anaheim+CA6556
2,21,1,,,Anaheim+CA4101,Anaheim+CA6721
2,99,1,,,Anaheim+CA4101,Anaheim+CA6584
2,106,1,,,Anaheim+CA4101,Anaheim+CA6453
2,13,1,,,Anaheim+CA4101,Anaheim+CA6490
2,93,1,,,Anaheim+CA4101,Anaheim+CA6627
2,19,1,,,Anaheim+CA4101,Anaheim+CA4031
2,54,22,,,Anaheim+CA4101,Pearl+Harbor+HI4053
2,97,1,,,Anaheim+CA4101,Anaheim+CA6591
2,104,1,,,Anaheim+CA4101,Anaheim+CA6512
2,91,1,,,Anaheim+CA4101,Anaheim+CA6464
2,102,1,,,Anaheim+CA4101,Anaheim+CA6502
2,107,1,,,Anaheim+CA4101,Anaheim+CA6438
3,314,2,,,San+Jose+CA4119,Santa+Clara+CA5508
3,197,2,,,San+Jose+CA4119,Stockton+CA4064
4,156,2,,,Tacoma+WA3251,Seattle+WA4059
4,157,64,,,Tacoma+WA3251,Sydney+Australia4067
4,62,1,,,Tacoma+WA3251,Tacoma+WA6555
4,63,40,,,Tacoma+WA3251,Tokyo4070
4,61,9,,,Tacoma+WA3251,Cheyenne+WY4076
4,73,9,,,Tacoma+WA3251,Cheyenne+WY4034
4,59,1,,,Tacoma+WA3251,Tacoma+WA4114
4,60,1,,,Tacoma+WA3251,Tacoma+WA6408
4,158,2,,,Tacoma+WA3251,Seattle+WA4060
4,36,1,,,Tacoma+WA3251,Tacoma+WA6720
4,155,1,,,Tacoma+WA3251,Tacoma+WA6701
5,153,3,,,Relay+MD4110,New+York+NY4048
5,253,1,,,Relay+MD4110,Relay+MD6518
5,179,3,,,Relay+MD4110,New+York+NY4116
5,121,2,,,Relay+MD4110,Washington+DC4140
5,256,1,,,Relay+MD4110,Relay+MD6696
5,148,1,,,Relay+MD4110,Relay+MD4131
5,118,2,,,Relay+MD4110,Washington+DC9643
5,251,1,,,Relay+MD4110,Relay+MD4136
5,116,1,,,Relay+MD4110,Relay+MD5801
5,14,3,,,Relay+MD4110,Manasquan+NJ4086
5,58,6,,,Relay+MD4110,Atlanta+GA4074
5,255,1,,,Relay+MD4110,Relay+MD6431
5,117,2,,,Relay+MD4110,Washington+DC6443
5,254,1,,,Relay+MD4110,Relay+MD4138
5,33,1,,,Relay+MD4110,Relay+MD4093
5,258,1,,,Relay+MD4110,Relay+MD4118
5,87,1,,,Relay+MD4110,Relay+MD6487
5,257,1,,,Relay+MD4110,Relay+MD6675
5,252,1,,,Relay+MD4110,Relay+MD6461
5,122,2,,,Relay+MD4110,Washington+DC6748
5,29,2,,,Relay+MD4110,Washington+DC6456
5,119,2,,,Relay+MD4110,Washington+DC6469
5,71,1,,,Relay+MD4110,Relay+MD6551
5,259,1,,,Relay+MD4110,Relay+MD6449
5,120,2,,,Relay+MD4110,Washington+DC4139
5,183,1,,,Relay+MD4110,Relay+MD4029
6,52,22,,,Anaheim+CA4099,Pearl+Harbor+HI4092
6,98,11,,,Anaheim+CA4099,Dallas+TX4133
7,55,2,,,San+Jose+CA4112,Stockton+CA4096
9,245,1,,,San+Jose+CA4095,San+Jose+CA6477
9,85,2,,,San+Jose+CA4095,Stockton+CA4113
9,86,2,,,San+Jose+CA4095,Stockton+CA4065
12,165,1,,,Chicago+IL4037,Chicago+IL6747
12,172,1,,,Chicago+IL4037,Chicago+IL6603
12,224,7,,,Chicago+IL4037,New+York+NY4124
12,110,5,,,Chicago+IL4037,Kansas+City+MO4043
12,124,1,,,Chicago+IL4037,Chicago+IL6492
12,171,1,,,Chicago+IL4037,Chicago+IL6441
12,162,1,,,Chicago+IL4037,Chicago+IL6654
12,167,1,,,Chicago+IL4037,Chicago+IL6595
12,174,1,,,Chicago+IL4037,Chicago+IL6531
12,126,1,,,Chicago+IL4037,Chicago+IL4122
12,161,1,,,Chicago+IL4037,Chicago+IL6572
12,168,1,,,Chicago+IL4037,Chicago+IL6669
12,173,1,,,Chicago+IL4037,Chicago+IL6611
12,70,6,,,Chicago+IL4037,Atlanta+GA4032
12,163,1,,,Chicago+IL4037,Chicago+IL6468
12,170,1,,,Chicago+IL4037,Chicago+IL6414
12,175,1,,,Chicago+IL4037,Chicago+IL6621
12,130,1,,,Chicago+IL4037,Chicago+IL6639
12,128,1,,,Chicago+IL4037,Chicago+IL1484
12,127,1,,,Chicago+IL4037,Chicago+IL4036
12,129,1,,,Chicago+IL4037,Chicago+IL4104
12,159,1,,,Chicago+IL4037,Chicago+IL6724
12,40,3,,,Chicago+IL4037,Roachdale+IN4056
12,195,1,,,Chicago+IL4037,Chicago+IL6644
12,164,1,,,Chicago+IL4037,Chicago+IL6648
12,166,1,,,Chicago+IL4037,Chicago+IL6586
12,90,1,,,Chicago+IL4037,Chicago+IL6593
14,17,1,,,Manasquan+NJ4086,Manasquan+NJ4047
14,16,33,,,Manasquan+NJ4086,Copenhagen4038
14,15,2,,,Manasquan+NJ4086,New+York+NY4088
15,269,1,,,New+York+NY4088,New+York+NY6524
15,278,1,,,New+York+NY4088,New+York+NY6532
15,178,1,,,New+York+NY4088,New+York+NY4107
15,298,1,,,New+York+NY4088,New+York+NY6559
15,260,1,,,New+York+NY4088,New+York+NY6446
15,177,1,,,New+York+NY4088,New+York+NY6427
15,180,1,,,New+York+NY4088,New+York+NY6496
15,279,1,,,New+York+NY4088,New+York+NY6397
16,294,4,,,Copenhagen4038,Stockholm+Sweden4066
16,64,3,,,Copenhagen4038,Hamburg+Germany4041
16,268,1,,,Copenhagen4038,Copenhagen4077
17,41,30,,,Manasquan+NJ4047,London4083
17,46,30,,,Manasquan+NJ4047,London4084
17,35,3,,,Manasquan+NJ4047,Relay+MD4054
19,113,1,,,Anaheim+CA4031,Anaheim+CA6578
19,27,21,,,Anaheim+CA4031,New+York+NY4028
19,112,2,,,Anaheim+CA4031,Los+Angeles+CA5502
19,92,1,,,Anaheim+CA4031,Anaheim+CA6570
19,28,11,,,Anaheim+CA4031,Dallas+TX4115
20,275,1,,,Anaheim+CA4073,Anaheim+CA6610
20,25,11,,,Anaheim+CA4073,Dallas+TX4015
22,100,11,,,Anaheim+CA4100,Dallas+TX6587
23,26,1,,,Dallas+TX6566,Dallas+TX4080
24,212,1,,,Dallas+TX2635,Dallas+TX6622
24,200,1,,,Dallas+TX2635,Dallas+TX6737
24,240,1,,,Dallas+TX2635,Dallas+TX6663
24,215,1,,,Dallas+TX2635,Dallas+TX6471
24,210,1,,,Dallas+TX2635,Dallas+TX6612
24,209,1,,,Dallas+TX2635,Dallas+TX6604
24,214,1,,,Dallas+TX2635,Dallas+TX6706
24,211,1,,,Dallas+TX2635,Dallas+TX6419
24,199,1,,,Dallas+TX2635,Dallas+TX6483
24,89,1,,,Dallas+TX2635,Dallas+TX6641
24,274,1,,,Dallas+TX2635,Dallas+TX6683
24,213,1,,,Dallas+TX2635,Dallas+TX6444
24,204,1,,,Dallas+TX2635,Dallas+TX6598
24,192,1,,,Dallas+TX2635,Dallas+TX6726
24,206,1,,,Dallas+TX2635,Dallas+TX1742
24,80,5,,,Dallas+TX2635,Kansas+City+MO4106
24,208,1,,,Dallas+TX2635,Dallas+TX3549
24,205,1,,,Dallas+TX2635,Dallas+TX6689
24,193,1,,,Dallas+TX2635,Dallas+TX6580
24,37,1,,,Dallas+TX2635,Dallas+TX6494
24,114,1,,,Dallas+TX2635,Dallas+TX6573
24,111,1,,,Dallas+TX2635,Dallas+TX6645
24,207,1,,,Dallas+TX2635,Dallas+TX6504
24,79,5,,,Dallas+TX2635,Kansas+City+MO4105
25,220,5,,,Dallas+TX4015,Kansas+City+MO6690
25,202,1,,,Dallas+TX4015,Dallas+TX6749
25,115,1,,,Dallas+TX4015,Dallas+TX6558
25,222,1,,,Dallas+TX4015,Dallas+TX6658
25,75,12,,,Dallas+TX4015,Pennsauken+NJ4109
25,285,2,,,Dallas+TX4015,Richardson+TX5500
25,139,9,,,Dallas+TX4015,Orlando+FL4049
25,146,9,,,Dallas+TX4015,Orlando+FL4050
26,109,5,,,Dallas+TX4080,Kansas+City+MO4082
27,198,2,,,New+York+NY4028,Pennsauken+NJ4135
27,125,7,,,New+York+NY4028,Chicago+IL1391
27,201,9,,,New+York+NY4028,Orlando+FL4089
28,203,8,,,Dallas+TX4115,Chicago+IL4123
29,30,1,,,Washington+DC6456,Washington+DC6736
29,34,1,,,Washington+DC6456,Washington+DC6393
29,32,1,,,Washington+DC6456,Washington+DC6415
29,31,1,,,Washington+DC6456,Washington+DC6543
30,123,1,,,Washington+DC6736,Washington+DC4142
33,229,1,,,Relay+MD4093,Relay+MD4127
33,228,1,,,Relay+MD4093,Relay+MD6576
33,309,2,,,Relay+MD4093,Reston+VA5497
35,271,2,,,Relay+MD4054,Reston+VA5496
35,48,4,,,Relay+MD4054,Research+Triangle+Park+NC4057
35,270,3,,,Relay+MD4054,New+York+NY4129
38,40,1,,,Roachdale+IN6712,Roachdale+IN4056
38,39,1,,,Roachdale+IN6712,Roachdale+IN4111
39,132,1,,,Roachdale+IN4111,Roachdale+IN6729
39,134,1,,,Roachdale+IN4111,Roachdale+IN6552
39,137,1,,,Roachdale+IN4111,Roachdale+IN6636
39,133,1,,,Roachdale+IN4111,Roachdale+IN6676
39,136,1,,,Roachdale+IN4111,Roachdale+IN6402
39,135,1,,,Roachdale+IN4111,Roachdale+IN6697
39,131,7,,,Roachdale+IN4111,Pennsauken+NJ4117
40,225,7,,,Roachdale+IN4056,Pennsauken+NJ4125
40,227,1,,,Roachdale+IN4056,Roachdale+IN6677
40,226,7,,,Roachdale+IN4056,Pennsauken+NJ4126
41,43,3,,,London4083,Brussels+Belgium4033
41,45,29,,,London4083,New+York+NY4022
41,44,4,,,London4083,Dublin+Ireland4078
41,42,1,,,London4083,London4044
42,296,1,,,London4044,London4045
42,51,3,,,London4044,Paris4090
42,315,4,,,London4044,Dublin+Ireland4039
43,194,1,,,Brussels+Belgium4033,Brussels+Belgium4075
46,47,29,,,London4084,New+York+NY4024
47,297,1,,,New+York+NY4024,New+York+NY4134
49,50,1,,,Milan+Italy4046,Milan+Italy4085
50,267,4,,,Milan+Italy4085,Frankfurt4040
51,281,1,,,Paris4090,Paris4051
52,53,1,,,Pearl+Harbor+HI4092,Pearl+Harbor+HI6400
52,56,1,,,Pearl+Harbor+HI4092,Pearl+Harbor+HI6550
55,290,1,,,Stockton+CA4096,Stockton+CA6719
55,243,1,,,Stockton+CA4096,Stockton+CA6609
55,286,1,,,Stockton+CA4096,Stockton+CA6569
55,299,1,,,Stockton+CA4096,Stockton+CA6407
55,262,62,,,Stockton+CA4096,Sydney+Australia4068
55,284,1,,,Stockton+CA4096,Stockton+CA6563
55,303,1,,,Stockton+CA4096,Stockton+CA6758
55,244,1,,,Stockton+CA4096,Stockton+CA6463
55,302,1,,,Stockton+CA4096,Stockton+CA6583
55,301,1,,,Stockton+CA4096,Stockton+CA3402
55,84,2,,,Stockton+CA4096,Rancho+Cordova+CA5514
55,266,1,,,Stockton+CA4096,Stockton+CA6479
55,300,1,,,Stockton+CA4096,Stockton+CA6590
55,232,1,,,Stockton+CA4096,Stockton+CA6602
55,196,1,,,Stockton+CA4096,Stockton+CA6452
55,249,57,,,Stockton+CA4096,Hong+Kong6421
55,293,1,,,Stockton+CA4096,Stockton+CA6577
55,265,1,,,Stockton+CA4096,Stockton+CA6619
57,58,4,,,Research+Triangle+Park+NC4058,Atlanta+GA4074
58,140,1,,,Atlanta+GA4074,Atlanta+GA6735
58,144,1,,,Atlanta+GA4074,Atlanta+GA2338
58,147,1,,,Atlanta+GA4074,Atlanta+GA2347
58,138,1,,,Atlanta+GA4074,Atlanta+GA4102
58,145,1,,,Atlanta+GA4074,Atlanta+GA6540
58,141,1,,,Atlanta+GA4074,Atlanta+GA6745
58,143,1,,,Atlanta+GA4074,Atlanta+GA6685
58,151,1,,,Atlanta+GA4074,Atlanta+GA6481
58,150,1,,,Atlanta+GA4074,Atlanta+GA6465
58,152,1,,,Atlanta+GA4074,Atlanta+GA6628
58,69,1,,,Atlanta+GA4074,Atlanta+GA3957
58,142,1,,,Atlanta+GA4074,Atlanta+GA2344
61,187,1,,,Cheyenne+WY4076,Cheyenne+WY6723
61,190,1,,,Cheyenne+WY4076,Cheyenne+WY6413
61,184,1,,,Cheyenne+WY4076,Cheyenne+WY6455
61,189,1,,,Cheyenne+WY4076,Cheyenne+WY6388
61,186,1,,,Cheyenne+WY4076,Cheyenne+WY2439
61,191,1,,,Cheyenne+WY4076,Cheyenne+WY6542
61,188,1,,,Cheyenne+WY4076,Cheyenne+WY6629
61,185,2,,,Cheyenne+WY4076,Denver+Colorado5501
63,311,28,,,Tokyo4070,Singapore4094
63,310,1,,,Tokyo4070,Tokyo4071
63,250,1,,,Tokyo4070,Tokyo4069
63,248,16,,,Tokyo4070,Hong+Kong4042
64,65,3,,,Hamburg+Germany4041,Amsterdam4072
64,67,5,,,Hamburg+Germany4041,Munich+Germany4087
64,66,1,,,Hamburg+Germany4041,Hamburg+Germany4081
65,242,1,,,Amsterdam4072,Amsterdam4030
68,70,1,,,Atlanta+GA6565,Atlanta+GA4032
70,154,5,,,Atlanta+GA4032,Orlando+FL4108
72,73,2,,,Denver+Colorado5511,Cheyenne+WY4034
74,76,1,,,Pennsauken+NJ6624,Pennsauken+NJ4052
74,77,1,,,Pennsauken+NJ6624,Pennsauken+NJ4091
75,238,1,,,Pennsauken+NJ4109,Pennsauken+NJ6728
75,88,1,,,Pennsauken+NJ4109,Pennsauken+NJ6486
75,236,1,,,Pennsauken+NJ4109,Pennsauken+NJ6517
75,234,1,,,Pennsauken+NJ4109,Pennsauken+NJ6614
75,235,1,,,Pennsauken+NJ4109,Pennsauken+NJ6525
75,237,1,,,Pennsauken+NJ4109,Pennsauken+NJ6448
75,239,1,,,Pennsauken+NJ4109,Pennsauken+NJ6754
75,233,1,,,Pennsauken+NJ4109,Pennsauken+NJ6516
76,273,1,,,Pennsauken+NJ4052,Pennsauken+NJ6399
77,169,3,,,Pennsauken+NJ4091,Springfield+MA4023
78,79,2,,,Lees+Summit+MO5512,Kansas+City+MO4105
79,217,1,,,Kansas+City+MO4105,Kansas+City+MO6458
79,219,1,,,Kansas+City+MO4105,Kansas+City+MO6422
79,108,1,,,Kansas+City+MO4105,Kansas+City+MO6707
79,216,1,,,Kansas+City+MO4105,Kansas+City+MO6472
79,82,1,,,Kansas+City+MO4105,Kansas+City+MO6544
79,218,1,,,Kansas+City+MO4105,Kansas+City+MO6395
81,82,6,,,Cheyenne+WY6746,Kansas+City+MO6544
83,84,1,,,Rancho+Cordova+CA5507,Rancho+Cordova+CA5514
109,291,2,,,Kansas+City+MO4082,Lees+Summit+MO5503
109,292,2,,,Kansas+City+MO4082,Lees+Summit+MO5505
109,246,1,,,Kansas+City+MO4082,Kansas+City+MO6750
110,247,2,,,Kansas+City+MO4043,Lees+Summit+MO5504
126,264,8,,,Chicago+IL4122,Springfield+MA4025
126,241,1,,,Chicago+IL4122,Chicago+IL6651
127,223,8,,,Chicago+IL4036,Springfield+MA4020
128,160,1,,,Chicago+IL1484,Chicago+IL6643
129,221,1,,,Chicago+IL4104,Chicago+IL6652
138,149,1,,,Atlanta+GA4102,Atlanta+GA6439
139,176,1,,,Orlando+FL4049,Orlando+FL6459
139,288,1,,,Orlando+FL4049,Orlando+FL6693
139,287,1,,,Orlando+FL4049,Orlando+FL6429
148,280,2,,,Relay+MD4131,Ashburn+VA10162
153,312,1,,,New+York+NY4048,New+York+NY6751
153,306,1,,,New+York+NY4048,New+York+NY4137
153,313,1,,,New+York+NY4048,New+York+NY6752
153,295,1,,,New+York+NY4048,New+York+NY4017
156,289,1,,,Seattle+WA4059,Seattle+WA6432
156,182,1,,,Seattle+WA4059,Seattle+WA4019
157,261,1,,,Sydney+Australia4067,Sydney+Australia6437
169,307,2,,,Springfield+MA4023,Boston5509
169,305,1,,,Springfield+MA4023,Springfield+MA6406
179,277,1,,,New+York+NY4116,New+York+NY6606
179,276,1,,,New+York+NY4116,New+York+NY6605
181,182,1,,,Seattle+WA6476,Seattle+WA4019
182,230,1,,,Seattle+WA4019,Seattle+WA6450
190,263,11,,,Cheyenne+WY6413,Atlanta+GA6530
198,231,1,,,Pennsauken+NJ4135,Pennsauken+NJ6647
223,304,2,,,Springfield+MA4020,Boston5499
229,272,2,,,Relay+MD4127,Ashburn+VA10163
254,283,2,,,Relay+MD4138,Ashburn+VA10161
267,282,1,,,Frankfurt4040,Frankfurt4079
268,308,4,,,Copenhagen4077,Stockholm+Sweden4097
74,75,1,,,Pennsauken+NJ6624,Pennsauken+NJ4109
49,51,5,,,Milan+Italy4046,Paris4090
