-T UDP -a 10.0.26.1 -rp 12401 -b 192 -k 10240 -c 1400 -d 10 -m rttm
-T UDP -a 10.0.26.1 -rp 12411 -b 176 -k 10240 -c 1400 -d 20 -m rttm
-T UDP -a 10.0.34.1 -rp 12421 -b 140 -k 10240 -c 1400 -d 30 -m rttm
-T UDP -a 10.0.34.1 -rp 12431 -b 92 -k 10240 -c 1400 -d 40 -m rttm
-T UDP -a 10.0.31.1 -rp 12441 -b 200 -k 10240 -c 1400 -d 50 -m rttm
-T UDP -a 10.0.31.1 -rp 12451 -b 52 -k 10240 -c 1400 -d 60 -m rttm
-T UDP -a 10.0.22.1 -rp 12461 -b 160 -k 10240 -c 1400 -d 70 -m rttm
-T UDP -a 10.0.22.1 -rp 12471 -b 56 -k 10240 -c 1400 -d 80 -m rttm
-T UDP -a 10.0.33.1 -rp 12481 -b 248 -k 10240 -c 1400 -d 90 -m rttm
-T UDP -a 10.0.33.1 -rp 12491 -b 32 -k 10240 -c 1400 -d 100 -m rttm
-T UDP -a 10.0.35.1 -rp 12501 -b 224 -k 10240 -c 1400 -d 110 -m rttm
-T UDP -a 10.0.35.1 -rp 12511 -b 48 -k 10240 -c 1400 -d 120 -m rttm
-T UDP -a 10.0.21.1 -rp 12521 -b 208 -k 10240 -c 1400 -d 130 -m rttm
-T UDP -a 10.0.21.1 -rp 12531 -b 72 -k 10240 -c 1400 -d 140 -m rttm
-T UDP -a 10.0.27.1 -rp 12541 -b 44 -k 10240 -c 1400 -d 150 -m rttm
-T UDP -a 10.0.27.1 -rp 12551 -b 64 -k 10240 -c 1400 -d 160 -m rttm
-T UDP -a 10.0.32.1 -rp 12561 -b 80 -k 10240 -c 1400 -d 170 -m rttm
-T UDP -a 10.0.32.1 -rp 12571 -b 124 -k 10240 -c 1400 -d 180 -m rttm
-T UDP -a 10.0.28.1 -rp 12581 -b 136 -k 10240 -c 1400 -d 190 -m rttm
-T UDP -a 10.0.28.1 -rp 12591 -b 180 -k 10240 -c 1400 -d 200 -m rttm
-T UDP -a 10.0.30.1 -rp 12601 -b 92 -k 10240 -c 1400 -d 210 -m rttm
-T UDP -a 10.0.30.1 -rp 12611 -b 172 -k 10240 -c 1400 -d 220 -m rttm
-T UDP -a 10.0.24.1 -rp 12621 -b 56 -k 10240 -c 1400 -d 230 -m rttm
-T UDP -a 10.0.24.1 -rp 12631 -b 176 -k 10240 -c 1400 -d 240 -m rttm
-T UDP -a 10.0.36.1 -rp 12641 -b 76 -k 10240 -c 1400 -d 250 -m rttm
-T UDP -a 10.0.36.1 -rp 12651 -b 168 -k 10240 -c 1400 -d 260 -m rttm
-T UDP -a 10.0.25.1 -rp 12661 -b 84 -k 10240 -c 1400 -d 270 -m rttm
-T UDP -a 10.0.25.1 -rp 12671 -b 152 -k 10240 -c 1400 -d 280 -m rttm
-T UDP -a 10.0.29.1 -rp 12681 -b 212 -k 10240 -c 1400 -d 290 -m rttm
-T UDP -a 10.0.29.1 -rp 12691 -b 92 -k 10240 -c 1400 -d 300 -m rttm
