-T UDP -a 10.0.32.1 -rp 11201 -b 64 -k 10240 -c 1400 -d 10 -m rttm
-T UDP -a 10.0.32.1 -rp 11211 -b 16 -k 10240 -c 1400 -d 20 -m rttm
-T UDP -a 10.0.21.1 -rp 11221 -b 240 -k 10240 -c 1400 -d 30 -m rttm
-T UDP -a 10.0.21.1 -rp 11231 -b 244 -k 10240 -c 1400 -d 40 -m rttm
-T UDP -a 10.0.28.1 -rp 11241 -b 12 -k 10240 -c 1400 -d 50 -m rttm
-T UDP -a 10.0.28.1 -rp 11251 -b 96 -k 10240 -c 1400 -d 60 -m rttm
-T UDP -a 10.0.34.1 -rp 11261 -b 116 -k 10240 -c 1400 -d 70 -m rttm
-T UDP -a 10.0.34.1 -rp 11271 -b 128 -k 10240 -c 1400 -d 80 -m rttm
-T UDP -a 10.0.29.1 -rp 11281 -b 168 -k 10240 -c 1400 -d 90 -m rttm
-T UDP -a 10.0.29.1 -rp 11291 -b 164 -k 10240 -c 1400 -d 100 -m rttm
-T UDP -a 10.0.26.1 -rp 11301 -b 32 -k 10240 -c 1400 -d 110 -m rttm
-T UDP -a 10.0.26.1 -rp 11311 -b 108 -k 10240 -c 1400 -d 120 -m rttm
-T UDP -a 10.0.25.1 -rp 11321 -b 44 -k 10240 -c 1400 -d 130 -m rttm
-T UDP -a 10.0.25.1 -rp 11331 -b 16 -k 10240 -c 1400 -d 140 -m rttm
-T UDP -a 10.0.33.1 -rp 11341 -b 120 -k 10240 -c 1400 -d 150 -m rttm
-T UDP -a 10.0.33.1 -rp 11351 -b 104 -k 10240 -c 1400 -d 160 -m rttm
-T UDP -a 10.0.36.1 -rp 11361 -b 208 -k 10240 -c 1400 -d 170 -m rttm
-T UDP -a 10.0.36.1 -rp 11371 -b 16 -k 10240 -c 1400 -d 180 -m rttm
-T UDP -a 10.0.22.1 -rp 11381 -b 220 -k 10240 -c 1400 -d 190 -m rttm
-T UDP -a 10.0.22.1 -rp 11391 -b 164 -k 10240 -c 1400 -d 200 -m rttm
-T UDP -a 10.0.24.1 -rp 11401 -b 112 -k 10240 -c 1400 -d 210 -m rttm
-T UDP -a 10.0.24.1 -rp 11411 -b 240 -k 10240 -c 1400 -d 220 -m rttm
-T UDP -a 10.0.23.1 -rp 11421 -b 44 -k 10240 -c 1400 -d 230 -m rttm
-T UDP -a 10.0.23.1 -rp 11431 -b 108 -k 10240 -c 1400 -d 240 -m rttm
-T UDP -a 10.0.30.1 -rp 11441 -b 140 -k 10240 -c 1400 -d 250 -m rttm
-T UDP -a 10.0.30.1 -rp 11451 -b 80 -k 10240 -c 1400 -d 260 -m rttm
-T UDP -a 10.0.27.1 -rp 11461 -b 136 -k 10240 -c 1400 -d 270 -m rttm
-T UDP -a 10.0.27.1 -rp 11471 -b 244 -k 10240 -c 1400 -d 280 -m rttm
-T UDP -a 10.0.31.1 -rp 11481 -b 240 -k 10240 -c 1400 -d 290 -m rttm
-T UDP -a 10.0.31.1 -rp 11491 -b 116 -k 10240 -c 1400 -d 300 -m rttm
