1,"[5, 8, 6]"
2,"[1, 9, 10]"
3,"[10, 5, 1]"
4,"[2, 6, 9]"
5,"[8, 4, 10]"
6,"[7, 1, 5]"
7,"[7, 3, 2]"
8,"[9, 6, 5]"
9,"[4, 8, 1]"
10,"[7, 4, 1]"
11,"[10, 9, 6]"
12,"[9, 6, 7]"
13,"[9, 6, 5]"
14,"[9, 6, 1]"
15,"[2, 9, 3]"
16,"[1, 6, 9]"
17,"[7, 2, 8]"
18,"[1, 7, 10]"
19,"[7, 5, 1]"
20,"[10, 2, 3]"
21,"[9, 10, 8]"
22,"[2, 6, 9]"
23,"[9, 5, 2]"
24,"[8, 1, 7]"
25,"[8, 6, 5]"
26,"[7, 1, 2]"
27,"[6, 2, 1]"
28,"[9, 10, 4]"
29,"[3, 5, 7]"
30,"[6, 9, 8]"
31,"[7, 6, 9]"
32,"[2, 10, 9]"
33,"[2, 9, 3]"
34,"[2, 6, 4]"
35,"[6, 10, 8]"
36,"[1, 9, 6]"
37,"[6, 4, 2]"
38,"[8, 10, 5]"
39,"[3, 7, 10]"
40,"[2, 4, 7]"
41,"[7, 8, 9]"
42,"[8, 6, 1]"
43,"[8, 5, 9]"
44,"[7, 5, 8]"
45,"[8, 7, 6]"
46,"[7, 5, 6]"
47,"[10, 8, 7]"
48,"[6, 5, 3]"
49,"[10, 5, 2]"
50,"[4, 6, 1]"
51,"[1, 4, 10]"
52,"[6, 8, 9]"
53,"[4, 3, 1]"
54,"[10, 6, 4]"
55,"[8, 4, 7]"
56,"[4, 5, 2]"
57,"[8, 4, 6]"
58,"[2, 1, 9]"
59,"[6, 2, 4]"
60,"[9, 3, 4]"
61,"[9, 6, 8]"
62,"[7, 10, 5]"
63,"[2, 8, 5]"
64,"[2, 5, 1]"
65,"[9, 3, 1]"
66,"[6, 7, 4]"
67,"[1, 9, 10]"
68,"[9, 10, 4]"
69,"[1, 2, 4]"
70,"[9, 4, 1]"
71,"[9, 7, 6]"
72,"[10, 3, 9]"
73,"[5, 2, 7]"
74,"[3, 10, 2]"
75,"[3, 7, 10]"
76,"[3, 10, 4]"
77,"[3, 6, 10]"
78,"[2, 8, 4]"
79,"[5, 9, 1]"
80,"[1, 10, 3]"
81,"[2, 3, 8]"
82,"[9, 5, 10]"
83,"[7, 4, 8]"
84,"[3, 7, 5]"
85,"[3, 5, 10]"
86,"[9, 4, 10]"
87,"[8, 5, 3]"
88,"[8, 7, 10]"
89,"[5, 10, 3]"
90,"[9, 6, 4]"
91,"[5, 9, 6]"
92,"[6, 2, 4]"
93,"[8, 7, 10]"
94,"[4, 10, 7]"
95,"[1, 4, 10]"
96,"[2, 10, 6]"
97,"[1, 9, 5]"
98,"[10, 8, 4]"
99,"[2, 10, 7]"
100,"[9, 10, 4]"
101,"[4, 1, 5]"
102,"[6, 1, 5]"
103,"[9, 10, 4]"
104,"[7, 9, 1]"
105,"[9, 7, 6]"
106,"[5, 4, 7]"
107,"[9, 6, 5]"
108,"[4, 6, 8]"
109,"[10, 3, 5]"
110,"[3, 1, 10]"
111,"[9, 6, 4]"
112,"[8, 10, 6]"
113,"[7, 3, 5]"
114,"[5, 1, 2]"
115,"[7, 3, 1]"
116,"[9, 7, 10]"
117,"[8, 1, 2]"
118,"[8, 1, 4]"
119,"[9, 4, 10]"
120,"[1, 2, 3]"
121,"[10, 4, 7]"
122,"[6, 8, 1]"
123,"[1, 10, 8]"
124,"[8, 10, 5]"
125,"[8, 1, 3]"
126,"[8, 9, 7]"
127,"[2, 1, 9]"
128,"[8, 4, 9]"
129,"[5, 7, 2]"
130,"[3, 2, 10]"
131,"[8, 10, 2]"
132,"[2, 7, 10]"
133,"[2, 9, 10]"
134,"[4, 10, 6]"
135,"[9, 7, 3]"
136,"[9, 8, 3]"
137,"[7, 2, 10]"
138,"[2, 10, 8]"
139,"[5, 9, 10]"
140,"[10, 3, 4]"
141,"[6, 3, 2]"
142,"[8, 3, 2]"
143,"[5, 10, 3]"
144,"[5, 3, 8]"
145,"[2, 7, 1]"
146,"[1, 2, 8]"
147,"[8, 6, 4]"
148,"[5, 9, 3]"
149,"[3, 8, 4]"
150,"[10, 7, 8]"
151,"[2, 6, 3]"
152,"[10, 7, 6]"
153,"[8, 3, 6]"
154,"[3, 10, 5]"
155,"[7, 4, 1]"
156,"[4, 1, 9]"
157,"[10, 7, 6]"
158,"[10, 7, 5]"
159,"[3, 2, 10]"
160,"[10, 7, 3]"
161,"[9, 7, 1]"
162,"[8, 1, 10]"
163,"[4, 5, 7]"
164,"[3, 9, 5]"
165,"[6, 9, 8]"
166,"[9, 8, 2]"
167,"[7, 4, 10]"
168,"[3, 9, 2]"
169,"[8, 5, 2]"
170,"[9, 10, 4]"
171,"[10, 5, 4]"
172,"[10, 4, 1]"
173,"[6, 3, 5]"
174,"[3, 4, 8]"
175,"[6, 9, 3]"
176,"[4, 3, 10]"
177,"[10, 6, 4]"
178,"[8, 7, 1]"
179,"[6, 4, 3]"
180,"[7, 10, 4]"
181,"[4, 10, 8]"
182,"[9, 8, 3]"
183,"[7, 9, 10]"
184,"[10, 4, 6]"
185,"[10, 7, 4]"
186,"[3, 2, 6]"
187,"[7, 10, 4]"
188,"[2, 7, 5]"
189,"[5, 3, 9]"
190,"[4, 6, 5]"
191,"[9, 3, 10]"
192,"[1, 10, 7]"
193,"[7, 4, 3]"
194,"[7, 6, 10]"
195,"[5, 9, 6]"
196,"[5, 8, 2]"
197,"[4, 3, 1]"
198,"[8, 9, 5]"
199,"[6, 7, 1]"
200,"[9, 1, 5]"
201,"[3, 8, 7]"
202,"[8, 5, 3]"
203,"[8, 9, 1]"
204,"[5, 2, 8]"
205,"[10, 5, 3]"
206,"[10, 5, 9]"
207,"[1, 4, 6]"
208,"[10, 6, 5]"
209,"[3, 6, 9]"
210,"[1, 4, 6]"
211,"[4, 5, 9]"
212,"[2, 10, 7]"
213,"[6, 9, 8]"
214,"[9, 3, 10]"
215,"[4, 9, 2]"
216,"[1, 6, 7]"
217,"[10, 1, 2]"
218,"[7, 6, 9]"
219,"[8, 5, 4]"
220,"[3, 9, 1]"
221,"[8, 5, 4]"
222,"[8, 4, 9]"
223,"[7, 2, 8]"
224,"[1, 10, 4]"
225,"[7, 4, 10]"
226,"[6, 1, 5]"
227,"[8, 4, 5]"
228,"[8, 6, 5]"
229,"[5, 7, 8]"
230,"[10, 2, 3]"
231,"[1, 5, 6]"
232,"[8, 4, 6]"
233,"[6, 7, 9]"
234,"[7, 8, 10]"
235,"[9, 5, 3]"
236,"[1, 4, 7]"
237,"[5, 6, 3]"
238,"[8, 10, 9]"
239,"[1, 3, 2]"
240,"[10, 2, 6]"
241,"[8, 5, 10]"
242,"[2, 7, 9]"
243,"[8, 5, 7]"
244,"[3, 2, 6]"
245,"[1, 8, 2]"
246,"[2, 5, 3]"
247,"[3, 6, 9]"
248,"[8, 9, 7]"
249,"[3, 5, 8]"
250,"[10, 8, 9]"
251,"[3, 5, 7]"
252,"[9, 2, 10]"
253,"[9, 1, 3]"
254,"[8, 10, 5]"
255,"[8, 2, 6]"
