py net.get('h1').cmd('sudo python gn_sniff_sk.py 1100,1101 1 6 500 5 0.01 0 -q &')

py net.get('h1').cmd('sudo python client_task.py 1100,1101 1 6 500 5 0.01 0 -q &')


py net.get('h2').cmd('sudo python client_task.py 1100,1101 1 6 5 5 0.01 0 -q &')





./drench_controller.sh /home/mininet/drench list3.csv svc_chain_dict.csv

sudo python net_v2.py -b /home/mininet/drench -c demotopo_conf.csv -s svc_chain_dict.csv

