-T UDP -a 10.0.0.35 -rp 13901 -b 232 -k 4 -c 1400 -d 10 -m rttm
-T UDP -a 10.0.0.35 -rp 13911 -b 100 -k 4 -c 1400 -d 20 -m rttm
-T UDP -a 10.0.0.27 -rp 13921 -b 168 -k 4 -c 1400 -d 30 -m rttm
-T UDP -a 10.0.0.27 -rp 13931 -b 180 -k 4 -c 1400 -d 40 -m rttm
-T UDP -a 10.0.0.22 -rp 13941 -b 72 -k 4 -c 1400 -d 50 -m rttm
-T UDP -a 10.0.0.22 -rp 13951 -b 8 -k 4 -c 1400 -d 60 -m rttm
-T UDP -a 10.0.0.23 -rp 13961 -b 52 -k 4 -c 1400 -d 70 -m rttm
-T UDP -a 10.0.0.23 -rp 13971 -b 124 -k 10240 -c 1400 -d 80 -m rttm
-T UDP -a 10.0.0.25 -rp 13981 -b 76 -k 4 -c 1400 -d 90 -m rttm
-T UDP -a 10.0.0.25 -rp 13991 -b 240 -k 4 -c 1400 -d 100 -m rttm
-T UDP -a 10.0.0.31 -rp 14001 -b 140 -k 4 -c 1400 -d 110 -m rttm
-T UDP -a 10.0.0.31 -rp 14011 -b 24 -k 4 -c 1400 -d 120 -m rttm
-T UDP -a 10.0.0.28 -rp 14021 -b 136 -k 4 -c 1400 -d 130 -m rttm
-T UDP -a 10.0.0.28 -rp 14031 -b 124 -k 4 -c 1400 -d 140 -m rttm
-T UDP -a 10.0.0.24 -rp 14041 -b 220 -k 4 -c 1400 -d 150 -m rttm
-T UDP -a 10.0.0.24 -rp 14051 -b 24 -k 10240 -c 1400 -d 160 -m rttm
-T UDP -a 10.0.0.32 -rp 14061 -b 148 -k 4 -c 1400 -d 170 -m rttm
-T UDP -a 10.0.0.32 -rp 14071 -b 172 -k 4 -c 1400 -d 180 -m rttm
-T UDP -a 10.0.0.26 -rp 14081 -b 236 -k 4 -c 1400 -d 190 -m rttm
-T UDP -a 10.0.0.26 -rp 14091 -b 200 -k 4 -c 1400 -d 200 -m rttm
-T UDP -a 10.0.0.21 -rp 14101 -b 12 -k 4 -c 1400 -d 210 -m rttm
-T UDP -a 10.0.0.21 -rp 14111 -b 136 -k 4 -c 1400 -d 220 -m rttm
-T UDP -a 10.0.0.34 -rp 14121 -b 32 -k 4 -c 1400 -d 230 -m rttm
-T UDP -a 10.0.0.34 -rp 14131 -b 8 -k 10240 -c 1400 -d 240 -m rttm
-T UDP -a 10.0.0.30 -rp 14141 -b 204 -k 4 -c 1400 -d 250 -m rttm
-T UDP -a 10.0.0.30 -rp 14151 -b 92 -k 4 -c 1400 -d 260 -m rttm
-T UDP -a 10.0.0.33 -rp 14161 -b 148 -k 4 -c 1400 -d 270 -m rttm
-T UDP -a 10.0.0.33 -rp 14171 -b 72 -k 4 -c 1400 -d 280 -m rttm
-T UDP -a 10.0.0.29 -rp 14181 -b 232 -k 4 -c 1400 -d 290 -m rttm
-T UDP -a 10.0.0.29 -rp 14191 -b 12 -k 4 -c 1400 -d 300 -m rttm
