-T UDP -a 10.0.24.1 -rp 10601 -b 92 -k 4 -c 1400 -d 10  -m rttm
-T UDP -a 10.0.24.1 -rp 10611 -b 192 -k 4 -c 1400 -d 20  -m rttm
-T UDP -a 10.0.36.1 -rp 10621 -b 136 -k 4 -c 1400 -d 30  -m rttm
-T UDP -a 10.0.36.1 -rp 10631 -b 116 -k 4 -c 1400 -d 40  -m rttm
-T UDP -a 10.0.35.1 -rp 10641 -b 84 -k 4 -c 1400 -d 50  -m rttm
-T UDP -a 10.0.35.1 -rp 10651 -b 136 -k 4 -c 1400 -d 60  -m rttm
-T UDP -a 10.0.30.1 -rp 10661 -b 36 -k 4 -c 1400 -d 70  -m rttm
-T UDP -a 10.0.30.1 -rp 10671 -b 48 -k 10240 -c 1400 -d 80 -m rttm
