28,3,0
30,3,0
32,3,0
34,3,0
36,3,0
38,3,0
40,3,0
42,3,0
44,3,0
46,3,0
48,3,0
50,3,0
52,3,0
54,3,0
56,3,0
58,3,0
60,3,0
62,3,0
64,3,0
66,3,0
68,3,0
70,3,0
72,3,00:00:00:00:00:05-1
74,3,00:00:00:00:00:05-1
76,3,00:00:00:00:00:02-1
78,3,00:00:00:00:00:02-1
80,3,00:00:00:00:00:02-1
82,3,00:00:00:00:00:02-1
84,3,00:00:00:00:00:02-1
86,3,00:00:00:00:00:02-1
88,3,00:00:00:00:00:02-1
90,3,00:00:00:00:00:02-1
92,3,00:00:00:00:00:02-1
94,3,00:00:00:00:00:02-1
96,3,00:00:00:00:00:02-1
98,3,00:00:00:00:00:02-1
100,3,00:00:00:00:00:02-1
102,3,00:00:00:00:00:02-1
104,3,00:00:00:00:00:02-1
106,3,00:00:00:00:00:02-1
108,3,0
110,3,0
113,3,0
115,3,0
117,3,0
119,3,0
121,3,0
123,3,0
125,3,0
127,3,0
129,3,0
131,3,0
133,3,0
135,3,0
137,3,0
139,3,0
141,3,0
143,3,0
145,3,0
147,3,0
149,3,0
151,3,0
153,3,0
155,3,0
157,3,0
159,3,0
161,3,0
163,3,0
165,3,0
167,3,0
169,3,0
171,3,0
173,3,0
175,3,0
177,3,0
179,3,0
181,3,0
183,3,0
185,3,0
187,3,0
189,3,0
191,3,0
193,3,0
195,3,0
197,3,0
199,3,0
201,3,0
203,3,0
205,3,0
207,3,0
209,3,0
211,3,0
213,3,0
215,3,0
218,3,0
220,3,0
222,3,0
224,3,0
226,3,0
228,3,0
230,3,0
232,3,0
234,3,0
236,3,0
238,3,0
240,3,0
242,3,0
244,3,0
246,3,0
248,3,0
250,3,0
252,3,0
254,3,0
256,3,0
258,3,0
260,3,0
262,3,0
264,3,0
266,3,0
268,3,0
270,3,0
272,3,0
274,3,0
276,3,0
278,3,0
280,3,0
282,3,0
284,3,0
286,3,0
288,3,0
290,3,0
292,3,0
294,3,0
296,3,0
298,3,0
300,3,0
302,3,0
304,3,0
306,3,0
308,3,0
310,3,0
312,3,0
314,3,0
316,3,0
318,3,0
320,3,0
322,3,0
