-T UDP -a 10.0.0.31 -rp 10001 -b 100 -k 10240 -c 1400 -d 10 -m rttm
-T UDP -a 10.0.0.31 -rp 10011 -b 36 -k 10240 -c 1400 -d 20 -m rttm
-T UDP -a 10.0.0.22 -rp 10021 -b 92 -k 10240 -c 1400 -d 30 -m rttm
-T UDP -a 10.0.0.22 -rp 10031 -b 84 -k 10240 -c 1400 -d 40 -m rttm
-T UDP -a 10.0.0.27 -rp 10041 -b 116 -k 10240 -c 1400 -d 50 -m rttm
-T UDP -a 10.0.0.27 -rp 10051 -b 56 -k 10240 -c 1400 -d 60 -m rttm
-T UDP -a 10.0.0.23 -rp 10061 -b 12 -k 10240 -c 1400 -d 70 -m rttm
-T UDP -a 10.0.0.23 -rp 10071 -b 148 -k 10240 -c 1400 -d 80 -m rttm
-T UDP -a 10.0.0.34 -rp 10081 -b 96 -k 10240 -c 1400 -d 90 -m rttm
-T UDP -a 10.0.0.34 -rp 10091 -b 188 -k 10240 -c 1400 -d 100 -m rttm
-T UDP -a 10.0.0.29 -rp 10101 -b 168 -k 10240 -c 1400 -d 110 -m rttm
-T UDP -a 10.0.0.29 -rp 10111 -b 84 -k 10240 -c 1400 -d 120 -m rttm
-T UDP -a 10.0.0.32 -rp 10121 -b 112 -k 10240 -c 1400 -d 130 -m rttm
-T UDP -a 10.0.0.32 -rp 10131 -b 208 -k 10240 -c 1400 -d 140 -m rttm
-T UDP -a 10.0.0.24 -rp 10141 -b 28 -k 10240 -c 1400 -d 150 -m rttm
-T UDP -a 10.0.0.24 -rp 10151 -b 64 -k 10240 -c 1400 -d 160 -m rttm
