-T UDP -a 10.0.0.31 -rp 10001 -b 100 -k 10240 -c 1400 -d 10 -m rttm
-T UDP -a 10.0.0.31 -rp 10011 -b 36 -k 10240 -c 1400 -d 20 -m rttm
-T UDP -a 10.0.0.22 -rp 10021 -b 92 -k 10240 -c 1400 -d 30 -m rttm
-T UDP -a 10.0.0.22 -rp 10031 -b 84 -k 10240 -c 1400 -d 40 -m rttm
