-T UDP -a 10.0.0.29 -rp 14201 -b 76 -k 10240 -c 1400 -d 10 -m rttm
-T UDP -a 10.0.0.29 -rp 14211 -b 52 -k 10240 -c 1400 -d 20 -m rttm
-T UDP -a 10.0.0.31 -rp 14221 -b 72 -k 10240 -c 1400 -d 30 -m rttm
-T UDP -a 10.0.0.31 -rp 14231 -b 156 -k 10240 -c 1400 -d 40 -m rttm
