-T UDP -a 10.0.0.32 -rp 13601 -b 188 -k 4 -c 1400 -d 10  -m rttm
-T UDP -a 10.0.0.32 -rp 13611 -b 212 -k 4 -c 1400 -d 20  -m rttm
-T UDP -a 10.0.0.26 -rp 13621 -b 124 -k 4 -c 1400 -d 30  -m rttm
-T UDP -a 10.0.0.26 -rp 13631 -b 252 -k 4 -c 1400 -d 40  -m rttm
-T UDP -a 10.0.0.35 -rp 13641 -b 172 -k 4 -c 1400 -d 50  -m rttm
-T UDP -a 10.0.0.35 -rp 13651 -b 72 -k 4 -c 1400 -d 60  -m rttm
-T UDP -a 10.0.0.29 -rp 13661 -b 176 -k 4 -c 1400 -d 70  -m rttm
-T UDP -a 10.0.0.29 -rp 13671 -b 104 -k 4 -c 1400 -d 80  -m rttm
