-T UDP -a 10.0.0.33 -rp 12701 -b 56 -k 4 -c 1400 -d 10  -m rttm
-T UDP -a 10.0.0.33 -rp 12711 -b 220 -k 4 -c 1400 -d 20  -m rttm
-T UDP -a 10.0.0.34 -rp 12721 -b 204 -k 4 -c 1400 -d 30  -m rttm
-T UDP -a 10.0.0.34 -rp 12731 -b 56 -k 4 -c 1400 -d 40  -m rttm
-T UDP -a 10.0.0.32 -rp 12741 -b 112 -k 4 -c 1400 -d 50  -m rttm
-T UDP -a 10.0.0.32 -rp 12751 -b 120 -k 4 -c 1400 -d 60  -m rttm
-T UDP -a 10.0.0.29 -rp 12761 -b 116 -k 4 -c 1400 -d 70  -m rttm
-T UDP -a 10.0.0.29 -rp 12771 -b 120 -k 4 -c 1400 -d 80  -m rttm
