-T UDP -a 10.0.28.1 -rp 10301 -b 40 -k 4 -c 1400 -d 10  -m rttm
-T UDP -a 10.0.28.1 -rp 10311 -b 68 -k 4 -c 1400 -d 20  -m rttm
-T UDP -a 10.0.36.1 -rp 10321 -b 36 -k 4 -c 1400 -d 30  -m rttm
-T UDP -a 10.0.36.1 -rp 10331 -b 212 -k 4 -c 1400 -d 40  -m rttm
-T UDP -a 10.0.34.1 -rp 10341 -b 140 -k 4 -c 1400 -d 50  -m rttm
-T UDP -a 10.0.34.1 -rp 10351 -b 192 -k 4 -c 1400 -d 60  -m rttm
-T UDP -a 10.0.25.1 -rp 10361 -b 124 -k 4 -c 1400 -d 70  -m rttm
-T UDP -a 10.0.25.1 -rp 10371 -b 168 -k 4 -c 1400 -d 80  -m rttm
