-T UDP -a 10.0.32.1 -rp 11201 -b 64 -k 4 -c 1400 -d 10  -m rttm
-T UDP -a 10.0.32.1 -rp 11211 -b 16 -k 4 -c 1400 -d 20  -m rttm
-T UDP -a 10.0.21.1 -rp 11221 -b 240 -k 4 -c 1400 -d 30  -m rttm
-T UDP -a 10.0.21.1 -rp 11231 -b 244 -k 4 -c 1400 -d 40  -m rttm
