-T UDP -a 10.0.0.33 -rp 12701 -b 56 -k 4 -c 1400 -d 10  -m rttm
-T UDP -a 10.0.0.33 -rp 12711 -b 220 -k 4 -c 1400 -d 20  -m rttm
-T UDP -a 10.0.0.34 -rp 12721 -b 204 -k 4 -c 1400 -d 30  -m rttm
-T UDP -a 10.0.0.34 -rp 12731 -b 56 -k 4 -c 1400 -d 40  -m rttm
