\relax 
\citation{ReproducingDCTCP}
\citation{Bari}
\citation{cao}
\citation{mkhan}
\citation{sfc-pp}
\citation{simplefying}
\citation{opennf}
\citation{stratos}
\citation{splitmerge}
\citation{pico}
\citation{slick}
\citation{elasticEdge}
\@writefile{toc}{\contentsline {section}{\numberline {2}Related works}{6}}
\@setckpt{Related_Works-sameer}{
\setcounter{page}{8}
\setcounter{equation}{0}
\setcounter{enumi}{0}
\setcounter{enumii}{0}
\setcounter{enumiii}{0}
\setcounter{enumiv}{0}
\setcounter{footnote}{1}
\setcounter{mpfootnote}{0}
\setcounter{part}{0}
\setcounter{section}{2}
\setcounter{subsection}{0}
\setcounter{subsubsection}{0}
\setcounter{paragraph}{0}
\setcounter{subparagraph}{0}
\setcounter{figure}{0}
\setcounter{table}{0}
\setcounter{nlinenum}{0}
}
