\relax 
\citation{table1}
\select@language{english}
\@writefile{toc}{\select@language{english}}
\@writefile{lof}{\select@language{english}}
\@writefile{lot}{\select@language{english}}
\newlabel{Simpletopology}{{}{1}}
\@writefile{toc}{\contentsline {section}{\numberline {1}Motivation Example}{1}}
\newlabel{ToyUseCase}{{1}{1}}
\newlabel{FatTreeTopo_4k}{{1}{1}}
\@writefile{toc}{\contentsline {subsection}{\numberline {1.1}\textbf  {Service Instantiation, Consolidation and Utilization}}{1}}
\@writefile{toc}{\contentsline {subsection}{\numberline {1.2}Use case Description}{2}}
\newlabel{UsecaseDesc}{{1.2}{2}}
\@writefile{toc}{\contentsline {subsection}{\numberline {1.3}Results}{2}}
\newlabel{UseCaseRes}{{1.3}{2}}
\@writefile{toc}{\contentsline {subsection}{\numberline {1.4}UseCaseAnalysis}{2}}
\@writefile{toc}{\contentsline {subsection}{\numberline {1.5}Discussion}{2}}
\@writefile{toc}{\contentsline {section}{\numberline {2}Fault Tolerance}{3}}
