-T TCP -a 10.0.0.35 -rp 13901 -b 232 -k 10240 -c 1400 -d 10 -m rttm
-T TCP -a 10.0.0.35 -rp 13911 -b 100 -k 10240 -c 1400 -d 20 -m rttm
-T TCP -a 10.0.0.27 -rp 13921 -b 168 -k 10240 -c 1400 -d 30 -m rttm
-T TCP -a 10.0.0.27 -rp 13931 -b 180 -k 10240 -c 1400 -d 40 -m rttm
-T TCP -a 10.0.0.22 -rp 13941 -b 72 -k 10240 -c 1400 -d 50 -m rttm
-T TCP -a 10.0.0.22 -rp 13951 -b 8 -k 10240 -c 1400 -d 60 -m rttm
-T TCP -a 10.0.0.23 -rp 13961 -b 52 -k 10240 -c 1400 -d 70 -m rttm
-T TCP -a 10.0.0.23 -rp 13971 -b 124 -k 10240 -c 1400 -d 80 -m rttm
