18,3,
20,3,
22,3,
24,3,
26,3,
28,3,
30,3,
32,3,
34,3,
36,3,
38,3,
40,3,
42,3,
44,3,
46,3,
48,3,
50,3,
52,3,
54,3,
56,3,
58,3,
60,3,
62,3,"1-1,2-1"
64,3,"1-1,2-1"
66,3,"1-1,2-1"
68,3,"1-1,2-1"
70,3,"1-1,2-1"
72,3,"1-1,2-1"
74,3,"1-1,2-1"
76,3,"1-1,2-1"
78,3,"1-1,2-1"
80,3,"1-1,2-1"
82,3,"1-1,2-1"
84,3,"1-1,2-1"
86,3,"1-1,2-1"
88,3,"1-1,2-1"
90,3,"1-1,2-1"
92,3,"1-1,2-1"
94,3,"1-1,2-1"
96,3,"1-1,2-1"
98,3,"1-1,2-1"
100,3,"1-1,2-1"
103,3,"1-1,2-1"
105,3,"1-1,2-1"
107,3,"1-1,2-1"
109,3,"1-1,2-1"
111,3,"1-1,2-1"
113,3,"1-1,2-1"
115,3,"1-1,2-1"
117,3,"1-1,2-1"
119,3,"1-1,2-1"
121,3,"1-1,2-1"
123,3,"1-1,2-1"
125,3,"1-1,2-1"
127,3,"1-1,2-1"
129,3,"1-1,2-1"
131,3,"1-1,2-1"
133,3,"1-1,2-1"
