0,0,0.0
2,0,0.0
4,0,0.0
6,0,0.0
8,0,0.0
10,0,0.0
12,0,0.0
14,0,0.0
16,0,0.0
18,0,0.0
20,0,0.0
22,0,0.0
24,0,0.0
26,0,0.0
28,0,0.0
30,0,0.0
32,0,0.0
34,0,0.0
36,0,0.0
38,0,0.0
40,0,0.0
42,0,0.0
44,0,0.0
46,0,0.0
48,0,0.0
50,0,0.0
52,0,0.0
54,0,0.0
56,0,0.0
58,0,0.0
60,4,2.5
62,4,2.5
64,4,2.5
66,4,2.5
68,4,2.5
70,4,2.5
72,4,2.5
74,4,2.5
76,4,2.5
78,4,2.5
80,4,2.5
82,4,2.5
84,4,2.5
86,4,2.5
88,4,2.5
90,4,2.5
92,4,2.5
94,4,2.5
96,0,0.0
98,0,0.0
100,0,0.0
103,0,0.0
105,0,0.0
107,0,0.0
109,0,0.0
111,0,0.0
113,0,0.0
115,0,0.0
117,0,0.0
119,0,0.0
121,0,0.0
123,0,0.0
125,0,0.0
127,0,0.0
129,0,0.0
131,0,0.0
133,0,0.0
