-T UDP -a 10.0.0.25 -rp 13001 -b 56 -k 4 -c 1400 -d 10  -m rttm
-T UDP -a 10.0.0.25 -rp 13011 -b 244 -k 4 -c 1400 -d 20  -m rttm
-T UDP -a 10.0.0.26 -rp 13021 -b 120 -k 4 -c 1400 -d 30  -m rttm
-T UDP -a 10.0.0.26 -rp 13031 -b 132 -k 4 -c 1400 -d 40  -m rttm
-T UDP -a 10.0.0.24 -rp 13041 -b 160 -k 4 -c 1400 -d 50  -m rttm
-T UDP -a 10.0.0.24 -rp 13051 -b 40 -k 4 -c 1400 -d 60  -m rttm
-T UDP -a 10.0.0.35 -rp 13061 -b 132 -k 4 -c 1400 -d 70  -m rttm
-T UDP -a 10.0.0.35 -rp 13071 -b 252 -k 4 -c 1400 -d 80  -m rttm
-T UDP -a 10.0.0.30 -rp 13081 -b 212 -k 4 -c 1400 -d 90  -m rttm
-T UDP -a 10.0.0.30 -rp 13091 -b 4 -k 4 -c 1400 -d 100  -m rttm
-T UDP -a 10.0.0.29 -rp 13101 -b 108 -k 4 -c 1400 -d 110  -m rttm
-T UDP -a 10.0.0.29 -rp 13111 -b 220 -k 4 -c 1400 -d 120  -m rttm
-T UDP -a 10.0.0.21 -rp 13121 -b 176 -k 4 -c 1400 -d 130  -m rttm
-T UDP -a 10.0.0.21 -rp 13131 -b 184 -k 4 -c 1400 -d 140  -m rttm
-T UDP -a 10.0.0.33 -rp 13141 -b 144 -k 4 -c 1400 -d 150  -m rttm
-T UDP -a 10.0.0.33 -rp 13151 -b 84 -k 4 -c 1400 -d 160  -m rttm
