-T UDP -a 10.0.27.1 -rp 10901 -b 76 -k 200 -c 1400 -d 10 
-T UDP -a 10.0.27.1 -rp 10911 -b 124 -k 200 -c 1400 -d 20 
-T UDP -a 10.0.21.1 -rp 10921 -b 140 -k 200 -c 1400 -d 30 
-T UDP -a 10.0.21.1 -rp 10931 -b 56 -k 200 -c 1400 -d 40 
-T UDP -a 10.0.22.1 -rp 10941 -b 196 -k 200 -c 1400 -d 50 
-T UDP -a 10.0.22.1 -rp 10951 -b 56 -k 200 -c 1400 -d 60 
-T UDP -a 10.0.29.1 -rp 10961 -b 184 -k 200 -c 1400 -d 70 
-T UDP -a 10.0.29.1 -rp 10971 -b 108 -k 200 -c 1400 -d 80 
-T UDP -a 10.0.28.1 -rp 10981 -b 104 -k 200 -c 1400 -d 90 
-T UDP -a 10.0.28.1 -rp 10991 -b 148 -k 200 -c 1400 -d 100 
-T UDP -a 10.0.23.1 -rp 11001 -b 80 -k 200 -c 1400 -d 110 
-T UDP -a 10.0.23.1 -rp 11011 -b 240 -k 200 -c 1400 -d 120 
-T UDP -a 10.0.25.1 -rp 11021 -b 128 -k 200 -c 1400 -d 130 
-T UDP -a 10.0.25.1 -rp 11031 -b 156 -k 200 -c 1400 -d 140 
-T UDP -a 10.0.33.1 -rp 11041 -b 52 -k 200 -c 1400 -d 150 
-T UDP -a 10.0.33.1 -rp 11051 -b 8 -k 200 -c 1400 -d 160 
-T UDP -a 10.0.32.1 -rp 11061 -b 248 -k 200 -c 1400 -d 170 
-T UDP -a 10.0.32.1 -rp 11071 -b 212 -k 200 -c 1400 -d 180 
-T UDP -a 10.0.36.1 -rp 11081 -b 40 -k 200 -c 1400 -d 190 
-T UDP -a 10.0.36.1 -rp 11091 -b 8 -k 200 -c 1400 -d 200 
-T UDP -a 10.0.34.1 -rp 11101 -b 136 -k 200 -c 1400 -d 210 
-T UDP -a 10.0.34.1 -rp 11111 -b 56 -k 200 -c 1400 -d 220 
-T UDP -a 10.0.30.1 -rp 11121 -b 84 -k 200 -c 1400 -d 230 
-T UDP -a 10.0.30.1 -rp 11131 -b 80 -k 200 -c 1400 -d 240 
-T UDP -a 10.0.35.1 -rp 11141 -b 44 -k 200 -c 1400 -d 250 
-T UDP -a 10.0.35.1 -rp 11151 -b 116 -k 200 -c 1400 -d 260 
-T UDP -a 10.0.31.1 -rp 11161 -b 16 -k 200 -c 1400 -d 270 
-T UDP -a 10.0.31.1 -rp 11171 -b 152 -k 200 -c 1400 -d 280 
-T UDP -a 10.0.24.1 -rp 11181 -b 232 -k 200 -c 1400 -d 290 
-T UDP -a 10.0.24.1 -rp 11191 -b 56 -k 200 -c 1400 -d 300 
