-T UDP -a 10.0.0.25 -rp 13001 -b 56 -k 4 -c 1400 -d 10  -m rttm
-T UDP -a 10.0.0.25 -rp 13011 -b 244 -k 4 -c 1400 -d 20  -m rttm
-T UDP -a 10.0.0.26 -rp 13021 -b 120 -k 4 -c 1400 -d 30  -m rttm
-T UDP -a 10.0.0.26 -rp 13031 -b 132 -k 4 -c 1400 -d 40  -m rttm
-T UDP -a 10.0.0.24 -rp 13041 -b 160 -k 4 -c 1400 -d 50  -m rttm
-T UDP -a 10.0.0.24 -rp 13051 -b 40 -k 4 -c 1400 -d 60  -m rttm
-T UDP -a 10.0.0.35 -rp 13061 -b 132 -k 4 -c 1400 -d 70  -m rttm
-T UDP -a 10.0.0.35 -rp 13071 -b 252 -k 4 -c 1400 -d 80  -m rttm
