-T UDP -a 10.0.0.23 -rp 10901 -b 104 -k 4 -c 1400 -d 10  -m rttm
-T UDP -a 10.0.0.23 -rp 10911 -b 200 -k 4 -c 1400 -d 20  -m rttm
-T UDP -a 10.0.0.27 -rp 10921 -b 108 -k 4 -c 1400 -d 30  -m rttm
-T UDP -a 10.0.0.27 -rp 10931 -b 92 -k 4 -c 1400 -d 40  -m rttm
-T UDP -a 10.0.0.36 -rp 10941 -b 196 -k 4 -c 1400 -d 50  -m rttm
-T UDP -a 10.0.0.36 -rp 10951 -b 8 -k 4 -c 1400 -d 60  -m rttm
-T UDP -a 10.0.0.22 -rp 10961 -b 88 -k 4 -c 1400 -d 70  -m rttm
-T UDP -a 10.0.0.22 -rp 10971 -b 36 -k 4 -c 1400 -d 80  -m rttm
