-T UDP -a 10.0.26.1 -rp 12401 -b 192 -k 4 -c 1400 -d 10  -m rttm
-T UDP -a 10.0.26.1 -rp 12411 -b 176 -k 4 -c 1400 -d 20  -m rttm
-T UDP -a 10.0.34.1 -rp 12421 -b 140 -k 4 -c 1400 -d 30  -m rttm
-T UDP -a 10.0.34.1 -rp 12431 -b 92 -k 4 -c 1400 -d 40  -m rttm
-T UDP -a 10.0.31.1 -rp 12441 -b 200 -k 4 -c 1400 -d 50  -m rttm
-T UDP -a 10.0.31.1 -rp 12451 -b 52 -k 4 -c 1400 -d 60  -m rttm
-T UDP -a 10.0.22.1 -rp 12461 -b 160 -k 4 -c 1400 -d 70  -m rttm
-T UDP -a 10.0.22.1 -rp 12471 -b 56 -k 4 -c 1400 -d 80  -m rttm
