68,0,""
72,1,"1:1::[[2, EthAddr('00:00:00:00:00:01'), EthAddr('00:00:00:00:00:04')]]"
74,2,"1:1::[[2, EthAddr('00:00:00:00:00:01'), EthAddr('00:00:00:00:00:04')]],2:1::[[3, EthAddr('00:00:00:00:00:03'), EthAddr('00:00:00:00:00:06')]]"
76,3,"1:1::[[2, EthAddr('00:00:00:00:00:01'), EthAddr('00:00:00:00:00:04')]],2:1::[[3, EthAddr('00:00:00:00:00:03'), EthAddr('00:00:00:00:00:06')]],3:1::[[1, EthAddr('00:00:00:00:00:05'), EthAddr('00:00:00:00:00:02')]]"
78,4,"1:2::[[2, EthAddr('00:00:00:00:00:01'), EthAddr('00:00:00:00:00:04')], [3, EthAddr('00:00:00:00:00:04'), EthAddr('00:00:00:00:00:05')]],2:1::[[3, EthAddr('00:00:00:00:00:03'), EthAddr('00:00:00:00:00:06')]],3:1::[[1, EthAddr('00:00:00:00:00:05'), EthAddr('00:00:00:00:00:02')]]"
80,5,"1:2::[[2, EthAddr('00:00:00:00:00:01'), EthAddr('00:00:00:00:00:04')], [3, EthAddr('00:00:00:00:00:04'), EthAddr('00:00:00:00:00:05')]],2:2::[[3, EthAddr('00:00:00:00:00:03'), EthAddr('00:00:00:00:00:06')], [1, EthAddr('00:00:00:00:00:06'), EthAddr('00:00:00:00:00:01')]],3:1::[[1, EthAddr('00:00:00:00:00:05'), EthAddr('00:00:00:00:00:02')]]"
82,6,"1:3::[[2, EthAddr('00:00:00:00:00:01'), EthAddr('00:00:00:00:00:04')], [3, EthAddr('00:00:00:00:00:04'), EthAddr('00:00:00:00:00:05')], [3, EthAddr('00:00:00:00:00:05'), EthAddr('00:00:00:00:00:03')]],2:2::[[3, EthAddr('00:00:00:00:00:03'), EthAddr('00:00:00:00:00:06')], [1, EthAddr('00:00:00:00:00:06'), EthAddr('00:00:00:00:00:01')]],3:1::[[1, EthAddr('00:00:00:00:00:05'), EthAddr('00:00:00:00:00:02')]]"
84,7,"1:4::[[2, EthAddr('00:00:00:00:00:01'), EthAddr('00:00:00:00:00:04')], [3, EthAddr('00:00:00:00:00:04'), EthAddr('00:00:00:00:00:05')], [3, EthAddr('00:00:00:00:00:05'), EthAddr('00:00:00:00:00:03')], [3, EthAddr('00:00:00:00:00:03'), EthAddr('00:00:00:00:00:06')]],2:2::[[3, EthAddr('00:00:00:00:00:03'), EthAddr('00:00:00:00:00:06')], [1, EthAddr('00:00:00:00:00:06'), EthAddr('00:00:00:00:00:01')]],3:1::[[1, EthAddr('00:00:00:00:00:05'), EthAddr('00:00:00:00:00:02')]]"
86,7,"1:4::[[2, EthAddr('00:00:00:00:00:01'), EthAddr('00:00:00:00:00:04')], [3, EthAddr('00:00:00:00:00:04'), EthAddr('00:00:00:00:00:05')], [3, EthAddr('00:00:00:00:00:05'), EthAddr('00:00:00:00:00:03')], [3, EthAddr('00:00:00:00:00:03'), EthAddr('00:00:00:00:00:06')]],2:2::[[3, EthAddr('00:00:00:00:00:03'), EthAddr('00:00:00:00:00:06')], [1, EthAddr('00:00:00:00:00:06'), EthAddr('00:00:00:00:00:01')]],3:1::[[1, EthAddr('00:00:00:00:00:05'), EthAddr('00:00:00:00:00:02')]]"
88,7,"1:4::[[2, EthAddr('00:00:00:00:00:01'), EthAddr('00:00:00:00:00:04')], [3, EthAddr('00:00:00:00:00:04'), EthAddr('00:00:00:00:00:05')], [3, EthAddr('00:00:00:00:00:05'), EthAddr('00:00:00:00:00:03')], [3, EthAddr('00:00:00:00:00:03'), EthAddr('00:00:00:00:00:06')]],2:2::[[3, EthAddr('00:00:00:00:00:03'), EthAddr('00:00:00:00:00:06')], [1, EthAddr('00:00:00:00:00:06'), EthAddr('00:00:00:00:00:01')]],3:1::[[1, EthAddr('00:00:00:00:00:05'), EthAddr('00:00:00:00:00:02')]]"
90,7,"1:4::[[2, EthAddr('00:00:00:00:00:01'), EthAddr('00:00:00:00:00:04')], [3, EthAddr('00:00:00:00:00:04'), EthAddr('00:00:00:00:00:05')], [3, EthAddr('00:00:00:00:00:05'), EthAddr('00:00:00:00:00:03')], [3, EthAddr('00:00:00:00:00:03'), EthAddr('00:00:00:00:00:06')]],2:2::[[3, EthAddr('00:00:00:00:00:03'), EthAddr('00:00:00:00:00:06')], [1, EthAddr('00:00:00:00:00:06'), EthAddr('00:00:00:00:00:01')]],3:1::[[1, EthAddr('00:00:00:00:00:05'), EthAddr('00:00:00:00:00:02')]]"
96,7,"1:4::[[2, EthAddr('00:00:00:00:00:01'), EthAddr('00:00:00:00:00:04')], [3, EthAddr('00:00:00:00:00:04'), EthAddr('00:00:00:00:00:05')], [3, EthAddr('00:00:00:00:00:05'), EthAddr('00:00:00:00:00:03')], [3, EthAddr('00:00:00:00:00:03'), EthAddr('00:00:00:00:00:06')]],2:2::[[3, EthAddr('00:00:00:00:00:03'), EthAddr('00:00:00:00:00:06')], [1, EthAddr('00:00:00:00:00:06'), EthAddr('00:00:00:00:00:01')]],3:1::[[1, EthAddr('00:00:00:00:00:05'), EthAddr('00:00:00:00:00:02')]]"
102,7,"1:4::[[2, EthAddr('00:00:00:00:00:01'), EthAddr('00:00:00:00:00:04')], [3, EthAddr('00:00:00:00:00:04'), EthAddr('00:00:00:00:00:05')], [3, EthAddr('00:00:00:00:00:05'), EthAddr('00:00:00:00:00:03')], [3, EthAddr('00:00:00:00:00:03'), EthAddr('00:00:00:00:00:06')]],2:2::[[3, EthAddr('00:00:00:00:00:03'), EthAddr('00:00:00:00:00:06')], [1, EthAddr('00:00:00:00:00:06'), EthAddr('00:00:00:00:00:01')]],3:1::[[1, EthAddr('00:00:00:00:00:05'), EthAddr('00:00:00:00:00:02')]]"
