-T UDP -a 10.0.0.28 -rp 10071 -b 20 -k 100 -c 1400 -d 2 
-T UDP -a 10.0.0.25 -rp 10081 -b 40 -k 100 -c 1400 -d 4 
-T UDP -a 10.0.0.26 -rp 10091 -b 196 -k 60 -c 1400 -d 6 
-T UDP -a 10.0.0.27 -rp 10101 -b 224 -k 90 -c 1400 -d 8 
-T UDP -a 10.0.0.35 -rp 10111 -b 88 -k 90 -c 1400 -d 10 
-T UDP -a 10.0.0.24 -rp 10121 -b 4 -k 190 -c 1400 -d 12 
-T UDP -a 10.0.0.23 -rp 10131 -b 8 -k 70 -c 1400 -d 14 
