Number of. Flows,CFS,Batch,RR/FIFO,CFS-BKPR,Batch-BKPR,RR/FIFO-BKPR
1,1.57,2.04,1.11,2.27,2.54,2.68
2,0.06,0.59,0.02,1.92,2.75,2.72
3,0.4,0.51,0.02,1.9,2.4,2.42
4,0.43,0.63,0.41,1.9,2.06,2.04
5,0.36,0.54,0.005,1.9,2.73,2.71
6,0.4,0.51,0.02,1.89,2.45,2.47
