1457624200.66,0,80,3
1457624200.66,0,80,3
1457624200.67,0,80,3
1457624200.67,0,80,3
1457624200.68,0,80,3
1457624200.68,0,80,3
1457624200.68,0,80,3
1457624200.69,0,80,3
1457624200.7,0,80,3
1457624200.7,0,80,3
1457624200.71,0,80,3
1457624200.71,0,80,3
1457624200.71,0,80,3
1457624200.71,0,80,3
1457624200.72,0,80,3
1457624200.72,0,80,3
1457624200.73,0,80,3
1457624200.73,0,80,3
1457624200.73,0,80,3
1457624200.74,0,80,3
1457624200.74,0,80,3
1457624200.75,0,80,3
1457624200.75,0,80,3
1457624200.76,0,80,3
1457624200.76,0,80,3
1457624200.77,0,80,3
1457624200.78,0,80,3
1457624200.79,0,80,3
1457624200.8,0,80,3
1457624200.81,0,80,3
1457624200.82,0,80,3
1457624200.85,0,80,3
1457624200.86,0,80,3
1457624200.87,0,80,3
1457624200.88,0,80,3
1457624200.89,0,80,3
1457624200.89,0,80,3
1457624200.9,0,80,3
1457624200.91,0,80,3
1457624200.91,0,80,3
1457624200.95,0,80,3
1457624200.95,0,80,3
1457624200.96,0,80,3
1457624200.97,0,80,3
1457624200.98,0,80,3
1457624200.99,0,80,3
1457624200.99,0,80,3
1457624201.0,0,80,3
1457624201.02,0,80,3
1457624201.02,0,80,3
1457624201.03,0,80,3
1457624201.04,0,80,3
1457624201.05,0,80,3
1457624201.05,0,80,3
1457624201.06,0,80,3
1457624201.06,0,80,3
1457624201.08,0,80,3
1457624201.1,0,80,3
1457624201.1,0,80,3
1457624201.11,0,80,3
1457624201.11,0,80,3
1457624201.12,0,80,3
1457624201.13,0,80,3
1457624201.16,0,80,3
1457624201.17,0,80,3
1457624201.18,0,80,3
1457624201.19,0,80,3
1457624201.19,0,80,3
1457624201.2,0,80,3
1457624201.21,0,80,3
1457624201.21,0,80,3
1457624201.22,0,80,3
1457624201.23,0,80,3
1457624201.23,0,80,3
1457624201.24,0,80,3
1457624201.25,0,80,3
1457624201.25,0,80,3
1457624201.27,0,80,3
1457624201.27,0,80,3
1457624201.28,0,80,3
1457624201.29,0,80,3
1457624201.3,0,80,3
1457624201.31,0,80,3
1457624201.32,0,80,3
1457624201.33,0,80,3
1457624201.34,0,80,3
1457624201.34,0,80,3
1457624201.37,0,80,3
1457624201.41,0,80,3
1457624201.42,0,80,3
1457624201.43,0,80,3
1457624201.43,0,80,3
1457624201.44,0,80,3
1457624201.45,0,80,3
1457624201.46,0,80,3
1457624201.47,0,80,3
1457624201.48,0,80,3
1457624201.49,0,80,3
1457624201.5,0,80,3
1457624201.51,0,80,3
1457624201.53,0,80,3
1457624201.53,0,80,3
1457624201.55,0,80,3
1457624201.55,0,80,3
1457624201.57,0,80,3
1457624201.61,0,80,3
1457624201.61,0,80,3
1457624201.62,0,80,3
1457624201.63,0,80,3
1457624201.63,0,80,3
1457624201.65,0,80,3
1457624201.65,0,80,3
1457624201.66,0,80,3
1457624201.7,0,80,3
1457624201.7,0,80,3
1457624201.72,0,80,3
1457624201.75,0,80,3
1457624201.77,0,80,3
1457624201.79,0,80,3
1457624201.8,0,80,3
1457624201.83,0,80,3
1457624201.85,0,80,3
1457624201.89,0,80,3
1457624201.89,0,80,3
1457624201.93,0,80,3
1457624201.94,0,80,3
1457624201.96,0,80,3
1457624201.98,0,80,3
1457624202.02,0,80,3
1457624202.05,0,80,3
1457624202.07,0,80,3
1457624202.1,0,80,3
1457624202.1,0,80,3
1457624202.13,0,80,3
1457624202.15,0,80,3
1457624202.17,0,80,3
1457624202.2,0,80,3
1457624202.21,0,80,3
1457624202.24,0,80,3
1457624202.25,0,80,3
1457624202.26,0,80,3
1457624202.27,0,80,3
1457624202.31,0,80,3
1457624202.34,0,80,3
1457624202.36,0,80,3
1457624202.37,0,80,3
1457624202.39,0,80,3
1457624202.41,0,80,3
1457624202.43,0,80,3
1457624202.45,0,80,3
1457624202.46,0,80,3
1457624202.48,0,80,3
1457624202.5,0,80,3
1457624202.53,0,80,3
1457624202.54,0,80,3
1457624202.55,0,80,3
1457624202.56,0,80,3
1457624202.56,0,80,3
1457624202.58,0,80,3
1457624202.6,0,80,3
1457624202.6,0,80,3
1457624202.72,0,80,3
1457624202.79,0,80,3
1457624202.8,0,80,3
1457624203.05,0,80,3
1457624203.15,0,80,3
1457624203.3,0,80,3
1457624203.52,0,80,3
1457624203.76,0,80,3
1457624203.87,0,80,3
1457624204.16,0,80,3
1457624204.27,0,80,3
1457624204.41,0,80,3
1457624204.57,0,80,3
1457624204.78,0,80,3
1457624204.93,0,80,3
1457624205.19,0,80,3
1457624205.32,0,80,3
1457624205.44,0,80,3
1457624205.57,0,80,3
1457624205.71,0,80,3
1457624205.83,0,80,3
1457624205.93,0,80,3
1457624206.06,0,80,3
1457624206.35,0,80,3
1457624206.55,0,80,3
1457624206.82,0,80,3
1457624207.31,0,80,3
1457624207.45,0,80,3
1457624207.51,0,80,3
1457624207.56,0,80,3
1457624207.73,0,80,3
1457624207.85,0,80,3
1457624207.97,0,80,3
1457624208.13,0,80,3
1457624208.21,0,80,3
1457624208.3,0,80,3
1457624208.32,0,80,3
1457624208.34,0,80,3
1457624208.51,0,80,3
1457624208.65,0,80,3
1457624208.68,0,80,3
1457624208.78,0,80,3
1457624208.86,0,80,3
1457624209.01,0,80,3
1457624209.11,0,80,3
1457624209.18,0,80,3
1457624209.21,0,80,3
1457624209.26,0,80,3
1457624209.35,0,80,3
1457624209.4,0,80,3
1457624209.46,0,80,3
1457624209.59,0,80,3
1457624209.6,0,80,3
1457624209.73,0,80,3
1457624209.89,0,80,3
1457624209.97,0,80,3
1457624210.16,0,80,3
1457624210.21,0,80,3
1457624210.26,0,80,3
1457624210.31,0,80,3
1457624210.4,0,80,3
1457624210.42,0,80,3
1457624210.52,0,80,3
1457624210.56,0,80,3
1457624210.6,0,80,3
1457624210.65,0,80,3
1457624210.73,0,80,3
1457624210.75,0,80,3
1457624210.79,0,80,3
1457624210.87,0,80,3
1457624210.93,0,80,3
1457624210.95,0,80,3
1457624211.14,0,80,3
1457624211.2,0,80,3
1457624211.29,0,80,3
1457624211.35,0,80,3
1457624211.41,0,80,3
1457624211.46,0,80,3
1457624211.52,0,80,3
1457624211.58,0,80,3
1457624211.69,0,80,3
1457624211.73,0,80,3
1457624211.77,0,80,3
1457624211.83,0,80,3
1457624211.86,0,80,3
1457624211.89,0,80,3
1457624211.93,0,80,3
1457624211.94,0,80,3
1457624212.07,0,80,3
1457624212.15,0,80,3
1457624212.19,0,80,3
1457624212.28,0,80,3
1457624212.3,0,80,3
1457624212.37,0,80,3
1457624212.54,0,80,3
1457624212.67,0,80,3
1457624212.87,0,80,3
1457624212.9,0,80,3
1457624213.41,0,80,3
1457624213.43,0,80,3
1457624213.55,0,80,3
1457624213.58,0,80,3
1457624213.72,0,80,3
1457624213.89,0,80,3
1457624213.95,0,80,3
1457624214.14,0,80,3
1457624214.26,0,80,3
1457624214.51,0,80,3
1457624214.66,0,80,3
1457624214.73,0,80,3
1457624214.91,0,80,3
1457624215.0,0,80,3
1457624215.15,0,80,3
1457624215.21,0,80,3
1457624215.25,0,80,3
1457624215.28,0,80,3
1457624215.31,0,80,3
1457624215.38,0,80,3
1457624215.4,0,80,3
1457624215.5,0,80,3
1457624215.51,0,80,3
1457624215.53,0,80,3
1457624215.55,0,80,3
1457624215.58,0,80,3
1457624215.6,0,80,3
1457624215.64,0,80,3
1457624215.68,0,80,3
1457624215.71,0,80,3
1457624215.74,0,80,3
1457624215.76,0,80,3
1457624216.03,0,80,3
1457624216.13,0,80,3
1457624216.15,0,80,3
1457624216.27,0,80,3
1457624216.35,0,80,3
1457624216.38,0,80,3
1457624216.47,0,80,3
1457624216.48,0,80,3
1457624216.5,0,80,3
1457624216.59,0,80,3
1457624216.64,0,80,3
1457624216.72,0,80,3
1457624216.74,0,80,3
1457624216.8,0,80,3
1457624216.82,0,80,3
1457624216.82,0,80,3
1457624216.93,0,80,3
1457624216.94,0,80,3
1457624216.94,0,80,3
1457624216.97,0,80,3
1457624216.99,0,80,3
1457624216.99,0,80,3
1457624217.0,0,80,3
1457624217.04,0,80,3
1457624217.05,0,80,3
1457624217.07,0,80,3
1457624217.1,0,80,3
1457624217.11,0,80,3
1457624217.13,0,80,3
1457624217.16,0,80,3
1457624217.18,0,80,3
1457624217.2,0,80,3
1457624217.22,0,80,3
1457624217.3,0,80,3
1457624217.32,0,80,3
1457624217.33,0,80,3
1457624217.36,0,80,3
1457624217.4,0,80,3
1457624217.41,0,80,3
1457624217.43,0,80,3
1457624217.5,0,80,3
1457624217.57,0,80,3
1457624217.61,0,80,3
1457624217.66,0,80,3
1457624217.76,0,80,3
1457624217.79,0,80,3
1457624217.89,0,80,3
1457624217.95,0,80,3
1457624217.98,0,80,3
1457624218.08,0,80,3
1457624218.13,0,80,3
1457624218.21,0,80,3
1457624218.25,0,80,3
1457624218.41,0,80,3
1457624218.52,0,80,3
1457624218.58,0,80,3
1457624218.66,0,80,3
1457624218.72,0,80,3
1457624218.77,0,80,3
1457624218.79,0,80,3
1457624218.81,0,80,3
1457624218.9,0,80,3
1457624219.05,0,80,3
1457624219.14,0,80,3
1457624219.34,0,80,3
1457624219.41,0,80,3
1457624219.43,0,80,3
1457624219.57,0,80,3
1457624219.58,0,80,3
1457624219.58,0,80,3
1457624219.61,0,80,3
1457624219.66,0,80,3
1457624219.68,0,80,3
1457624219.78,0,80,3
1457624219.85,0,80,3
1457624220.0,0,80,3
1457624220.13,0,80,3
1457624220.21,0,80,3
1457624220.58,0,80,3
1457624220.66,0,80,3
1457624220.9,0,80,3
1457624220.98,0,80,3
1457624221.08,0,80,3
1457624221.16,0,80,3
1457624221.25,0,80,3
1457624221.5,0,80,3
1457624221.67,0,80,3
1457624221.82,0,80,3
1457624221.9,0,80,3
1457624222.21,0,80,3
1457624222.36,0,80,3
1457624222.36,0,80,3
1457624222.42,0,80,3
1457624222.59,0,80,3
1457624222.66,0,80,3
1457624222.79,0,80,3
1457624222.9,0,80,3
1457624223.07,0,80,3
1457624223.22,0,80,3
1457624223.34,0,80,3
1457624223.64,0,80,3
1457624223.73,0,80,3
1457624223.9,0,80,3
1457624223.99,0,80,3
1457624224.09,0,80,3
1457624224.2,0,80,3
1457624224.34,0,80,3
1457624224.47,0,80,3
1457624224.62,0,80,3
1457624224.68,0,80,3
1457624224.87,0,80,3
1457624224.97,0,80,3
1457624225.04,0,80,3
1457624225.18,0,80,3
1457624225.28,0,80,3
1457624225.38,0,80,3
1457624225.41,0,80,3
1457624225.43,0,80,3
1457624225.43,0,80,3
1457624225.45,0,80,3
1457624225.53,0,80,3
1457624225.55,0,80,3
1457624226.38,0,80,3
1457624226.61,0,80,3
1457624226.76,0,80,3
1457624226.94,0,80,3
1457624227.04,0,80,3
1457624227.14,0,80,3
1457624227.3,0,80,3
1457624227.39,0,80,3
1457624227.5,0,80,3
1457624227.64,0,80,3
1457624227.72,0,80,3
1457624227.85,0,80,3
1457624228.05,0,80,3
1457624228.25,0,80,3
1457624228.37,0,80,3
1457624228.59,0,80,3
1457624228.79,0,80,3
1457624228.87,0,80,3
1457624228.98,0,80,3
1457624229.04,0,80,3
1457624229.11,0,80,3
1457624229.15,0,80,3
1457624229.24,0,80,3
1457624229.3,0,80,3
1457624229.31,0,80,3
1457624229.93,0,80,3
1457624229.99,0,80,3
1457624230.29,0,80,3
1457624230.56,0,80,3
1457624230.79,0,80,3
1457624230.93,0,80,3
1457624230.97,0,80,3
1457624231.04,0,80,3
1457624231.12,0,80,3
1457624231.21,0,80,3
1457624231.28,0,80,3
1457624231.43,0,80,3
1457624231.52,0,80,3
1457624231.54,0,80,3
1457624231.68,0,80,3
1457624231.79,0,80,3
1457624231.95,0,80,3
1457624232.08,0,80,3
1457624232.23,0,80,3
1457624232.41,0,80,3
1457624232.46,0,80,3
1457624232.53,0,80,3
1457624232.61,0,80,3
1457624232.67,0,80,3
1457624232.73,0,80,3
1457624232.74,0,80,3
1457624232.86,0,80,3
1457624232.98,0,80,3
1457624233.04,0,80,3
1457624233.11,0,80,3
1457624233.17,0,80,3
1457624233.27,0,80,3
1457624233.48,0,80,3
1457624233.63,0,80,3
1457624233.69,0,80,3
1457624233.72,0,80,3
1457624233.75,0,80,3
1457624233.78,0,80,3
1457624233.83,0,80,3
1457624233.86,0,80,3
1457624233.88,0,80,3
1457624233.91,0,80,3
1457624233.92,0,80,3
1457624233.93,0,80,3
1457624233.99,0,80,3
1457624234.04,0,80,3
1457624234.06,0,80,3
1457624234.08,0,80,3
1457624234.21,0,80,3
1457624234.22,0,80,3
1457624234.22,0,80,3
1457624234.25,0,80,3
1457624234.25,0,80,3
1457624234.29,0,80,3
1457624234.32,0,80,3
1457624234.32,0,80,3
1457624234.33,0,80,3
1457624234.33,0,80,3
1457624234.34,0,80,3
1457624234.34,0,80,3
1457624234.35,0,80,3
1457624234.36,0,80,3
1457624234.39,0,80,3
1457624234.39,0,80,3
1457624234.4,0,80,3
1457624234.41,0,80,3
1457624234.43,0,80,3
1457624234.44,0,80,3
1457624234.44,0,80,3
1457624234.44,0,80,3
1457624234.45,0,80,3
1457624234.46,0,80,3
1457624234.48,0,80,3
1457624234.48,0,80,3
1457624234.51,0,80,3
1457624234.53,0,80,3
1457624234.53,0,80,3
1457624234.54,0,80,3
1457624234.55,0,80,3
1457624234.58,0,80,3
1457624234.59,0,80,3
1457624234.59,0,80,3
1457624234.6,0,80,3
1457624234.63,0,80,3
1457624234.71,0,80,3
1457624234.72,0,80,3
1457624234.73,0,80,3
1457624234.75,0,80,3
1457624234.76,0,80,3
1457624234.79,0,80,3
1457624234.8,0,80,3
1457624234.81,0,80,3
1457624234.82,0,80,3
1457624234.83,0,80,3
1457624234.89,0,80,3
1457624234.9,0,80,3
1457624234.93,0,80,3
1457624234.96,0,80,3
1457624234.98,0,80,3
1457624234.99,0,80,3
1457624235.02,0,80,3
1457624235.05,0,80,3
1457624235.08,0,80,3
1457624235.08,0,80,3
1457624235.09,0,80,3
1457624235.13,0,80,3
1457624235.14,0,80,3
1457624235.15,0,80,3
1457624235.15,0,80,3
1457624235.15,0,80,3
1457624235.15,0,80,3
1457624235.15,0,80,3
1457624235.16,0,80,3
1457624235.16,0,80,3
1457624235.2,0,80,3
1457624235.21,0,80,3
1457624235.24,0,80,3
1457624235.26,0,80,3
1457624235.3,0,80,3
1457624235.3,0,80,3
1457624235.31,0,80,3
1457624235.32,0,80,3
1457624235.32,0,80,3
1457624235.32,0,80,3
1457624235.4,0,80,3
1457624235.42,0,80,3
1457624235.42,0,80,3
1457624235.43,0,80,3
1457624235.44,0,80,3
1457624235.45,0,80,3
1457624235.47,0,80,3
1457624235.47,0,80,3
1457624235.47,0,80,3
1457624235.47,0,80,3
1457624235.48,0,80,3
1457624235.49,0,80,3
1457624235.5,0,80,3
1457624235.5,0,80,3
1457624235.5,0,80,3
1457624235.52,0,80,3
1457624235.53,0,80,3
1457624235.54,0,80,3
1457624235.54,0,80,3
1457624235.55,0,80,3
1457624235.57,0,80,3
1457624235.57,0,80,3
1457624235.57,0,80,3
1457624235.58,0,80,3
1457624235.59,0,80,3
1457624235.59,0,80,3
1457624235.6,0,80,3
1457624235.61,0,80,3
1457624235.61,0,80,3
1457624235.62,0,80,3
1457624235.63,0,80,3
1457624235.65,0,80,3
1457624235.65,0,80,3
1457624235.65,0,80,3
1457624235.66,0,80,3
1457624235.68,0,80,3
1457624235.69,0,80,3
1457624235.72,0,80,3
1457624235.73,0,80,3
1457624235.74,0,80,3
1457624235.74,0,80,3
1457624235.74,0,80,3
1457624235.76,0,80,3
1457624235.77,0,80,3
1457624235.8,0,80,3
1457624235.83,0,80,3
1457624235.86,0,80,3
1457624235.88,0,80,3
1457624235.89,0,80,3
1457624235.9,0,80,3
1457624235.9,0,80,3
1457624235.94,0,80,3
1457624235.95,0,80,3
1457624235.96,0,80,3
1457624235.97,0,80,3
1457624235.98,0,80,3
1457624236.01,0,80,3
1457624236.04,0,80,3
1457624236.06,0,80,3
1457624236.11,0,80,3
1457624236.14,0,80,3
1457624236.2,0,80,3
1457624236.26,0,80,3
1457624236.29,0,80,3
1457624236.34,0,80,3
1457624236.35,0,80,3
1457624236.35,0,80,3
1457624236.36,0,80,3
1457624236.4,0,80,3
1457624236.45,0,80,3
1457624236.46,0,80,3
1457624236.53,0,80,3
1457624236.61,0,80,3
1457624236.7,0,80,3
1457624236.74,0,80,3
1457624236.85,0,80,3
1457624236.9,0,80,3
1457624236.94,0,80,3
1457624236.98,0,80,3
1457624237.03,0,80,3
1457624237.07,0,80,3
1457624237.08,0,80,3
1457624237.13,0,80,3
1457624237.19,0,80,3
1457624237.26,0,80,3
1457624237.3,0,80,3
1457624237.35,0,80,3
1457624237.38,0,80,3
1457624237.39,0,80,3
1457624237.39,0,80,3
1457624237.4,0,80,3
1457624237.43,0,80,3
1457624237.57,0,80,3
1457624237.64,0,80,3
1457624237.68,0,80,3
1457624237.72,0,80,3
1457624237.82,0,80,3
1457624237.85,0,80,3
1457624237.88,0,80,3
1457624237.89,0,80,3
1457624237.89,0,80,3
1457624237.9,0,80,3
1457624237.94,0,80,3
1457624237.95,0,80,3
1457624237.96,0,80,3
1457624237.96,0,80,3
1457624237.98,0,80,3
1457624237.99,0,80,3
1457624238.02,0,80,3
1457624238.02,0,80,3
1457624238.03,0,80,3
1457624238.03,0,80,3
1457624238.03,0,80,3
1457624238.05,0,80,3
1457624238.06,0,80,3
1457624238.07,0,80,3
1457624238.11,0,80,3
1457624238.11,0,80,3
1457624238.12,0,80,3
1457624238.12,0,80,3
1457624238.15,0,80,3
1457624238.17,0,80,3
1457624238.19,0,80,3
1457624238.2,0,80,3
1457624238.21,0,80,3
1457624238.22,0,80,3
1457624238.26,0,80,3
1457624238.34,0,80,3
1457624238.37,0,80,3
1457624238.41,0,80,3
1457624238.47,0,80,3
1457624238.61,0,80,3
1457624238.64,0,80,3
1457624238.65,0,80,3
1457624238.69,0,80,3
1457624238.71,0,80,3
1457624238.72,0,80,3
1457624238.73,0,80,3
1457624238.85,0,80,3
1457624238.88,0,80,3
1457624238.9,0,80,3
1457624238.94,0,80,3
1457624238.96,0,80,3
1457624238.96,0,80,3
1457624238.99,0,80,3
1457624239.0,0,80,3
1457624239.02,0,80,3
1457624239.04,0,80,3
1457624239.05,0,80,3
1457624239.06,0,80,3
1457624239.13,0,80,3
1457624239.15,0,80,3
1457624239.18,0,80,3
1457624239.23,0,80,3
1457624239.26,0,80,3
1457624239.27,0,80,3
1457624239.33,0,80,3
1457624239.37,0,80,3
1457624239.41,0,80,3
1457624239.47,0,80,3
1457624239.5,0,80,3
1457624239.52,0,80,3
1457624239.55,0,80,3
1457624239.56,0,80,3
1457624239.59,0,80,3
1457624239.65,0,80,3
1457624239.66,0,80,3
1457624239.74,0,80,3
1457624239.76,0,80,3
1457624239.87,0,80,3
1457624239.88,0,80,3
1457624239.92,0,80,3
1457624239.92,0,80,3
1457624239.93,0,80,3
1457624239.95,0,80,3
1457624239.96,0,80,3
1457624240.0,0,80,3
1457624240.01,0,80,3
1457624240.05,0,80,3
1457624240.08,0,80,3
1457624240.08,0,80,3
1457624240.13,0,80,3
1457624240.21,0,80,3
1457624240.23,0,80,3
1457624240.25,0,80,3
1457624240.26,0,80,3
1457624240.26,0,80,3
1457624240.26,0,80,3
1457624240.27,0,80,3
1457624240.28,0,80,3
1457624240.28,0,80,3
1457624240.3,0,80,3
1457624240.38,0,80,3
1457624240.38,0,80,3
1457624240.38,0,80,3
1457624240.39,0,80,3
1457624240.39,0,80,3
1457624240.45,0,80,3
1457624240.45,0,80,3
1457624240.45,0,80,3
1457624240.46,0,80,3
1457624240.47,0,80,3
1457624240.47,0,80,3
1457624240.51,0,80,3
1457624240.52,0,80,3
1457624240.54,0,80,3
1457624240.63,0,80,3
1457624240.63,0,80,3
1457624240.64,0,80,3
1457624240.64,0,80,3
1457624240.64,0,80,3
1457624240.65,0,80,3
1457624240.66,0,80,3
1457624240.69,0,80,3
1457624240.74,0,80,3
1457624240.75,0,80,3
1457624240.77,0,80,3
1457624240.81,0,80,3
1457624240.83,0,80,3
1457624240.85,0,80,3
1457624240.85,0,80,3
1457624240.93,0,80,3
1457624240.93,0,80,3
1457624241.01,0,80,3
1457624241.13,0,80,3
1457624241.23,0,80,3
1457624241.27,0,80,3
1457624241.32,0,80,3
1457624241.44,0,80,3
1457624241.48,0,80,3
1457624241.49,0,80,3
1457624241.5,0,80,3
1457624241.52,0,80,3
1457624241.55,0,80,3
1457624241.55,0,80,3
1457624241.57,0,80,3
1457624241.58,0,80,3
1457624241.61,0,80,3
1457624241.66,0,80,3
1457624241.71,0,80,3
1457624241.73,0,80,3
1457624241.76,0,80,3
1457624241.8,0,80,3
1457624242.04,0,80,3
1457624242.06,0,80,3
1457624242.1,0,80,3
1457624242.12,0,80,3
1457624242.13,0,80,3
1457624242.15,0,80,3
1457624242.18,0,80,3
1457624242.21,0,80,3
1457624242.24,0,80,3
1457624242.25,0,80,3
1457624242.29,0,80,3
1457624242.29,0,80,3
1457624242.31,0,80,3
1457624242.36,0,80,3
1457624242.4,0,80,3
1457624242.43,0,80,3
1457624242.43,0,80,3
1457624242.45,0,80,3
1457624242.48,0,80,3
1457624242.5,0,80,3
1457624242.51,0,80,3
1457624242.55,0,80,3
1457624242.57,0,80,3
1457624242.58,0,80,3
1457624242.61,0,80,3
1457624242.63,0,80,3
1457624242.66,0,80,3
1457624242.66,0,80,3
1457624242.66,0,80,3
1457624242.66,0,80,3
1457624242.66,0,80,3
1457624242.67,0,80,3
1457624242.67,0,80,3
1457624242.68,0,80,3
1457624242.68,0,80,3
1457624242.69,0,80,3
1457624242.75,0,80,3
1457624242.75,0,80,3
1457624242.76,0,80,3
1457624242.76,0,80,3
1457624242.77,0,80,3
1457624242.78,0,80,3
1457624242.79,0,80,3
1457624242.8,0,80,3
1457624242.8,0,80,3
1457624242.81,0,80,3
1457624242.82,0,80,3
1457624242.83,0,80,3
1457624242.86,0,80,3
1457624242.92,0,80,3
1457624242.92,0,80,3
1457624242.93,0,80,3
1457624242.94,0,80,3
1457624242.95,0,80,3
1457624243.01,0,80,3
1457624243.01,0,80,3
1457624243.07,0,80,3
1457624243.12,0,80,3
1457624243.13,0,80,3
1457624243.13,0,80,3
1457624243.16,0,80,3
1457624243.17,0,80,3
1457624243.2,0,80,3
1457624243.25,0,80,3
1457624243.25,0,80,3
1457624243.3,0,80,3
1457624243.3,0,80,3
1457624243.32,0,80,3
1457624243.34,0,80,3
1457624243.4,0,80,3
1457624243.4,0,80,3
1457624243.41,0,80,3
1457624243.42,0,80,3
1457624243.45,0,80,3
1457624243.46,0,80,3
1457624243.46,0,80,3
1457624243.48,0,80,3
1457624243.48,0,80,3
1457624243.56,0,80,3
1457624243.57,0,80,3
1457624243.63,0,80,3
1457624243.64,0,80,3
1457624243.65,0,80,3
1457624243.66,0,80,3
1457624243.69,0,80,3
1457624243.71,0,80,3
1457624243.73,0,80,3
1457624243.73,0,80,3
1457624243.79,0,80,3
1457624243.81,0,80,3
1457624243.81,0,80,3
1457624243.83,0,80,3
1457624243.87,0,80,3
1457624243.94,0,80,3
1457624243.99,0,80,3
1457624244.06,0,80,3
1457624244.07,0,80,3
1457624244.1,0,80,3
1457624244.13,0,80,3
1457624244.15,0,80,3
1457624244.2,0,80,3
1457624244.25,0,80,3
1457624244.27,0,80,3
1457624244.29,0,80,3
1457624244.3,0,80,3
1457624244.3,0,80,3
1457624244.31,0,80,3
1457624244.35,0,80,3
1457624244.42,0,80,3
1457624244.43,0,80,3
1457624244.44,0,80,3
1457624244.46,0,80,3
1457624244.46,0,80,3
1457624244.51,0,80,3
1457624244.53,0,80,3
1457624244.53,0,80,3
1457624244.53,0,80,3
1457624244.59,0,80,3
1457624244.61,0,80,3
1457624244.62,0,80,3
1457624244.62,0,80,3
1457624244.62,0,80,3
1457624244.62,0,80,3
1457624244.62,0,80,3
1457624244.63,0,80,3
1457624244.65,0,80,3
1457624244.67,0,80,3
1457624244.67,0,80,3
1457624244.68,0,80,3
1457624244.68,0,80,3
1457624244.69,0,80,3
1457624244.7,0,80,3
1457624244.72,0,80,3
1457624244.85,0,80,3
1457624244.87,0,80,3
1457624245.05,0,80,3
1457624245.06,0,80,3
1457624245.09,0,80,3
1457624245.13,0,80,3
1457624245.14,0,80,3
1457624245.15,0,80,3
1457624245.15,0,80,3
1457624245.15,0,80,3
1457624245.17,0,80,3
1457624245.17,0,80,3
1457624245.19,0,80,3
1457624245.19,0,80,3
1457624245.2,0,80,3
1457624245.2,0,80,3
1457624245.2,0,80,3
1457624245.21,0,80,3
1457624245.23,0,80,3
1457624245.28,0,80,3
1457624245.32,0,80,3
1457624245.35,0,80,3
1457624245.38,0,80,3
1457624245.38,0,80,3
1457624245.38,0,80,3
1457624245.39,0,80,3
1457624245.39,0,80,3
1457624245.45,0,80,3
1457624245.46,0,80,3
1457624245.48,0,80,3
1457624245.5,0,80,3
1457624245.51,0,80,3
1457624245.52,0,80,3
1457624245.53,0,80,3
1457624245.55,0,80,3
1457624245.61,0,80,3
1457624245.63,0,80,3
1457624245.66,0,80,3
1457624245.75,0,80,3
1457624245.76,0,80,3
1457624245.76,0,80,3
1457624245.77,0,80,3
1457624245.78,0,80,3
1457624245.78,0,80,3
1457624245.8,0,80,3
1457624245.82,0,80,3
1457624245.82,0,80,3
1457624245.83,0,80,3
1457624245.84,0,80,3
1457624245.84,0,80,3
1457624245.93,0,80,3
1457624245.95,0,80,3
1457624245.96,0,80,3
1457624245.97,0,80,3
1457624245.97,0,80,3
1457624246.03,0,80,3
1457624246.05,0,80,3
1457624246.05,0,80,3
1457624246.06,0,80,3
1457624246.06,0,80,3
1457624246.06,0,80,3
1457624246.06,0,80,3
1457624246.09,0,80,3
1457624246.09,0,80,3
1457624246.09,0,80,3
1457624246.09,0,80,3
1457624246.09,0,80,3
1457624246.1,0,80,3
1457624246.11,0,80,3
1457624246.12,0,80,3
1457624246.13,0,80,3
1457624246.13,0,80,3
1457624246.14,0,80,3
1457624246.14,0,80,3
1457624246.15,0,80,3
1457624246.15,0,80,3
1457624246.15,0,80,3
1457624246.17,0,80,3
1457624246.21,0,80,3
1457624246.24,0,80,3
1457624246.25,0,80,3
1457624246.28,0,80,3
1457624246.39,0,80,3
1457624246.4,0,80,3
1457624246.41,0,80,3
1457624246.41,0,80,3
1457624246.41,0,80,3
1457624246.41,0,80,3
1457624246.41,0,80,3
1457624246.45,0,80,3
1457624246.46,0,80,3
1457624246.47,0,80,3
1457624246.47,0,80,3
1457624246.56,0,80,3
1457624246.56,0,80,3
1457624246.57,0,80,3
1457624246.58,0,80,3
1457624246.61,0,80,3
1457624246.61,0,80,3
1457624246.61,0,80,3
1457624246.62,0,80,3
1457624246.62,0,80,3
1457624246.62,0,80,3
1457624246.62,0,80,3
1457624246.66,0,80,3
1457624246.66,0,80,3
1457624246.67,0,80,3
1457624246.68,0,80,3
1457624246.72,0,80,3
1457624246.72,0,80,3
1457624246.72,0,80,3
1457624246.74,0,80,3
1457624246.75,0,80,3
1457624246.76,0,80,3
1457624246.76,0,80,3
1457624246.76,0,80,3
1457624246.77,0,80,3
1457624246.77,0,80,3
1457624246.78,0,80,3
1457624246.81,0,80,3
1457624247.02,0,80,3
1457624247.13,0,80,3
1457624247.25,0,80,3
1457624247.28,0,80,3
1457624247.29,0,80,3
1457624247.36,0,80,3
1457624247.36,0,80,3
1457624247.36,0,80,3
1457624247.42,0,80,3
1457624247.47,0,80,3
1457624247.48,0,80,3
1457624247.53,0,80,3
1457624247.54,0,80,3
1457624247.55,0,80,3
1457624247.58,0,80,3
1457624247.64,0,80,3
1457624247.65,0,80,3
1457624247.74,0,80,3
1457624247.76,0,80,3
1457624247.77,0,80,3
1457624247.78,0,80,3
1457624247.79,0,80,3
1457624247.79,0,80,3
1457624247.81,0,80,3
1457624247.82,0,80,3
1457624247.84,0,80,3
1457624247.85,0,80,3
1457624247.88,0,80,3
1457624247.91,0,80,3
1457624247.96,0,80,3
1457624247.96,0,80,3
1457624247.97,0,80,3
1457624247.99,0,80,3
1457624248.03,0,80,3
1457624248.07,0,80,3
1457624248.12,0,80,3
1457624248.12,0,80,3
1457624248.16,0,80,3
1457624248.21,0,80,3
1457624248.23,0,80,3
1457624248.26,0,80,3
1457624248.29,0,80,3
1457624248.29,0,80,3
1457624248.36,0,80,3
1457624248.36,0,80,3
1457624248.37,0,80,3
1457624248.4,0,80,3
1457624248.45,0,80,3
1457624248.46,0,80,3
1457624248.47,0,80,3
1457624248.47,0,80,3
1457624248.48,0,80,3
1457624248.51,0,80,3
1457624248.53,0,80,3
1457624248.53,0,80,3
1457624248.55,0,80,3
1457624248.55,0,80,3
1457624248.57,0,80,3
1457624248.61,0,80,3
1457624248.62,0,80,3
1457624248.64,0,80,3
1457624248.7,0,80,3
1457624248.72,0,80,3
1457624248.72,0,80,3
1457624248.8,0,80,3
1457624248.8,0,80,3
1457624248.8,0,80,3
1457624248.81,0,80,3
1457624248.81,0,80,3
1457624248.81,0,80,3
1457624248.82,0,80,3
1457624248.84,0,80,3
1457624248.84,0,80,3
1457624248.87,0,80,3
1457624248.87,0,80,3
1457624248.89,0,80,3
1457624248.9,0,80,3
1457624248.91,0,80,3
1457624248.92,0,80,3
1457624248.93,0,80,3
1457624248.93,0,80,3
1457624248.94,0,80,3
1457624248.94,0,80,3
1457624248.95,0,80,3
1457624248.95,0,80,3
1457624248.95,0,80,3
1457624248.96,0,80,3
1457624248.97,0,80,3
1457624249.04,0,80,3
1457624249.04,0,80,3
1457624249.06,0,80,3
1457624249.1,0,80,3
1457624249.13,0,80,3
1457624249.16,0,80,3
1457624249.19,0,80,3
1457624249.26,0,80,3
1457624249.3,0,80,3
1457624249.35,0,80,3
1457624249.38,0,80,3
1457624249.4,0,80,3
1457624249.42,0,80,3
1457624249.44,0,80,3
1457624249.58,0,80,3
1457624249.58,0,80,3
1457624249.59,0,80,3
1457624249.64,0,80,3
1457624249.64,0,80,3
1457624249.64,0,80,3
1457624249.65,0,80,3
1457624249.72,0,80,3
1457624249.75,0,80,3
1457624249.76,0,80,3
1457624249.78,0,80,3
1457624249.81,0,80,3
1457624249.85,0,80,3
1457624249.93,0,80,3
1457624249.93,0,80,3
1457624249.94,0,80,3
1457624249.95,0,80,3
1457624249.95,0,80,3
1457624249.96,0,80,3
1457624249.97,0,80,3
1457624249.98,0,80,3
1457624249.99,0,80,3
1457624249.99,0,80,3
1457624250.01,0,80,3
1457624250.02,0,80,3
1457624250.03,0,80,3
1457624250.05,0,80,3
1457624250.05,0,80,3
1457624250.06,0,80,3
1457624250.1,0,80,3
1457624250.1,0,80,3
1457624250.1,0,80,3
1457624250.12,0,80,3
1457624250.12,0,80,3
1457624250.13,0,80,3
1457624250.13,0,80,3
1457624250.14,0,80,3
1457624250.14,0,80,3
1457624250.15,0,80,3
1457624250.15,0,80,3
1457624250.16,0,80,3
1457624250.2,0,80,3
1457624250.21,0,80,3
1457624250.23,0,80,3
1457624250.31,0,80,3
1457624250.31,0,80,3
1457624250.36,0,80,3
1457624250.36,0,80,3
1457624250.37,0,80,3
1457624250.37,0,80,3
1457624250.37,0,80,3
1457624250.43,0,80,3
1457624250.44,0,80,3
1457624250.45,0,80,3
1457624250.49,0,80,3
1457624250.51,0,80,3
1457624250.51,0,80,3
1457624250.55,0,80,3
1457624250.58,0,80,3
1457624250.59,0,80,3
1457624250.6,0,80,3
1457624250.64,0,80,3
1457624250.64,0,80,3
1457624250.73,0,80,3
1457624250.73,0,80,3
1457624250.75,0,80,3
1457624250.78,0,80,3
1457624250.78,0,80,3
1457624250.79,0,80,3
1457624250.8,0,80,3
1457624250.83,0,80,3
1457624250.84,0,80,3
1457624250.88,0,80,3
1457624250.89,0,80,3
1457624250.91,0,80,3
1457624250.91,0,80,3
1457624250.97,0,80,3
1457624250.99,0,80,3
1457624251.0,0,80,3
1457624251.05,0,80,3
1457624251.05,0,80,3
1457624251.13,0,80,3
1457624251.13,0,80,3
1457624251.18,0,80,3
1457624251.19,0,80,3
1457624251.35,0,80,3
1457624251.37,0,80,3
1457624251.39,0,80,3
1457624251.46,0,80,3
1457624251.49,0,80,3
1457624251.5,0,80,3
1457624251.53,0,80,3
1457624251.55,0,80,3
1457624251.61,0,80,3
1457624251.72,0,80,3
1457624251.74,0,80,3
1457624251.83,0,80,3
1457624251.85,0,80,3
1457624251.85,0,80,3
1457624251.86,0,80,3
1457624251.87,0,80,3
1457624251.96,0,80,3
1457624251.96,0,80,3
1457624251.97,0,80,3
1457624252.02,0,80,3
1457624252.07,0,80,3
1457624252.12,0,80,3
1457624252.12,0,80,3
1457624252.13,0,80,3
1457624252.14,0,80,3
1457624252.2,0,80,3
1457624252.21,0,80,3
1457624252.21,0,80,3
1457624252.21,0,80,3
1457624252.21,0,80,3
1457624252.24,0,80,3
1457624252.24,0,80,3
1457624252.24,0,80,3
1457624252.31,0,80,3
1457624252.36,0,80,3
1457624252.38,0,80,3
1457624252.39,0,80,3
1457624252.45,0,80,3
1457624252.46,0,80,3
1457624252.46,0,80,3
1457624252.47,0,80,3
1457624252.47,0,80,3
1457624252.48,0,80,3
1457624252.53,0,80,3
1457624252.53,0,80,3
1457624252.55,0,80,3
1457624252.6,0,80,3
1457624252.65,0,80,3
1457624252.65,0,80,3
1457624252.65,0,80,3
1457624252.65,0,80,3
1457624252.67,0,80,3
1457624252.68,0,80,3
1457624252.68,0,80,3
1457624252.73,0,80,3
1457624252.76,0,80,3
1457624252.78,0,80,3
1457624252.82,0,80,3
1457624252.84,0,80,3
1457624252.84,0,80,3
1457624252.85,0,80,3
1457624252.86,0,80,3
1457624252.86,0,80,3
1457624252.87,0,80,3
1457624252.89,0,80,3
1457624252.89,0,80,3
1457624252.89,0,80,3
1457624252.9,0,80,3
1457624252.91,0,80,3
1457624252.91,0,80,3
1457624252.91,0,80,3
1457624252.92,0,80,3
1457624252.92,0,80,3
1457624252.94,0,80,3
1457624252.95,0,80,3
1457624252.95,0,80,3
1457624252.97,0,80,3
1457624252.98,0,80,3
1457624252.98,0,80,3
1457624252.98,0,80,3
1457624252.99,0,80,3
1457624252.99,0,80,3
1457624253.0,0,80,3
1457624253.01,0,80,3
1457624253.01,0,80,3
1457624253.01,0,80,3
1457624253.01,0,80,3
1457624253.02,0,80,3
1457624253.04,0,80,3
1457624253.04,0,80,3
1457624253.04,0,80,3
1457624253.04,0,80,3
1457624253.05,0,80,3
1457624253.05,0,80,3
1457624253.05,0,80,3
1457624253.05,0,80,3
1457624253.05,0,80,3
1457624253.05,0,80,3
1457624253.07,0,80,3
1457624253.07,0,80,3
1457624253.07,0,80,3
1457624253.08,0,80,3
1457624253.08,0,80,3
1457624253.08,0,80,3
1457624253.08,0,80,3
1457624253.09,0,80,3
1457624253.1,0,80,3
1457624253.1,0,80,3
1457624253.1,0,80,3
1457624253.12,0,80,3
1457624253.13,0,80,3
1457624253.13,0,80,3
1457624253.13,0,80,3
1457624253.13,0,80,3
1457624253.13,0,80,3
1457624253.13,0,80,3
1457624253.14,0,80,3
1457624253.14,0,80,3
1457624253.15,0,80,3
1457624253.17,0,80,3
1457624253.17,0,80,3
1457624253.18,0,80,3
1457624253.18,0,80,3
1457624253.18,0,80,3
1457624253.19,0,80,3
1457624253.19,0,80,3
1457624253.2,0,80,3
1457624253.27,0,80,3
1457624253.27,0,80,3
1457624253.28,0,80,3
1457624253.28,0,80,3
1457624253.31,0,80,3
1457624253.31,0,80,3
1457624253.32,0,80,3
1457624253.35,0,80,3
1457624253.36,0,80,3
1457624253.36,0,80,3
1457624253.36,0,80,3
1457624253.36,0,80,3
1457624253.41,0,80,3
1457624253.42,0,80,3
1457624253.42,0,80,3
1457624253.47,0,80,3
1457624253.47,0,80,3
1457624253.49,0,80,3
1457624253.49,0,80,3
1457624253.49,0,80,3
1457624253.5,0,80,3
1457624253.51,0,80,3
1457624253.51,0,80,3
1457624253.52,0,80,3
1457624253.52,0,80,3
1457624253.53,0,80,3
1457624253.54,0,80,3
1457624253.59,0,80,3
1457624253.6,0,80,3
1457624253.6,0,80,3
1457624253.6,0,80,3
1457624253.63,0,80,3
1457624253.64,0,80,3
1457624253.64,0,80,3
1457624253.66,0,80,3
1457624253.68,0,80,3
1457624253.81,0,80,3
1457624253.83,0,80,3
1457624253.89,0,80,3
1457624253.9,0,80,3
1457624253.91,0,80,3
1457624253.99,0,80,3
1457624254.0,0,80,3
1457624254.0,0,80,3
1457624254.02,0,80,3
1457624254.12,0,80,3
1457624254.14,0,80,3
1457624254.14,0,80,3
1457624254.16,0,80,3
1457624254.18,0,80,3
1457624254.2,0,80,3
1457624254.2,0,80,3
1457624254.22,0,80,3
1457624254.23,0,80,3
1457624254.23,0,80,3
1457624254.25,0,80,3
1457624254.3,0,80,3
1457624254.33,0,80,3
1457624254.33,0,80,3
1457624254.35,0,80,3
1457624254.35,0,80,3
1457624254.36,0,80,3
1457624254.36,0,80,3
1457624254.36,0,80,3
1457624254.37,0,80,3
1457624254.37,0,80,3
1457624254.37,0,80,3
1457624254.37,0,80,3
1457624254.38,0,80,3
1457624254.38,0,80,3
1457624254.38,0,80,3
1457624254.38,0,80,3
1457624254.39,0,80,3
1457624254.4,0,80,3
1457624254.41,0,80,3
1457624254.42,0,80,3
1457624254.43,0,80,3
1457624254.43,0,80,3
1457624254.45,0,80,3
1457624254.47,0,80,3
1457624254.47,0,80,3
1457624254.48,0,80,3
1457624254.52,0,80,3
1457624254.52,0,80,3
1457624254.52,0,80,3
1457624254.53,0,80,3
1457624254.53,0,80,3
1457624254.53,0,80,3
1457624254.53,0,80,3
1457624254.53,0,80,3
1457624254.53,0,80,3
1457624254.54,0,80,3
1457624254.54,0,80,3
1457624254.54,0,80,3
1457624254.54,0,80,3
1457624254.54,0,80,3
1457624254.55,0,80,3
1457624254.55,0,80,3
1457624254.55,0,80,3
1457624254.57,0,80,3
1457624254.58,0,80,3
1457624254.61,0,80,3
1457624254.61,0,80,3
1457624254.62,0,80,3
1457624254.62,0,80,3
1457624254.64,0,80,3
1457624254.65,0,80,3
1457624254.66,0,80,3
1457624254.67,0,80,3
1457624254.68,0,80,3
1457624254.7,0,80,3
1457624254.7,0,80,3
1457624254.7,0,80,3
1457624254.71,0,80,3
1457624254.71,0,80,3
1457624254.72,0,80,3
1457624254.77,0,80,3
1457624254.82,0,80,3
1457624254.82,0,80,3
1457624254.82,0,80,3
1457624254.83,0,80,3
1457624254.84,0,80,3
1457624254.84,0,80,3
1457624254.84,0,80,3
1457624254.86,0,80,3
1457624254.86,0,80,3
1457624254.91,0,80,3
1457624254.94,0,80,3
1457624254.95,0,80,3
1457624254.95,0,80,3
1457624254.99,0,80,3
1457624254.99,0,80,3
1457624255.01,0,80,3
1457624255.01,0,80,3
1457624255.01,0,80,3
1457624255.02,0,80,3
1457624255.03,0,80,3
1457624255.04,0,80,3
1457624255.04,0,80,3
1457624255.04,0,80,3
1457624255.04,0,80,3
1457624255.05,0,80,3
1457624255.07,0,80,3
1457624255.07,0,80,3
1457624255.09,0,80,3
1457624255.09,0,80,3
1457624255.1,0,80,3
1457624255.1,0,80,3
1457624255.12,0,80,3
1457624255.12,0,80,3
1457624255.16,0,80,3
1457624255.22,0,80,3
1457624255.22,0,80,3
1457624255.22,0,80,3
1457624255.22,0,80,3
1457624255.23,0,80,3
1457624255.24,0,80,3
1457624255.24,0,80,3
1457624255.26,0,80,3
1457624255.28,0,80,3
1457624255.29,0,80,3
1457624255.29,0,80,3
1457624255.34,0,80,3
1457624255.35,0,80,3
1457624255.38,0,80,3
1457624255.38,0,80,3
1457624255.39,0,80,3
1457624255.39,0,80,3
1457624255.42,0,80,3
1457624255.43,0,80,3
1457624255.44,0,80,3
1457624255.47,0,80,3
1457624255.5,0,80,3
1457624255.5,0,80,3
1457624255.51,0,80,3
1457624255.51,0,80,3
1457624255.53,0,80,3
1457624255.62,0,80,3
1457624255.67,0,80,3
1457624255.68,0,80,3
1457624255.69,0,80,3
1457624255.69,0,80,3
1457624255.71,0,80,3
1457624255.71,0,80,3
1457624255.73,0,80,3
1457624255.73,0,80,3
1457624255.74,0,80,3
1457624255.79,0,80,3
1457624255.82,0,80,3
1457624255.82,0,80,3
1457624255.83,0,80,3
1457624255.83,0,80,3
1457624255.83,0,80,3
1457624255.84,0,80,3
1457624255.84,0,80,3
1457624255.85,0,80,3
1457624255.85,0,80,3
1457624255.85,0,80,3
1457624255.86,0,80,3
1457624255.87,0,80,3
1457624255.94,0,80,3
1457624255.98,0,80,3
1457624255.99,0,80,3
1457624255.99,0,80,3
1457624256.0,0,80,3
1457624256.01,0,80,3
1457624256.02,0,80,3
1457624256.03,0,80,3
1457624256.06,0,80,3
1457624256.07,0,80,3
1457624256.07,0,80,3
1457624256.08,0,80,3
1457624256.09,0,80,3
1457624256.12,0,80,3
1457624256.13,0,80,3
1457624256.13,0,80,3
1457624256.16,0,80,3
1457624256.17,0,80,3
1457624256.17,0,80,3
1457624256.17,0,80,3
1457624256.17,0,80,3
1457624256.17,0,80,3
1457624256.17,0,80,3
1457624256.18,0,80,3
1457624256.18,0,80,3
1457624256.18,0,80,3
1457624256.19,0,80,3
1457624256.19,0,80,3
1457624256.19,0,80,3
1457624256.19,0,80,3
1457624256.19,0,80,3
1457624256.2,0,80,3
1457624256.2,0,80,3
1457624256.2,0,80,3
1457624256.2,0,80,3
1457624256.21,0,80,3
1457624256.22,0,80,3
1457624256.23,0,80,3
1457624256.24,0,80,3
1457624256.25,0,80,3
1457624256.26,0,80,3
1457624256.27,0,80,3
1457624256.28,0,80,3
1457624256.28,0,80,3
1457624256.29,0,80,3
1457624256.29,0,80,3
1457624256.32,0,80,3
1457624256.33,0,80,3
1457624256.33,0,80,3
1457624256.34,0,80,3
1457624256.34,0,80,3
1457624256.35,0,80,3
1457624256.35,0,80,3
1457624256.35,0,80,3
1457624256.36,0,80,3
1457624256.36,0,80,3
1457624256.36,0,80,3
1457624256.36,0,80,3
1457624256.39,0,80,3
1457624256.4,0,80,3
1457624256.41,0,80,3
1457624256.42,0,80,3
1457624256.42,0,80,3
1457624256.43,0,80,3
1457624256.44,0,80,3
1457624256.44,0,80,3
1457624256.45,0,80,3
1457624256.45,0,80,3
1457624256.45,0,80,3
1457624256.46,0,80,3
1457624256.46,0,80,3
1457624256.46,0,80,3
1457624256.46,0,80,3
1457624256.49,0,80,3
1457624256.49,0,80,3
1457624256.49,0,80,3
1457624256.5,0,80,3
1457624256.5,0,80,3
1457624256.51,0,80,3
1457624256.51,0,80,3
1457624256.51,0,80,3
1457624256.52,0,80,3
1457624256.52,0,80,3
1457624256.52,0,80,3
1457624256.52,0,80,3
1457624256.54,0,80,3
1457624256.58,0,80,3
1457624256.58,0,80,3
1457624256.59,0,80,3
1457624256.59,0,80,3
1457624256.59,0,80,3
1457624256.6,0,80,3
1457624256.6,0,80,3
1457624256.61,0,80,3
1457624256.61,0,80,3
1457624256.65,0,80,3
1457624256.65,0,80,3
1457624256.65,0,80,3
1457624256.65,0,80,3
1457624256.66,0,80,3
1457624256.66,0,80,3
1457624256.66,0,80,3
1457624256.67,0,80,3
1457624256.67,0,80,3
1457624256.68,0,80,3
1457624256.68,0,80,3
1457624256.68,0,80,3
1457624256.68,0,80,3
1457624256.71,0,80,3
1457624256.71,0,80,3
1457624256.71,0,80,3
1457624256.72,0,80,3
1457624256.74,0,80,3
1457624256.76,0,80,3
1457624256.77,0,80,3
1457624256.79,0,80,3
1457624256.79,0,80,3
1457624256.8,0,80,3
1457624256.81,0,80,3
1457624256.81,0,80,3
1457624256.81,0,80,3
1457624256.82,0,80,3
1457624256.83,0,80,3
1457624256.83,0,80,3
1457624256.84,0,80,3
1457624256.84,0,80,3
1457624256.87,0,80,3
1457624256.87,0,80,3
1457624256.87,0,80,3
1457624256.88,0,80,3
1457624256.88,0,80,3
1457624256.89,0,80,3
1457624256.91,0,80,3
1457624256.95,0,80,3
1457624256.95,0,80,3
1457624256.96,0,80,3
1457624256.96,0,80,3
1457624256.96,0,80,3
1457624256.97,0,80,3
1457624256.97,0,80,3
1457624256.97,0,80,3
1457624256.98,0,80,3
1457624256.99,0,80,3
1457624256.99,0,80,3
1457624256.99,0,80,3
1457624256.99,0,80,3
1457624257.0,0,80,3
1457624257.01,0,80,3
1457624257.02,0,80,3
1457624257.02,0,80,3
1457624257.02,0,80,3
1457624257.06,0,80,3
1457624257.07,0,80,3
1457624257.08,0,80,3
1457624257.08,0,80,3
1457624257.1,0,80,3
1457624257.1,0,80,3
1457624257.1,0,80,3
1457624257.1,0,80,3
1457624257.1,0,80,3
1457624257.1,0,80,3
1457624257.1,0,80,3
1457624257.11,0,80,3
1457624257.11,0,80,3
1457624257.11,0,80,3
1457624257.12,0,80,3
1457624257.12,0,80,3
1457624257.13,0,80,3
1457624257.13,0,80,3
1457624257.13,0,80,3
1457624257.13,0,80,3
1457624257.14,0,80,3
1457624257.14,0,80,3
1457624257.14,0,80,3
1457624257.14,0,80,3
1457624257.15,0,80,3
1457624257.15,0,80,3
1457624257.16,0,80,3
1457624257.16,0,80,3
1457624257.16,0,80,3
1457624257.17,0,80,3
1457624257.17,0,80,3
1457624257.18,0,80,3
1457624257.18,0,80,3
1457624257.18,0,80,3
1457624257.18,0,80,3
1457624257.18,0,80,3
1457624257.2,0,80,3
1457624257.2,0,80,3
1457624257.22,0,80,3
1457624257.22,0,80,3
1457624257.22,0,80,3
1457624257.23,0,80,3
1457624257.24,0,80,3
1457624257.26,0,80,3
1457624257.26,0,80,3
1457624257.26,0,80,3
1457624257.27,0,80,3
1457624257.28,0,80,3
1457624257.28,0,80,3
1457624257.29,0,80,3
1457624257.3,0,80,3
1457624257.3,0,80,3
1457624257.3,0,80,3
1457624257.31,0,80,3
1457624257.32,0,80,3
1457624257.33,0,80,3
1457624257.33,0,80,3
1457624257.34,0,80,3
1457624257.35,0,80,3
1457624257.35,0,80,3
1457624257.36,0,80,3
1457624257.38,0,80,3
1457624257.38,0,80,3
1457624257.38,0,80,3
1457624257.39,0,80,3
1457624257.4,0,80,3
1457624257.4,0,80,3
1457624257.4,0,80,3
1457624257.41,0,80,3
1457624257.41,0,80,3
1457624257.41,0,80,3
1457624257.43,0,80,3
1457624257.44,0,80,3
1457624257.44,0,80,3
1457624257.46,0,80,3
1457624257.47,0,80,3
1457624257.48,0,80,3
1457624257.48,0,80,3
1457624257.49,0,80,3
1457624257.49,0,80,3
1457624257.5,0,80,3
1457624257.5,0,80,3
1457624257.5,0,80,3
1457624257.51,0,80,3
1457624257.54,0,80,3
1457624257.55,0,80,3
1457624257.55,0,80,3
1457624257.55,0,80,3
1457624257.56,0,80,3
1457624257.56,0,80,3
1457624257.56,0,80,3
1457624257.57,0,80,3
1457624257.58,0,80,3
1457624257.61,0,80,3
1457624257.62,0,80,3
1457624257.62,0,80,3
1457624257.63,0,80,3
1457624257.63,0,80,3
1457624257.63,0,80,3
1457624257.63,0,80,3
1457624257.64,0,80,3
1457624257.64,0,80,3
1457624257.64,0,80,3
1457624257.64,0,80,3
1457624257.65,0,80,3
1457624257.66,0,80,3
1457624257.68,0,80,3
1457624257.68,0,80,3
1457624257.69,0,80,3
1457624257.7,0,80,3
1457624257.71,0,80,3
1457624257.71,0,80,3
1457624257.72,0,80,3
1457624257.72,0,80,3
1457624257.75,0,80,3
1457624257.76,0,80,3
1457624257.77,0,80,3
1457624257.77,0,80,3
1457624257.77,0,80,3
1457624257.78,0,80,3
1457624257.78,0,80,3
1457624257.78,0,80,3
1457624257.79,0,80,3
1457624257.79,0,80,3
1457624257.79,0,80,3
1457624257.8,0,80,3
1457624257.81,0,80,3
1457624257.81,0,80,3
1457624257.82,0,80,3
1457624257.82,0,80,3
1457624257.82,0,80,3
1457624257.83,0,80,3
1457624257.84,0,80,3
1457624257.84,0,80,3
1457624257.85,0,80,3
1457624257.85,0,80,3
1457624257.87,0,80,3
1457624257.87,0,80,3
1457624257.87,0,80,3
1457624257.91,0,80,3
1457624257.91,0,80,3
1457624257.91,0,80,3
1457624257.91,0,80,3
1457624257.92,0,80,3
1457624257.92,0,80,3
1457624257.93,0,80,3
1457624257.93,0,80,3
1457624257.94,0,80,3
1457624257.94,0,80,3
1457624257.94,0,80,3
1457624257.95,0,80,3
1457624257.95,0,80,3
1457624257.95,0,80,3
1457624257.97,0,80,3
1457624257.97,0,80,3
1457624257.97,0,80,3
1457624257.98,0,80,3
1457624257.98,0,80,3
1457624257.99,0,80,3
1457624258.02,0,80,3
1457624258.02,0,80,3
1457624258.03,0,80,3
1457624258.03,0,80,3
1457624258.06,0,80,3
1457624258.06,0,80,3
1457624258.07,0,80,3
1457624258.07,0,80,3
1457624258.08,0,80,3
1457624258.09,0,80,3
1457624258.11,0,80,3
1457624258.12,0,80,3
1457624258.13,0,80,3
1457624258.14,0,80,3
1457624258.14,0,80,3
1457624258.14,0,80,3
1457624258.14,0,80,3
1457624258.14,0,80,3
1457624258.14,0,80,3
1457624258.14,0,80,3
1457624258.14,0,80,3
1457624258.15,0,80,3
1457624258.15,0,80,3
1457624258.15,0,80,3
1457624258.15,0,80,3
1457624258.15,0,80,3
1457624258.15,0,80,3
1457624258.16,0,80,3
1457624258.16,0,80,3
1457624258.16,0,80,3
1457624258.17,0,80,3
1457624258.18,0,80,3
1457624258.18,0,80,3
1457624258.19,0,80,3
1457624258.19,0,80,3
1457624258.19,0,80,3
1457624258.2,0,80,3
1457624258.2,0,80,3
1457624258.2,0,80,3
1457624258.21,0,80,3
1457624258.21,0,80,3
1457624258.21,0,80,3
1457624258.23,0,80,3
1457624258.23,0,80,3
1457624258.24,0,80,3
1457624258.24,0,80,3
1457624258.25,0,80,3
1457624258.26,0,80,3
1457624258.26,0,80,3
1457624258.27,0,80,3
1457624258.27,0,80,3
1457624258.27,0,80,3
1457624258.27,0,80,3
1457624258.27,0,80,3
1457624258.28,0,80,3
1457624258.28,0,80,3
1457624258.28,0,80,3
1457624258.28,0,80,3
1457624258.28,0,80,3
1457624258.28,0,80,3
1457624258.28,0,80,3
1457624258.29,0,80,3
1457624258.29,0,80,3
1457624258.29,0,80,3
1457624258.29,0,80,3
1457624258.29,0,80,3
1457624258.29,0,80,3
1457624258.3,0,80,3
1457624258.3,0,80,3
1457624258.31,0,80,3
1457624258.32,0,80,3
1457624258.32,0,80,3
1457624258.33,0,80,3
1457624258.33,0,80,3
1457624258.33,0,80,3
1457624258.34,0,80,3
1457624258.35,0,80,3
1457624258.4,0,80,3
1457624258.41,0,80,3
1457624258.42,0,80,3
1457624258.42,0,80,3
1457624258.44,0,80,3
1457624258.44,0,80,3
1457624258.44,0,80,3
1457624258.45,0,80,3
1457624258.45,0,80,3
1457624258.46,0,80,3
1457624258.47,0,80,3
1457624258.52,0,80,3
1457624258.53,0,80,3
1457624258.54,0,80,3
1457624258.55,0,80,3
1457624258.55,0,80,3
1457624258.57,0,80,3
1457624258.57,0,80,3
1457624258.57,0,80,3
1457624258.58,0,80,3
1457624258.6,0,80,3
1457624258.6,0,80,3
1457624258.61,0,80,3
1457624258.61,0,80,3
1457624258.63,0,80,3
1457624258.63,0,80,3
1457624258.63,0,80,3
1457624258.64,0,80,3
1457624258.65,0,80,3
1457624258.66,0,80,3
1457624258.66,0,80,3
1457624258.66,0,80,3
1457624258.67,0,80,3
1457624258.67,0,80,3
1457624258.69,0,80,3
1457624258.7,0,80,3
1457624258.71,0,80,3
1457624258.72,0,80,3
1457624258.72,0,80,3
1457624258.73,0,80,3
1457624258.74,0,80,3
1457624258.75,0,80,3
1457624258.75,0,80,3
1457624258.76,0,80,3
1457624258.76,0,80,3
1457624258.77,0,80,3
1457624258.78,0,80,3
1457624258.79,0,80,3
1457624258.81,0,80,3
1457624258.81,0,80,3
1457624258.81,0,80,3
1457624258.82,0,80,3
1457624258.82,0,80,3
1457624258.83,0,80,3
1457624258.83,0,80,3
1457624258.83,0,80,3
1457624258.84,0,80,3
1457624258.84,0,80,3
1457624258.85,0,80,3
1457624258.86,0,80,3
1457624258.86,0,80,3
1457624258.86,0,80,3
1457624258.87,0,80,3
1457624258.87,0,80,3
1457624258.87,0,80,3
1457624258.88,0,80,3
1457624258.9,0,80,3
1457624258.9,0,80,3
1457624258.91,0,80,3
1457624258.92,0,80,3
1457624258.92,0,80,3
1457624258.93,0,80,3
1457624258.94,0,80,3
1457624258.94,0,80,3
1457624258.94,0,80,3
1457624258.94,0,80,3
1457624258.94,0,80,3
1457624258.95,0,80,3
1457624258.95,0,80,3
1457624258.95,0,80,3
1457624258.95,0,80,3
1457624258.95,0,80,3
1457624258.96,0,80,3
1457624258.97,0,80,3
1457624258.97,0,80,3
1457624258.97,0,80,3
1457624258.97,0,80,3
1457624258.98,0,80,3
1457624258.98,0,80,3
1457624258.99,0,80,3
1457624258.99,0,80,3
1457624258.99,0,80,3
1457624258.99,0,80,3
1457624258.99,0,80,3
1457624258.99,0,80,3
1457624258.99,0,80,3
1457624258.99,0,80,3
1457624258.99,0,80,3
1457624259.0,0,80,3
1457624259.0,0,80,3
1457624259.0,0,80,3
1457624259.01,0,80,3
1457624259.01,0,80,3
1457624259.01,0,80,3
1457624259.01,0,80,3
1457624259.01,0,80,3
1457624259.01,0,80,3
1457624259.01,0,80,3
1457624259.02,0,80,3
1457624259.03,0,80,3
1457624259.04,0,80,3
1457624259.05,0,80,3
1457624259.06,0,80,3
1457624259.07,0,80,3
1457624259.07,0,80,3
1457624259.07,0,80,3
1457624259.07,0,80,3
1457624259.08,0,80,3
1457624259.09,0,80,3
1457624259.09,0,80,3
1457624259.1,0,80,3
1457624259.1,0,80,3
1457624259.1,0,80,3
1457624259.1,0,80,3
1457624259.1,0,80,3
1457624259.11,0,80,3
1457624259.11,0,80,3
1457624259.11,0,80,3
1457624259.11,0,80,3
1457624259.12,0,80,3
1457624259.12,0,80,3
1457624259.12,0,80,3
1457624259.14,0,80,3
1457624259.14,0,80,3
1457624259.14,0,80,3
1457624259.14,0,80,3
1457624259.14,0,80,3
1457624259.14,0,80,3
1457624259.15,0,80,3
1457624259.15,0,80,3
1457624259.15,0,80,3
1457624259.17,0,80,3
1457624259.19,0,80,3
1457624259.19,0,80,3
1457624259.2,0,80,3
1457624259.2,0,80,3
1457624259.2,0,80,3
1457624259.21,0,80,3
1457624259.21,0,80,3
1457624259.21,0,80,3
1457624259.21,0,80,3
1457624259.22,0,80,3
1457624259.22,0,80,3
1457624259.22,0,80,3
1457624259.22,0,80,3
1457624259.23,0,80,3
1457624259.23,0,80,3
1457624259.23,0,80,3
1457624259.23,0,80,3
1457624259.23,0,80,3
1457624259.23,0,80,3
1457624259.24,0,80,3
1457624259.25,0,80,3
1457624259.25,0,80,3
1457624259.25,0,80,3
1457624259.25,0,80,3
1457624259.26,0,80,3
1457624259.26,0,80,3
1457624259.26,0,80,3
1457624259.26,0,80,3
1457624259.27,0,80,3
1457624259.27,0,80,3
1457624259.27,0,80,3
1457624259.28,0,80,3
1457624259.28,0,80,3
1457624259.28,0,80,3
1457624259.28,0,80,3
1457624259.28,0,80,3
1457624259.28,0,80,3
1457624259.3,0,80,3
1457624259.3,0,80,3
1457624259.32,0,80,3
1457624259.33,0,80,3
1457624259.33,0,80,3
1457624259.34,0,80,3
1457624259.34,0,80,3
1457624259.35,0,80,3
1457624259.37,0,80,3
1457624259.38,0,80,3
1457624259.38,0,80,3
1457624259.38,0,80,3
1457624259.38,0,80,3
1457624259.39,0,80,3
1457624259.39,0,80,3
1457624259.39,0,80,3
1457624259.39,0,80,3
1457624259.4,0,80,3
1457624259.4,0,80,3
1457624259.41,0,80,3
1457624259.41,0,80,3
1457624259.41,0,80,3
1457624259.42,0,80,3
1457624259.42,0,80,3
1457624259.44,0,80,3
1457624259.44,0,80,3
1457624259.47,0,80,3
1457624259.47,0,80,3
1457624259.48,0,80,3
1457624259.51,0,80,3
1457624259.51,0,80,3
1457624259.52,0,80,3
1457624259.54,0,80,3
1457624259.54,0,80,3
1457624259.54,0,80,3
1457624259.54,0,80,3
1457624259.55,0,80,3
1457624259.55,0,80,3
1457624259.56,0,80,3
1457624259.56,0,80,3
1457624259.56,0,80,3
1457624259.56,0,80,3
1457624259.57,0,80,3
1457624259.57,0,80,3
1457624259.58,0,80,3
1457624259.58,0,80,3
1457624259.6,0,80,3
1457624259.6,0,80,3
1457624259.61,0,80,3
1457624259.61,0,80,3
1457624259.61,0,80,3
1457624259.62,0,80,3
1457624259.62,0,80,3
1457624259.62,0,80,3
1457624259.63,0,80,3
1457624259.63,0,80,3
1457624259.63,0,80,3
1457624259.63,0,80,3
1457624259.64,0,80,3
1457624259.64,0,80,3
1457624259.64,0,80,3
1457624259.64,0,80,3
1457624259.64,0,80,3
1457624259.65,0,80,3
1457624259.65,0,80,3
1457624259.65,0,80,3
1457624259.65,0,80,3
1457624259.66,0,80,3
1457624259.66,0,80,3
1457624259.66,0,80,3
1457624259.67,0,80,3
1457624259.68,0,80,3
1457624259.68,0,80,3
1457624259.69,0,80,3
1457624259.72,0,80,3
1457624259.72,0,80,3
1457624259.73,0,80,3
1457624259.73,0,80,3
1457624259.73,0,80,3
1457624259.73,0,80,3
1457624259.75,0,80,3
1457624259.75,0,80,3
1457624259.75,0,80,3
1457624259.75,0,80,3
1457624259.76,0,80,3
1457624259.77,0,80,3
1457624259.79,0,80,3
1457624259.79,0,80,3
1457624259.79,0,80,3
1457624259.8,0,80,3
1457624259.8,0,80,3
1457624259.81,0,80,3
1457624259.81,0,80,3
1457624259.81,0,80,3
1457624259.81,0,80,3
1457624259.82,0,80,3
1457624259.83,0,80,3
1457624259.83,0,80,3
1457624259.83,0,80,3
1457624259.84,0,80,3
1457624259.84,0,80,3
1457624259.84,0,80,3
1457624259.84,0,80,3
1457624259.84,0,80,3
1457624259.85,0,80,3
1457624259.85,0,80,3
1457624259.85,0,80,3
1457624259.85,0,80,3
1457624259.85,0,80,3
1457624259.85,0,80,3
1457624259.85,0,80,3
1457624259.86,0,80,3
1457624259.86,0,80,3
1457624259.86,0,80,3
1457624259.86,0,80,3
1457624259.87,0,80,3
1457624259.87,0,80,3
1457624259.89,0,80,3
1457624259.9,0,80,3
1457624259.9,0,80,3
1457624259.9,0,80,3
1457624259.9,0,80,3
1457624259.9,0,80,3
1457624259.9,0,80,3
1457624259.9,0,80,3
1457624259.9,0,80,3
1457624259.9,0,80,3
1457624259.91,0,80,3
1457624259.91,0,80,3
1457624259.92,0,80,3
1457624259.93,0,80,3
1457624259.94,0,80,3
1457624259.94,0,80,3
1457624259.97,0,80,3
1457624260.01,0,80,3
1457624260.03,0,80,3
1457624260.03,0,80,3
1457624260.05,0,80,3
1457624260.05,0,80,3
1457624260.06,0,80,3
1457624260.07,0,80,3
1457624260.07,0,80,3
1457624260.08,0,80,3
1457624260.09,0,80,3
1457624260.1,0,80,3
1457624260.1,0,80,3
1457624260.11,0,80,3
1457624260.15,0,80,3
1457624260.15,0,80,3
1457624260.16,0,80,3
1457624260.16,0,80,3
1457624260.16,0,80,3
1457624260.17,0,80,3
1457624260.19,0,80,3
1457624260.2,0,80,3
1457624260.21,0,80,3
1457624260.21,0,80,3
1457624260.22,0,80,3
1457624260.22,0,80,3
1457624260.22,0,80,3
1457624260.23,0,80,3
1457624260.23,0,80,3
1457624260.24,0,80,3
1457624260.25,0,80,3
1457624260.25,0,80,3
1457624260.26,0,80,3
1457624260.26,0,80,3
1457624260.26,0,80,3
1457624260.26,0,80,3
1457624260.26,0,80,3
1457624260.27,0,80,3
1457624260.27,0,80,3
1457624260.27,0,80,3
1457624260.28,0,80,3
1457624260.29,0,80,3
1457624260.33,0,80,3
1457624260.34,0,80,3
1457624260.34,0,80,3
1457624260.35,0,80,3
1457624260.35,0,80,3
1457624260.35,0,80,3
1457624260.39,0,80,3
1457624260.4,0,80,3
1457624260.41,0,80,3
1457624260.42,0,80,3
1457624260.42,0,80,3
1457624260.42,0,80,3
1457624260.43,0,80,3
1457624260.44,0,80,3
1457624260.44,0,80,3
1457624260.44,0,80,3
1457624260.45,0,80,3
1457624260.45,0,80,3
1457624260.45,0,80,3
1457624260.46,0,80,3
1457624260.55,0,80,3
1457624260.55,0,80,3
1457624260.56,0,80,3
1457624260.56,0,80,3
1457624260.57,0,80,3
1457624260.58,0,80,3
1457624260.58,0,80,3
1457624260.59,0,80,3
1457624260.59,0,80,3
1457624260.6,0,80,3
1457624260.6,0,80,3
1457624260.62,0,80,3
1457624260.62,0,80,3
1457624260.63,0,80,3
1457624260.63,0,80,3
1457624260.64,0,80,3
1457624260.67,0,80,3
1457624260.67,0,80,3
1457624260.69,0,80,3
1457624260.69,0,80,3
1457624260.71,0,80,3
1457624260.72,0,80,3
1457624260.72,0,80,3
1457624260.72,0,80,3
1457624260.73,0,80,3
1457624260.73,0,80,3
1457624260.73,0,80,3
1457624260.73,0,80,3
1457624260.73,0,80,3
1457624260.73,0,80,3
1457624260.73,0,80,3
1457624260.74,0,80,3
1457624260.74,0,80,3
1457624260.74,0,80,3
1457624260.75,0,80,3
1457624260.75,0,80,3
1457624260.75,0,80,3
1457624260.75,0,80,3
1457624260.75,0,80,3
1457624260.76,0,80,3
1457624260.76,0,80,3
1457624260.76,0,80,3
1457624260.76,0,80,3
1457624260.77,0,80,3
1457624260.77,0,80,3
1457624260.77,0,80,3
1457624260.77,0,80,3
1457624260.77,0,80,3
1457624260.78,0,80,3
1457624260.78,0,80,3
1457624260.78,0,80,3
1457624260.78,0,80,3
1457624260.79,0,80,3
1457624260.79,0,80,3
1457624260.79,0,80,3
1457624260.79,0,80,3
1457624260.79,0,80,3
1457624260.79,0,80,3
1457624260.8,0,80,3
1457624260.8,0,80,3
1457624260.8,0,80,3
1457624260.8,0,80,3
1457624260.8,0,80,3
1457624260.81,0,80,3
1457624260.81,0,80,3
1457624260.81,0,80,3
1457624260.82,0,80,3
1457624260.82,0,80,3
1457624260.83,0,80,3
1457624260.83,0,80,3
1457624260.83,0,80,3
1457624260.84,0,80,3
1457624260.84,0,80,3
1457624260.84,0,80,3
1457624260.84,0,80,3
1457624260.84,0,80,3
1457624260.84,0,80,3
1457624260.84,0,80,3
1457624260.84,0,80,3
1457624260.85,0,80,3
1457624260.85,0,80,3
1457624260.85,0,80,3
1457624260.86,0,80,3
1457624260.86,0,80,3
1457624260.86,0,80,3
1457624260.88,0,80,3
1457624260.88,0,80,3
1457624260.89,0,80,3
1457624260.9,0,80,3
1457624260.9,0,80,3
1457624260.9,0,80,3
1457624260.91,0,80,3
1457624260.91,0,80,3
1457624260.92,0,80,3
1457624260.92,0,80,3
1457624260.92,0,80,3
1457624260.92,0,80,3
1457624260.92,0,80,3
1457624260.93,0,80,3
1457624260.94,0,80,3
1457624260.94,0,80,3
1457624260.94,0,80,3
1457624260.95,0,80,3
1457624260.98,0,80,3
1457624260.98,0,80,3
1457624260.99,0,80,3
1457624261.0,0,80,3
1457624261.0,0,80,3
1457624261.0,0,80,3
1457624261.0,0,80,3
1457624261.0,0,80,3
1457624261.01,0,80,3
1457624261.01,0,80,3
1457624261.03,0,80,3
1457624261.03,0,80,3
1457624261.03,0,80,3
1457624261.04,0,80,3
1457624261.04,0,80,3
1457624261.08,0,80,3
1457624261.08,0,80,3
1457624261.09,0,80,3
1457624261.09,0,80,3
1457624261.09,0,80,3
1457624261.09,0,80,3
1457624261.1,0,80,3
1457624261.11,0,80,3
1457624261.11,0,80,3
1457624261.11,0,80,3
1457624261.11,0,80,3
1457624261.11,0,80,3
1457624261.12,0,80,3
1457624261.12,0,80,3
1457624261.12,0,80,3
1457624261.12,0,80,3
1457624261.12,0,80,3
1457624261.12,0,80,3
1457624261.13,0,80,3
1457624261.13,0,80,3
1457624261.13,0,80,3
1457624261.14,0,80,3
1457624261.14,0,80,3
1457624261.15,0,80,3
1457624261.17,0,80,3
1457624261.17,0,80,3
1457624261.17,0,80,3
1457624261.17,0,80,3
1457624261.17,0,80,3
1457624261.21,0,80,3
1457624261.21,0,80,3
1457624261.22,0,80,3
1457624261.22,0,80,3
1457624261.22,0,80,3
1457624261.22,0,80,3
1457624261.23,0,80,3
1457624261.23,0,80,3
1457624261.23,0,80,3
1457624261.23,0,80,3
1457624261.23,0,80,3
1457624261.24,0,80,3
1457624261.24,0,80,3
1457624261.25,0,80,3
1457624261.26,0,80,3
1457624261.26,0,80,3
1457624261.26,0,80,3
1457624261.26,0,80,3
1457624261.26,0,80,3
1457624261.27,0,80,3
1457624261.27,0,80,3
1457624261.27,0,80,3
1457624261.27,0,80,3
1457624261.28,0,80,3
1457624261.28,0,80,3
1457624261.28,0,80,3
1457624261.28,0,80,3
1457624261.29,0,80,3
1457624261.29,0,80,3
1457624261.29,0,80,3
1457624261.29,0,80,3
1457624261.3,0,80,3
1457624261.3,0,80,3
1457624261.3,0,80,3
1457624261.31,0,80,3
1457624261.33,0,80,3
1457624261.33,0,80,3
1457624261.33,0,80,3
1457624261.34,0,80,3
1457624261.34,0,80,3
1457624261.35,0,80,3
1457624261.35,0,80,3
1457624261.35,0,80,3
1457624261.35,0,80,3
1457624261.35,0,80,3
1457624261.36,0,80,3
1457624261.36,0,80,3
1457624261.36,0,80,3
1457624261.36,0,80,3
1457624261.36,0,80,3
1457624261.37,0,80,3
1457624261.37,0,80,3
1457624261.37,0,80,3
1457624261.37,0,80,3
1457624261.39,0,80,3
1457624261.39,0,80,3
1457624261.39,0,80,3
1457624261.39,0,80,3
1457624261.4,0,80,3
1457624261.4,0,80,3
1457624261.4,0,80,3
1457624261.41,0,80,3
1457624261.41,0,80,3
1457624261.41,0,80,3
1457624261.41,0,80,3
1457624261.42,0,80,3
1457624261.43,0,80,3
1457624261.43,0,80,3
1457624261.43,0,80,3
1457624261.43,0,80,3
1457624261.43,0,80,3
1457624261.43,0,80,3
1457624261.44,0,80,3
1457624261.44,0,80,3
1457624261.45,0,80,3
1457624261.47,0,80,3
1457624261.47,0,80,3
1457624261.48,0,80,3
1457624261.48,0,80,3
1457624261.5,0,80,3
1457624261.5,0,80,3
1457624261.5,0,80,3
1457624261.5,0,80,3
1457624261.5,0,80,3
1457624261.51,0,80,3
1457624261.53,0,80,3
1457624261.53,0,80,3
1457624261.53,0,80,3
1457624261.53,0,80,3
1457624261.53,0,80,3
1457624261.54,0,80,3
1457624261.54,0,80,3
1457624261.54,0,80,3
1457624261.54,0,80,3
1457624261.54,0,80,3
1457624261.54,0,80,3
1457624261.55,0,80,3
1457624261.55,0,80,3
1457624261.55,0,80,3
1457624261.55,0,80,3
1457624261.56,0,80,3
1457624261.56,0,80,3
1457624261.56,0,80,3
1457624261.56,0,80,3
1457624261.56,0,80,3
1457624261.57,0,80,3
1457624261.57,0,80,3
1457624261.58,0,80,3
1457624261.58,0,80,3
1457624261.58,0,80,3
1457624261.58,0,80,3
1457624261.58,0,80,3
1457624261.58,0,80,3
1457624261.58,0,80,3
1457624261.59,0,80,3
1457624261.59,0,80,3
1457624261.6,0,80,3
1457624261.6,0,80,3
1457624261.6,0,80,3
1457624261.6,0,80,3
1457624261.61,0,80,3
1457624261.61,0,80,3
1457624261.61,0,80,3
1457624261.62,0,80,3
1457624261.62,0,80,3
1457624261.62,0,80,3
1457624261.62,0,80,3
1457624261.62,0,80,3
1457624261.63,0,80,3
1457624261.64,0,80,3
1457624261.65,0,80,3
1457624261.72,0,80,3
1457624261.73,0,80,3
1457624261.73,0,80,3
1457624261.73,0,80,3
1457624261.74,0,80,3
1457624261.75,0,80,3
1457624261.76,0,80,3
1457624261.76,0,80,3
1457624261.77,0,80,3
1457624261.78,0,80,3
1457624261.79,0,80,3
1457624261.82,0,80,3
1457624261.82,0,80,3
1457624261.85,0,80,3
1457624261.86,0,80,3
1457624261.87,0,80,3
1457624261.88,0,80,3
1457624261.88,0,80,3
1457624261.88,0,80,3
1457624261.89,0,80,3
1457624261.89,0,80,3
1457624261.89,0,80,3
1457624261.9,0,80,3
1457624261.9,0,80,3
1457624261.9,0,80,3
1457624261.9,0,80,3
1457624261.91,0,80,3
1457624261.91,0,80,3
1457624261.92,0,80,3
1457624261.92,0,80,3
1457624261.92,0,80,3
1457624261.92,0,80,3
1457624261.92,0,80,3
1457624261.97,0,80,3
1457624261.97,0,80,3
1457624261.97,0,80,3
1457624261.98,0,80,3
1457624261.99,0,80,3
1457624262.0,0,80,3
1457624262.0,0,80,3
1457624262.0,0,80,3
1457624262.0,0,80,3
1457624262.01,0,80,3
1457624262.01,0,80,3
1457624262.02,0,80,3
1457624262.02,0,80,3
1457624262.02,0,80,3
1457624262.02,0,80,3
1457624262.04,0,80,3
1457624262.04,0,80,3
1457624262.04,0,80,3
1457624262.05,0,80,3
1457624262.05,0,80,3
1457624262.05,0,80,3
1457624262.06,0,80,3
1457624262.06,0,80,3
1457624262.06,0,80,3
1457624262.06,0,80,3
1457624262.06,0,80,3
1457624262.06,0,80,3
1457624262.06,0,80,3
1457624262.07,0,80,3
1457624262.07,0,80,3
1457624262.07,0,80,3
1457624262.07,0,80,3
1457624262.07,0,80,3
1457624262.07,0,80,3
1457624262.07,0,80,3
1457624262.08,0,80,3
1457624262.08,0,80,3
1457624262.08,0,80,3
1457624262.08,0,80,3
1457624262.12,0,80,3
1457624262.14,0,80,3
1457624262.14,0,80,3
1457624262.15,0,80,3
1457624262.15,0,80,3
1457624262.15,0,80,3
1457624262.16,0,80,3
1457624262.16,0,80,3
1457624262.16,0,80,3
1457624262.17,0,80,3
1457624262.17,0,80,3
1457624262.17,0,80,3
1457624262.18,0,80,3
1457624262.18,0,80,3
1457624262.19,0,80,3
1457624262.19,0,80,3
1457624262.2,0,80,3
1457624262.2,0,80,3
1457624262.2,0,80,3
1457624262.2,0,80,3
1457624262.2,0,80,3
1457624262.2,0,80,3
1457624262.21,0,80,3
1457624262.21,0,80,3
1457624262.21,0,80,3
1457624262.22,0,80,3
1457624262.22,0,80,3
1457624262.22,0,80,3
1457624262.22,0,80,3
1457624262.23,0,80,3
1457624262.23,0,80,3
1457624262.23,0,80,3
1457624262.23,0,80,3
1457624262.25,0,80,3
1457624262.26,0,80,3
1457624262.26,0,80,3
1457624262.28,0,80,3
1457624262.28,0,80,3
1457624262.28,0,80,3
1457624262.28,0,80,3
1457624262.28,0,80,3
1457624262.31,0,80,3
1457624262.31,0,80,3
1457624262.31,0,80,3
1457624262.31,0,80,3
1457624262.32,0,80,3
1457624262.33,0,80,3
1457624262.33,0,80,3
1457624262.34,0,80,3
1457624262.34,0,80,3
1457624262.34,0,80,3
1457624262.34,0,80,3
1457624262.35,0,80,3
1457624262.35,0,80,3
1457624262.35,0,80,3
1457624262.35,0,80,3
1457624262.35,0,80,3
1457624262.36,0,80,3
1457624262.36,0,80,3
1457624262.36,0,80,3
1457624262.36,0,80,3
1457624262.36,0,80,3
1457624262.36,0,80,3
1457624262.36,0,80,3
1457624262.37,0,80,3
1457624262.37,0,80,3
1457624262.37,0,80,3
1457624262.37,0,80,3
1457624262.37,0,80,3
1457624262.37,0,80,3
1457624262.37,0,80,3
1457624262.37,0,80,3
1457624262.37,0,80,3
1457624262.38,0,80,3
1457624262.38,0,80,3
1457624262.38,0,80,3
1457624262.38,0,80,3
1457624262.38,0,80,3
1457624262.38,0,80,3
1457624262.39,0,80,3
1457624262.39,0,80,3
1457624262.39,0,80,3
1457624262.4,0,80,3
1457624262.4,0,80,3
1457624262.4,0,80,3
1457624262.4,0,80,3
1457624262.4,0,80,3
1457624262.4,0,80,3
1457624262.4,0,80,3
1457624262.4,0,80,3
1457624262.4,0,80,3
1457624262.4,0,80,3
1457624262.4,0,80,3
1457624262.4,0,80,3
1457624262.4,0,80,3
1457624262.4,0,80,3
1457624262.41,0,80,3
1457624262.41,0,80,3
1457624262.41,0,80,3
1457624262.41,0,80,3
1457624262.41,0,80,3
1457624262.41,0,80,3
1457624262.41,0,80,3
1457624262.42,0,80,3
1457624262.44,0,80,3
1457624262.46,0,80,3
1457624262.46,0,80,3
1457624262.46,0,80,3
1457624262.46,0,80,3
1457624262.47,0,80,3
1457624262.47,0,80,3
1457624262.48,0,80,3
1457624262.48,0,80,3
1457624262.48,0,80,3
1457624262.48,0,80,3
1457624262.48,0,80,3
1457624262.48,0,80,3
1457624262.48,0,80,3
1457624262.48,0,80,3
1457624262.48,0,80,3
1457624262.49,0,80,3
1457624262.49,0,80,3
1457624262.49,0,80,3
1457624262.49,0,80,3
1457624262.49,0,80,3
1457624262.49,0,80,3
1457624262.49,0,80,3
1457624262.49,0,80,3
1457624262.49,0,80,3
1457624262.5,0,80,3
1457624262.5,0,80,3
1457624262.5,0,80,3
1457624262.5,0,80,3
1457624262.51,0,80,3
1457624262.51,0,80,3
1457624262.51,0,80,3
1457624262.51,0,80,3
1457624262.51,0,80,3
1457624262.51,0,80,3
1457624262.52,0,80,3
1457624262.52,0,80,3
1457624262.52,0,80,3
1457624262.52,0,80,3
1457624262.52,0,80,3
1457624262.53,0,80,3
1457624262.53,0,80,3
1457624262.53,0,80,3
1457624262.53,0,80,3
1457624262.53,0,80,3
1457624262.53,0,80,3
1457624262.54,0,80,3
1457624262.54,0,80,3
1457624262.54,0,80,3
1457624262.54,0,80,3
1457624262.54,0,80,3
1457624262.54,0,80,3
1457624262.54,0,80,3
1457624262.56,0,80,3
1457624262.57,0,80,3
1457624262.57,0,80,3
1457624262.57,0,80,3
1457624262.58,0,80,3
1457624262.59,0,80,3
1457624262.59,0,80,3
1457624262.59,0,80,3
1457624262.59,0,80,3
1457624262.6,0,80,3
1457624262.6,0,80,3
1457624262.6,0,80,3
1457624262.6,0,80,3
1457624262.6,0,80,3
1457624262.6,0,80,3
1457624262.6,0,80,3
1457624262.6,0,80,3
1457624262.6,0,80,3
1457624262.6,0,80,3
1457624262.6,0,80,3
1457624262.6,0,80,3
1457624262.6,0,80,3
1457624262.6,0,80,3
1457624262.61,0,80,3
1457624262.61,0,80,3
1457624262.61,0,80,3
1457624262.61,0,80,3
1457624262.61,0,80,3
1457624262.61,0,80,3
1457624262.62,0,80,3
1457624262.63,0,80,3
1457624262.63,0,80,3
1457624262.63,0,80,3
1457624262.64,0,80,3
1457624262.65,0,80,3
1457624262.65,0,80,3
1457624262.65,0,80,3
1457624262.66,0,80,3
1457624262.66,0,80,3
1457624262.66,0,80,3
1457624262.67,0,80,3
1457624262.67,0,80,3
1457624262.67,0,80,3
1457624262.67,0,80,3
1457624262.68,0,80,3
1457624262.68,0,80,3
1457624262.68,0,80,3
1457624262.68,0,80,3
1457624262.68,0,80,3
1457624262.68,0,80,3
1457624262.68,0,80,3
1457624262.69,0,80,3
1457624262.69,0,80,3
1457624262.69,0,80,3
1457624262.69,0,80,3
1457624262.69,0,80,3
1457624262.69,0,80,3
1457624262.69,0,80,3
1457624262.7,0,80,3
1457624262.7,0,80,3
1457624262.7,0,80,3
1457624262.7,0,80,3
1457624262.71,0,80,3
1457624262.71,0,80,3
1457624262.71,0,80,3
1457624262.71,0,80,3
1457624262.71,0,80,3
1457624262.71,0,80,3
1457624262.71,0,80,3
1457624262.71,0,80,3
1457624262.71,0,80,3
1457624262.72,0,80,3
1457624262.74,0,80,3
1457624262.74,0,80,3
1457624262.74,0,80,3
1457624262.74,0,80,3
1457624262.74,0,80,3
1457624262.74,0,80,3
1457624262.74,0,80,3
1457624262.79,0,80,3
1457624262.79,0,80,3
1457624262.79,0,80,3
1457624262.79,0,80,3
1457624262.8,0,80,3
1457624262.81,0,80,3
1457624262.82,0,80,3
1457624262.82,0,80,3
1457624262.82,0,80,3
1457624262.84,0,80,3
1457624262.84,0,80,3
1457624262.84,0,80,3
1457624262.84,0,80,3
1457624262.84,0,80,3
1457624262.85,0,80,3
1457624262.85,0,80,3
1457624262.85,0,80,3
1457624262.85,0,80,3
1457624262.85,0,80,3
1457624262.85,0,80,3
1457624262.85,0,80,3
1457624262.85,0,80,3
1457624262.86,0,80,3
1457624262.86,0,80,3
1457624262.86,0,80,3
1457624262.86,0,80,3
1457624262.86,0,80,3
1457624262.86,0,80,3
1457624262.86,0,80,3
1457624262.86,0,80,3
1457624262.86,0,80,3
1457624262.86,0,80,3
1457624262.86,0,80,3
1457624262.86,0,80,3
1457624262.86,0,80,3
1457624262.88,0,80,3
1457624262.88,0,80,3
1457624262.88,0,80,3
1457624262.88,0,80,3
1457624262.88,0,80,3
1457624262.89,0,80,3
1457624262.89,0,80,3
1457624262.9,0,80,3
1457624262.9,0,80,3
1457624262.9,0,80,3
1457624262.9,0,80,3
1457624262.91,0,80,3
1457624262.91,0,80,3
1457624262.91,0,80,3
1457624262.91,0,80,3
1457624262.92,0,80,3
1457624262.92,0,80,3
1457624262.92,0,80,3
1457624262.94,0,80,3
1457624262.94,0,80,3
1457624262.94,0,80,3
1457624262.98,0,80,3
1457624262.98,0,80,3
1457624262.99,0,80,3
1457624262.99,0,80,3
1457624263.0,0,80,3
1457624263.0,0,80,3
1457624263.0,0,80,3
1457624263.0,0,80,3
1457624263.01,0,80,3
1457624263.01,0,80,3
1457624263.01,0,80,3
1457624263.02,0,80,3
1457624263.02,0,80,3
1457624263.03,0,80,3
1457624263.03,0,80,3
1457624263.03,0,80,3
1457624263.03,0,80,3
1457624263.04,0,80,3
1457624263.04,0,80,3
1457624263.04,0,80,3
1457624263.05,0,80,3
1457624263.05,0,80,3
1457624263.06,0,80,3
1457624263.07,0,80,3
1457624263.07,0,80,3
1457624263.07,0,80,3
1457624263.08,0,80,3
1457624263.08,0,80,3
1457624263.08,0,80,3
1457624263.08,0,80,3
1457624263.08,0,80,3
1457624263.08,0,80,3
1457624263.08,0,80,3
1457624263.08,0,80,3
1457624263.09,0,80,3
1457624263.09,0,80,3
1457624263.09,0,80,3
1457624263.09,0,80,3
1457624263.09,0,80,3
1457624263.09,0,80,3
1457624263.09,0,80,3
1457624263.1,0,80,3
1457624263.1,0,80,3
1457624263.1,0,80,3
1457624263.1,0,80,3
1457624263.1,0,80,3
1457624263.1,0,80,3
1457624263.1,0,80,3
1457624263.11,0,80,3
1457624263.11,0,80,3
1457624263.11,0,80,3
1457624263.11,0,80,3
1457624263.11,0,80,3
1457624263.11,0,80,3
1457624263.11,0,80,3
1457624263.11,0,80,3
1457624263.12,0,80,3
1457624263.12,0,80,3
1457624263.12,0,80,3
1457624263.12,0,80,3
1457624263.12,0,80,3
1457624263.12,0,80,3
1457624263.13,0,80,3
1457624263.14,0,80,3
1457624263.15,0,80,3
1457624263.15,0,80,3
1457624263.15,0,80,3
1457624263.15,0,80,3
1457624263.15,0,80,3
1457624263.15,0,80,3
1457624263.15,0,80,3
1457624263.16,0,80,3
1457624263.16,0,80,3
1457624263.16,0,80,3
1457624263.16,0,80,3
1457624263.16,0,80,3
1457624263.16,0,80,3
1457624263.16,0,80,3
1457624263.16,0,80,3
1457624263.16,0,80,3
1457624263.16,0,80,3
1457624263.16,0,80,3
1457624263.17,0,80,3
1457624263.17,0,80,3
1457624263.17,0,80,3
1457624263.17,0,80,3
1457624263.17,0,80,3
1457624263.17,0,80,3
1457624263.17,0,80,3
1457624263.18,0,80,3
1457624263.18,0,80,3
1457624263.18,0,80,3
1457624263.18,0,80,3
1457624263.18,0,80,3
1457624263.18,0,80,3
1457624263.18,0,80,3
1457624263.19,0,80,3
1457624263.19,0,80,3
1457624263.19,0,80,3
1457624263.2,0,80,3
1457624263.2,0,80,3
1457624263.21,0,80,3
1457624263.21,0,80,3
1457624263.22,0,80,3
1457624263.22,0,80,3
1457624263.22,0,80,3
1457624263.23,0,80,3
1457624263.23,0,80,3
1457624263.26,0,80,3
1457624263.27,0,80,3
1457624263.27,0,80,3
1457624263.29,0,80,3
1457624263.29,0,80,3
1457624263.3,0,80,3
1457624263.3,0,80,3
1457624263.31,0,80,3
1457624263.31,0,80,3
1457624263.32,0,80,3
1457624263.32,0,80,3
1457624263.32,0,80,3
1457624263.32,0,80,3
1457624263.33,0,80,3
1457624263.33,0,80,3
1457624263.34,0,80,3
1457624263.34,0,80,3
1457624263.34,0,80,3
1457624263.36,0,80,3
1457624263.37,0,80,3
1457624263.37,0,80,3
1457624263.37,0,80,3
1457624263.38,0,80,3
1457624263.38,0,80,3
1457624263.38,0,80,3
1457624263.38,0,80,3
1457624263.38,0,80,3
1457624263.38,0,80,3
1457624263.38,0,80,3
1457624263.38,0,80,3
1457624263.38,0,80,3
1457624263.39,0,80,3
1457624263.39,0,80,3
1457624263.39,0,80,3
1457624263.39,0,80,3
1457624263.4,0,80,3
1457624263.4,0,80,3
1457624263.4,0,80,3
1457624263.41,0,80,3
1457624263.41,0,80,3
1457624263.42,0,80,3
1457624263.42,0,80,3
1457624263.42,0,80,3
1457624263.42,0,80,3
1457624263.42,0,80,3
1457624263.43,0,80,3
1457624263.43,0,80,3
1457624263.43,0,80,3
1457624263.43,0,80,3
1457624263.43,0,80,3
1457624263.44,0,80,3
1457624263.44,0,80,3
1457624263.44,0,80,3
1457624263.44,0,80,3
1457624263.46,0,80,3
1457624263.46,0,80,3
1457624263.46,0,80,3
1457624263.46,0,80,3
1457624263.47,0,80,3
1457624263.48,0,80,3
1457624263.48,0,80,3
1457624263.48,0,80,3
1457624263.49,0,80,3
1457624263.49,0,80,3
1457624263.49,0,80,3
1457624263.49,0,80,3
1457624263.53,0,80,3
1457624263.54,0,80,3
1457624263.54,0,80,3
1457624263.54,0,80,3
1457624263.54,0,80,3
1457624263.55,0,80,3
1457624263.55,0,80,3
1457624263.55,0,80,3
1457624263.55,0,80,3
1457624263.56,0,80,3
1457624263.56,0,80,3
1457624263.56,0,80,3
1457624263.57,0,80,3
1457624263.57,0,80,3
1457624263.58,0,80,3
1457624263.59,0,80,3
1457624263.61,0,80,3
1457624263.62,0,80,3
1457624263.64,0,80,3
1457624263.65,0,80,3
1457624263.66,0,80,3
1457624263.66,0,80,3
1457624263.67,0,80,3
1457624263.68,0,80,3
1457624263.69,0,80,3
1457624263.69,0,80,3
1457624263.7,0,80,3
1457624263.7,0,80,3
1457624263.7,0,80,3
1457624263.7,0,80,3
1457624263.7,0,80,3
1457624263.71,0,80,3
1457624263.71,0,80,3
1457624263.71,0,80,3
1457624263.71,0,80,3
1457624263.71,0,80,3
1457624263.72,0,80,3
1457624263.72,0,80,3
1457624263.72,0,80,3
1457624263.73,0,80,3
1457624263.73,0,80,3
1457624263.74,0,80,3
1457624263.76,0,80,3
1457624263.77,0,80,3
1457624263.77,0,80,3
1457624263.77,0,80,3
1457624263.78,0,80,3
1457624263.8,0,80,3
1457624263.8,0,80,3
1457624263.84,0,80,3
1457624263.84,0,80,3
1457624263.84,0,80,3
1457624263.84,0,80,3
1457624263.85,0,80,3
1457624263.86,0,80,3
1457624263.86,0,80,3
1457624263.86,0,80,3
1457624263.86,0,80,3
1457624263.86,0,80,3
1457624263.87,0,80,3
1457624263.87,0,80,3
1457624263.89,0,80,3
1457624263.9,0,80,3
1457624263.9,0,80,3
1457624263.9,0,80,3
1457624263.9,0,80,3
1457624263.9,0,80,3
1457624263.9,0,80,3
1457624263.9,0,80,3
1457624263.9,0,80,3
1457624263.9,0,80,3
1457624263.9,0,80,3
1457624263.91,0,80,3
1457624263.95,0,80,3
1457624263.96,0,80,3
1457624263.96,0,80,3
1457624263.96,0,80,3
1457624263.97,0,80,3
1457624263.97,0,80,3
1457624263.98,0,80,3
1457624263.98,0,80,3
1457624263.98,0,80,3
1457624263.98,0,80,3
1457624263.98,0,80,3
1457624263.99,0,80,3
1457624263.99,0,80,3
1457624263.99,0,80,3
1457624264.02,0,80,3
1457624264.02,0,80,3
1457624264.03,0,80,3
1457624264.03,0,80,3
1457624264.04,0,80,3
1457624264.05,0,80,3
1457624264.05,0,80,3
1457624264.05,0,80,3
1457624264.06,0,80,3
1457624264.1,0,80,3
1457624264.1,0,80,3
1457624264.11,0,80,3
1457624264.11,0,80,3
1457624264.12,0,80,3
1457624264.12,0,80,3
1457624264.12,0,80,3
1457624264.12,0,80,3
1457624264.13,0,80,3
1457624264.13,0,80,3
1457624264.14,0,80,3
1457624264.15,0,80,3
1457624264.15,0,80,3
1457624264.15,0,80,3
1457624264.15,0,80,3
1457624264.16,0,80,3
1457624264.16,0,80,3
1457624264.16,0,80,3
1457624264.16,0,80,3
1457624264.18,0,80,3
1457624264.19,0,80,3
1457624264.2,0,80,3
1457624264.21,0,80,3
1457624264.23,0,80,3
1457624264.23,0,80,3
1457624264.24,0,80,3
1457624264.25,0,80,3
1457624264.25,0,80,3
1457624264.25,0,80,3
1457624264.25,0,80,3
1457624264.26,0,80,3
1457624264.26,0,80,3
1457624264.26,0,80,3
1457624264.26,0,80,3
1457624264.27,0,80,3
1457624264.27,0,80,3
1457624264.29,0,80,3
1457624264.29,0,80,3
1457624264.3,0,80,3
1457624264.3,0,80,3
1457624264.3,0,80,3
1457624264.3,0,80,3
1457624264.31,0,80,3
1457624264.31,0,80,3
1457624264.32,0,80,3
1457624264.32,0,80,3
1457624264.32,0,80,3
1457624264.33,0,80,3
1457624264.33,0,80,3
1457624264.34,0,80,3
1457624264.34,0,80,3
1457624264.34,0,80,3
1457624264.35,0,80,3
1457624264.36,0,80,3
1457624264.36,0,80,3
1457624264.36,0,80,3
1457624264.37,0,80,3
1457624264.37,0,80,3
1457624264.38,0,80,3
1457624264.39,0,80,3
1457624264.39,0,80,3
1457624264.39,0,80,3
1457624264.4,0,80,3
1457624264.4,0,80,3
1457624264.4,0,80,3
1457624264.4,0,80,3
1457624264.4,0,80,3
1457624264.41,0,80,3
1457624264.41,0,80,3
1457624264.41,0,80,3
1457624264.41,0,80,3
1457624264.45,0,80,3
1457624264.45,0,80,3
1457624264.45,0,80,3
1457624264.46,0,80,3
1457624264.49,0,80,3
1457624264.5,0,80,3
1457624264.5,0,80,3
1457624264.5,0,80,3
1457624264.5,0,80,3
1457624264.51,0,80,3
1457624264.51,0,80,3
1457624264.51,0,80,3
1457624264.51,0,80,3
1457624264.52,0,80,3
1457624264.52,0,80,3
1457624264.52,0,80,3
1457624264.53,0,80,3
1457624264.53,0,80,3
1457624264.53,0,80,3
1457624264.54,0,80,3
1457624264.54,0,80,3
1457624264.56,0,80,3
1457624264.58,0,80,3
1457624264.59,0,80,3
1457624264.59,0,80,3
1457624264.6,0,80,3
1457624264.6,0,80,3
1457624264.6,0,80,3
1457624264.62,0,80,3
1457624264.62,0,80,3
1457624264.62,0,80,3
1457624264.63,0,80,3
1457624264.63,0,80,3
1457624264.63,0,80,3
1457624264.64,0,80,3
1457624264.64,0,80,3
1457624264.65,0,80,3
1457624264.67,0,80,3
1457624264.68,0,80,3
1457624264.68,0,80,3
1457624264.69,0,80,3
1457624264.69,0,80,3
1457624264.69,0,80,3
1457624264.69,0,80,3
1457624264.7,0,80,3
1457624264.7,0,80,3
1457624264.7,0,80,3
1457624264.7,0,80,3
1457624264.7,0,80,3
1457624264.71,0,80,3
1457624264.71,0,80,3
1457624264.71,0,80,3
1457624264.71,0,80,3
1457624264.73,0,80,3
1457624264.73,0,80,3
1457624264.74,0,80,3
1457624264.74,0,80,3
1457624264.74,0,80,3
1457624264.74,0,80,3
1457624264.77,0,80,3
1457624264.77,0,80,3
1457624264.77,0,80,3
1457624264.78,0,80,3
1457624264.8,0,80,3
1457624264.8,0,80,3
1457624264.8,0,80,3
1457624264.81,0,80,3
1457624264.81,0,80,3
1457624264.81,0,80,3
1457624264.82,0,80,3
1457624264.82,0,80,3
1457624264.82,0,80,3
1457624264.82,0,80,3
1457624264.82,0,80,3
1457624264.82,0,80,3
1457624264.83,0,80,3
1457624264.83,0,80,3
1457624264.83,0,80,3
1457624264.83,0,80,3
1457624264.83,0,80,3
1457624264.83,0,80,3
1457624264.84,0,80,3
1457624264.84,0,80,3
1457624264.84,0,80,3
1457624264.84,0,80,3
1457624264.84,0,80,3
1457624264.85,0,80,3
1457624264.85,0,80,3
1457624264.85,0,80,3
1457624264.86,0,80,3
1457624264.86,0,80,3
1457624264.86,0,80,3
1457624264.86,0,80,3
1457624264.86,0,80,3
1457624264.87,0,80,3
1457624264.87,0,80,3
1457624264.87,0,80,3
1457624264.87,0,80,3
1457624264.87,0,80,3
1457624264.87,0,80,3
1457624264.87,0,80,3
1457624264.87,0,80,3
1457624264.88,0,80,3
1457624264.88,0,80,3
1457624264.88,0,80,3
1457624264.88,0,80,3
1457624264.88,0,80,3
1457624264.88,0,80,3
1457624264.88,0,80,3
1457624264.89,0,80,3
1457624264.89,0,80,3
1457624264.89,0,80,3
1457624264.89,0,80,3
1457624264.89,0,80,3
1457624264.89,0,80,3
1457624264.89,0,80,3
1457624264.9,0,80,3
1457624264.9,0,80,3
1457624264.9,0,80,3
1457624264.9,0,80,3
1457624264.9,0,80,3
1457624264.9,0,80,3
1457624264.9,0,80,3
1457624264.91,0,80,3
1457624264.91,0,80,3
1457624264.91,0,80,3
1457624264.91,0,80,3
1457624264.92,0,80,3
1457624264.92,0,80,3
1457624264.92,0,80,3
1457624264.94,0,80,3
1457624264.94,0,80,3
1457624264.97,0,80,3
1457624264.97,0,80,3
1457624264.97,0,80,3
1457624264.97,0,80,3
1457624264.98,0,80,3
1457624264.98,0,80,3
1457624264.98,0,80,3
1457624264.99,0,80,3
1457624264.99,0,80,3
1457624264.99,0,80,3
1457624264.99,0,80,3
1457624264.99,0,80,3
1457624264.99,0,80,3
1457624264.99,0,80,3
1457624264.99,0,80,3
1457624264.99,0,80,3
1457624265.0,0,80,3
1457624265.0,0,80,3
1457624265.0,0,80,3
1457624265.01,0,80,3
1457624265.01,0,80,3
1457624265.01,0,80,3
1457624265.01,0,80,3
1457624265.01,0,80,3
1457624265.02,0,80,3
1457624265.02,0,80,3
1457624265.02,0,80,3
1457624265.02,0,80,3
1457624265.02,0,80,3
1457624265.02,0,80,3
1457624265.02,0,80,3
1457624265.03,0,80,3
1457624265.03,0,80,3
1457624265.03,0,80,3
1457624265.03,0,80,3
1457624265.03,0,80,3
1457624265.03,0,80,3
1457624265.04,0,80,3
1457624265.04,0,80,3
1457624265.05,0,80,3
1457624265.05,0,80,3
1457624265.05,0,80,3
1457624265.05,0,80,3
1457624265.06,0,80,3
1457624265.06,0,80,3
1457624265.06,0,80,3
1457624265.06,0,80,3
1457624265.06,0,80,3
1457624265.06,0,80,3
1457624265.06,0,80,3
1457624265.06,0,80,3
1457624265.06,0,80,3
1457624265.06,0,80,3
1457624265.07,0,80,3
1457624265.07,0,80,3
1457624265.08,0,80,3
1457624265.08,0,80,3
1457624265.08,0,80,3
1457624265.08,0,80,3
1457624265.09,0,80,3
1457624265.1,0,80,3
1457624265.1,0,80,3
1457624265.11,0,80,3
1457624265.11,0,80,3
1457624265.11,0,80,3
1457624265.11,0,80,3
1457624265.11,0,80,3
1457624265.12,0,80,3
1457624265.13,0,80,3
1457624265.14,0,80,3
1457624265.16,0,80,3
1457624265.16,0,80,3
1457624265.16,0,80,3
1457624265.16,0,80,3
1457624265.16,0,80,3
1457624265.16,0,80,3
1457624265.16,0,80,3
1457624265.16,0,80,3
1457624265.17,0,80,3
1457624265.17,0,80,3
1457624265.17,0,80,3
1457624265.18,0,80,3
1457624265.2,0,80,3
1457624265.2,0,80,3
1457624265.2,0,80,3
1457624265.2,0,80,3
1457624265.21,0,80,3
1457624265.21,0,80,3
1457624265.21,0,80,3
1457624265.22,0,80,3
1457624265.22,0,80,3
1457624265.22,0,80,3
1457624265.25,0,80,3
1457624265.25,0,80,3
1457624265.25,0,80,3
1457624265.25,0,80,3
1457624265.25,0,80,3
1457624265.27,0,80,3
1457624265.27,0,80,3
1457624265.28,0,80,3
1457624265.28,0,80,3
1457624265.28,0,80,3
1457624265.29,0,80,3
1457624265.29,0,80,3
1457624265.3,0,80,3
1457624265.35,0,80,3
1457624265.35,0,80,3
1457624265.35,0,80,3
1457624265.35,0,80,3
1457624265.35,0,80,3
1457624265.35,0,80,3
1457624265.35,0,80,3
1457624265.35,0,80,3
1457624265.36,0,80,3
1457624265.36,0,80,3
1457624265.36,0,80,3
1457624265.37,0,80,3
1457624265.38,0,80,3
1457624265.38,0,80,3
1457624265.38,0,80,3
1457624265.38,0,80,3
1457624265.38,0,80,3
1457624265.38,0,80,3
1457624265.39,0,80,3
1457624265.39,0,80,3
1457624265.39,0,80,3
1457624265.39,0,80,3
1457624265.41,0,80,3
1457624265.41,0,80,3
1457624265.42,0,80,3
1457624265.42,0,80,3
1457624265.43,0,80,3
1457624265.43,0,80,3
1457624265.43,0,80,3
1457624265.44,0,80,3
1457624265.44,0,80,3
1457624265.45,0,80,3
1457624265.45,0,80,3
1457624265.46,0,80,3
1457624265.46,0,80,3
1457624265.47,0,80,3
1457624265.48,0,80,3
1457624265.49,0,80,3
1457624265.49,0,80,3
1457624265.49,0,80,3
1457624265.5,0,80,3
1457624265.5,0,80,3
1457624265.5,0,80,3
1457624265.5,0,80,3
1457624265.5,0,80,3
1457624265.51,0,80,3
1457624265.51,0,80,3
1457624265.51,0,80,3
1457624265.51,0,80,3
1457624265.51,0,80,3
1457624265.51,0,80,3
1457624265.51,0,80,3
1457624265.51,0,80,3
1457624265.51,0,80,3
1457624265.52,0,80,3
1457624265.52,0,80,3
1457624265.52,0,80,3
1457624265.52,0,80,3
1457624265.53,0,80,3
1457624265.53,0,80,3
1457624265.53,0,80,3
1457624265.53,0,80,3
1457624265.54,0,80,3
1457624265.54,0,80,3
1457624265.54,0,80,3
1457624265.54,0,80,3
1457624265.54,0,80,3
1457624265.54,0,80,3
1457624265.54,0,80,3
1457624265.55,0,80,3
1457624265.55,0,80,3
1457624265.56,0,80,3
1457624265.58,0,80,3
1457624265.59,0,80,3
1457624265.59,0,80,3
1457624265.59,0,80,3
1457624265.6,0,80,3
1457624265.6,0,80,3
1457624265.6,0,80,3
1457624265.6,0,80,3
1457624265.6,0,80,3
1457624265.61,0,80,3
1457624265.61,0,80,3
1457624265.61,0,80,3
1457624265.61,0,80,3
1457624265.61,0,80,3
1457624265.61,0,80,3
1457624265.61,0,80,3
1457624265.62,0,80,3
1457624265.62,0,80,3
1457624265.62,0,80,3
1457624265.62,0,80,3
1457624265.62,0,80,3
1457624265.62,0,80,3
1457624265.63,0,80,3
1457624265.64,0,80,3
1457624265.64,0,80,3
1457624265.64,0,80,3
1457624265.65,0,80,3
1457624265.65,0,80,3
1457624265.65,0,80,3
1457624265.66,0,80,3
1457624265.66,0,80,3
1457624265.66,0,80,3
1457624265.66,0,80,3
1457624265.67,0,80,3
1457624265.67,0,80,3
1457624265.67,0,80,3
1457624265.67,0,80,3
1457624265.67,0,80,3
1457624265.67,0,80,3
1457624265.68,0,80,3
1457624265.68,0,80,3
1457624265.69,0,80,3
1457624265.69,0,80,3
1457624265.69,0,80,3
1457624265.7,0,80,3
1457624265.7,0,80,3
1457624265.71,0,80,3
1457624265.72,0,80,3
1457624265.72,0,80,3
1457624265.72,0,80,3
1457624265.72,0,80,3
1457624265.73,0,80,3
1457624265.73,0,80,3
1457624265.73,0,80,3
1457624265.73,0,80,3
1457624265.73,0,80,3
1457624265.74,0,80,3
1457624265.74,0,80,3
1457624265.74,0,80,3
1457624265.74,0,80,3
1457624265.74,0,80,3
1457624265.74,0,80,3
1457624265.74,0,80,3
1457624265.75,0,80,3
1457624265.75,0,80,3
1457624265.75,0,80,3
1457624265.75,0,80,3
1457624265.75,0,80,3
1457624265.75,0,80,3
1457624265.75,0,80,3
1457624265.76,0,80,3
1457624265.76,0,80,3
1457624265.77,0,80,3
1457624265.77,0,80,3
1457624265.77,0,80,3
1457624265.77,0,80,3
1457624265.78,0,80,3
1457624265.78,0,80,3
1457624265.78,0,80,3
1457624265.78,0,80,3
1457624265.78,0,80,3
1457624265.79,0,80,3
1457624265.79,0,80,3
1457624265.79,0,80,3
1457624265.79,0,80,3
1457624265.79,0,80,3
1457624265.79,0,80,3
1457624265.79,0,80,3
1457624265.8,0,80,3
1457624265.8,0,80,3
1457624265.8,0,80,3
1457624265.8,0,80,3
1457624265.81,0,80,3
1457624265.81,0,80,3
1457624265.81,0,80,3
1457624265.82,0,80,3
1457624265.83,0,80,3
1457624265.83,0,80,3
1457624265.83,0,80,3
1457624265.84,0,80,3
1457624265.84,0,80,3
1457624265.84,0,80,3
1457624265.84,0,80,3
1457624265.85,0,80,3
1457624265.86,0,80,3
1457624265.86,0,80,3
1457624265.86,0,80,3
1457624265.87,0,80,3
1457624265.87,0,80,3
1457624265.88,0,80,3
1457624265.88,0,80,3
1457624265.89,0,80,3
1457624265.9,0,80,3
1457624265.9,0,80,3
1457624265.92,0,80,3
1457624265.93,0,80,3
1457624265.94,0,80,3
1457624265.94,0,80,3
1457624265.95,0,80,3
1457624265.95,0,80,3
1457624265.96,0,80,3
1457624265.96,0,80,3
1457624265.96,0,80,3
1457624265.97,0,80,3
1457624265.97,0,80,3
1457624265.98,0,80,3
1457624265.99,0,80,3
1457624265.99,0,80,3
1457624266.0,0,80,3
1457624266.01,0,80,3
1457624266.03,0,80,3
1457624266.03,0,80,3
1457624266.03,0,80,3
1457624266.04,0,80,3
1457624266.05,0,80,3
1457624266.05,0,80,3
1457624266.05,0,80,3
1457624266.06,0,80,3
1457624266.06,0,80,3
1457624266.07,0,80,3
1457624266.07,0,80,3
1457624266.08,0,80,3
1457624266.08,0,80,3
1457624266.08,0,80,3
