1457624169,0,"00:00:00:00:00:15-0,00:00:00:00:00:20-0,00:00:00:00:00:18-0,00:00:00:00:00:19-0,00:00:00:00:00:05-0,00:00:00:00:00:11-0,00:00:00:00:00:12-0,00:00:00:00:00:16-0,00:00:00:00:00:17-0,00:00:00:00:00:10-0,00:00:00:00:00:13-0,00:00:00:00:00:14-0"
1457624174,0,"00:00:00:00:00:15-0,00:00:00:00:00:20-0,00:00:00:00:00:18-0,00:00:00:00:00:19-0,00:00:00:00:00:05-0,00:00:00:00:00:11-0,00:00:00:00:00:12-0,00:00:00:00:00:16-0,00:00:00:00:00:17-0,00:00:00:00:00:10-0,00:00:00:00:00:13-0,00:00:00:00:00:14-0"
1457624179,0,"00:00:00:00:00:15-0,00:00:00:00:00:20-0,00:00:00:00:00:18-0,00:00:00:00:00:19-0,00:00:00:00:00:05-0,00:00:00:00:00:11-0,00:00:00:00:00:12-0,00:00:00:00:00:16-0,00:00:00:00:00:17-0,00:00:00:00:00:10-0,00:00:00:00:00:13-0,00:00:00:00:00:14-0"
1457624184,0,"00:00:00:00:00:15-0,00:00:00:00:00:20-0,00:00:00:00:00:18-0,00:00:00:00:00:19-0,00:00:00:00:00:05-0,00:00:00:00:00:11-0,00:00:00:00:00:12-0,00:00:00:00:00:16-0,00:00:00:00:00:17-0,00:00:00:00:00:10-0,00:00:00:00:00:13-0,00:00:00:00:00:14-0"
1457624189,0,"00:00:00:00:00:15-0,00:00:00:00:00:20-0,00:00:00:00:00:18-0,00:00:00:00:00:19-0,00:00:00:00:00:05-0,00:00:00:00:00:11-0,00:00:00:00:00:12-0,00:00:00:00:00:16-0,00:00:00:00:00:17-0,00:00:00:00:00:10-0,00:00:00:00:00:13-0,00:00:00:00:00:14-0"
1457624194,0,"00:00:00:00:00:15-0,00:00:00:00:00:20-0,00:00:00:00:00:18-0,00:00:00:00:00:19-0,00:00:00:00:00:05-0,00:00:00:00:00:11-0,00:00:00:00:00:12-0,00:00:00:00:00:16-0,00:00:00:00:00:17-0,00:00:00:00:00:10-0,00:00:00:00:00:13-0,00:00:00:00:00:14-0"
1457624199,0,"00:00:00:00:00:15-0,00:00:00:00:00:20-0,00:00:00:00:00:18-0,00:00:00:00:00:19-0,00:00:00:00:00:05-0,00:00:00:00:00:11-0,00:00:00:00:00:12-0,00:00:00:00:00:16-0,00:00:00:00:00:17-0,00:00:00:00:00:10-0,00:00:00:00:00:13-0,00:00:00:00:00:14-0"
1457624204,0,"00:00:00:00:00:15-0,00:00:00:00:00:20-0,00:00:00:00:00:18-0,00:00:00:00:00:19-0,00:00:00:00:00:05-0,00:00:00:00:00:11-0,00:00:00:00:00:12-0,00:00:00:00:00:16-0,00:00:00:00:00:17-0,00:00:00:00:00:10-0,00:00:00:00:00:13-0,00:00:00:00:00:14-0"
1457624209,0,"00:00:00:00:00:15-0,00:00:00:00:00:20-0,00:00:00:00:00:18-0,00:00:00:00:00:19-0,00:00:00:00:00:05-0,00:00:00:00:00:11-0,00:00:00:00:00:12-0,00:00:00:00:00:16-0,00:00:00:00:00:17-0,00:00:00:00:00:10-0,00:00:00:00:00:13-0,00:00:00:00:00:14-0"
1457624214,0,"00:00:00:00:00:15-0,00:00:00:00:00:20-0,00:00:00:00:00:18-0,00:00:00:00:00:19-0,00:00:00:00:00:05-0,00:00:00:00:00:11-0,00:00:00:00:00:12-0,00:00:00:00:00:16-0,00:00:00:00:00:17-0,00:00:00:00:00:10-0,00:00:00:00:00:13-0,00:00:00:00:00:14-0"
1457624219,0,"00:00:00:00:00:15-0,00:00:00:00:00:20-0,00:00:00:00:00:18-0,00:00:00:00:00:19-0,00:00:00:00:00:05-0,00:00:00:00:00:11-0,00:00:00:00:00:12-0,00:00:00:00:00:16-0,00:00:00:00:00:17-0,00:00:00:00:00:10-0,00:00:00:00:00:13-0,00:00:00:00:00:14-0"
1457624224,0,"00:00:00:00:00:15-0,00:00:00:00:00:20-0,00:00:00:00:00:18-0,00:00:00:00:00:19-0,00:00:00:00:00:05-0,00:00:00:00:00:11-0,00:00:00:00:00:12-0,00:00:00:00:00:16-0,00:00:00:00:00:17-0,00:00:00:00:00:10-0,00:00:00:00:00:13-0,00:00:00:00:00:14-0"
1457624229,0,"00:00:00:00:00:15-0,00:00:00:00:00:20-0,00:00:00:00:00:18-0,00:00:00:00:00:19-0,00:00:00:00:00:11-0,00:00:00:00:00:12-0,00:00:00:00:00:16-0,00:00:00:00:00:17-0,00:00:00:00:00:10-0,00:00:00:00:00:13-0,00:00:00:00:00:14-0"
1457624234,0,"00:00:00:00:00:15-0,00:00:00:00:00:20-0,00:00:00:00:00:18-0,00:00:00:00:00:19-0,00:00:00:00:00:11-0,00:00:00:00:00:12-0,00:00:00:00:00:16-0,00:00:00:00:00:17-0,00:00:00:00:00:10-0,00:00:00:00:00:13-0,00:00:00:00:00:14-0"
1457624239,0,"00:00:00:00:00:15-0,00:00:00:00:00:20-0,00:00:00:00:00:18-0,00:00:00:00:00:19-0,00:00:00:00:00:11-0,00:00:00:00:00:12-0,00:00:00:00:00:16-0,00:00:00:00:00:17-0,00:00:00:00:00:10-0,00:00:00:00:00:13-0,00:00:00:00:00:14-0"
1457624244,0,"00:00:00:00:00:15-0,00:00:00:00:00:20-0,00:00:00:00:00:18-0,00:00:00:00:00:19-0,00:00:00:00:00:11-0,00:00:00:00:00:12-0,00:00:00:00:00:16-0,00:00:00:00:00:17-0,00:00:00:00:00:10-0,00:00:00:00:00:13-0,00:00:00:00:00:14-0"
1457624249,0,"00:00:00:00:00:15-0,00:00:00:00:00:20-0,00:00:00:00:00:18-0,00:00:00:00:00:19-0,00:00:00:00:00:11-0,00:00:00:00:00:12-0,00:00:00:00:00:16-0,00:00:00:00:00:17-0,00:00:00:00:00:10-0,00:00:00:00:00:13-0,00:00:00:00:00:14-0"
1457624254,0,"00:00:00:00:00:15-0,00:00:00:00:00:20-0,00:00:00:00:00:18-0,00:00:00:00:00:19-0,00:00:00:00:00:11-0,00:00:00:00:00:12-0,00:00:00:00:00:16-0,00:00:00:00:00:17-0,00:00:00:00:00:10-0,00:00:00:00:00:13-0,00:00:00:00:00:14-0"
1457624259,0,"00:00:00:00:00:15-0,00:00:00:00:00:20-0,00:00:00:00:00:18-0,00:00:00:00:00:19-0,00:00:00:00:00:11-0,00:00:00:00:00:12-0,00:00:00:00:00:16-0,00:00:00:00:00:17-0,00:00:00:00:00:10-0,00:00:00:00:00:13-0,00:00:00:00:00:14-0"
1457624264,0,"00:00:00:00:00:15-0,00:00:00:00:00:20-0,00:00:00:00:00:18-0,00:00:00:00:00:19-0,00:00:00:00:00:11-0,00:00:00:00:00:12-0,00:00:00:00:00:16-0,00:00:00:00:00:17-0,00:00:00:00:00:10-0,00:00:00:00:00:13-0,00:00:00:00:00:14-0"
1457624269,0,"00:00:00:00:00:15-0,00:00:00:00:00:18-0,00:00:00:00:00:19-0,00:00:00:00:00:11-30,00:00:00:00:00:12-30,00:00:00:00:00:10-0,00:00:00:00:00:13-0,00:00:00:00:00:14-0"
1457624274,0,"00:00:00:00:00:15-0,00:00:00:00:00:18-0,00:00:00:00:00:19-0,00:00:00:00:00:11-30,00:00:00:00:00:12-30,00:00:00:00:00:10-0,00:00:00:00:00:13-0,00:00:00:00:00:14-0"
1457624279,0,"00:00:00:00:00:15-0,00:00:00:00:00:18-0,00:00:00:00:00:19-0,00:00:00:00:00:11-30,00:00:00:00:00:12-30,00:00:00:00:00:10-0,00:00:00:00:00:13-0,00:00:00:00:00:14-0"
1457624284,0,"00:00:00:00:00:15-0,00:00:00:00:00:18-0,00:00:00:00:00:19-0,00:00:00:00:00:11-30,00:00:00:00:00:12-30,00:00:00:00:00:10-0,00:00:00:00:00:13-0,00:00:00:00:00:14-0"
1457624289,0,"00:00:00:00:00:15-0,00:00:00:00:00:18-0,00:00:00:00:00:19-0,00:00:00:00:00:11-30,00:00:00:00:00:12-30,00:00:00:00:00:10-0,00:00:00:00:00:13-0,00:00:00:00:00:14-0,00:00:00:00:00:16-0,00:00:00:00:00:17-0"
1457624294,0,"00:00:00:00:00:15-0,00:00:00:00:00:18-0,00:00:00:00:00:19-0,00:00:00:00:00:11-30,00:00:00:00:00:12-30,00:00:00:00:00:10-0,00:00:00:00:00:13-0,00:00:00:00:00:14-0,00:00:00:00:00:16-0,00:00:00:00:00:17-0"
1457624300,0,"00:00:00:00:00:15-0,00:00:00:00:00:18-0,00:00:00:00:00:19-0,00:00:00:00:00:11-30,00:00:00:00:00:12-30,00:00:00:00:00:10-0,00:00:00:00:00:13-0,00:00:00:00:00:14-0,00:00:00:00:00:16-0,00:00:00:00:00:17-0"
1457624305,0,"00:00:00:00:00:15-0,00:00:00:00:00:18-0,00:00:00:00:00:19-0,00:00:00:00:00:11-30,00:00:00:00:00:12-30,00:00:00:00:00:10-0,00:00:00:00:00:13-0,00:00:00:00:00:14-0,00:00:00:00:00:16-0,00:00:00:00:00:17-0"
1457624310,0,"00:00:00:00:00:15-0,00:00:00:00:00:18-0,00:00:00:00:00:19-0,00:00:00:00:00:11-30,00:00:00:00:00:12-30,00:00:00:00:00:10-0,00:00:00:00:00:13-0,00:00:00:00:00:14-0,00:00:00:00:00:16-0,00:00:00:00:00:17-0"
1457624315,0,"00:00:00:00:00:15-0,00:00:00:00:00:18-0,00:00:00:00:00:19-0,00:00:00:00:00:11-30,00:00:00:00:00:12-30,00:00:00:00:00:10-0,00:00:00:00:00:13-0,00:00:00:00:00:14-0,00:00:00:00:00:16-0,00:00:00:00:00:17-0"
1457624320,0,"00:00:00:00:00:15-0,00:00:00:00:00:18-0,00:00:00:00:00:19-0,00:00:00:00:00:11-30,00:00:00:00:00:12-30,00:00:00:00:00:10-0,00:00:00:00:00:13-0,00:00:00:00:00:14-0,00:00:00:00:00:16-0,00:00:00:00:00:17-0"
1457624325,0,"00:00:00:00:00:15-0,00:00:00:00:00:18-0,00:00:00:00:00:19-0,00:00:00:00:00:11-30,00:00:00:00:00:12-30,00:00:00:00:00:10-0,00:00:00:00:00:13-0,00:00:00:00:00:14-0,00:00:00:00:00:16-0,00:00:00:00:00:17-0"
1457624330,0,"00:00:00:00:00:15-0,00:00:00:00:00:18-0,00:00:00:00:00:19-0,00:00:00:00:00:11-30,00:00:00:00:00:12-30,00:00:00:00:00:10-0,00:00:00:00:00:13-0,00:00:00:00:00:14-0,00:00:00:00:00:16-0,00:00:00:00:00:17-0"
1457624335,0,"00:00:00:00:00:15-0,00:00:00:00:00:18-0,00:00:00:00:00:19-0,00:00:00:00:00:11-30,00:00:00:00:00:12-30,00:00:00:00:00:10-0,00:00:00:00:00:13-0,00:00:00:00:00:14-0,00:00:00:00:00:16-0,00:00:00:00:00:17-0"
1457624340,0,"00:00:00:00:00:15-0,00:00:00:00:00:18-0,00:00:00:00:00:19-0,00:00:00:00:00:11-30,00:00:00:00:00:12-30,00:00:00:00:00:10-0,00:00:00:00:00:13-0,00:00:00:00:00:14-0,00:00:00:00:00:16-0,00:00:00:00:00:17-0"
1457624345,0,"00:00:00:00:00:15-0,00:00:00:00:00:18-0,00:00:00:00:00:19-0,00:00:00:00:00:11-30,00:00:00:00:00:12-30,00:00:00:00:00:10-0,00:00:00:00:00:13-0,00:00:00:00:00:14-0,00:00:00:00:00:16-0,00:00:00:00:00:17-0"
1457624350,0,"00:00:00:00:00:15-0,00:00:00:00:00:18-0,00:00:00:00:00:19-0,00:00:00:00:00:11-30,00:00:00:00:00:12-30,00:00:00:00:00:10-0,00:00:00:00:00:13-0,00:00:00:00:00:14-0,00:00:00:00:00:16-0,00:00:00:00:00:17-0"
1457624355,0,"00:00:00:00:00:15-0,00:00:00:00:00:18-0,00:00:00:00:00:19-0,00:00:00:00:00:11-30,00:00:00:00:00:12-30,00:00:00:00:00:10-0,00:00:00:00:00:13-0,00:00:00:00:00:14-0,00:00:00:00:00:16-0,00:00:00:00:00:17-0"
1457624360,0,"00:00:00:00:00:15-0,00:00:00:00:00:18-0,00:00:00:00:00:19-0,00:00:00:00:00:11-30,00:00:00:00:00:12-30,00:00:00:00:00:10-0,00:00:00:00:00:13-0,00:00:00:00:00:14-0,00:00:00:00:00:16-0,00:00:00:00:00:17-0"
1457624365,0,"00:00:00:00:00:15-0,00:00:00:00:00:18-0,00:00:00:00:00:19-0,00:00:00:00:00:11-30,00:00:00:00:00:12-30,00:00:00:00:00:10-0,00:00:00:00:00:13-0,00:00:00:00:00:14-0,00:00:00:00:00:16-0,00:00:00:00:00:17-0"
1457624370,0,"00:00:00:00:00:15-0,00:00:00:00:00:18-0,00:00:00:00:00:19-0,00:00:00:00:00:11-30,00:00:00:00:00:12-30,00:00:00:00:00:10-0,00:00:00:00:00:13-0,00:00:00:00:00:14-0,00:00:00:00:00:16-0,00:00:00:00:00:17-0"
1457624375,0,"00:00:00:00:00:15-0,00:00:00:00:00:18-0,00:00:00:00:00:19-0,00:00:00:00:00:11-30,00:00:00:00:00:12-30,00:00:00:00:00:10-0,00:00:00:00:00:13-0,00:00:00:00:00:14-0,00:00:00:00:00:16-0,00:00:00:00:00:17-0"
1457624380,0,"00:00:00:00:00:15-0,00:00:00:00:00:18-0,00:00:00:00:00:19-0,00:00:00:00:00:11-30,00:00:00:00:00:12-30,00:00:00:00:00:10-0,00:00:00:00:00:13-0,00:00:00:00:00:14-0,00:00:00:00:00:16-0,00:00:00:00:00:17-0"
1457624385,0,"00:00:00:00:00:15-0,00:00:00:00:00:18-0,00:00:00:00:00:19-0,00:00:00:00:00:11-30,00:00:00:00:00:12-30,00:00:00:00:00:10-0,00:00:00:00:00:13-0,00:00:00:00:00:14-0,00:00:00:00:00:16-0,00:00:00:00:00:17-0"
1457624390,0,"00:00:00:00:00:15-0,00:00:00:00:00:18-0,00:00:00:00:00:19-0,00:00:00:00:00:11-30,00:00:00:00:00:12-30,00:00:00:00:00:10-0,00:00:00:00:00:13-0,00:00:00:00:00:14-0,00:00:00:00:00:16-0,00:00:00:00:00:17-0"
1457624395,0,"00:00:00:00:00:15-0,00:00:00:00:00:18-0,00:00:00:00:00:19-0,00:00:00:00:00:11-30,00:00:00:00:00:12-30,00:00:00:00:00:10-0,00:00:00:00:00:13-0,00:00:00:00:00:14-0,00:00:00:00:00:16-0,00:00:00:00:00:17-0"
1457624400,0,"00:00:00:00:00:15-0,00:00:00:00:00:18-0,00:00:00:00:00:19-0,00:00:00:00:00:11-30,00:00:00:00:00:12-30,00:00:00:00:00:10-0,00:00:00:00:00:13-0,00:00:00:00:00:14-0,00:00:00:00:00:16-0,00:00:00:00:00:17-0"
1457624405,0,"00:00:00:00:00:15-0,00:00:00:00:00:18-0,00:00:00:00:00:19-0,00:00:00:00:00:11-30,00:00:00:00:00:12-30,00:00:00:00:00:10-0,00:00:00:00:00:13-0,00:00:00:00:00:14-0,00:00:00:00:00:16-0,00:00:00:00:00:17-0"
1457624410,0,"00:00:00:00:00:15-0,00:00:00:00:00:18-0,00:00:00:00:00:19-0,00:00:00:00:00:11-30,00:00:00:00:00:12-30,00:00:00:00:00:10-0,00:00:00:00:00:13-0,00:00:00:00:00:14-0,00:00:00:00:00:16-0,00:00:00:00:00:17-0"
1457624415,0,"00:00:00:00:00:15-0,00:00:00:00:00:18-0,00:00:00:00:00:19-0,00:00:00:00:00:11-30,00:00:00:00:00:12-30,00:00:00:00:00:10-0,00:00:00:00:00:13-0,00:00:00:00:00:14-0,00:00:00:00:00:16-0,00:00:00:00:00:17-0"
1457624420,0,"00:00:00:00:00:15-0,00:00:00:00:00:18-0,00:00:00:00:00:19-0,00:00:00:00:00:11-30,00:00:00:00:00:12-30,00:00:00:00:00:10-0,00:00:00:00:00:13-0,00:00:00:00:00:14-0,00:00:00:00:00:16-0,00:00:00:00:00:17-0"
1457624425,0,"00:00:00:00:00:15-0,00:00:00:00:00:18-0,00:00:00:00:00:19-0,00:00:00:00:00:11-30,00:00:00:00:00:12-30,00:00:00:00:00:10-0,00:00:00:00:00:13-0,00:00:00:00:00:14-0,00:00:00:00:00:16-0,00:00:00:00:00:17-0"
1457624430,0,"00:00:00:00:00:15-0,00:00:00:00:00:18-0,00:00:00:00:00:19-0,00:00:00:00:00:11-30,00:00:00:00:00:12-30,00:00:00:00:00:10-0,00:00:00:00:00:13-0,00:00:00:00:00:14-0,00:00:00:00:00:16-0,00:00:00:00:00:17-0"
1457624435,0,"00:00:00:00:00:15-0,00:00:00:00:00:18-0,00:00:00:00:00:19-0,00:00:00:00:00:11-30,00:00:00:00:00:12-30,00:00:00:00:00:10-0,00:00:00:00:00:13-0,00:00:00:00:00:14-0,00:00:00:00:00:16-0,00:00:00:00:00:17-0"
1457624440,0,"00:00:00:00:00:15-0,00:00:00:00:00:18-0,00:00:00:00:00:19-0,00:00:00:00:00:11-30,00:00:00:00:00:12-30,00:00:00:00:00:10-0,00:00:00:00:00:13-0,00:00:00:00:00:14-0,00:00:00:00:00:16-0,00:00:00:00:00:17-0"
1457624445,0,"00:00:00:00:00:15-0,00:00:00:00:00:18-0,00:00:00:00:00:19-0,00:00:00:00:00:11-30,00:00:00:00:00:12-30,00:00:00:00:00:10-0,00:00:00:00:00:13-0,00:00:00:00:00:14-0,00:00:00:00:00:16-0,00:00:00:00:00:17-0"
1457624450,0,"00:00:00:00:00:15-0,00:00:00:00:00:18-0,00:00:00:00:00:19-0,00:00:00:00:00:11-30,00:00:00:00:00:12-30,00:00:00:00:00:10-0,00:00:00:00:00:13-0,00:00:00:00:00:14-0,00:00:00:00:00:16-0,00:00:00:00:00:17-0"
1457624455,0,"00:00:00:00:00:15-0,00:00:00:00:00:18-0,00:00:00:00:00:19-0,00:00:00:00:00:11-30,00:00:00:00:00:12-30,00:00:00:00:00:10-0,00:00:00:00:00:13-0,00:00:00:00:00:14-0,00:00:00:00:00:16-0,00:00:00:00:00:17-0"
1457624460,0,"00:00:00:00:00:15-0,00:00:00:00:00:18-0,00:00:00:00:00:19-0,00:00:00:00:00:11-30,00:00:00:00:00:12-30,00:00:00:00:00:10-0,00:00:00:00:00:13-0,00:00:00:00:00:14-0,00:00:00:00:00:16-0,00:00:00:00:00:17-0"
1457624465,0,"00:00:00:00:00:15-0,00:00:00:00:00:18-0,00:00:00:00:00:19-0,00:00:00:00:00:11-30,00:00:00:00:00:12-30,00:00:00:00:00:10-0,00:00:00:00:00:13-0,00:00:00:00:00:14-0,00:00:00:00:00:16-0,00:00:00:00:00:17-0"
1457624470,0,"00:00:00:00:00:15-0,00:00:00:00:00:18-0,00:00:00:00:00:19-0,00:00:00:00:00:11-30,00:00:00:00:00:12-30,00:00:00:00:00:10-0,00:00:00:00:00:13-0,00:00:00:00:00:14-0,00:00:00:00:00:16-0,00:00:00:00:00:17-0"
1457624475,0,"00:00:00:00:00:15-0,00:00:00:00:00:18-0,00:00:00:00:00:19-0,00:00:00:00:00:11-30,00:00:00:00:00:12-30,00:00:00:00:00:10-0,00:00:00:00:00:13-0,00:00:00:00:00:14-0,00:00:00:00:00:16-0,00:00:00:00:00:17-0"
1457624480,0,"00:00:00:00:00:15-0,00:00:00:00:00:18-0,00:00:00:00:00:19-0,00:00:00:00:00:11-30,00:00:00:00:00:12-30,00:00:00:00:00:10-0,00:00:00:00:00:13-0,00:00:00:00:00:14-0,00:00:00:00:00:16-0,00:00:00:00:00:17-0"
1457624485,0,"00:00:00:00:00:15-0,00:00:00:00:00:18-0,00:00:00:00:00:19-0,00:00:00:00:00:11-30,00:00:00:00:00:12-30,00:00:00:00:00:10-0,00:00:00:00:00:13-0,00:00:00:00:00:14-0,00:00:00:00:00:16-0,00:00:00:00:00:17-0"
1457624490,0,"00:00:00:00:00:15-0,00:00:00:00:00:18-0,00:00:00:00:00:19-0,00:00:00:00:00:11-30,00:00:00:00:00:12-30,00:00:00:00:00:10-0,00:00:00:00:00:13-0,00:00:00:00:00:14-0,00:00:00:00:00:16-0,00:00:00:00:00:17-0"
1457624495,0,"00:00:00:00:00:15-0,00:00:00:00:00:18-0,00:00:00:00:00:19-0,00:00:00:00:00:11-30,00:00:00:00:00:12-30,00:00:00:00:00:10-0,00:00:00:00:00:13-0,00:00:00:00:00:14-0,00:00:00:00:00:16-0,00:00:00:00:00:17-0"
1457624500,0,"00:00:00:00:00:15-0,00:00:00:00:00:18-0,00:00:00:00:00:19-0,00:00:00:00:00:11-30,00:00:00:00:00:12-30,00:00:00:00:00:10-0,00:00:00:00:00:13-0,00:00:00:00:00:14-0,00:00:00:00:00:16-0,00:00:00:00:00:17-0"
1457624505,0,"00:00:00:00:00:15-0,00:00:00:00:00:18-0,00:00:00:00:00:19-0,00:00:00:00:00:11-30,00:00:00:00:00:12-30,00:00:00:00:00:10-0,00:00:00:00:00:13-0,00:00:00:00:00:14-0,00:00:00:00:00:16-0,00:00:00:00:00:17-0"
1457624510,0,"00:00:00:00:00:15-0,00:00:00:00:00:18-0,00:00:00:00:00:19-0,00:00:00:00:00:11-30,00:00:00:00:00:12-30,00:00:00:00:00:10-0,00:00:00:00:00:13-0,00:00:00:00:00:14-0,00:00:00:00:00:16-0,00:00:00:00:00:17-0"
1457624515,0,"00:00:00:00:00:15-0,00:00:00:00:00:18-0,00:00:00:00:00:19-0,00:00:00:00:00:11-30,00:00:00:00:00:12-30,00:00:00:00:00:10-0,00:00:00:00:00:13-0,00:00:00:00:00:14-0,00:00:00:00:00:16-0,00:00:00:00:00:17-0"
1457624520,0,"00:00:00:00:00:15-0,00:00:00:00:00:18-0,00:00:00:00:00:19-0,00:00:00:00:00:11-30,00:00:00:00:00:12-30,00:00:00:00:00:10-0,00:00:00:00:00:13-0,00:00:00:00:00:14-0,00:00:00:00:00:16-0,00:00:00:00:00:17-0"
1457624525,0,"00:00:00:00:00:15-0,00:00:00:00:00:18-0,00:00:00:00:00:19-0,00:00:00:00:00:11-30,00:00:00:00:00:12-30,00:00:00:00:00:10-0,00:00:00:00:00:13-0,00:00:00:00:00:14-0,00:00:00:00:00:16-0,00:00:00:00:00:17-0"
1457624530,0,"00:00:00:00:00:15-0,00:00:00:00:00:18-0,00:00:00:00:00:19-0,00:00:00:00:00:11-30,00:00:00:00:00:12-30,00:00:00:00:00:10-0,00:00:00:00:00:13-0,00:00:00:00:00:14-0,00:00:00:00:00:16-0,00:00:00:00:00:17-0"
1457624535,0,"00:00:00:00:00:15-0,00:00:00:00:00:18-0,00:00:00:00:00:19-0,00:00:00:00:00:11-30,00:00:00:00:00:12-30,00:00:00:00:00:10-0,00:00:00:00:00:13-0,00:00:00:00:00:14-0,00:00:00:00:00:16-0,00:00:00:00:00:17-0"
1457624540,0,"00:00:00:00:00:15-0,00:00:00:00:00:18-0,00:00:00:00:00:19-0,00:00:00:00:00:11-30,00:00:00:00:00:12-30,00:00:00:00:00:10-0,00:00:00:00:00:13-0,00:00:00:00:00:14-0,00:00:00:00:00:16-0,00:00:00:00:00:17-0"
1457624545,0,"00:00:00:00:00:15-0,00:00:00:00:00:18-0,00:00:00:00:00:19-0,00:00:00:00:00:11-30,00:00:00:00:00:12-30,00:00:00:00:00:10-0,00:00:00:00:00:13-0,00:00:00:00:00:14-0,00:00:00:00:00:16-0,00:00:00:00:00:17-0"
1457624550,0,"00:00:00:00:00:15-0,00:00:00:00:00:18-0,00:00:00:00:00:19-0,00:00:00:00:00:11-30,00:00:00:00:00:12-30,00:00:00:00:00:10-0,00:00:00:00:00:13-0,00:00:00:00:00:14-0,00:00:00:00:00:16-0,00:00:00:00:00:17-0"
1457624555,0,"00:00:00:00:00:15-0,00:00:00:00:00:18-0,00:00:00:00:00:19-0,00:00:00:00:00:11-30,00:00:00:00:00:12-30,00:00:00:00:00:10-0,00:00:00:00:00:13-0,00:00:00:00:00:14-0,00:00:00:00:00:16-0,00:00:00:00:00:17-0"
1457624560,0,"00:00:00:00:00:15-0,00:00:00:00:00:18-0,00:00:00:00:00:19-0,00:00:00:00:00:11-30,00:00:00:00:00:12-30,00:00:00:00:00:10-0,00:00:00:00:00:13-0,00:00:00:00:00:14-0,00:00:00:00:00:16-0,00:00:00:00:00:17-0"
1457624565,0,"00:00:00:00:00:15-0,00:00:00:00:00:18-0,00:00:00:00:00:19-0,00:00:00:00:00:11-30,00:00:00:00:00:12-30,00:00:00:00:00:10-0,00:00:00:00:00:13-0,00:00:00:00:00:14-0,00:00:00:00:00:16-0,00:00:00:00:00:17-0"
1457624570,0,"00:00:00:00:00:15-0,00:00:00:00:00:18-0,00:00:00:00:00:19-0,00:00:00:00:00:11-30,00:00:00:00:00:12-30,00:00:00:00:00:10-0,00:00:00:00:00:13-0,00:00:00:00:00:14-0,00:00:00:00:00:16-0,00:00:00:00:00:17-0"
1457624575,0,"00:00:00:00:00:15-0,00:00:00:00:00:18-0,00:00:00:00:00:19-0,00:00:00:00:00:11-30,00:00:00:00:00:12-30,00:00:00:00:00:10-0,00:00:00:00:00:13-0,00:00:00:00:00:14-0,00:00:00:00:00:16-0,00:00:00:00:00:17-0"
1457624580,0,"00:00:00:00:00:15-0,00:00:00:00:00:18-0,00:00:00:00:00:19-0,00:00:00:00:00:11-30,00:00:00:00:00:12-30,00:00:00:00:00:10-0,00:00:00:00:00:13-0,00:00:00:00:00:14-0,00:00:00:00:00:16-0,00:00:00:00:00:17-0"
1457624585,0,"00:00:00:00:00:15-0,00:00:00:00:00:18-0,00:00:00:00:00:19-0,00:00:00:00:00:11-30,00:00:00:00:00:12-30,00:00:00:00:00:10-0,00:00:00:00:00:13-0,00:00:00:00:00:14-0,00:00:00:00:00:16-0,00:00:00:00:00:17-0"
1457624590,0,"00:00:00:00:00:15-0,00:00:00:00:00:18-0,00:00:00:00:00:19-0,00:00:00:00:00:11-30,00:00:00:00:00:12-30,00:00:00:00:00:10-0,00:00:00:00:00:13-0,00:00:00:00:00:14-0,00:00:00:00:00:16-0,00:00:00:00:00:17-0"
1457624595,0,"00:00:00:00:00:15-0,00:00:00:00:00:18-0,00:00:00:00:00:19-0,00:00:00:00:00:11-30,00:00:00:00:00:12-30,00:00:00:00:00:10-0,00:00:00:00:00:13-0,00:00:00:00:00:14-0,00:00:00:00:00:16-0,00:00:00:00:00:17-0"
1457624600,0,"00:00:00:00:00:15-0,00:00:00:00:00:18-0,00:00:00:00:00:19-0,00:00:00:00:00:11-30,00:00:00:00:00:12-30,00:00:00:00:00:10-0,00:00:00:00:00:13-0,00:00:00:00:00:14-0,00:00:00:00:00:16-0,00:00:00:00:00:17-0"
1457624605,0,"00:00:00:00:00:15-0,00:00:00:00:00:18-0,00:00:00:00:00:19-0,00:00:00:00:00:11-30,00:00:00:00:00:12-30,00:00:00:00:00:10-0,00:00:00:00:00:13-0,00:00:00:00:00:14-0,00:00:00:00:00:16-0,00:00:00:00:00:17-0"
1457624610,0,"00:00:00:00:00:15-0,00:00:00:00:00:18-0,00:00:00:00:00:19-0,00:00:00:00:00:11-30,00:00:00:00:00:12-30,00:00:00:00:00:10-0,00:00:00:00:00:13-0,00:00:00:00:00:14-0,00:00:00:00:00:16-0,00:00:00:00:00:17-0"
1457624615,0,"00:00:00:00:00:15-0,00:00:00:00:00:18-0,00:00:00:00:00:19-0,00:00:00:00:00:11-30,00:00:00:00:00:12-30,00:00:00:00:00:10-0,00:00:00:00:00:13-0,00:00:00:00:00:14-0,00:00:00:00:00:16-0,00:00:00:00:00:17-0"
1457624620,0,"00:00:00:00:00:15-0,00:00:00:00:00:18-0,00:00:00:00:00:19-0,00:00:00:00:00:11-30,00:00:00:00:00:12-30,00:00:00:00:00:10-0,00:00:00:00:00:13-0,00:00:00:00:00:14-0,00:00:00:00:00:16-0,00:00:00:00:00:17-0"
1457624625,0,"00:00:00:00:00:15-0,00:00:00:00:00:18-0,00:00:00:00:00:19-0,00:00:00:00:00:11-30,00:00:00:00:00:12-30,00:00:00:00:00:10-0,00:00:00:00:00:13-0,00:00:00:00:00:14-0,00:00:00:00:00:16-0,00:00:00:00:00:17-0"
1457624630,0,"00:00:00:00:00:15-0,00:00:00:00:00:18-0,00:00:00:00:00:19-0,00:00:00:00:00:11-30,00:00:00:00:00:12-30,00:00:00:00:00:10-0,00:00:00:00:00:13-0,00:00:00:00:00:14-0,00:00:00:00:00:16-0,00:00:00:00:00:17-0"
1457624635,0,"00:00:00:00:00:15-0,00:00:00:00:00:18-0,00:00:00:00:00:19-0,00:00:00:00:00:11-30,00:00:00:00:00:12-30,00:00:00:00:00:10-0,00:00:00:00:00:13-0,00:00:00:00:00:14-0,00:00:00:00:00:16-0,00:00:00:00:00:17-0"
1457624640,0,"00:00:00:00:00:15-0,00:00:00:00:00:18-0,00:00:00:00:00:19-0,00:00:00:00:00:11-30,00:00:00:00:00:12-30,00:00:00:00:00:10-0,00:00:00:00:00:13-0,00:00:00:00:00:14-0,00:00:00:00:00:16-0,00:00:00:00:00:17-0"
1457624645,0,"00:00:00:00:00:15-0,00:00:00:00:00:18-0,00:00:00:00:00:19-0,00:00:00:00:00:11-30,00:00:00:00:00:12-30,00:00:00:00:00:10-0,00:00:00:00:00:13-0,00:00:00:00:00:14-0,00:00:00:00:00:16-0,00:00:00:00:00:17-0"
1457624651,0,"00:00:00:00:00:15-0,00:00:00:00:00:18-0,00:00:00:00:00:19-0,00:00:00:00:00:11-30,00:00:00:00:00:12-30,00:00:00:00:00:10-0,00:00:00:00:00:13-0,00:00:00:00:00:14-0,00:00:00:00:00:16-0,00:00:00:00:00:17-0"
1457624656,0,"00:00:00:00:00:15-0,00:00:00:00:00:18-0,00:00:00:00:00:19-0,00:00:00:00:00:11-30,00:00:00:00:00:12-30,00:00:00:00:00:10-0,00:00:00:00:00:13-0,00:00:00:00:00:14-0,00:00:00:00:00:16-0,00:00:00:00:00:17-0"
1457624661,0,"00:00:00:00:00:15-0,00:00:00:00:00:18-0,00:00:00:00:00:19-0,00:00:00:00:00:11-30,00:00:00:00:00:12-30,00:00:00:00:00:10-0,00:00:00:00:00:13-0,00:00:00:00:00:14-0,00:00:00:00:00:16-0,00:00:00:00:00:17-0"
1457624666,0,"00:00:00:00:00:15-0,00:00:00:00:00:18-0,00:00:00:00:00:19-0,00:00:00:00:00:11-30,00:00:00:00:00:12-30,00:00:00:00:00:10-0,00:00:00:00:00:13-0,00:00:00:00:00:14-0,00:00:00:00:00:16-0,00:00:00:00:00:17-0"
1457624671,0,"00:00:00:00:00:15-0,00:00:00:00:00:18-0,00:00:00:00:00:19-0,00:00:00:00:00:11-30,00:00:00:00:00:12-30,00:00:00:00:00:10-0,00:00:00:00:00:13-0,00:00:00:00:00:14-0,00:00:00:00:00:16-0,00:00:00:00:00:17-0"
1457624676,0,"00:00:00:00:00:15-0,00:00:00:00:00:18-0,00:00:00:00:00:19-0,00:00:00:00:00:11-30,00:00:00:00:00:12-30,00:00:00:00:00:10-0,00:00:00:00:00:13-0,00:00:00:00:00:14-0,00:00:00:00:00:16-0,00:00:00:00:00:17-0"
1457624681,0,"00:00:00:00:00:15-0,00:00:00:00:00:18-0,00:00:00:00:00:19-0,00:00:00:00:00:11-30,00:00:00:00:00:12-30,00:00:00:00:00:10-0,00:00:00:00:00:13-0,00:00:00:00:00:14-0,00:00:00:00:00:16-0,00:00:00:00:00:17-0"
1457624686,0,"00:00:00:00:00:15-0,00:00:00:00:00:18-0,00:00:00:00:00:19-0,00:00:00:00:00:11-30,00:00:00:00:00:12-30,00:00:00:00:00:10-0,00:00:00:00:00:13-0,00:00:00:00:00:14-0,00:00:00:00:00:16-0,00:00:00:00:00:17-0"
1457624691,0,"00:00:00:00:00:15-0,00:00:00:00:00:18-0,00:00:00:00:00:19-0,00:00:00:00:00:11-30,00:00:00:00:00:12-30,00:00:00:00:00:10-0,00:00:00:00:00:13-0,00:00:00:00:00:14-0,00:00:00:00:00:16-0,00:00:00:00:00:17-0"
1457624696,0,"00:00:00:00:00:15-0,00:00:00:00:00:18-0,00:00:00:00:00:19-0,00:00:00:00:00:11-30,00:00:00:00:00:12-30,00:00:00:00:00:10-0,00:00:00:00:00:13-0,00:00:00:00:00:14-0,00:00:00:00:00:16-0,00:00:00:00:00:17-0"
1457624701,0,"00:00:00:00:00:15-0,00:00:00:00:00:18-0,00:00:00:00:00:19-0,00:00:00:00:00:11-30,00:00:00:00:00:12-30,00:00:00:00:00:10-0,00:00:00:00:00:13-0,00:00:00:00:00:14-0,00:00:00:00:00:16-0,00:00:00:00:00:17-0"
1457624706,0,"00:00:00:00:00:15-0,00:00:00:00:00:18-0,00:00:00:00:00:19-0,00:00:00:00:00:11-30,00:00:00:00:00:12-30,00:00:00:00:00:10-0,00:00:00:00:00:13-0,00:00:00:00:00:14-0,00:00:00:00:00:16-0,00:00:00:00:00:17-0"
1457624711,0,"00:00:00:00:00:15-0,00:00:00:00:00:18-0,00:00:00:00:00:19-0,00:00:00:00:00:11-30,00:00:00:00:00:12-30,00:00:00:00:00:10-0,00:00:00:00:00:13-0,00:00:00:00:00:14-0,00:00:00:00:00:16-0,00:00:00:00:00:17-0"
1457624716,0,"00:00:00:00:00:15-0,00:00:00:00:00:18-0,00:00:00:00:00:19-0,00:00:00:00:00:11-30,00:00:00:00:00:12-30,00:00:00:00:00:10-0,00:00:00:00:00:13-0,00:00:00:00:00:14-0,00:00:00:00:00:16-0,00:00:00:00:00:17-0"
1457624721,0,"00:00:00:00:00:15-0,00:00:00:00:00:18-0,00:00:00:00:00:19-0,00:00:00:00:00:11-30,00:00:00:00:00:12-30,00:00:00:00:00:10-0,00:00:00:00:00:13-0,00:00:00:00:00:14-0,00:00:00:00:00:16-0,00:00:00:00:00:17-0"
1457624726,0,"00:00:00:00:00:15-0,00:00:00:00:00:18-0,00:00:00:00:00:19-0,00:00:00:00:00:11-30,00:00:00:00:00:12-30,00:00:00:00:00:10-0,00:00:00:00:00:13-0,00:00:00:00:00:14-0,00:00:00:00:00:16-0,00:00:00:00:00:17-0"
1457624731,0,"00:00:00:00:00:15-0,00:00:00:00:00:18-0,00:00:00:00:00:19-0,00:00:00:00:00:11-30,00:00:00:00:00:12-30,00:00:00:00:00:10-0,00:00:00:00:00:13-0,00:00:00:00:00:14-0,00:00:00:00:00:16-0,00:00:00:00:00:17-0"
1457624736,0,"00:00:00:00:00:15-0,00:00:00:00:00:18-0,00:00:00:00:00:19-0,00:00:00:00:00:11-30,00:00:00:00:00:12-30,00:00:00:00:00:10-0,00:00:00:00:00:13-0,00:00:00:00:00:14-0,00:00:00:00:00:16-0,00:00:00:00:00:17-0"
1457624741,0,"00:00:00:00:00:15-0,00:00:00:00:00:18-0,00:00:00:00:00:19-0,00:00:00:00:00:11-30,00:00:00:00:00:12-30,00:00:00:00:00:10-0,00:00:00:00:00:13-0,00:00:00:00:00:14-0,00:00:00:00:00:16-0,00:00:00:00:00:17-0"
1457624746,0,"00:00:00:00:00:15-0,00:00:00:00:00:18-0,00:00:00:00:00:19-0,00:00:00:00:00:11-30,00:00:00:00:00:12-30,00:00:00:00:00:10-0,00:00:00:00:00:13-0,00:00:00:00:00:14-0,00:00:00:00:00:16-0,00:00:00:00:00:17-0"
1457624751,0,"00:00:00:00:00:15-0,00:00:00:00:00:18-0,00:00:00:00:00:19-0,00:00:00:00:00:11-30,00:00:00:00:00:12-30,00:00:00:00:00:10-0,00:00:00:00:00:13-0,00:00:00:00:00:14-0,00:00:00:00:00:16-0,00:00:00:00:00:17-0"
1457624756,0,"00:00:00:00:00:15-0,00:00:00:00:00:18-0,00:00:00:00:00:19-0,00:00:00:00:00:11-30,00:00:00:00:00:12-30,00:00:00:00:00:10-0,00:00:00:00:00:13-0,00:00:00:00:00:14-0,00:00:00:00:00:16-0,00:00:00:00:00:17-0"
1457624761,0,"00:00:00:00:00:15-0,00:00:00:00:00:18-0,00:00:00:00:00:19-0,00:00:00:00:00:11-30,00:00:00:00:00:12-30,00:00:00:00:00:10-0,00:00:00:00:00:13-0,00:00:00:00:00:14-0,00:00:00:00:00:16-0,00:00:00:00:00:17-0"
1457624766,0,"00:00:00:00:00:15-0,00:00:00:00:00:18-0,00:00:00:00:00:19-0,00:00:00:00:00:11-30,00:00:00:00:00:12-30,00:00:00:00:00:10-0,00:00:00:00:00:13-0,00:00:00:00:00:14-0,00:00:00:00:00:16-0,00:00:00:00:00:17-0"
1457624771,0,"00:00:00:00:00:15-0,00:00:00:00:00:18-0,00:00:00:00:00:19-0,00:00:00:00:00:11-30,00:00:00:00:00:12-30,00:00:00:00:00:10-0,00:00:00:00:00:13-0,00:00:00:00:00:14-0,00:00:00:00:00:16-0,00:00:00:00:00:17-0"
1457624776,0,"00:00:00:00:00:15-0,00:00:00:00:00:18-0,00:00:00:00:00:19-0,00:00:00:00:00:11-30,00:00:00:00:00:12-30,00:00:00:00:00:10-0,00:00:00:00:00:13-0,00:00:00:00:00:14-0,00:00:00:00:00:16-0,00:00:00:00:00:17-0"
1457624781,0,"00:00:00:00:00:15-0,00:00:00:00:00:18-0,00:00:00:00:00:19-0,00:00:00:00:00:11-30,00:00:00:00:00:12-30,00:00:00:00:00:10-0,00:00:00:00:00:13-0,00:00:00:00:00:14-0,00:00:00:00:00:16-0,00:00:00:00:00:17-0"
1457624786,0,"00:00:00:00:00:15-0,00:00:00:00:00:18-0,00:00:00:00:00:19-0,00:00:00:00:00:11-30,00:00:00:00:00:12-30,00:00:00:00:00:10-0,00:00:00:00:00:13-0,00:00:00:00:00:14-0,00:00:00:00:00:16-0,00:00:00:00:00:17-0"
1457624791,0,"00:00:00:00:00:15-0,00:00:00:00:00:18-0,00:00:00:00:00:19-0,00:00:00:00:00:11-30,00:00:00:00:00:12-30,00:00:00:00:00:10-0,00:00:00:00:00:13-0,00:00:00:00:00:14-0,00:00:00:00:00:16-0,00:00:00:00:00:17-0"
1457624796,0,"00:00:00:00:00:15-0,00:00:00:00:00:18-0,00:00:00:00:00:19-0,00:00:00:00:00:11-30,00:00:00:00:00:12-30,00:00:00:00:00:10-0,00:00:00:00:00:13-0,00:00:00:00:00:14-0,00:00:00:00:00:16-0,00:00:00:00:00:17-0"
1457624801,0,"00:00:00:00:00:15-0,00:00:00:00:00:18-0,00:00:00:00:00:19-0,00:00:00:00:00:11-30,00:00:00:00:00:12-30,00:00:00:00:00:10-0,00:00:00:00:00:13-0,00:00:00:00:00:14-0,00:00:00:00:00:16-0,00:00:00:00:00:17-0"
1457624806,0,"00:00:00:00:00:15-0,00:00:00:00:00:18-0,00:00:00:00:00:19-0,00:00:00:00:00:11-30,00:00:00:00:00:12-30,00:00:00:00:00:10-0,00:00:00:00:00:13-0,00:00:00:00:00:14-0,00:00:00:00:00:16-0,00:00:00:00:00:17-0"
1457624811,0,"00:00:00:00:00:15-0,00:00:00:00:00:18-0,00:00:00:00:00:19-0,00:00:00:00:00:11-30,00:00:00:00:00:12-30,00:00:00:00:00:10-0,00:00:00:00:00:13-0,00:00:00:00:00:14-0,00:00:00:00:00:16-0,00:00:00:00:00:17-0"
1457624816,0,"00:00:00:00:00:15-0,00:00:00:00:00:18-0,00:00:00:00:00:19-0,00:00:00:00:00:11-30,00:00:00:00:00:12-30,00:00:00:00:00:10-0,00:00:00:00:00:13-0,00:00:00:00:00:14-0,00:00:00:00:00:16-0,00:00:00:00:00:17-0"
1457624821,0,"00:00:00:00:00:15-0,00:00:00:00:00:18-0,00:00:00:00:00:19-0,00:00:00:00:00:11-30,00:00:00:00:00:12-30,00:00:00:00:00:10-0,00:00:00:00:00:13-0,00:00:00:00:00:14-0,00:00:00:00:00:16-0,00:00:00:00:00:17-0"
1457624826,0,"00:00:00:00:00:15-0,00:00:00:00:00:18-0,00:00:00:00:00:19-0,00:00:00:00:00:11-30,00:00:00:00:00:12-30,00:00:00:00:00:10-0,00:00:00:00:00:13-0,00:00:00:00:00:14-0,00:00:00:00:00:16-0,00:00:00:00:00:17-0"
1457624831,0,"00:00:00:00:00:15-0,00:00:00:00:00:18-0,00:00:00:00:00:19-0,00:00:00:00:00:11-30,00:00:00:00:00:12-30,00:00:00:00:00:10-0,00:00:00:00:00:13-0,00:00:00:00:00:14-0,00:00:00:00:00:16-0,00:00:00:00:00:17-0"
1457624836,0,"00:00:00:00:00:15-0,00:00:00:00:00:18-0,00:00:00:00:00:19-0,00:00:00:00:00:11-30,00:00:00:00:00:12-30,00:00:00:00:00:10-0,00:00:00:00:00:13-0,00:00:00:00:00:14-0,00:00:00:00:00:16-0,00:00:00:00:00:17-0"
1457624841,0,"00:00:00:00:00:15-0,00:00:00:00:00:18-0,00:00:00:00:00:19-0,00:00:00:00:00:11-30,00:00:00:00:00:12-30,00:00:00:00:00:10-0,00:00:00:00:00:13-0,00:00:00:00:00:14-0,00:00:00:00:00:16-0,00:00:00:00:00:17-0"
1457624846,0,"00:00:00:00:00:15-0,00:00:00:00:00:18-0,00:00:00:00:00:19-0,00:00:00:00:00:11-30,00:00:00:00:00:12-30,00:00:00:00:00:10-0,00:00:00:00:00:13-0,00:00:00:00:00:14-0,00:00:00:00:00:16-0,00:00:00:00:00:17-0"
1457624851,0,"00:00:00:00:00:15-0,00:00:00:00:00:18-0,00:00:00:00:00:19-0,00:00:00:00:00:11-30,00:00:00:00:00:12-30,00:00:00:00:00:10-0,00:00:00:00:00:13-0,00:00:00:00:00:14-0,00:00:00:00:00:16-0,00:00:00:00:00:17-0"
1457624856,0,"00:00:00:00:00:15-0,00:00:00:00:00:18-0,00:00:00:00:00:19-0,00:00:00:00:00:11-30,00:00:00:00:00:12-30,00:00:00:00:00:10-0,00:00:00:00:00:13-0,00:00:00:00:00:14-0,00:00:00:00:00:16-0,00:00:00:00:00:17-0"
1457624861,0,"00:00:00:00:00:15-0,00:00:00:00:00:18-0,00:00:00:00:00:19-0,00:00:00:00:00:11-30,00:00:00:00:00:12-30,00:00:00:00:00:10-0,00:00:00:00:00:13-0,00:00:00:00:00:14-0,00:00:00:00:00:16-0,00:00:00:00:00:17-0"
1457624866,0,"00:00:00:00:00:15-0,00:00:00:00:00:18-0,00:00:00:00:00:19-0,00:00:00:00:00:11-30,00:00:00:00:00:12-30,00:00:00:00:00:10-0,00:00:00:00:00:13-0,00:00:00:00:00:14-0,00:00:00:00:00:16-0,00:00:00:00:00:17-0"
1457624871,0,"00:00:00:00:00:15-0,00:00:00:00:00:18-0,00:00:00:00:00:19-0,00:00:00:00:00:11-30,00:00:00:00:00:12-30,00:00:00:00:00:10-0,00:00:00:00:00:13-0,00:00:00:00:00:14-0,00:00:00:00:00:16-0,00:00:00:00:00:17-0"
1457624876,0,"00:00:00:00:00:15-0,00:00:00:00:00:18-0,00:00:00:00:00:19-0,00:00:00:00:00:11-30,00:00:00:00:00:12-30,00:00:00:00:00:10-0,00:00:00:00:00:13-0,00:00:00:00:00:14-0,00:00:00:00:00:16-0,00:00:00:00:00:17-0"
1457624881,0,"00:00:00:00:00:15-0,00:00:00:00:00:18-0,00:00:00:00:00:19-0,00:00:00:00:00:11-30,00:00:00:00:00:12-30,00:00:00:00:00:10-0,00:00:00:00:00:13-0,00:00:00:00:00:14-0,00:00:00:00:00:16-0,00:00:00:00:00:17-0"
1457624886,0,"00:00:00:00:00:15-0,00:00:00:00:00:18-0,00:00:00:00:00:19-0,00:00:00:00:00:11-30,00:00:00:00:00:12-30,00:00:00:00:00:10-0,00:00:00:00:00:13-0,00:00:00:00:00:14-0,00:00:00:00:00:16-0,00:00:00:00:00:17-0"
1457624891,0,"00:00:00:00:00:15-0,00:00:00:00:00:18-0,00:00:00:00:00:19-0,00:00:00:00:00:11-30,00:00:00:00:00:12-30,00:00:00:00:00:10-0,00:00:00:00:00:13-0,00:00:00:00:00:14-0,00:00:00:00:00:16-0,00:00:00:00:00:17-0"
1457624896,0,"00:00:00:00:00:15-0,00:00:00:00:00:18-0,00:00:00:00:00:19-0,00:00:00:00:00:11-30,00:00:00:00:00:12-30,00:00:00:00:00:10-0,00:00:00:00:00:13-0,00:00:00:00:00:14-0,00:00:00:00:00:16-0,00:00:00:00:00:17-0"
1457624901,0,"00:00:00:00:00:15-0,00:00:00:00:00:18-0,00:00:00:00:00:19-0,00:00:00:00:00:11-30,00:00:00:00:00:12-30,00:00:00:00:00:10-0,00:00:00:00:00:13-0,00:00:00:00:00:14-0,00:00:00:00:00:16-0,00:00:00:00:00:17-0"
1457624906,0,"00:00:00:00:00:15-0,00:00:00:00:00:18-0,00:00:00:00:00:19-0,00:00:00:00:00:11-30,00:00:00:00:00:12-30,00:00:00:00:00:10-0,00:00:00:00:00:13-0,00:00:00:00:00:14-0,00:00:00:00:00:16-0,00:00:00:00:00:17-0"
1457624911,0,"00:00:00:00:00:15-0,00:00:00:00:00:18-0,00:00:00:00:00:19-0,00:00:00:00:00:11-30,00:00:00:00:00:12-30,00:00:00:00:00:10-0,00:00:00:00:00:13-0,00:00:00:00:00:14-0,00:00:00:00:00:16-0,00:00:00:00:00:17-0"
1457624916,0,"00:00:00:00:00:15-0,00:00:00:00:00:18-0,00:00:00:00:00:19-0,00:00:00:00:00:11-30,00:00:00:00:00:12-30,00:00:00:00:00:10-0,00:00:00:00:00:13-0,00:00:00:00:00:14-0,00:00:00:00:00:16-0,00:00:00:00:00:17-0"
1457624921,0,"00:00:00:00:00:15-0,00:00:00:00:00:18-0,00:00:00:00:00:19-0,00:00:00:00:00:11-30,00:00:00:00:00:12-30,00:00:00:00:00:10-0,00:00:00:00:00:13-0,00:00:00:00:00:14-0,00:00:00:00:00:16-0,00:00:00:00:00:17-0"
1457624926,0,"00:00:00:00:00:15-0,00:00:00:00:00:18-0,00:00:00:00:00:19-0,00:00:00:00:00:11-30,00:00:00:00:00:12-30,00:00:00:00:00:10-0,00:00:00:00:00:13-0,00:00:00:00:00:14-0,00:00:00:00:00:16-0,00:00:00:00:00:17-0"
1457624931,0,"00:00:00:00:00:15-0,00:00:00:00:00:18-0,00:00:00:00:00:19-0,00:00:00:00:00:11-30,00:00:00:00:00:12-30,00:00:00:00:00:10-0,00:00:00:00:00:13-0,00:00:00:00:00:14-0,00:00:00:00:00:16-0,00:00:00:00:00:17-0"
1457624936,0,"00:00:00:00:00:15-0,00:00:00:00:00:18-0,00:00:00:00:00:19-0,00:00:00:00:00:11-30,00:00:00:00:00:12-30,00:00:00:00:00:10-0,00:00:00:00:00:13-0,00:00:00:00:00:14-0,00:00:00:00:00:16-0,00:00:00:00:00:17-0"
1457624941,0,"00:00:00:00:00:15-0,00:00:00:00:00:18-0,00:00:00:00:00:19-0,00:00:00:00:00:11-30,00:00:00:00:00:12-30,00:00:00:00:00:10-0,00:00:00:00:00:13-0,00:00:00:00:00:14-0,00:00:00:00:00:16-0,00:00:00:00:00:17-0"
1457624946,0,"00:00:00:00:00:15-0,00:00:00:00:00:18-0,00:00:00:00:00:19-0,00:00:00:00:00:11-30,00:00:00:00:00:12-30,00:00:00:00:00:10-0,00:00:00:00:00:13-0,00:00:00:00:00:14-0,00:00:00:00:00:16-0,00:00:00:00:00:17-0"
1457624951,0,"00:00:00:00:00:15-0,00:00:00:00:00:18-0,00:00:00:00:00:19-0,00:00:00:00:00:11-30,00:00:00:00:00:12-30,00:00:00:00:00:10-0,00:00:00:00:00:13-0,00:00:00:00:00:14-0,00:00:00:00:00:16-0,00:00:00:00:00:17-0"
1457624956,0,"00:00:00:00:00:15-0,00:00:00:00:00:18-0,00:00:00:00:00:19-0,00:00:00:00:00:11-30,00:00:00:00:00:12-30,00:00:00:00:00:10-0,00:00:00:00:00:13-0,00:00:00:00:00:14-0,00:00:00:00:00:16-0,00:00:00:00:00:17-0"
1457624961,0,"00:00:00:00:00:15-0,00:00:00:00:00:18-0,00:00:00:00:00:19-0,00:00:00:00:00:11-30,00:00:00:00:00:12-30,00:00:00:00:00:10-0,00:00:00:00:00:13-0,00:00:00:00:00:14-0,00:00:00:00:00:16-0,00:00:00:00:00:17-0"
1457624966,0,"00:00:00:00:00:15-0,00:00:00:00:00:18-0,00:00:00:00:00:19-0,00:00:00:00:00:11-30,00:00:00:00:00:12-30,00:00:00:00:00:10-0,00:00:00:00:00:13-0,00:00:00:00:00:14-0,00:00:00:00:00:16-0,00:00:00:00:00:17-0"
1457624971,0,"00:00:00:00:00:15-0,00:00:00:00:00:18-0,00:00:00:00:00:19-0,00:00:00:00:00:11-30,00:00:00:00:00:12-30,00:00:00:00:00:10-0,00:00:00:00:00:13-0,00:00:00:00:00:14-0,00:00:00:00:00:16-0,00:00:00:00:00:17-0"
1457624976,0,"00:00:00:00:00:15-0,00:00:00:00:00:18-0,00:00:00:00:00:19-0,00:00:00:00:00:11-30,00:00:00:00:00:12-30,00:00:00:00:00:10-0,00:00:00:00:00:13-0,00:00:00:00:00:14-0,00:00:00:00:00:16-0,00:00:00:00:00:17-0"
1457624981,0,"00:00:00:00:00:15-0,00:00:00:00:00:18-0,00:00:00:00:00:19-0,00:00:00:00:00:11-30,00:00:00:00:00:12-30,00:00:00:00:00:10-0,00:00:00:00:00:13-0,00:00:00:00:00:14-0,00:00:00:00:00:16-0,00:00:00:00:00:17-0"
1457624986,0,"00:00:00:00:00:15-0,00:00:00:00:00:18-0,00:00:00:00:00:19-0,00:00:00:00:00:11-30,00:00:00:00:00:12-30,00:00:00:00:00:10-0,00:00:00:00:00:13-0,00:00:00:00:00:14-0,00:00:00:00:00:16-0,00:00:00:00:00:17-0"
1457624991,0,"00:00:00:00:00:15-0,00:00:00:00:00:18-0,00:00:00:00:00:19-0,00:00:00:00:00:11-30,00:00:00:00:00:12-30,00:00:00:00:00:10-0,00:00:00:00:00:13-0,00:00:00:00:00:14-0,00:00:00:00:00:16-0,00:00:00:00:00:17-0"
1457624996,0,"00:00:00:00:00:15-0,00:00:00:00:00:18-0,00:00:00:00:00:19-0,00:00:00:00:00:11-30,00:00:00:00:00:12-30,00:00:00:00:00:10-0,00:00:00:00:00:13-0,00:00:00:00:00:14-0,00:00:00:00:00:16-0,00:00:00:00:00:17-0"
1457625001,0,"00:00:00:00:00:15-0,00:00:00:00:00:18-0,00:00:00:00:00:19-0,00:00:00:00:00:11-30,00:00:00:00:00:12-30,00:00:00:00:00:10-0,00:00:00:00:00:13-0,00:00:00:00:00:14-0,00:00:00:00:00:16-0,00:00:00:00:00:17-0"
1457625006,0,"00:00:00:00:00:15-0,00:00:00:00:00:18-0,00:00:00:00:00:19-0,00:00:00:00:00:11-30,00:00:00:00:00:12-30,00:00:00:00:00:10-0,00:00:00:00:00:13-0,00:00:00:00:00:14-0,00:00:00:00:00:16-0,00:00:00:00:00:17-0"
1457625012,0,"00:00:00:00:00:15-0,00:00:00:00:00:18-0,00:00:00:00:00:19-0,00:00:00:00:00:11-30,00:00:00:00:00:12-30,00:00:00:00:00:10-0,00:00:00:00:00:13-0,00:00:00:00:00:14-0,00:00:00:00:00:16-0,00:00:00:00:00:17-0"
1457625017,0,"00:00:00:00:00:15-0,00:00:00:00:00:18-0,00:00:00:00:00:19-0,00:00:00:00:00:11-30,00:00:00:00:00:12-30,00:00:00:00:00:10-0,00:00:00:00:00:13-0,00:00:00:00:00:14-0,00:00:00:00:00:16-0,00:00:00:00:00:17-0"
1457625022,0,"00:00:00:00:00:15-0,00:00:00:00:00:18-0,00:00:00:00:00:19-0,00:00:00:00:00:11-30,00:00:00:00:00:12-30,00:00:00:00:00:10-0,00:00:00:00:00:13-0,00:00:00:00:00:14-0,00:00:00:00:00:16-0,00:00:00:00:00:17-0"
1457625027,0,"00:00:00:00:00:15-0,00:00:00:00:00:18-0,00:00:00:00:00:19-0,00:00:00:00:00:11-30,00:00:00:00:00:12-30,00:00:00:00:00:10-0,00:00:00:00:00:13-0,00:00:00:00:00:14-0,00:00:00:00:00:16-0,00:00:00:00:00:17-0"
1457625032,0,"00:00:00:00:00:15-0,00:00:00:00:00:18-0,00:00:00:00:00:19-0,00:00:00:00:00:11-30,00:00:00:00:00:12-30,00:00:00:00:00:10-0,00:00:00:00:00:13-0,00:00:00:00:00:14-0,00:00:00:00:00:16-0,00:00:00:00:00:17-0"
1457625037,0,"00:00:00:00:00:15-0,00:00:00:00:00:18-0,00:00:00:00:00:19-0,00:00:00:00:00:11-30,00:00:00:00:00:12-30,00:00:00:00:00:10-0,00:00:00:00:00:13-0,00:00:00:00:00:14-0,00:00:00:00:00:16-0,00:00:00:00:00:17-0"
1457625042,0,"00:00:00:00:00:15-0,00:00:00:00:00:18-0,00:00:00:00:00:19-0,00:00:00:00:00:11-30,00:00:00:00:00:12-30,00:00:00:00:00:10-0,00:00:00:00:00:13-0,00:00:00:00:00:14-0,00:00:00:00:00:16-0,00:00:00:00:00:17-0"
1457625047,0,"00:00:00:00:00:15-0,00:00:00:00:00:18-0,00:00:00:00:00:19-0,00:00:00:00:00:11-30,00:00:00:00:00:12-30,00:00:00:00:00:10-0,00:00:00:00:00:13-0,00:00:00:00:00:14-0,00:00:00:00:00:16-0,00:00:00:00:00:17-0"
1457625052,0,"00:00:00:00:00:15-0,00:00:00:00:00:18-0,00:00:00:00:00:19-0,00:00:00:00:00:11-30,00:00:00:00:00:12-30,00:00:00:00:00:10-0,00:00:00:00:00:13-0,00:00:00:00:00:14-0,00:00:00:00:00:16-0,00:00:00:00:00:17-0"
1457625057,0,"00:00:00:00:00:15-0,00:00:00:00:00:18-0,00:00:00:00:00:19-0,00:00:00:00:00:11-30,00:00:00:00:00:12-30,00:00:00:00:00:10-0,00:00:00:00:00:13-0,00:00:00:00:00:14-0,00:00:00:00:00:16-0,00:00:00:00:00:17-0"
1457625062,0,"00:00:00:00:00:15-0,00:00:00:00:00:18-0,00:00:00:00:00:19-0,00:00:00:00:00:11-30,00:00:00:00:00:12-30,00:00:00:00:00:10-0,00:00:00:00:00:13-0,00:00:00:00:00:14-0,00:00:00:00:00:16-0,00:00:00:00:00:17-0"
1457625067,0,"00:00:00:00:00:15-0,00:00:00:00:00:18-0,00:00:00:00:00:19-0,00:00:00:00:00:11-30,00:00:00:00:00:12-30,00:00:00:00:00:10-0,00:00:00:00:00:13-0,00:00:00:00:00:14-0,00:00:00:00:00:16-0,00:00:00:00:00:17-0"
1457625072,0,"00:00:00:00:00:15-0,00:00:00:00:00:18-0,00:00:00:00:00:19-0,00:00:00:00:00:11-30,00:00:00:00:00:12-30,00:00:00:00:00:10-0,00:00:00:00:00:13-0,00:00:00:00:00:14-0,00:00:00:00:00:16-0,00:00:00:00:00:17-0"
1457625077,0,"00:00:00:00:00:15-0,00:00:00:00:00:18-0,00:00:00:00:00:19-0,00:00:00:00:00:11-30,00:00:00:00:00:12-30,00:00:00:00:00:10-0,00:00:00:00:00:13-0,00:00:00:00:00:14-0,00:00:00:00:00:16-0,00:00:00:00:00:17-0"
1457625082,0,"00:00:00:00:00:15-0,00:00:00:00:00:18-0,00:00:00:00:00:19-0,00:00:00:00:00:11-30,00:00:00:00:00:12-30,00:00:00:00:00:10-0,00:00:00:00:00:13-0,00:00:00:00:00:14-0,00:00:00:00:00:16-0,00:00:00:00:00:17-0"
1457625087,0,"00:00:00:00:00:15-0,00:00:00:00:00:18-0,00:00:00:00:00:19-0,00:00:00:00:00:11-30,00:00:00:00:00:12-30,00:00:00:00:00:10-0,00:00:00:00:00:13-0,00:00:00:00:00:14-0,00:00:00:00:00:16-0,00:00:00:00:00:17-0"
1457625092,0,"00:00:00:00:00:15-0,00:00:00:00:00:18-0,00:00:00:00:00:19-0,00:00:00:00:00:11-30,00:00:00:00:00:12-30,00:00:00:00:00:10-0,00:00:00:00:00:13-0,00:00:00:00:00:14-0,00:00:00:00:00:16-0,00:00:00:00:00:17-0"
1457625097,0,"00:00:00:00:00:15-0,00:00:00:00:00:18-0,00:00:00:00:00:19-0,00:00:00:00:00:11-30,00:00:00:00:00:12-30,00:00:00:00:00:10-0,00:00:00:00:00:13-0,00:00:00:00:00:14-0,00:00:00:00:00:16-0,00:00:00:00:00:17-0"
1457625102,0,"00:00:00:00:00:15-0,00:00:00:00:00:18-0,00:00:00:00:00:19-0,00:00:00:00:00:11-30,00:00:00:00:00:12-30,00:00:00:00:00:10-0,00:00:00:00:00:13-0,00:00:00:00:00:14-0,00:00:00:00:00:16-0,00:00:00:00:00:17-0"
1457625107,0,"00:00:00:00:00:15-0,00:00:00:00:00:18-0,00:00:00:00:00:19-0,00:00:00:00:00:11-30,00:00:00:00:00:12-30,00:00:00:00:00:10-0,00:00:00:00:00:13-0,00:00:00:00:00:14-0,00:00:00:00:00:16-0,00:00:00:00:00:17-0"
1457625112,0,"00:00:00:00:00:15-0,00:00:00:00:00:18-0,00:00:00:00:00:19-0,00:00:00:00:00:11-30,00:00:00:00:00:12-30,00:00:00:00:00:10-0,00:00:00:00:00:13-0,00:00:00:00:00:14-0,00:00:00:00:00:16-0,00:00:00:00:00:17-0"
1457625117,0,"00:00:00:00:00:15-0,00:00:00:00:00:18-0,00:00:00:00:00:19-0,00:00:00:00:00:11-30,00:00:00:00:00:12-30,00:00:00:00:00:10-0,00:00:00:00:00:13-0,00:00:00:00:00:14-0,00:00:00:00:00:16-0,00:00:00:00:00:17-0"
1457625122,0,"00:00:00:00:00:15-0,00:00:00:00:00:18-0,00:00:00:00:00:19-0,00:00:00:00:00:11-30,00:00:00:00:00:12-30,00:00:00:00:00:10-0,00:00:00:00:00:13-0,00:00:00:00:00:14-0,00:00:00:00:00:16-0,00:00:00:00:00:17-0"
1457625127,0,"00:00:00:00:00:15-0,00:00:00:00:00:18-0,00:00:00:00:00:19-0,00:00:00:00:00:11-30,00:00:00:00:00:12-30,00:00:00:00:00:10-0,00:00:00:00:00:13-0,00:00:00:00:00:14-0,00:00:00:00:00:16-0,00:00:00:00:00:17-0"
1457625132,0,"00:00:00:00:00:15-0,00:00:00:00:00:18-0,00:00:00:00:00:19-0,00:00:00:00:00:11-30,00:00:00:00:00:12-30,00:00:00:00:00:10-0,00:00:00:00:00:13-0,00:00:00:00:00:14-0,00:00:00:00:00:16-0,00:00:00:00:00:17-0"
1457625137,0,"00:00:00:00:00:15-0,00:00:00:00:00:18-0,00:00:00:00:00:19-0,00:00:00:00:00:11-30,00:00:00:00:00:12-30,00:00:00:00:00:10-0,00:00:00:00:00:13-0,00:00:00:00:00:14-0,00:00:00:00:00:16-0,00:00:00:00:00:17-0"
1457625142,0,"00:00:00:00:00:15-0,00:00:00:00:00:18-0,00:00:00:00:00:19-0,00:00:00:00:00:11-30,00:00:00:00:00:12-30,00:00:00:00:00:10-0,00:00:00:00:00:13-0,00:00:00:00:00:14-0,00:00:00:00:00:16-0,00:00:00:00:00:17-0"
1457625147,0,"00:00:00:00:00:15-0,00:00:00:00:00:18-0,00:00:00:00:00:19-0,00:00:00:00:00:11-30,00:00:00:00:00:12-30,00:00:00:00:00:10-0,00:00:00:00:00:13-0,00:00:00:00:00:14-0,00:00:00:00:00:16-0,00:00:00:00:00:17-0"
1457625152,0,"00:00:00:00:00:15-0,00:00:00:00:00:18-0,00:00:00:00:00:19-0,00:00:00:00:00:11-30,00:00:00:00:00:12-30,00:00:00:00:00:10-0,00:00:00:00:00:13-0,00:00:00:00:00:14-0,00:00:00:00:00:16-0,00:00:00:00:00:17-0"
1457625157,0,"00:00:00:00:00:15-0,00:00:00:00:00:18-0,00:00:00:00:00:19-0,00:00:00:00:00:11-30,00:00:00:00:00:12-30,00:00:00:00:00:10-0,00:00:00:00:00:13-0,00:00:00:00:00:14-0,00:00:00:00:00:16-0,00:00:00:00:00:17-0"
1457625162,0,"00:00:00:00:00:15-0,00:00:00:00:00:18-0,00:00:00:00:00:19-0,00:00:00:00:00:11-30,00:00:00:00:00:12-30,00:00:00:00:00:10-0,00:00:00:00:00:13-0,00:00:00:00:00:14-0,00:00:00:00:00:16-0,00:00:00:00:00:17-0"
1457625167,0,"00:00:00:00:00:15-0,00:00:00:00:00:18-0,00:00:00:00:00:19-0,00:00:00:00:00:11-30,00:00:00:00:00:12-30,00:00:00:00:00:10-0,00:00:00:00:00:13-0,00:00:00:00:00:14-0,00:00:00:00:00:16-0,00:00:00:00:00:17-0"
1457625172,0,"00:00:00:00:00:15-0,00:00:00:00:00:18-0,00:00:00:00:00:19-0,00:00:00:00:00:11-30,00:00:00:00:00:12-30,00:00:00:00:00:10-0,00:00:00:00:00:13-0,00:00:00:00:00:14-0,00:00:00:00:00:16-0,00:00:00:00:00:17-0"
1457625177,0,"00:00:00:00:00:15-0,00:00:00:00:00:18-0,00:00:00:00:00:19-0,00:00:00:00:00:11-30,00:00:00:00:00:12-30,00:00:00:00:00:10-0,00:00:00:00:00:13-0,00:00:00:00:00:14-0,00:00:00:00:00:16-0,00:00:00:00:00:17-0"
1457625182,0,"00:00:00:00:00:15-0,00:00:00:00:00:18-0,00:00:00:00:00:19-0,00:00:00:00:00:11-30,00:00:00:00:00:12-30,00:00:00:00:00:10-0,00:00:00:00:00:13-0,00:00:00:00:00:14-0,00:00:00:00:00:16-0,00:00:00:00:00:17-0"
1457625187,0,"00:00:00:00:00:15-0,00:00:00:00:00:18-0,00:00:00:00:00:19-0,00:00:00:00:00:11-30,00:00:00:00:00:12-30,00:00:00:00:00:10-0,00:00:00:00:00:13-0,00:00:00:00:00:14-0,00:00:00:00:00:16-0,00:00:00:00:00:17-0"
1457625192,0,"00:00:00:00:00:15-0,00:00:00:00:00:18-0,00:00:00:00:00:19-0,00:00:00:00:00:11-30,00:00:00:00:00:12-30,00:00:00:00:00:10-0,00:00:00:00:00:13-0,00:00:00:00:00:14-0,00:00:00:00:00:16-0,00:00:00:00:00:17-0"
1457625197,0,"00:00:00:00:00:15-0,00:00:00:00:00:18-0,00:00:00:00:00:19-0,00:00:00:00:00:11-30,00:00:00:00:00:12-30,00:00:00:00:00:10-0,00:00:00:00:00:13-0,00:00:00:00:00:14-0,00:00:00:00:00:16-0,00:00:00:00:00:17-0"
1457625202,0,"00:00:00:00:00:15-0,00:00:00:00:00:18-0,00:00:00:00:00:19-0,00:00:00:00:00:11-30,00:00:00:00:00:12-30,00:00:00:00:00:10-0,00:00:00:00:00:13-0,00:00:00:00:00:14-0,00:00:00:00:00:16-0,00:00:00:00:00:17-0"
1457625207,0,"00:00:00:00:00:15-0,00:00:00:00:00:18-0,00:00:00:00:00:19-0,00:00:00:00:00:11-30,00:00:00:00:00:12-30,00:00:00:00:00:10-0,00:00:00:00:00:13-0,00:00:00:00:00:14-0,00:00:00:00:00:16-0,00:00:00:00:00:17-0"
1457625212,0,"00:00:00:00:00:15-0,00:00:00:00:00:18-0,00:00:00:00:00:19-0,00:00:00:00:00:11-30,00:00:00:00:00:12-30,00:00:00:00:00:10-0,00:00:00:00:00:13-0,00:00:00:00:00:14-0,00:00:00:00:00:16-0,00:00:00:00:00:17-0"
1457625217,0,"00:00:00:00:00:15-0,00:00:00:00:00:18-0,00:00:00:00:00:19-0,00:00:00:00:00:11-30,00:00:00:00:00:12-30,00:00:00:00:00:10-0,00:00:00:00:00:13-0,00:00:00:00:00:14-0,00:00:00:00:00:16-0,00:00:00:00:00:17-0"
1457625222,0,"00:00:00:00:00:15-0,00:00:00:00:00:18-0,00:00:00:00:00:19-0,00:00:00:00:00:11-30,00:00:00:00:00:12-30,00:00:00:00:00:10-0,00:00:00:00:00:13-0,00:00:00:00:00:14-0,00:00:00:00:00:16-0,00:00:00:00:00:17-0"
1457625227,0,"00:00:00:00:00:15-0,00:00:00:00:00:18-0,00:00:00:00:00:19-0,00:00:00:00:00:11-30,00:00:00:00:00:12-30,00:00:00:00:00:10-0,00:00:00:00:00:13-0,00:00:00:00:00:14-0,00:00:00:00:00:16-0,00:00:00:00:00:17-0"
1457625232,0,"00:00:00:00:00:15-0,00:00:00:00:00:18-0,00:00:00:00:00:19-0,00:00:00:00:00:11-30,00:00:00:00:00:12-30,00:00:00:00:00:10-0,00:00:00:00:00:13-0,00:00:00:00:00:14-0,00:00:00:00:00:16-0,00:00:00:00:00:17-0"
1457625237,0,"00:00:00:00:00:15-0,00:00:00:00:00:18-0,00:00:00:00:00:19-0,00:00:00:00:00:11-30,00:00:00:00:00:12-30,00:00:00:00:00:10-0,00:00:00:00:00:13-0,00:00:00:00:00:14-0,00:00:00:00:00:16-0,00:00:00:00:00:17-0"
1457625242,0,"00:00:00:00:00:15-0,00:00:00:00:00:18-0,00:00:00:00:00:19-0,00:00:00:00:00:11-30,00:00:00:00:00:12-30,00:00:00:00:00:10-0,00:00:00:00:00:13-0,00:00:00:00:00:14-0,00:00:00:00:00:16-0,00:00:00:00:00:17-0"
1457625247,0,"00:00:00:00:00:15-0,00:00:00:00:00:18-0,00:00:00:00:00:19-0,00:00:00:00:00:11-30,00:00:00:00:00:12-30,00:00:00:00:00:10-0,00:00:00:00:00:13-0,00:00:00:00:00:14-0,00:00:00:00:00:16-0,00:00:00:00:00:17-0"
1457625252,0,"00:00:00:00:00:15-0,00:00:00:00:00:18-0,00:00:00:00:00:19-0,00:00:00:00:00:11-30,00:00:00:00:00:12-30,00:00:00:00:00:10-0,00:00:00:00:00:13-0,00:00:00:00:00:14-0,00:00:00:00:00:16-0,00:00:00:00:00:17-0"
1457625257,0,"00:00:00:00:00:15-0,00:00:00:00:00:18-0,00:00:00:00:00:19-0,00:00:00:00:00:11-30,00:00:00:00:00:12-30,00:00:00:00:00:10-0,00:00:00:00:00:13-0,00:00:00:00:00:14-0,00:00:00:00:00:16-0,00:00:00:00:00:17-0"
1457625262,0,"00:00:00:00:00:15-0,00:00:00:00:00:18-0,00:00:00:00:00:19-0,00:00:00:00:00:11-30,00:00:00:00:00:12-30,00:00:00:00:00:10-0,00:00:00:00:00:13-0,00:00:00:00:00:14-0,00:00:00:00:00:16-0,00:00:00:00:00:17-0"
1457625267,0,"00:00:00:00:00:15-0,00:00:00:00:00:18-0,00:00:00:00:00:19-0,00:00:00:00:00:11-30,00:00:00:00:00:12-30,00:00:00:00:00:10-0,00:00:00:00:00:13-0,00:00:00:00:00:14-0,00:00:00:00:00:16-0,00:00:00:00:00:17-0"
1457625272,0,"00:00:00:00:00:15-0,00:00:00:00:00:18-0,00:00:00:00:00:19-0,00:00:00:00:00:11-30,00:00:00:00:00:12-30,00:00:00:00:00:10-0,00:00:00:00:00:13-0,00:00:00:00:00:14-0,00:00:00:00:00:16-0,00:00:00:00:00:17-0"
1457625277,0,"00:00:00:00:00:15-0,00:00:00:00:00:18-0,00:00:00:00:00:19-0,00:00:00:00:00:11-30,00:00:00:00:00:12-30,00:00:00:00:00:10-0,00:00:00:00:00:13-0,00:00:00:00:00:14-0,00:00:00:00:00:16-0,00:00:00:00:00:17-0"
1457625282,0,"00:00:00:00:00:15-0,00:00:00:00:00:18-0,00:00:00:00:00:19-0,00:00:00:00:00:11-30,00:00:00:00:00:12-30,00:00:00:00:00:10-0,00:00:00:00:00:13-0,00:00:00:00:00:14-0,00:00:00:00:00:16-0,00:00:00:00:00:17-0"
1457625287,0,"00:00:00:00:00:15-0,00:00:00:00:00:18-0,00:00:00:00:00:19-0,00:00:00:00:00:11-30,00:00:00:00:00:12-30,00:00:00:00:00:10-0,00:00:00:00:00:13-0,00:00:00:00:00:14-0,00:00:00:00:00:16-0,00:00:00:00:00:17-0"
