1457624169,1,00:00:00:00:00:01-16
1457624174,1,00:00:00:00:00:01-16
1457624179,1,00:00:00:00:00:01-16
1457624184,1,00:00:00:00:00:01-16
1457624189,1,00:00:00:00:00:01-25
1457624194,1,00:00:00:00:00:01-25
1457624199,1,00:00:00:00:00:01-45
1457624204,1,00:00:00:00:00:01-45
1457624209,1,00:00:00:00:00:01-45
1457624214,1,00:00:00:00:00:01-45
1457624219,1,00:00:00:00:00:01-55
1457624224,1,00:00:00:00:00:01-55
1457624229,1,00:00:00:00:00:01-65
1457624234,1,00:00:00:00:00:01-85
1457624239,1,00:00:00:00:00:01-85
1457624244,1,00:00:00:00:00:01-85
1457624249,1,00:00:00:00:00:01-85
1457624254,1,00:00:00:00:00:01-85
1457624259,1,00:00:00:00:00:01-85
1457624264,1,00:00:00:00:00:01-85
1457624269,1,"00:00:00:00:00:01-63,00:00:00:00:00:20-35,00:00:00:00:00:16-30,00:00:00:00:00:17-30"
1457624274,1,"00:00:00:00:00:01-63,00:00:00:00:00:20-35,00:00:00:00:00:16-30,00:00:00:00:00:17-30"
1457624279,1,"00:00:00:00:00:01-63,00:00:00:00:00:20-35,00:00:00:00:00:16-30,00:00:00:00:00:17-30"
1457624284,1,"00:00:00:00:00:01-63,00:00:00:00:00:20-35,00:00:00:00:00:16-30,00:00:00:00:00:17-30"
1457624289,1,"00:00:00:00:00:01-63,00:00:00:00:00:20-35"
1457624294,1,"00:00:00:00:00:01-63,00:00:00:00:00:20-35"
1457624300,1,"00:00:00:00:00:01-63,00:00:00:00:00:20-35"
1457624305,1,"00:00:00:00:00:01-63,00:00:00:00:00:20-35"
1457624310,1,"00:00:00:00:00:01-63,00:00:00:00:00:20-35"
1457624315,1,"00:00:00:00:00:01-63,00:00:00:00:00:20-35"
1457624320,1,"00:00:00:00:00:01-63,00:00:00:00:00:20-35"
1457624325,1,"00:00:00:00:00:01-63,00:00:00:00:00:20-35"
1457624330,1,"00:00:00:00:00:01-63,00:00:00:00:00:20-35"
1457624335,1,"00:00:00:00:00:01-63,00:00:00:00:00:20-35"
1457624340,1,"00:00:00:00:00:01-63,00:00:00:00:00:20-35"
1457624345,1,"00:00:00:00:00:01-63,00:00:00:00:00:20-35"
1457624350,1,"00:00:00:00:00:01-63,00:00:00:00:00:20-35"
1457624355,1,"00:00:00:00:00:01-63,00:00:00:00:00:20-35"
1457624360,1,"00:00:00:00:00:01-63,00:00:00:00:00:20-35"
1457624365,1,"00:00:00:00:00:01-63,00:00:00:00:00:20-35"
1457624370,1,"00:00:00:00:00:01-63,00:00:00:00:00:20-35"
1457624375,1,"00:00:00:00:00:01-63,00:00:00:00:00:20-35"
1457624380,1,"00:00:00:00:00:01-63,00:00:00:00:00:20-35"
1457624385,1,"00:00:00:00:00:01-63,00:00:00:00:00:20-35"
1457624390,1,"00:00:00:00:00:01-63,00:00:00:00:00:20-35"
1457624395,1,"00:00:00:00:00:01-63,00:00:00:00:00:20-35"
1457624400,1,"00:00:00:00:00:01-63,00:00:00:00:00:20-35"
1457624405,1,"00:00:00:00:00:01-63,00:00:00:00:00:20-35"
1457624410,1,"00:00:00:00:00:01-63,00:00:00:00:00:20-35"
1457624415,1,"00:00:00:00:00:01-63,00:00:00:00:00:20-35"
1457624420,1,"00:00:00:00:00:01-63,00:00:00:00:00:20-35"
1457624425,1,"00:00:00:00:00:01-63,00:00:00:00:00:20-35"
1457624430,1,"00:00:00:00:00:01-63,00:00:00:00:00:20-35"
1457624435,1,"00:00:00:00:00:01-63,00:00:00:00:00:20-35"
1457624440,1,"00:00:00:00:00:01-63,00:00:00:00:00:20-35"
1457624445,1,"00:00:00:00:00:01-63,00:00:00:00:00:20-35"
1457624450,1,"00:00:00:00:00:01-63,00:00:00:00:00:20-35"
1457624455,1,"00:00:00:00:00:01-63,00:00:00:00:00:20-35"
1457624460,1,"00:00:00:00:00:01-63,00:00:00:00:00:20-35"
1457624465,1,"00:00:00:00:00:01-63,00:00:00:00:00:20-35"
1457624470,1,"00:00:00:00:00:01-63,00:00:00:00:00:20-35"
1457624475,1,"00:00:00:00:00:01-63,00:00:00:00:00:20-35"
1457624480,1,"00:00:00:00:00:01-63,00:00:00:00:00:20-35"
1457624485,1,"00:00:00:00:00:01-63,00:00:00:00:00:20-35"
1457624490,1,"00:00:00:00:00:01-63,00:00:00:00:00:20-35"
1457624495,1,"00:00:00:00:00:01-63,00:00:00:00:00:20-35"
1457624500,1,"00:00:00:00:00:01-63,00:00:00:00:00:20-35"
1457624505,1,"00:00:00:00:00:01-63,00:00:00:00:00:20-35"
1457624510,1,"00:00:00:00:00:01-63,00:00:00:00:00:20-35"
1457624515,1,"00:00:00:00:00:01-63,00:00:00:00:00:20-35"
1457624520,1,"00:00:00:00:00:01-63,00:00:00:00:00:20-35"
1457624525,1,"00:00:00:00:00:01-63,00:00:00:00:00:20-35"
1457624530,1,"00:00:00:00:00:01-63,00:00:00:00:00:20-35"
1457624535,1,"00:00:00:00:00:01-63,00:00:00:00:00:20-35"
1457624540,1,"00:00:00:00:00:01-63,00:00:00:00:00:20-35"
1457624545,1,"00:00:00:00:00:01-63,00:00:00:00:00:20-35"
1457624550,1,"00:00:00:00:00:01-63,00:00:00:00:00:20-35"
1457624555,1,"00:00:00:00:00:01-63,00:00:00:00:00:20-35"
1457624560,1,"00:00:00:00:00:01-63,00:00:00:00:00:20-35"
1457624565,1,"00:00:00:00:00:01-63,00:00:00:00:00:20-35"
1457624570,1,"00:00:00:00:00:01-63,00:00:00:00:00:20-35"
1457624575,1,"00:00:00:00:00:01-63,00:00:00:00:00:20-35"
1457624580,1,"00:00:00:00:00:01-63,00:00:00:00:00:20-35"
1457624585,1,"00:00:00:00:00:01-63,00:00:00:00:00:20-35"
1457624590,1,"00:00:00:00:00:01-63,00:00:00:00:00:20-35"
1457624595,1,"00:00:00:00:00:01-63,00:00:00:00:00:20-35"
1457624600,1,"00:00:00:00:00:01-63,00:00:00:00:00:20-35"
1457624605,1,"00:00:00:00:00:01-63,00:00:00:00:00:20-35"
1457624610,1,"00:00:00:00:00:01-63,00:00:00:00:00:20-35"
1457624615,1,"00:00:00:00:00:01-63,00:00:00:00:00:20-35"
1457624620,1,"00:00:00:00:00:01-63,00:00:00:00:00:20-35"
1457624625,1,"00:00:00:00:00:01-63,00:00:00:00:00:20-35"
1457624630,1,"00:00:00:00:00:01-63,00:00:00:00:00:20-35"
1457624635,1,"00:00:00:00:00:01-63,00:00:00:00:00:20-35"
1457624640,1,"00:00:00:00:00:01-63,00:00:00:00:00:20-35"
1457624645,1,"00:00:00:00:00:01-63,00:00:00:00:00:20-35"
1457624651,1,"00:00:00:00:00:01-63,00:00:00:00:00:20-35"
1457624656,1,"00:00:00:00:00:01-63,00:00:00:00:00:20-35"
1457624661,1,"00:00:00:00:00:01-63,00:00:00:00:00:20-35"
1457624666,1,"00:00:00:00:00:01-63,00:00:00:00:00:20-35"
1457624671,1,"00:00:00:00:00:01-63,00:00:00:00:00:20-35"
1457624676,1,"00:00:00:00:00:01-63,00:00:00:00:00:20-35"
1457624681,1,"00:00:00:00:00:01-63,00:00:00:00:00:20-35"
1457624686,1,"00:00:00:00:00:01-63,00:00:00:00:00:20-35"
1457624691,1,"00:00:00:00:00:01-63,00:00:00:00:00:20-35"
1457624696,1,"00:00:00:00:00:01-63,00:00:00:00:00:20-35"
1457624701,1,"00:00:00:00:00:01-63,00:00:00:00:00:20-35"
1457624706,1,"00:00:00:00:00:01-63,00:00:00:00:00:20-35"
1457624711,1,"00:00:00:00:00:01-63,00:00:00:00:00:20-35"
1457624716,1,"00:00:00:00:00:01-63,00:00:00:00:00:20-35"
1457624721,1,"00:00:00:00:00:01-63,00:00:00:00:00:20-35"
1457624726,1,"00:00:00:00:00:01-63,00:00:00:00:00:20-35"
1457624731,1,"00:00:00:00:00:01-63,00:00:00:00:00:20-35"
1457624736,1,"00:00:00:00:00:01-63,00:00:00:00:00:20-35"
1457624741,1,"00:00:00:00:00:01-63,00:00:00:00:00:20-35"
1457624746,1,"00:00:00:00:00:01-63,00:00:00:00:00:20-35"
1457624751,1,"00:00:00:00:00:01-63,00:00:00:00:00:20-35"
1457624756,1,"00:00:00:00:00:01-63,00:00:00:00:00:20-35"
1457624761,1,"00:00:00:00:00:01-63,00:00:00:00:00:20-35"
1457624766,1,"00:00:00:00:00:01-63,00:00:00:00:00:20-35"
1457624771,1,"00:00:00:00:00:01-63,00:00:00:00:00:20-35"
1457624776,1,"00:00:00:00:00:01-63,00:00:00:00:00:20-35"
1457624781,1,"00:00:00:00:00:01-63,00:00:00:00:00:20-35"
1457624786,1,"00:00:00:00:00:01-63,00:00:00:00:00:20-35"
1457624791,1,"00:00:00:00:00:01-63,00:00:00:00:00:20-35"
1457624796,1,"00:00:00:00:00:01-63,00:00:00:00:00:20-35"
1457624801,1,"00:00:00:00:00:01-63,00:00:00:00:00:20-35"
1457624806,1,"00:00:00:00:00:01-63,00:00:00:00:00:20-35"
1457624811,1,"00:00:00:00:00:01-63,00:00:00:00:00:20-35"
1457624816,1,"00:00:00:00:00:01-63,00:00:00:00:00:20-35"
1457624821,1,"00:00:00:00:00:01-63,00:00:00:00:00:20-35"
1457624826,1,"00:00:00:00:00:01-63,00:00:00:00:00:20-35"
1457624831,1,"00:00:00:00:00:01-63,00:00:00:00:00:20-35"
1457624836,1,"00:00:00:00:00:01-63,00:00:00:00:00:20-35"
1457624841,1,"00:00:00:00:00:01-63,00:00:00:00:00:20-35"
1457624846,1,"00:00:00:00:00:01-63,00:00:00:00:00:20-35"
1457624851,1,"00:00:00:00:00:01-63,00:00:00:00:00:20-35"
1457624856,1,"00:00:00:00:00:01-63,00:00:00:00:00:20-35"
1457624861,1,"00:00:00:00:00:01-63,00:00:00:00:00:20-35"
1457624866,1,"00:00:00:00:00:01-63,00:00:00:00:00:20-35"
1457624871,1,"00:00:00:00:00:01-63,00:00:00:00:00:20-35"
1457624876,1,"00:00:00:00:00:01-63,00:00:00:00:00:20-35"
1457624881,1,"00:00:00:00:00:01-63,00:00:00:00:00:20-35"
1457624886,1,"00:00:00:00:00:01-63,00:00:00:00:00:20-35"
1457624891,1,"00:00:00:00:00:01-63,00:00:00:00:00:20-35"
1457624896,1,"00:00:00:00:00:01-63,00:00:00:00:00:20-35"
1457624901,1,"00:00:00:00:00:01-63,00:00:00:00:00:20-35"
1457624906,1,"00:00:00:00:00:01-63,00:00:00:00:00:20-35"
1457624911,1,"00:00:00:00:00:01-63,00:00:00:00:00:20-35"
1457624916,1,"00:00:00:00:00:01-63,00:00:00:00:00:20-35"
1457624921,1,"00:00:00:00:00:01-63,00:00:00:00:00:20-35"
1457624926,1,"00:00:00:00:00:01-63,00:00:00:00:00:20-35"
1457624931,1,"00:00:00:00:00:01-63,00:00:00:00:00:20-35"
1457624936,1,"00:00:00:00:00:01-63,00:00:00:00:00:20-35"
1457624941,1,"00:00:00:00:00:01-63,00:00:00:00:00:20-35"
1457624946,1,"00:00:00:00:00:01-63,00:00:00:00:00:20-35"
1457624951,1,"00:00:00:00:00:01-63,00:00:00:00:00:20-35"
1457624956,1,"00:00:00:00:00:01-63,00:00:00:00:00:20-35"
1457624961,1,"00:00:00:00:00:01-63,00:00:00:00:00:20-35"
1457624966,1,"00:00:00:00:00:01-63,00:00:00:00:00:20-35"
1457624971,1,"00:00:00:00:00:01-63,00:00:00:00:00:20-35"
1457624976,1,"00:00:00:00:00:01-63,00:00:00:00:00:20-35"
1457624981,1,"00:00:00:00:00:01-63,00:00:00:00:00:20-35"
1457624986,1,"00:00:00:00:00:01-63,00:00:00:00:00:20-35"
1457624991,1,"00:00:00:00:00:01-63,00:00:00:00:00:20-35"
1457624996,1,"00:00:00:00:00:01-63,00:00:00:00:00:20-35"
1457625001,1,"00:00:00:00:00:01-63,00:00:00:00:00:20-35"
1457625006,1,"00:00:00:00:00:01-63,00:00:00:00:00:20-35"
1457625012,1,"00:00:00:00:00:01-63,00:00:00:00:00:20-35"
1457625017,1,"00:00:00:00:00:01-63,00:00:00:00:00:20-35"
1457625022,1,"00:00:00:00:00:01-63,00:00:00:00:00:20-35"
1457625027,1,"00:00:00:00:00:01-63,00:00:00:00:00:20-35"
1457625032,1,"00:00:00:00:00:01-63,00:00:00:00:00:20-35"
1457625037,1,"00:00:00:00:00:01-63,00:00:00:00:00:20-35"
1457625042,1,"00:00:00:00:00:01-63,00:00:00:00:00:20-35"
1457625047,1,"00:00:00:00:00:01-63,00:00:00:00:00:20-35"
1457625052,1,"00:00:00:00:00:01-63,00:00:00:00:00:20-35"
1457625057,1,"00:00:00:00:00:01-63,00:00:00:00:00:20-35"
1457625062,1,"00:00:00:00:00:01-63,00:00:00:00:00:20-35"
1457625067,1,"00:00:00:00:00:01-63,00:00:00:00:00:20-35"
1457625072,1,"00:00:00:00:00:01-63,00:00:00:00:00:20-35"
1457625077,1,"00:00:00:00:00:01-63,00:00:00:00:00:20-35"
1457625082,1,"00:00:00:00:00:01-63,00:00:00:00:00:20-35"
1457625087,1,"00:00:00:00:00:01-63,00:00:00:00:00:20-35"
1457625092,1,"00:00:00:00:00:01-63,00:00:00:00:00:20-35"
1457625097,1,"00:00:00:00:00:01-63,00:00:00:00:00:20-35"
1457625102,1,"00:00:00:00:00:01-63,00:00:00:00:00:20-35"
1457625107,1,"00:00:00:00:00:01-63,00:00:00:00:00:20-35"
1457625112,1,"00:00:00:00:00:01-63,00:00:00:00:00:20-35"
1457625117,1,"00:00:00:00:00:01-63,00:00:00:00:00:20-35"
1457625122,1,"00:00:00:00:00:01-63,00:00:00:00:00:20-35"
1457625127,1,"00:00:00:00:00:01-63,00:00:00:00:00:20-35"
1457625132,1,"00:00:00:00:00:01-63,00:00:00:00:00:20-35"
1457625137,1,"00:00:00:00:00:01-63,00:00:00:00:00:20-35"
1457625142,1,"00:00:00:00:00:01-63,00:00:00:00:00:20-35"
1457625147,1,"00:00:00:00:00:01-63,00:00:00:00:00:20-35"
1457625152,1,"00:00:00:00:00:01-63,00:00:00:00:00:20-35"
1457625157,1,"00:00:00:00:00:01-63,00:00:00:00:00:20-35"
1457625162,1,"00:00:00:00:00:01-63,00:00:00:00:00:20-35"
1457625167,1,"00:00:00:00:00:01-63,00:00:00:00:00:20-35"
1457625172,1,"00:00:00:00:00:01-63,00:00:00:00:00:20-35"
1457625177,1,"00:00:00:00:00:01-63,00:00:00:00:00:20-35"
1457625182,1,"00:00:00:00:00:01-63,00:00:00:00:00:20-35"
1457625187,1,"00:00:00:00:00:01-63,00:00:00:00:00:20-35"
1457625192,1,"00:00:00:00:00:01-63,00:00:00:00:00:20-35"
1457625197,1,"00:00:00:00:00:01-63,00:00:00:00:00:20-35"
1457625202,1,"00:00:00:00:00:01-63,00:00:00:00:00:20-35"
1457625207,1,"00:00:00:00:00:01-63,00:00:00:00:00:20-35"
1457625212,1,"00:00:00:00:00:01-63,00:00:00:00:00:20-35"
1457625217,1,"00:00:00:00:00:01-63,00:00:00:00:00:20-35"
1457625222,1,"00:00:00:00:00:01-63,00:00:00:00:00:20-35"
1457625227,1,"00:00:00:00:00:01-63,00:00:00:00:00:20-35"
1457625232,1,"00:00:00:00:00:01-63,00:00:00:00:00:20-35"
1457625237,1,"00:00:00:00:00:01-63,00:00:00:00:00:20-35"
1457625242,1,"00:00:00:00:00:01-63,00:00:00:00:00:20-35"
1457625247,1,"00:00:00:00:00:01-63,00:00:00:00:00:20-35"
1457625252,1,"00:00:00:00:00:01-63,00:00:00:00:00:20-35"
1457625257,1,"00:00:00:00:00:01-63,00:00:00:00:00:20-35"
1457625262,1,"00:00:00:00:00:01-63,00:00:00:00:00:20-35"
1457625267,1,"00:00:00:00:00:01-63,00:00:00:00:00:20-35"
1457625272,1,"00:00:00:00:00:01-63,00:00:00:00:00:20-35"
1457625277,1,"00:00:00:00:00:01-63,00:00:00:00:00:20-35"
1457625282,1,"00:00:00:00:00:01-63,00:00:00:00:00:20-35"
1457625287,1,"00:00:00:00:00:01-63,00:00:00:00:00:20-35"
