1457624169,4,"00:00:00:00:00:08-7,00:00:00:00:00:04-7"
1457624174,4,"00:00:00:00:00:08-16,00:00:00:00:00:04-7"
1457624179,4,"00:00:00:00:00:08-25,00:00:00:00:00:04-16"
1457624184,4,"00:00:00:00:00:08-25,00:00:00:00:00:04-25"
1457624189,4,"00:00:00:00:00:08-25,00:00:00:00:00:04-25"
1457624194,4,"00:00:00:00:00:08-35,00:00:00:00:00:04-35"
1457624199,4,"00:00:00:00:00:08-35,00:00:00:00:00:04-45"
1457624204,4,"00:00:00:00:00:08-45,00:00:00:00:00:04-65"
1457624209,4,"00:00:00:00:00:08-45,00:00:00:00:00:04-65"
1457624214,4,"00:00:00:00:00:08-45,00:00:00:00:00:04-65"
1457624219,4,"00:00:00:00:00:08-45,00:00:00:00:00:04-65"
1457624224,4,"00:00:00:00:00:08-45,00:00:00:00:00:04-65"
1457624229,4,"00:00:00:00:00:08-55,00:00:00:00:00:04-65"
1457624234,4,"00:00:00:00:00:08-55,00:00:00:00:00:04-65"
1457624239,4,"00:00:00:00:00:08-55,00:00:00:00:00:04-65"
1457624244,4,"00:00:00:00:00:08-55,00:00:00:00:00:04-65"
1457624249,4,"00:00:00:00:00:08-55,00:00:00:00:00:04-65"
1457624254,4,"00:00:00:00:00:08-55,00:00:00:00:00:04-65"
1457624259,4,"00:00:00:00:00:08-55,00:00:00:00:00:04-65"
1457624264,4,"00:00:00:00:00:08-55,00:00:00:00:00:04-65"
1457624269,4,"00:00:00:00:00:08-55,00:00:00:00:00:04-65"
1457624274,4,"00:00:00:00:00:08-55,00:00:00:00:00:04-65"
1457624279,4,"00:00:00:00:00:08-55,00:00:00:00:00:04-65"
1457624284,4,"00:00:00:00:00:08-55,00:00:00:00:00:04-65"
1457624289,4,"00:00:00:00:00:08-55,00:00:00:00:00:04-65"
1457624294,4,"00:00:00:00:00:08-55,00:00:00:00:00:04-65"
1457624300,4,"00:00:00:00:00:08-55,00:00:00:00:00:04-65"
1457624305,4,"00:00:00:00:00:08-55,00:00:00:00:00:04-65"
1457624310,4,"00:00:00:00:00:08-55,00:00:00:00:00:04-65"
1457624315,4,"00:00:00:00:00:08-55,00:00:00:00:00:04-65"
1457624320,4,"00:00:00:00:00:08-55,00:00:00:00:00:04-65"
1457624325,4,"00:00:00:00:00:08-55,00:00:00:00:00:04-65"
1457624330,4,"00:00:00:00:00:08-55,00:00:00:00:00:04-65"
1457624335,4,"00:00:00:00:00:08-55,00:00:00:00:00:04-65"
1457624340,4,"00:00:00:00:00:08-55,00:00:00:00:00:04-65"
1457624345,4,"00:00:00:00:00:08-55,00:00:00:00:00:04-65"
1457624350,4,"00:00:00:00:00:08-55,00:00:00:00:00:04-65"
1457624355,4,"00:00:00:00:00:08-55,00:00:00:00:00:04-65"
1457624360,4,"00:00:00:00:00:08-55,00:00:00:00:00:04-65"
1457624365,4,"00:00:00:00:00:08-55,00:00:00:00:00:04-65"
1457624370,4,"00:00:00:00:00:08-55,00:00:00:00:00:04-65"
1457624375,4,"00:00:00:00:00:08-55,00:00:00:00:00:04-65"
1457624380,4,"00:00:00:00:00:08-55,00:00:00:00:00:04-65"
1457624385,4,"00:00:00:00:00:08-55,00:00:00:00:00:04-65"
1457624390,4,"00:00:00:00:00:08-55,00:00:00:00:00:04-65"
1457624395,4,"00:00:00:00:00:08-55,00:00:00:00:00:04-65"
1457624400,4,"00:00:00:00:00:08-55,00:00:00:00:00:04-65"
1457624405,4,"00:00:00:00:00:08-55,00:00:00:00:00:04-65"
1457624410,4,"00:00:00:00:00:08-55,00:00:00:00:00:04-65"
1457624415,4,"00:00:00:00:00:08-55,00:00:00:00:00:04-65"
1457624420,4,"00:00:00:00:00:08-55,00:00:00:00:00:04-65"
1457624425,4,"00:00:00:00:00:08-55,00:00:00:00:00:04-65"
1457624430,4,"00:00:00:00:00:08-55,00:00:00:00:00:04-65"
1457624435,4,"00:00:00:00:00:08-55,00:00:00:00:00:04-65"
1457624440,4,"00:00:00:00:00:08-55,00:00:00:00:00:04-65"
1457624445,4,"00:00:00:00:00:08-55,00:00:00:00:00:04-65"
1457624450,4,"00:00:00:00:00:08-55,00:00:00:00:00:04-65"
1457624455,4,"00:00:00:00:00:08-55,00:00:00:00:00:04-65"
1457624460,4,"00:00:00:00:00:08-55,00:00:00:00:00:04-65"
1457624465,4,"00:00:00:00:00:08-55,00:00:00:00:00:04-65"
1457624470,4,"00:00:00:00:00:08-55,00:00:00:00:00:04-65"
1457624475,4,"00:00:00:00:00:08-55,00:00:00:00:00:04-65"
1457624480,4,"00:00:00:00:00:08-55,00:00:00:00:00:04-65"
1457624485,4,"00:00:00:00:00:08-55,00:00:00:00:00:04-65"
1457624490,4,"00:00:00:00:00:08-55,00:00:00:00:00:04-65"
1457624495,4,"00:00:00:00:00:08-55,00:00:00:00:00:04-65"
1457624500,4,"00:00:00:00:00:08-55,00:00:00:00:00:04-65"
1457624505,4,"00:00:00:00:00:08-55,00:00:00:00:00:04-65"
1457624510,4,"00:00:00:00:00:08-55,00:00:00:00:00:04-65"
1457624515,4,"00:00:00:00:00:08-55,00:00:00:00:00:04-65"
1457624520,4,"00:00:00:00:00:08-55,00:00:00:00:00:04-65"
1457624525,4,"00:00:00:00:00:08-55,00:00:00:00:00:04-65"
1457624530,4,"00:00:00:00:00:08-55,00:00:00:00:00:04-65"
1457624535,4,"00:00:00:00:00:08-55,00:00:00:00:00:04-65"
1457624540,4,"00:00:00:00:00:08-55,00:00:00:00:00:04-65"
1457624545,4,"00:00:00:00:00:08-55,00:00:00:00:00:04-65"
1457624550,4,"00:00:00:00:00:08-55,00:00:00:00:00:04-65"
1457624555,4,"00:00:00:00:00:08-55,00:00:00:00:00:04-65"
1457624560,4,"00:00:00:00:00:08-55,00:00:00:00:00:04-65"
1457624565,4,"00:00:00:00:00:08-55,00:00:00:00:00:04-65"
1457624570,4,"00:00:00:00:00:08-55,00:00:00:00:00:04-65"
1457624575,4,"00:00:00:00:00:08-55,00:00:00:00:00:04-65"
1457624580,4,"00:00:00:00:00:08-55,00:00:00:00:00:04-65"
1457624585,4,"00:00:00:00:00:08-55,00:00:00:00:00:04-65"
1457624590,4,"00:00:00:00:00:08-55,00:00:00:00:00:04-65"
1457624595,4,"00:00:00:00:00:08-55,00:00:00:00:00:04-65"
1457624600,4,"00:00:00:00:00:08-55,00:00:00:00:00:04-65"
1457624605,4,"00:00:00:00:00:08-55,00:00:00:00:00:04-65"
1457624610,4,"00:00:00:00:00:08-55,00:00:00:00:00:04-65"
1457624615,4,"00:00:00:00:00:08-55,00:00:00:00:00:04-65"
1457624620,4,"00:00:00:00:00:08-55,00:00:00:00:00:04-65"
1457624625,4,"00:00:00:00:00:08-55,00:00:00:00:00:04-65"
1457624630,4,"00:00:00:00:00:08-55,00:00:00:00:00:04-65"
1457624635,4,"00:00:00:00:00:08-55,00:00:00:00:00:04-65"
1457624640,4,"00:00:00:00:00:08-55,00:00:00:00:00:04-65"
1457624645,4,"00:00:00:00:00:08-55,00:00:00:00:00:04-65"
1457624651,4,"00:00:00:00:00:08-55,00:00:00:00:00:04-65"
1457624656,4,"00:00:00:00:00:08-55,00:00:00:00:00:04-65"
1457624661,4,"00:00:00:00:00:08-55,00:00:00:00:00:04-65"
1457624666,4,"00:00:00:00:00:08-55,00:00:00:00:00:04-65"
1457624671,4,"00:00:00:00:00:08-55,00:00:00:00:00:04-65"
1457624676,4,"00:00:00:00:00:08-55,00:00:00:00:00:04-65"
1457624681,4,"00:00:00:00:00:08-55,00:00:00:00:00:04-65"
1457624686,4,"00:00:00:00:00:08-55,00:00:00:00:00:04-65"
1457624691,4,"00:00:00:00:00:08-55,00:00:00:00:00:04-65"
1457624696,4,"00:00:00:00:00:08-55,00:00:00:00:00:04-65"
1457624701,4,"00:00:00:00:00:08-55,00:00:00:00:00:04-65"
1457624706,4,"00:00:00:00:00:08-55,00:00:00:00:00:04-65"
1457624711,4,"00:00:00:00:00:08-55,00:00:00:00:00:04-65"
1457624716,4,"00:00:00:00:00:08-55,00:00:00:00:00:04-65"
1457624721,4,"00:00:00:00:00:08-55,00:00:00:00:00:04-65"
1457624726,4,"00:00:00:00:00:08-55,00:00:00:00:00:04-65"
1457624731,4,"00:00:00:00:00:08-55,00:00:00:00:00:04-65"
1457624736,4,"00:00:00:00:00:08-55,00:00:00:00:00:04-65"
1457624741,4,"00:00:00:00:00:08-55,00:00:00:00:00:04-65"
1457624746,4,"00:00:00:00:00:08-55,00:00:00:00:00:04-65"
1457624751,4,"00:00:00:00:00:08-55,00:00:00:00:00:04-65"
1457624756,4,"00:00:00:00:00:08-55,00:00:00:00:00:04-65"
1457624761,4,"00:00:00:00:00:08-55,00:00:00:00:00:04-65"
1457624766,4,"00:00:00:00:00:08-55,00:00:00:00:00:04-65"
1457624771,4,"00:00:00:00:00:08-55,00:00:00:00:00:04-65"
1457624776,4,"00:00:00:00:00:08-55,00:00:00:00:00:04-65"
1457624781,4,"00:00:00:00:00:08-55,00:00:00:00:00:04-65"
1457624786,4,"00:00:00:00:00:08-55,00:00:00:00:00:04-65"
1457624791,4,"00:00:00:00:00:08-55,00:00:00:00:00:04-65"
1457624796,4,"00:00:00:00:00:08-55,00:00:00:00:00:04-65"
1457624801,4,"00:00:00:00:00:08-55,00:00:00:00:00:04-65"
1457624806,4,"00:00:00:00:00:08-55,00:00:00:00:00:04-65"
1457624811,4,"00:00:00:00:00:08-55,00:00:00:00:00:04-65"
1457624816,4,"00:00:00:00:00:08-55,00:00:00:00:00:04-65"
1457624821,4,"00:00:00:00:00:08-55,00:00:00:00:00:04-65"
1457624826,4,"00:00:00:00:00:08-55,00:00:00:00:00:04-65"
1457624831,4,"00:00:00:00:00:08-55,00:00:00:00:00:04-65"
1457624836,4,"00:00:00:00:00:08-55,00:00:00:00:00:04-65"
1457624841,4,"00:00:00:00:00:08-55,00:00:00:00:00:04-65"
1457624846,4,"00:00:00:00:00:08-55,00:00:00:00:00:04-65"
1457624851,4,"00:00:00:00:00:08-55,00:00:00:00:00:04-65"
1457624856,4,"00:00:00:00:00:08-55,00:00:00:00:00:04-65"
1457624861,4,"00:00:00:00:00:08-55,00:00:00:00:00:04-65"
1457624866,4,"00:00:00:00:00:08-55,00:00:00:00:00:04-65"
1457624871,4,"00:00:00:00:00:08-55,00:00:00:00:00:04-65"
1457624876,4,"00:00:00:00:00:08-55,00:00:00:00:00:04-65"
1457624881,4,"00:00:00:00:00:08-55,00:00:00:00:00:04-65"
1457624886,4,"00:00:00:00:00:08-55,00:00:00:00:00:04-65"
1457624891,4,"00:00:00:00:00:08-55,00:00:00:00:00:04-65"
1457624896,4,"00:00:00:00:00:08-55,00:00:00:00:00:04-65"
1457624901,4,"00:00:00:00:00:08-55,00:00:00:00:00:04-65"
1457624906,4,"00:00:00:00:00:08-55,00:00:00:00:00:04-65"
1457624911,4,"00:00:00:00:00:08-55,00:00:00:00:00:04-65"
1457624916,4,"00:00:00:00:00:08-55,00:00:00:00:00:04-65"
1457624921,4,"00:00:00:00:00:08-55,00:00:00:00:00:04-65"
1457624926,4,"00:00:00:00:00:08-55,00:00:00:00:00:04-65"
1457624931,4,"00:00:00:00:00:08-55,00:00:00:00:00:04-65"
1457624936,4,"00:00:00:00:00:08-55,00:00:00:00:00:04-65"
1457624941,4,"00:00:00:00:00:08-55,00:00:00:00:00:04-65"
1457624946,4,"00:00:00:00:00:08-55,00:00:00:00:00:04-65"
1457624951,4,"00:00:00:00:00:08-55,00:00:00:00:00:04-65"
1457624956,4,"00:00:00:00:00:08-55,00:00:00:00:00:04-65"
1457624961,4,"00:00:00:00:00:08-55,00:00:00:00:00:04-65"
1457624966,4,"00:00:00:00:00:08-55,00:00:00:00:00:04-65"
1457624971,4,"00:00:00:00:00:08-55,00:00:00:00:00:04-65"
1457624976,4,"00:00:00:00:00:08-55,00:00:00:00:00:04-65"
1457624981,4,"00:00:00:00:00:08-55,00:00:00:00:00:04-65"
1457624986,4,"00:00:00:00:00:08-55,00:00:00:00:00:04-65"
1457624991,4,"00:00:00:00:00:08-55,00:00:00:00:00:04-65"
1457624996,4,"00:00:00:00:00:08-55,00:00:00:00:00:04-65"
1457625001,4,"00:00:00:00:00:08-55,00:00:00:00:00:04-65"
1457625006,4,"00:00:00:00:00:08-55,00:00:00:00:00:04-65"
1457625012,4,"00:00:00:00:00:08-55,00:00:00:00:00:04-65"
1457625017,4,"00:00:00:00:00:08-55,00:00:00:00:00:04-65"
1457625022,4,"00:00:00:00:00:08-55,00:00:00:00:00:04-65"
1457625027,4,"00:00:00:00:00:08-55,00:00:00:00:00:04-65"
1457625032,4,"00:00:00:00:00:08-55,00:00:00:00:00:04-65"
1457625037,4,"00:00:00:00:00:08-55,00:00:00:00:00:04-65"
1457625042,4,"00:00:00:00:00:08-55,00:00:00:00:00:04-65"
1457625047,4,"00:00:00:00:00:08-55,00:00:00:00:00:04-65"
1457625052,4,"00:00:00:00:00:08-55,00:00:00:00:00:04-65"
1457625057,4,"00:00:00:00:00:08-55,00:00:00:00:00:04-65"
1457625062,4,"00:00:00:00:00:08-55,00:00:00:00:00:04-65"
1457625067,4,"00:00:00:00:00:08-55,00:00:00:00:00:04-65"
1457625072,4,"00:00:00:00:00:08-55,00:00:00:00:00:04-65"
1457625077,4,"00:00:00:00:00:08-55,00:00:00:00:00:04-65"
1457625082,4,"00:00:00:00:00:08-55,00:00:00:00:00:04-65"
1457625087,4,"00:00:00:00:00:08-55,00:00:00:00:00:04-65"
1457625092,4,"00:00:00:00:00:08-55,00:00:00:00:00:04-65"
1457625097,4,"00:00:00:00:00:08-55,00:00:00:00:00:04-65"
1457625102,4,"00:00:00:00:00:08-55,00:00:00:00:00:04-65"
1457625107,4,"00:00:00:00:00:08-55,00:00:00:00:00:04-65"
1457625112,4,"00:00:00:00:00:08-55,00:00:00:00:00:04-65"
1457625117,4,"00:00:00:00:00:08-55,00:00:00:00:00:04-65"
1457625122,4,"00:00:00:00:00:08-55,00:00:00:00:00:04-65"
1457625127,4,"00:00:00:00:00:08-55,00:00:00:00:00:04-65"
1457625132,4,"00:00:00:00:00:08-55,00:00:00:00:00:04-65"
1457625137,4,"00:00:00:00:00:08-55,00:00:00:00:00:04-65"
1457625142,4,"00:00:00:00:00:08-55,00:00:00:00:00:04-65"
1457625147,4,"00:00:00:00:00:08-55,00:00:00:00:00:04-65"
1457625152,4,"00:00:00:00:00:08-55,00:00:00:00:00:04-65"
1457625157,4,"00:00:00:00:00:08-55,00:00:00:00:00:04-65"
1457625162,4,"00:00:00:00:00:08-55,00:00:00:00:00:04-65"
1457625167,4,"00:00:00:00:00:08-55,00:00:00:00:00:04-65"
1457625172,4,"00:00:00:00:00:08-55,00:00:00:00:00:04-65"
1457625177,4,"00:00:00:00:00:08-55,00:00:00:00:00:04-65"
1457625182,4,"00:00:00:00:00:08-55,00:00:00:00:00:04-65"
1457625187,4,"00:00:00:00:00:08-55,00:00:00:00:00:04-65"
1457625192,4,"00:00:00:00:00:08-55,00:00:00:00:00:04-65"
1457625197,4,"00:00:00:00:00:08-55,00:00:00:00:00:04-65"
1457625202,4,"00:00:00:00:00:08-55,00:00:00:00:00:04-65"
1457625207,4,"00:00:00:00:00:08-55,00:00:00:00:00:04-65"
1457625212,4,"00:00:00:00:00:08-55,00:00:00:00:00:04-65"
1457625217,4,"00:00:00:00:00:08-55,00:00:00:00:00:04-65"
1457625222,4,"00:00:00:00:00:08-55,00:00:00:00:00:04-65"
1457625227,4,"00:00:00:00:00:08-55,00:00:00:00:00:04-65"
1457625232,4,"00:00:00:00:00:08-55,00:00:00:00:00:04-65"
1457625237,4,"00:00:00:00:00:08-55,00:00:00:00:00:04-65"
1457625242,4,"00:00:00:00:00:08-55,00:00:00:00:00:04-65"
1457625247,4,"00:00:00:00:00:08-55,00:00:00:00:00:04-65"
1457625252,4,"00:00:00:00:00:08-55,00:00:00:00:00:04-65"
1457625257,4,"00:00:00:00:00:08-55,00:00:00:00:00:04-65"
1457625262,4,"00:00:00:00:00:08-55,00:00:00:00:00:04-65"
1457625267,4,"00:00:00:00:00:08-55,00:00:00:00:00:04-65"
1457625272,4,"00:00:00:00:00:08-55,00:00:00:00:00:04-65"
1457625277,4,"00:00:00:00:00:08-55,00:00:00:00:00:04-65"
1457625282,4,"00:00:00:00:00:08-55,00:00:00:00:00:04-65"
1457625287,4,"00:00:00:00:00:08-55,00:00:00:00:00:04-65"
