0,0,0,
1,0,0,
2,0,0,
3,0,0,
4,0,0,
5,0,0,
6,0,0,
7,0,0,
8,0,0,
9,0,0,
10,0,0,
11,0,0,
12,0,0,
13,0,0,
14,0,0,
15,0,0,
16,0,0,
17,0,0,
18,0,0,
19,0,0,
20,0,0,
21,0,0,
22,0,0,
23,0,0,
24,0,0,
25,0,0,
26,0,0,
27,0,0,
28,0,0,
29,0,0,
30,0,0,
31,0,0,
32,0,0,
33,0,0,
34,0,0,
35,0,0,
36,0,0,
37,0,0,
38,0,0,
39,0,0,
41,0,0,
42,0,0,
43,0,0,
44,0,0,
45,0,0,
46,0,0,
47,0,0,
48,0,0,
49,0,0,
50,5.91831942999,1,3:5.91831942999
51,10.5490962998,1,3:10.5490962998
52,10.4444817428,1,3:10.4444817428
53,10.471351557,1,3:10.471351557
54,10.5916302112,1,3:10.5916302112
55,10.4318132737,1,3:10.4318132737
56,10.6038699841,1,3:10.6038699841
57,10.4527765614,1,3:10.4527765614
58,10.4295266728,1,3:10.4295266728
59,10.6238102229,1,3:10.6238102229
60,10.3607956796,1,3:10.3607956796
61,15.9204869513,1,3:15.9204869513
62,10.2740651781,1,3:10.2740651781
63,10.4753969419,1,3:10.4753969419
64,10.6238102229,1,3:10.6238102229
65,10.485488454,1,3:10.485488454
66,10.4845201557,1,3:10.4845201557
67,10.6312736013,1,3:10.6312736013
68,10.4742380281,1,3:10.4742380281
69,10.5814010215,1,3:10.5814010215
70,10.4334047276,1,3:10.4334047276
71,10.4673796695,1,3:10.4673796695
72,10.5931009636,1,3:10.5931009636
73,10.4648993789,1,3:10.4648993789
74,10.5823690046,1,3:10.5823690046
75,10.4435992583,1,3:10.4435992583
76,10.4534177233,1,3:10.4534177233
77,10.6183897004,1,3:10.6183897004
78,10.4525141191,1,3:10.4525141191
80,9.02723272645,1,3:9.02723272645
81,0,0,
82,0,0,
83,0,0,
84,0,0,
85,0,0,
86,0,0,
87,0,0,
88,0,0,
89,0,0,
90,0,0,
91,0,0,
92,0,0,
93,0,0,
94,0,0,
95,0,0,
96,0,0,
97,0,0,
98,0,0,
99,0,0,
100,0,0,
101,0,0,
102,0,0,
103,0,0,
104,0,0,
105,0,0,
106,0,0,
107,0,0,
