8,1,00:00:00:00:00:01-0
10,1,00:00:00:00:00:01-0
12,1,00:00:00:00:00:01-0
14,1,00:00:00:00:00:01-0
16,1,00:00:00:00:00:01-0
18,1,00:00:00:00:00:01-0
20,1,00:00:00:00:00:01-0
22,1,00:00:00:00:00:01-0
24,1,00:00:00:00:00:01-0
26,1,00:00:00:00:00:01-0
28,1,00:00:00:00:00:01-0
30,1,00:00:00:00:00:01-0
32,1,00:00:00:00:00:01-0
34,1,00:00:00:00:00:01-0
36,1,00:00:00:00:00:01-0
38,1,00:00:00:00:00:01-0
40,1,00:00:00:00:00:01-0
42,1,00:00:00:00:00:01-0
44,1,00:00:00:00:00:01-0
46,1,00:00:00:00:00:01-0
48,1,00:00:00:00:00:01-0
50,1,00:00:00:00:00:01-0
52,1,00:00:00:00:00:01-0
54,1,00:00:00:00:00:01-0
56,1,00:00:00:00:00:01-7
58,1,00:00:00:00:00:01-7
60,1,00:00:00:00:00:01-7
62,1,00:00:00:00:00:01-7
64,1,00:00:00:00:00:01-7
66,1,00:00:00:00:00:01-7
68,1,00:00:00:00:00:01-7
70,1,00:00:00:00:00:01-7
72,1,00:00:00:00:00:01-7
74,1,00:00:00:00:00:01-7
76,1,00:00:00:00:00:01-7
79,1,00:00:00:00:00:01-7
81,1,00:00:00:00:00:01-7
83,1,00:00:00:00:00:01-7
85,1,00:00:00:00:00:01-7
87,1,00:00:00:00:00:01-7
89,1,00:00:00:00:00:01-7
91,1,00:00:00:00:00:01-7
93,1,00:00:00:00:00:01-0
95,1,00:00:00:00:00:01-0
97,1,00:00:00:00:00:01-0
99,1,00:00:00:00:00:01-0
101,1,00:00:00:00:00:01-0
103,1,00:00:00:00:00:01-0
105,1,00:00:00:00:00:01-0
107,1,00:00:00:00:00:01-0
109,1,00:00:00:00:00:01-0
111,1,00:00:00:00:00:01-0
113,1,00:00:00:00:00:01-0
115,1,00:00:00:00:00:01-0
117,1,00:00:00:00:00:01-0
