28,2,
30,2,
32,2,
34,2,
36,2,
38,2,
40,2,
42,2,
44,2,
46,2,
48,2,
50,2,
52,2,
54,2,
56,2,
58,2,
60,2,
62,2,
64,2,
66,2,
68,2,
70,2,
72,2,
74,2,
76,2,3-1
78,2,"3-1,1-1"
80,2,"3-1,1-1,2-1"
82,2,"3-1,1-1,2-1"
84,2,"3-1,1-1,2-1"
86,2,"3-1,1-1,2-1"
88,2,"3-1,1-1,2-1"
90,2,"3-1,1-1,2-1"
92,2,"3-1,1-1,2-1"
94,2,"3-1,1-1,2-1"
96,2,"3-1,1-1,2-1"
98,2,"3-1,1-1,2-1"
100,2,"3-1,1-1,2-1"
102,2,"3-1,1-1,2-1"
104,2,"3-1,1-1,2-1"
106,2,"3-1,1-1,2-1"
108,2,"3-1,1-1,2-1"
110,2,"3-1,1-1,2-1"
113,2,"3-1,1-1,2-1"
115,2,"3-1,1-1,2-1"
117,2,"3-1,1-1,2-1"
119,2,"3-1,1-1,2-1"
121,2,"3-1,1-1,2-1"
123,2,"3-1,1-1,2-1"
125,2,"3-1,1-1,2-1"
127,2,"3-1,1-1,2-1"
129,2,"3-1,1-1,2-1"
131,2,"3-1,1-1,2-1"
133,2,"3-1,1-1,2-1"
135,2,"3-1,1-1,2-1"
137,2,"3-1,1-1,2-1"
139,2,"3-1,1-1,2-1"
141,2,"3-1,1-1,2-1"
143,2,"3-1,1-1,2-1"
145,2,"3-1,1-1,2-1"
147,2,"3-1,1-1,2-1"
149,2,"3-1,1-1,2-1"
151,2,"3-1,1-1,2-1"
153,2,"3-1,1-1,2-1"
155,2,"3-1,1-1,2-1"
157,2,"3-1,1-1,2-1"
159,2,"3-1,1-1,2-1"
161,2,"3-1,1-1,2-1"
163,2,"3-1,1-1,2-1"
165,2,"3-1,1-1,2-1"
167,2,"3-1,1-1,2-1"
169,2,"3-1,1-1,2-1"
171,2,"3-1,1-1,2-1"
173,2,"3-1,1-1,2-1"
175,2,"3-1,1-1,2-1"
177,2,"3-1,1-1,2-1"
179,2,"3-1,1-1,2-1"
181,2,"3-1,1-1,2-1"
183,2,"3-1,1-1,2-1"
185,2,"3-1,1-1,2-1"
187,2,"3-1,1-1,2-1"
189,2,"3-1,1-1,2-1"
191,2,"3-1,1-1,2-1"
193,2,"3-1,1-1,2-1"
195,2,"3-1,1-1,2-1"
197,2,"3-1,1-1,2-1"
199,2,"3-1,1-1,2-1"
201,2,"3-1,1-1,2-1"
203,2,"3-1,1-1,2-1"
205,2,"3-1,1-1,2-1"
207,2,"3-1,1-1,2-1"
209,2,"3-1,1-1,2-1"
211,2,"3-1,1-1,2-1"
213,2,"3-1,1-1,2-1"
215,2,"3-1,1-1,2-1"
218,2,"3-1,1-1,2-1"
220,2,"3-1,1-1,2-1"
222,2,"3-1,1-1,2-1"
224,2,"3-1,1-1,2-1"
226,2,"3-1,1-1,2-1"
228,2,"3-1,1-1,2-1"
230,2,"3-1,1-1,2-1"
232,2,"3-1,1-1,2-1"
234,2,"3-1,1-1,2-1"
236,2,"3-1,1-1,2-1"
238,2,"3-1,1-1,2-1"
240,2,"3-1,1-1,2-1"
242,2,"3-1,1-1,2-1"
244,2,"3-1,1-1,2-1"
246,2,"3-1,1-1,2-1"
248,2,"3-1,1-1,2-1"
250,2,"3-1,1-1,2-1"
252,2,"3-1,1-1,2-1"
254,2,"3-1,1-1,2-1"
256,2,"3-1,1-1,2-1"
258,2,"3-1,1-1,2-1"
260,2,"3-1,1-1,2-1"
262,2,"3-1,1-1,2-1"
264,2,"3-1,1-1,2-1"
266,2,"3-1,1-1,2-1"
268,2,"3-1,1-1,2-1"
270,2,"3-1,1-1,2-1"
272,2,"3-1,1-1,2-1"
274,2,"3-1,1-1,2-1"
276,2,"3-1,1-1,2-1"
278,2,"3-1,1-1,2-1"
280,2,"3-1,1-1,2-1"
282,2,"3-1,1-1,2-1"
284,2,"3-1,1-1,2-1"
286,2,"3-1,1-1,2-1"
288,2,"3-1,1-1,2-1"
290,2,"3-1,1-1,2-1"
292,2,"3-1,1-1,2-1"
294,2,"3-1,1-1,2-1"
296,2,"3-1,1-1,2-1"
298,2,"3-1,1-1,2-1"
300,2,"3-1,1-1,2-1"
302,2,"3-1,1-1,2-1"
304,2,"3-1,1-1,2-1"
306,2,"3-1,1-1,2-1"
308,2,"3-1,1-1,2-1"
310,2,"3-1,1-1,2-1"
312,2,"3-1,1-1,2-1"
314,2,"3-1,1-1,2-1"
316,2,"3-1,1-1,2-1"
318,2,"3-1,1-1,2-1"
320,2,"3-1,1-1,2-1"
322,2,"3-1,1-1,2-1"
