0,"[[0, '00:00:00:00:00:04', '10.0.0.4', 2, 2], [0, '00:00:00:00:00:06', '10.0.0.6', 3, 2], [0, '00:00:00:00:00:05', '10.0.0.5', 3, 1]]"
1,"[[7, '00:00:00:00:00:03', '10.0.0.3', 2, 1]]"
2,"[[0, '00:00:00:00:00:01', '10.0.0.1', 1, 1]]"
3,"[[0, '00:00:00:00:00:02', '10.0.0.2', 1, 2]]"
