-T UDP -a 10.0.0.31 -rp 10001 -b 100 -k 4 -c 1400 -d 10 
-T UDP -a 10.0.0.31 -rp 10011 -b 36 -k 4 -c 1400 -d 20 
-T UDP -a 10.0.0.22 -rp 10021 -b 92 -k 4 -c 1400 -d 30 
-T UDP -a 10.0.0.22 -rp 10031 -b 84 -k 4 -c 1400 -d 40 
-T UDP -a 10.0.0.27 -rp 10041 -b 116 -k 4 -c 1400 -d 50 
-T UDP -a 10.0.0.27 -rp 10051 -b 56 -k 4 -c 1400 -d 60 
-T UDP -a 10.0.0.23 -rp 10061 -b 12 -k 4 -c 1400 -d 70 
-T UDP -a 10.0.0.23 -rp 10071 -b 148 -k 4 -c 1400 -d 80 
-T UDP -a 10.0.0.34 -rp 10081 -b 96 -k 4 -c 1400 -d 90 
-T UDP -a 10.0.0.34 -rp 10091 -b 188 -k 4 -c 1400 -d 100 
-T UDP -a 10.0.0.29 -rp 10101 -b 168 -k 4 -c 1400 -d 110 
-T UDP -a 10.0.0.29 -rp 10111 -b 84 -k 4 -c 1400 -d 120 
-T UDP -a 10.0.0.32 -rp 10121 -b 112 -k 4 -c 1400 -d 130 
-T UDP -a 10.0.0.32 -rp 10131 -b 208 -k 4 -c 1400 -d 140 
-T UDP -a 10.0.0.24 -rp 10141 -b 28 -k 4 -c 1400 -d 150 
-T UDP -a 10.0.0.24 -rp 10151 -b 64 -k 4 -c 1400 -d 160 
-T UDP -a 10.0.0.25 -rp 10161 -b 120 -k 4 -c 1400 -d 170 
-T UDP -a 10.0.0.25 -rp 10171 -b 36 -k 4 -c 1400 -d 180 
-T UDP -a 10.0.0.35 -rp 10181 -b 124 -k 4 -c 1400 -d 190 
-T UDP -a 10.0.0.35 -rp 10191 -b 136 -k 4 -c 1400 -d 200 
-T UDP -a 10.0.0.36 -rp 10201 -b 140 -k 4 -c 1400 -d 210 
-T UDP -a 10.0.0.36 -rp 10211 -b 64 -k 4 -c 1400 -d 220 
-T UDP -a 10.0.0.33 -rp 10221 -b 184 -k 4 -c 1400 -d 230 
-T UDP -a 10.0.0.33 -rp 10231 -b 104 -k 4 -c 1400 -d 240 
-T UDP -a 10.0.0.28 -rp 10241 -b 16 -k 4 -c 1400 -d 250 
-T UDP -a 10.0.0.28 -rp 10251 -b 60 -k 4 -c 1400 -d 260 
-T UDP -a 10.0.0.21 -rp 10261 -b 176 -k 4 -c 1400 -d 270 
-T UDP -a 10.0.0.21 -rp 10271 -b 220 -k 4 -c 1400 -d 280 
-T UDP -a 10.0.0.26 -rp 10281 -b 200 -k 4 -c 1400 -d 290 
-T UDP -a 10.0.0.26 -rp 10291 -b 16 -k 4 -c 1400 -d 300 
