-T UDP -a 10.0.0.35 -rp 13301 -b 40 -k 4 -c 1400 -d 10 
-T UDP -a 10.0.0.35 -rp 13311 -b 12 -k 4 -c 1400 -d 20 
-T UDP -a 10.0.0.28 -rp 13321 -b 184 -k 4 -c 1400 -d 30 
-T UDP -a 10.0.0.28 -rp 13331 -b 212 -k 4 -c 1400 -d 40 
-T UDP -a 10.0.0.27 -rp 13341 -b 160 -k 4 -c 1400 -d 50 
-T UDP -a 10.0.0.27 -rp 13351 -b 84 -k 4 -c 1400 -d 60 
-T UDP -a 10.0.0.36 -rp 13361 -b 92 -k 4 -c 1400 -d 70 
-T UDP -a 10.0.0.36 -rp 13371 -b 208 -k 4 -c 1400 -d 80 
-T UDP -a 10.0.0.29 -rp 13381 -b 100 -k 4 -c 1400 -d 90 
-T UDP -a 10.0.0.29 -rp 13391 -b 12 -k 4 -c 1400 -d 100 
-T UDP -a 10.0.0.23 -rp 13401 -b 108 -k 4 -c 1400 -d 110 
-T UDP -a 10.0.0.23 -rp 13411 -b 252 -k 4 -c 1400 -d 120 
-T UDP -a 10.0.0.33 -rp 13421 -b 204 -k 4 -c 1400 -d 130 
-T UDP -a 10.0.0.33 -rp 13431 -b 136 -k 4 -c 1400 -d 140 
-T UDP -a 10.0.0.25 -rp 13441 -b 248 -k 4 -c 1400 -d 150 
-T UDP -a 10.0.0.25 -rp 13451 -b 64 -k 4 -c 1400 -d 160 
-T UDP -a 10.0.0.26 -rp 13461 -b 252 -k 4 -c 1400 -d 170 
-T UDP -a 10.0.0.26 -rp 13471 -b 76 -k 4 -c 1400 -d 180 
-T UDP -a 10.0.0.21 -rp 13481 -b 192 -k 4 -c 1400 -d 190 
-T UDP -a 10.0.0.21 -rp 13491 -b 168 -k 4 -c 1400 -d 200 
-T UDP -a 10.0.0.34 -rp 13501 -b 16 -k 4 -c 1400 -d 210 
-T UDP -a 10.0.0.34 -rp 13511 -b 248 -k 4 -c 1400 -d 220 
-T UDP -a 10.0.0.22 -rp 13521 -b 192 -k 4 -c 1400 -d 230 
-T UDP -a 10.0.0.22 -rp 13531 -b 216 -k 4 -c 1400 -d 240 
-T UDP -a 10.0.0.32 -rp 13541 -b 108 -k 4 -c 1400 -d 250 
-T UDP -a 10.0.0.32 -rp 13551 -b 220 -k 4 -c 1400 -d 260 
-T UDP -a 10.0.0.24 -rp 13561 -b 224 -k 4 -c 1400 -d 270 
-T UDP -a 10.0.0.24 -rp 13571 -b 192 -k 4 -c 1400 -d 280 
-T UDP -a 10.0.0.30 -rp 13581 -b 244 -k 4 -c 1400 -d 290 
-T UDP -a 10.0.0.30 -rp 13591 -b 188 -k 4 -c 1400 -d 300 
