-T UDP -a 10.0.27.1 -rp 10701 -b 128 -k 100 -c 1400 -d 2 
-T UDP -a 10.0.26.1 -rp 10711 -b 60 -k 30 -c 1400 -d 4 
-T UDP -a 10.0.25.1 -rp 10721 -b 216 -k 20 -c 1400 -d 6 
-T UDP -a 10.0.36.1 -rp 10731 -b 172 -k 200 -c 1400 -d 8 
-T UDP -a 10.0.23.1 -rp 10741 -b 120 -k 140 -c 1400 -d 10 
-T UDP -a 10.0.30.1 -rp 10751 -b 220 -k 120 -c 1400 -d 12 
-T UDP -a 10.0.31.1 -rp 10761 -b 220 -k 50 -c 1400 -d 14 
