-T UDP -a 10.0.29.1 -rp 10911 -b 180 -k 170 -c 1400 -d 2 
-T UDP -a 10.0.34.1 -rp 10921 -b 236 -k 40 -c 1400 -d 4 
-T UDP -a 10.0.31.1 -rp 10931 -b 224 -k 110 -c 1400 -d 6 
-T UDP -a 10.0.21.1 -rp 10941 -b 72 -k 110 -c 1400 -d 8 
-T UDP -a 10.0.28.1 -rp 10951 -b 104 -k 150 -c 1400 -d 10 
-T UDP -a 10.0.33.1 -rp 10961 -b 220 -k 20 -c 1400 -d 12 
-T UDP -a 10.0.22.1 -rp 10971 -b 128 -k 20 -c 1400 -d 14 
