19,1,0
20,1,0
21,1,0
22,1,0
23,1,0
24,1,0
25,1,0
26,1,0
27,1,0
28,1,0
29,1,0
30,1,0
31,1,0
32,1,0
33,1,0
34,1,0
35,1,0
36,1,0
37,1,0
38,1,0
39,1,0
40,1,0
42,1,0
43,1,0
44,1,0
45,1,0
46,1,0
47,1,0
48,1,0
49,1,0
50,1,0
51,1,0
52,1,0
53,1,0
54,1,0
55,1,0
56,1,0
57,1,0
58,1,0
59,1,0
60,1,0
61,1,00:00:00:00:00:01-1
62,1,00:00:00:00:00:01-1
63,1,00:00:00:00:00:04-1
64,1,00:00:00:00:00:04-2
65,1,00:00:00:00:00:04-2
66,1,"00:00:00:00:00:04-1,00:00:00:00:00:05-1"
67,1,"00:00:00:00:00:04-1,00:00:00:00:00:05-1"
68,1,"00:00:00:00:00:04-1,00:00:00:00:00:05-1"
69,1,"00:00:00:00:00:04-1,00:00:00:00:00:05-1"
70,1,"00:00:00:00:00:04-1,00:00:00:00:00:03-1"
71,1,"00:00:00:00:00:04-1,00:00:00:00:00:03-1"
72,1,00:00:00:00:00:04-1
73,1,00:00:00:00:00:04-1
74,1,00:00:00:00:00:04-1
75,1,00:00:00:00:00:04-1
76,1,00:00:00:00:00:04-1
77,1,00:00:00:00:00:04-1
78,1,00:00:00:00:00:04-1
79,1,00:00:00:00:00:04-1
80,1,00:00:00:00:00:04-1
81,1,00:00:00:00:00:04-1
82,1,00:00:00:00:00:04-1
83,1,00:00:00:00:00:04-1
84,1,00:00:00:00:00:04-1
85,1,00:00:00:00:00:04-1
86,1,00:00:00:00:00:04-1
87,1,00:00:00:00:00:04-1
88,1,00:00:00:00:00:04-1
89,1,00:00:00:00:00:04-1
90,1,00:00:00:00:00:04-1
91,1,00:00:00:00:00:04-1
92,1,00:00:00:00:00:04-1
93,1,00:00:00:00:00:04-1
94,1,00:00:00:00:00:04-1
95,1,00:00:00:00:00:04-1
96,1,00:00:00:00:00:04-1
97,1,00:00:00:00:00:04-1
99,1,00:00:00:00:00:04-1
100,1,00:00:00:00:00:04-1
101,1,00:00:00:00:00:04-1
102,1,00:00:00:00:00:04-1
103,1,00:00:00:00:00:04-1
104,1,00:00:00:00:00:04-1
