0,0,0.0
1,0,0.0
2,0,0.0
3,0,0.0
4,0,0.0
5,0,0.0
6,0,0.0
7,0,0.0
8,0,0.0
9,0,0.0
10,0,0.0
11,0,0.0
12,0,0.0
13,0,0.0
14,0,0.0
15,0,0.0
16,0,0.0
17,0,0.0
18,0,0.0
19,0,0.0
20,0,0.0
21,0,0.0
22,0,0.0
23,0,0.0
24,0,0.0
25,0,0.0
26,0,0.0
27,0,0.0
28,0,0.0
29,0,0.0
30,0,0.0
31,0,0.0
32,0,0.0
33,0,0.0
34,0,0.0
35,0,0.0
36,0,0.0
37,0,0.0
38,0,0.0
39,0,0.0
40,0,0.0
42,0,0.0
43,0,0.0
44,0,0.0
45,0,0.0
46,0,0.0
47,0,0.0
48,0,0.0
49,0,0.0
50,0,0.0
51,0,0.0
52,0,0.0
53,0,0.0
54,0,0.0
55,0,0.0
56,0,0.0
57,0,0.0
58,0,0.0
59,0,0.0
60,0,0.0
61,4,2.5
62,4,2.5
63,5,2.125
64,6,2.0
65,7,1.75
66,7,1.625
67,7,1.375
68,6,1.5
69,7,1.5
70,6,1.375
71,6,1.5
72,5,1.375
73,5,1.375
74,5,1.375
75,4,1.5
76,4,1.5
77,4,1.5
78,4,1.5
79,4,1.5
80,4,1.5
81,4,1.5
82,4,1.5
83,4,1.5
84,4,1.5
85,4,1.5
86,4,1.5
87,4,1.5
88,4,1.5
89,4,1.5
90,4,1.5
91,4,1.5
92,4,1.5
93,4,1.5
94,4,1.5
95,4,1.5
96,4,1.5
97,4,1.5
99,4,1.5
100,4,1.5
101,4,1.5
102,4,1.5
103,4,1.5
104,4,1.5
