19,0,"00:00:00:00:00:02-0,00:00:00:00:00:04-0,00:00:00:00:00:06-0"
20,0,"00:00:00:00:00:02-0,00:00:00:00:00:04-0,00:00:00:00:00:06-0"
21,0,"00:00:00:00:00:02-0,00:00:00:00:00:04-0,00:00:00:00:00:06-0"
22,0,"00:00:00:00:00:02-0,00:00:00:00:00:04-0,00:00:00:00:00:06-0"
23,0,"00:00:00:00:00:02-0,00:00:00:00:00:04-0,00:00:00:00:00:06-0"
24,0,"00:00:00:00:00:02-0,00:00:00:00:00:04-0,00:00:00:00:00:06-0"
25,0,"00:00:00:00:00:02-0,00:00:00:00:00:04-0,00:00:00:00:00:06-0"
26,0,"00:00:00:00:00:02-0,00:00:00:00:00:04-0,00:00:00:00:00:06-0"
27,0,"00:00:00:00:00:02-0,00:00:00:00:00:04-0,00:00:00:00:00:06-0"
28,0,"00:00:00:00:00:02-0,00:00:00:00:00:04-0,00:00:00:00:00:06-0"
29,0,"00:00:00:00:00:02-0,00:00:00:00:00:04-0,00:00:00:00:00:06-0"
30,0,"00:00:00:00:00:02-0,00:00:00:00:00:04-0,00:00:00:00:00:06-0"
31,0,"00:00:00:00:00:02-0,00:00:00:00:00:04-0,00:00:00:00:00:06-0"
32,0,"00:00:00:00:00:02-0,00:00:00:00:00:04-0,00:00:00:00:00:06-0"
33,0,"00:00:00:00:00:02-0,00:00:00:00:00:04-0,00:00:00:00:00:06-0"
34,0,"00:00:00:00:00:02-0,00:00:00:00:00:04-0,00:00:00:00:00:06-0"
35,0,"00:00:00:00:00:02-0,00:00:00:00:00:04-0,00:00:00:00:00:06-0"
36,0,"00:00:00:00:00:02-0,00:00:00:00:00:04-0,00:00:00:00:00:06-0"
37,0,"00:00:00:00:00:02-0,00:00:00:00:00:04-0,00:00:00:00:00:06-0"
38,0,"00:00:00:00:00:02-0,00:00:00:00:00:04-0,00:00:00:00:00:06-0"
39,0,"00:00:00:00:00:02-0,00:00:00:00:00:04-0,00:00:00:00:00:06-0"
40,0,"00:00:00:00:00:02-0,00:00:00:00:00:04-0,00:00:00:00:00:06-0"
42,0,"00:00:00:00:00:02-0,00:00:00:00:00:04-0,00:00:00:00:00:06-0"
43,0,"00:00:00:00:00:02-0,00:00:00:00:00:04-0,00:00:00:00:00:06-0"
44,0,"00:00:00:00:00:02-0,00:00:00:00:00:04-0,00:00:00:00:00:06-0"
45,0,"00:00:00:00:00:02-0,00:00:00:00:00:04-0,00:00:00:00:00:06-0"
46,0,"00:00:00:00:00:02-0,00:00:00:00:00:04-0,00:00:00:00:00:06-0"
47,0,"00:00:00:00:00:02-0,00:00:00:00:00:04-0,00:00:00:00:00:06-0"
48,0,"00:00:00:00:00:02-0,00:00:00:00:00:04-0,00:00:00:00:00:06-0"
49,0,"00:00:00:00:00:02-0,00:00:00:00:00:04-0,00:00:00:00:00:06-0"
50,0,"00:00:00:00:00:02-0,00:00:00:00:00:04-0,00:00:00:00:00:06-0"
51,0,"00:00:00:00:00:02-0,00:00:00:00:00:04-0,00:00:00:00:00:06-0"
52,0,"00:00:00:00:00:02-0,00:00:00:00:00:04-0,00:00:00:00:00:06-0"
53,0,"00:00:00:00:00:02-0,00:00:00:00:00:04-0,00:00:00:00:00:06-0"
54,0,"00:00:00:00:00:02-0,00:00:00:00:00:04-0,00:00:00:00:00:06-0"
55,0,"00:00:00:00:00:02-0,00:00:00:00:00:04-0,00:00:00:00:00:06-0"
56,0,"00:00:00:00:00:02-0,00:00:00:00:00:04-0,00:00:00:00:00:06-0"
57,0,"00:00:00:00:00:02-0,00:00:00:00:00:04-0,00:00:00:00:00:06-0"
58,0,"00:00:00:00:00:02-0,00:00:00:00:00:04-0,00:00:00:00:00:06-0"
59,0,"00:00:00:00:00:02-0,00:00:00:00:00:04-0,00:00:00:00:00:06-0"
60,0,"00:00:00:00:00:02-0,00:00:00:00:00:04-0,00:00:00:00:00:06-0"
61,0,"00:00:00:00:00:02-0,00:00:00:00:00:04-0,00:00:00:00:00:06-0"
62,0,"00:00:00:00:00:02-0,00:00:00:00:00:04-0,00:00:00:00:00:06-0"
63,0,"00:00:00:00:00:02-0,00:00:00:00:00:06-0,00:00:00:00:00:01-0"
64,0,"00:00:00:00:00:02-0,00:00:00:00:00:01-0,00:00:00:00:00:03-0"
65,0,"00:00:00:00:00:01-0,00:00:00:00:00:03-0,00:00:00:00:00:05-0"
66,0,"00:00:00:00:00:01-0,00:00:00:00:00:03-0,00:00:00:00:00:04-0"
67,0,"00:00:00:00:00:03-0,00:00:00:00:00:04-0,00:00:00:00:00:06-0"
68,0,"00:00:00:00:00:03-0,00:00:00:00:00:04-0,00:00:00:00:00:06-0"
69,0,"00:00:00:00:00:03-0,00:00:00:00:00:04-0,00:00:00:00:00:06-0"
70,0,"00:00:00:00:00:04-0,00:00:00:00:00:06-0,00:00:00:00:00:05-0"
71,0,"00:00:00:00:00:04-0,00:00:00:00:00:06-0,00:00:00:00:00:05-0"
72,0,"00:00:00:00:00:04-0,00:00:00:00:00:06-0,00:00:00:00:00:05-0"
73,0,"00:00:00:00:00:04-0,00:00:00:00:00:06-0,00:00:00:00:00:05-0"
74,0,"00:00:00:00:00:04-0,00:00:00:00:00:06-0,00:00:00:00:00:05-0"
75,0,"00:00:00:00:00:04-0,00:00:00:00:00:06-0,00:00:00:00:00:05-0"
76,0,"00:00:00:00:00:04-0,00:00:00:00:00:06-0,00:00:00:00:00:05-0"
77,0,"00:00:00:00:00:04-0,00:00:00:00:00:06-0,00:00:00:00:00:05-0"
78,0,"00:00:00:00:00:04-0,00:00:00:00:00:06-0,00:00:00:00:00:05-0"
79,0,"00:00:00:00:00:04-0,00:00:00:00:00:06-0,00:00:00:00:00:05-0"
80,0,"00:00:00:00:00:04-0,00:00:00:00:00:06-0,00:00:00:00:00:05-0"
81,0,"00:00:00:00:00:04-0,00:00:00:00:00:06-0,00:00:00:00:00:05-0"
82,0,"00:00:00:00:00:04-0,00:00:00:00:00:06-0,00:00:00:00:00:05-0"
83,0,"00:00:00:00:00:04-0,00:00:00:00:00:06-0,00:00:00:00:00:05-0"
84,0,"00:00:00:00:00:04-0,00:00:00:00:00:06-0,00:00:00:00:00:05-0"
85,0,"00:00:00:00:00:04-0,00:00:00:00:00:06-0,00:00:00:00:00:05-0"
86,0,"00:00:00:00:00:04-0,00:00:00:00:00:06-0,00:00:00:00:00:05-0"
87,0,"00:00:00:00:00:04-0,00:00:00:00:00:06-0,00:00:00:00:00:05-0"
88,0,"00:00:00:00:00:04-0,00:00:00:00:00:06-0,00:00:00:00:00:05-0"
89,0,"00:00:00:00:00:04-0,00:00:00:00:00:06-0,00:00:00:00:00:05-0"
90,0,"00:00:00:00:00:04-0,00:00:00:00:00:06-0,00:00:00:00:00:05-0"
91,0,"00:00:00:00:00:04-0,00:00:00:00:00:06-0,00:00:00:00:00:05-0"
92,0,"00:00:00:00:00:04-0,00:00:00:00:00:06-0,00:00:00:00:00:05-0"
93,0,"00:00:00:00:00:04-0,00:00:00:00:00:06-0,00:00:00:00:00:05-0"
94,0,"00:00:00:00:00:04-0,00:00:00:00:00:06-0,00:00:00:00:00:05-0"
95,0,"00:00:00:00:00:04-0,00:00:00:00:00:06-0,00:00:00:00:00:05-0"
96,0,"00:00:00:00:00:04-0,00:00:00:00:00:06-0,00:00:00:00:00:05-0"
97,0,"00:00:00:00:00:04-0,00:00:00:00:00:06-0,00:00:00:00:00:05-0"
99,0,"00:00:00:00:00:04-0,00:00:00:00:00:06-0,00:00:00:00:00:05-0"
100,0,"00:00:00:00:00:04-0,00:00:00:00:00:06-0,00:00:00:00:00:05-0"
101,0,"00:00:00:00:00:04-0,00:00:00:00:00:06-0,00:00:00:00:00:05-0"
102,0,"00:00:00:00:00:04-0,00:00:00:00:00:06-0,00:00:00:00:00:05-0"
103,0,"00:00:00:00:00:04-0,00:00:00:00:00:06-0,00:00:00:00:00:05-0"
104,0,"00:00:00:00:00:04-0,00:00:00:00:00:06-0,00:00:00:00:00:05-0"
