-T TCP -a 10.0.0.32 -rp 12171 -b 184 -k 10240 -c 1400 -d 80 -m rttm
-T TCP -a 10.0.0.35 -rp 12251 -b 208 -k 10240 -c 1400 -d 160 -m rttm
-T TCP -a 10.0.0.26 -rp 12141 -b 248 -k 4 -c 1400 -d 50 -m rttm
-T TCP -a 10.0.0.22 -rp 12131 -b 20 -k 4 -c 1400 -d 40 -m rttm
