-T UDP -a 10.0.31.1 -rp 10001 -b 100 -k 4 -c 1400 -d 10  -m rttm
-T UDP -a 10.0.31.1 -rp 10011 -b 36 -k 4 -c 1400 -d 20  -m rttm
-T UDP -a 10.0.22.1 -rp 10021 -b 92 -k 4 -c 1400 -d 30  -m rttm
-T UDP -a 10.0.22.1 -rp 10031 -b 84 -k 4 -c 1400 -d 40  -m rttm
-T UDP -a 10.0.27.1 -rp 10041 -b 116 -k 4 -c 1400 -d 50  -m rttm
-T UDP -a 10.0.27.1 -rp 10051 -b 56 -k 4 -c 1400 -d 60  -m rttm
-T UDP -a 10.0.23.1 -rp 10061 -b 12 -k 4 -c 1400 -d 70  -m rttm
-T UDP -a 10.0.23.1 -rp 10071 -b 148 -k 4 -c 1400 -d 80  -m rttm
-T UDP -a 10.0.34.1 -rp 10081 -b 96 -k 4 -c 1400 -d 90  -m rttm
-T UDP -a 10.0.34.1 -rp 10091 -b 188 -k 4 -c 1400 -d 100  -m rttm
-T UDP -a 10.0.29.1 -rp 10101 -b 168 -k 4 -c 1400 -d 110  -m rttm
-T UDP -a 10.0.29.1 -rp 10111 -b 84 -k 4 -c 1400 -d 120  -m rttm
-T UDP -a 10.0.32.1 -rp 10121 -b 112 -k 4 -c 1400 -d 130  -m rttm
-T UDP -a 10.0.32.1 -rp 10131 -b 208 -k 4 -c 1400 -d 140  -m rttm
-T UDP -a 10.0.24.1 -rp 10141 -b 28 -k 4 -c 1400 -d 150  -m rttm
-T UDP -a 10.0.24.1 -rp 10151 -b 64 -k 4 -c 1400 -d 160  -m rttm
-T UDP -a 10.0.25.1 -rp 10161 -b 120 -k 4 -c 1400 -d 170  -m rttm
-T UDP -a 10.0.25.1 -rp 10171 -b 36 -k 4 -c 1400 -d 180  -m rttm
-T UDP -a 10.0.35.1 -rp 10181 -b 124 -k 4 -c 1400 -d 190  -m rttm
-T UDP -a 10.0.35.1 -rp 10191 -b 136 -k 4 -c 1400 -d 200  -m rttm
-T UDP -a 10.0.36.1 -rp 10201 -b 140 -k 4 -c 1400 -d 210  -m rttm
-T UDP -a 10.0.36.1 -rp 10211 -b 64 -k 4 -c 1400 -d 220  -m rttm
-T UDP -a 10.0.33.1 -rp 10221 -b 184 -k 4 -c 1400 -d 230  -m rttm
-T UDP -a 10.0.33.1 -rp 10231 -b 104 -k 4 -c 1400 -d 240  -m rttm
-T UDP -a 10.0.28.1 -rp 10241 -b 16 -k 4 -c 1400 -d 250  -m rttm
-T UDP -a 10.0.28.1 -rp 10251 -b 60 -k 4 -c 1400 -d 260  -m rttm
-T UDP -a 10.0.21.1 -rp 10261 -b 176 -k 4 -c 1400 -d 270  -m rttm
-T UDP -a 10.0.21.1 -rp 10271 -b 220 -k 4 -c 1400 -d 280  -m rttm
-T UDP -a 10.0.26.1 -rp 10281 -b 200 -k 4 -c 1400 -d 290  -m rttm
-T UDP -a 10.0.26.1 -rp 10291 -b 16 -k 4 -c 1400 -d 300  -m rttm
