-T UDP -a 10.0.0.29 -rp 14201 -b 76 -k 4 -c 1400 -d 10  -m rttm
-T UDP -a 10.0.0.29 -rp 14211 -b 52 -k 4 -c 1400 -d 20  -m rttm
-T UDP -a 10.0.0.31 -rp 14221 -b 72 -k 4 -c 1400 -d 30  -m rttm
-T UDP -a 10.0.0.31 -rp 14231 -b 156 -k 4 -c 1400 -d 40  -m rttm
-T UDP -a 10.0.0.27 -rp 14241 -b 200 -k 4 -c 1400 -d 50  -m rttm
-T UDP -a 10.0.0.27 -rp 14251 -b 208 -k 4 -c 1400 -d 60  -m rttm
-T UDP -a 10.0.0.21 -rp 14261 -b 156 -k 4 -c 1400 -d 70  -m rttm
-T UDP -a 10.0.0.21 -rp 14271 -b 232 -k 4 -c 1400 -d 80  -m rttm
-T UDP -a 10.0.0.26 -rp 14281 -b 40 -k 4 -c 1400 -d 90  -m rttm
-T UDP -a 10.0.0.26 -rp 14291 -b 136 -k 4 -c 1400 -d 100  -m rttm
-T UDP -a 10.0.0.33 -rp 14301 -b 72 -k 4 -c 1400 -d 110  -m rttm
-T UDP -a 10.0.0.33 -rp 14311 -b 128 -k 4 -c 1400 -d 120  -m rttm
-T UDP -a 10.0.0.34 -rp 14321 -b 80 -k 4 -c 1400 -d 130  -m rttm
-T UDP -a 10.0.0.34 -rp 14331 -b 36 -k 4 -c 1400 -d 140  -m rttm
-T UDP -a 10.0.0.24 -rp 14341 -b 192 -k 4 -c 1400 -d 150  -m rttm
-T UDP -a 10.0.0.24 -rp 14351 -b 184 -k 4 -c 1400 -d 160  -m rttm
-T UDP -a 10.0.0.30 -rp 14361 -b 52 -k 4 -c 1400 -d 170  -m rttm
-T UDP -a 10.0.0.30 -rp 14371 -b 112 -k 4 -c 1400 -d 180  -m rttm
-T UDP -a 10.0.0.25 -rp 14381 -b 16 -k 4 -c 1400 -d 190  -m rttm
-T UDP -a 10.0.0.25 -rp 14391 -b 200 -k 4 -c 1400 -d 200  -m rttm
-T UDP -a 10.0.0.28 -rp 14401 -b 72 -k 4 -c 1400 -d 210  -m rttm
-T UDP -a 10.0.0.28 -rp 14411 -b 208 -k 4 -c 1400 -d 220  -m rttm
-T UDP -a 10.0.0.22 -rp 14421 -b 160 -k 4 -c 1400 -d 230  -m rttm
-T UDP -a 10.0.0.22 -rp 14431 -b 28 -k 4 -c 1400 -d 240  -m rttm
-T UDP -a 10.0.0.36 -rp 14441 -b 20 -k 4 -c 1400 -d 250  -m rttm
-T UDP -a 10.0.0.36 -rp 14451 -b 60 -k 4 -c 1400 -d 260  -m rttm
-T UDP -a 10.0.0.23 -rp 14461 -b 60 -k 4 -c 1400 -d 270  -m rttm
-T UDP -a 10.0.0.23 -rp 14471 -b 96 -k 4 -c 1400 -d 280  -m rttm
-T UDP -a 10.0.0.35 -rp 14481 -b 116 -k 4 -c 1400 -d 290  -m rttm
-T UDP -a 10.0.0.35 -rp 14491 -b 88 -k 4 -c 1400 -d 300  -m rttm
