-T UDP -a 10.0.25.1 -rp 12101 -b 20 -k 4 -c 1400 -d 10  -m rttm
-T UDP -a 10.0.25.1 -rp 12111 -b 92 -k 4 -c 1400 -d 20  -m rttm
-T UDP -a 10.0.22.1 -rp 12121 -b 244 -k 4 -c 1400 -d 30  -m rttm
-T UDP -a 10.0.22.1 -rp 12131 -b 20 -k 4 -c 1400 -d 40  -m rttm
-T UDP -a 10.0.26.1 -rp 12141 -b 248 -k 4 -c 1400 -d 50  -m rttm
-T UDP -a 10.0.26.1 -rp 12151 -b 24 -k 4 -c 1400 -d 60  -m rttm
-T UDP -a 10.0.32.1 -rp 12161 -b 180 -k 4 -c 1400 -d 70  -m rttm
-T UDP -a 10.0.32.1 -rp 12171 -b 184 -k 4 -c 1400 -d 80  -m rttm
-T UDP -a 10.0.23.1 -rp 12181 -b 172 -k 4 -c 1400 -d 90  -m rttm
-T UDP -a 10.0.23.1 -rp 12191 -b 104 -k 4 -c 1400 -d 100  -m rttm
-T UDP -a 10.0.33.1 -rp 12201 -b 124 -k 4 -c 1400 -d 110  -m rttm
-T UDP -a 10.0.33.1 -rp 12211 -b 168 -k 4 -c 1400 -d 120  -m rttm
-T UDP -a 10.0.36.1 -rp 12221 -b 200 -k 4 -c 1400 -d 130  -m rttm
-T UDP -a 10.0.36.1 -rp 12231 -b 208 -k 4 -c 1400 -d 140  -m rttm
-T UDP -a 10.0.35.1 -rp 12241 -b 180 -k 4 -c 1400 -d 150  -m rttm
-T UDP -a 10.0.35.1 -rp 12251 -b 208 -k 4 -c 1400 -d 160  -m rttm
-T UDP -a 10.0.31.1 -rp 12261 -b 40 -k 4 -c 1400 -d 170  -m rttm
-T UDP -a 10.0.31.1 -rp 12271 -b 204 -k 4 -c 1400 -d 180  -m rttm
-T UDP -a 10.0.24.1 -rp 12281 -b 132 -k 4 -c 1400 -d 190  -m rttm
-T UDP -a 10.0.24.1 -rp 12291 -b 28 -k 4 -c 1400 -d 200  -m rttm
-T UDP -a 10.0.21.1 -rp 12301 -b 164 -k 4 -c 1400 -d 210  -m rttm
-T UDP -a 10.0.21.1 -rp 12311 -b 60 -k 4 -c 1400 -d 220  -m rttm
-T UDP -a 10.0.34.1 -rp 12321 -b 76 -k 4 -c 1400 -d 230  -m rttm
-T UDP -a 10.0.34.1 -rp 12331 -b 244 -k 4 -c 1400 -d 240  -m rttm
-T UDP -a 10.0.28.1 -rp 12341 -b 244 -k 4 -c 1400 -d 250  -m rttm
-T UDP -a 10.0.28.1 -rp 12351 -b 120 -k 4 -c 1400 -d 260  -m rttm
-T UDP -a 10.0.29.1 -rp 12361 -b 72 -k 4 -c 1400 -d 270  -m rttm
-T UDP -a 10.0.29.1 -rp 12371 -b 104 -k 4 -c 1400 -d 280  -m rttm
-T UDP -a 10.0.30.1 -rp 12381 -b 244 -k 4 -c 1400 -d 290  -m rttm
-T UDP -a 10.0.30.1 -rp 12391 -b 40 -k 4 -c 1400 -d 300  -m rttm
