-T UDP -a 10.0.0.24 -rp 10601 -b 92 -k 4 -c 1400 -d 10  -m rttm
-T UDP -a 10.0.0.24 -rp 10611 -b 192 -k 4 -c 1400 -d 20  -m rttm
-T UDP -a 10.0.0.36 -rp 10621 -b 136 -k 4 -c 1400 -d 30  -m rttm
-T UDP -a 10.0.0.36 -rp 10631 -b 116 -k 4 -c 1400 -d 40  -m rttm
-T UDP -a 10.0.0.35 -rp 10641 -b 84 -k 4 -c 1400 -d 50  -m rttm
-T UDP -a 10.0.0.35 -rp 10651 -b 136 -k 4 -c 1400 -d 60  -m rttm
-T UDP -a 10.0.0.30 -rp 10661 -b 36 -k 4 -c 1400 -d 70  -m rttm
-T UDP -a 10.0.0.30 -rp 10671 -b 48 -k 4 -c 1400 -d 80  -m rttm
-T UDP -a 10.0.0.22 -rp 10681 -b 132 -k 4 -c 1400 -d 90  -m rttm
-T UDP -a 10.0.0.22 -rp 10691 -b 156 -k 4 -c 1400 -d 100  -m rttm
-T UDP -a 10.0.0.25 -rp 10701 -b 168 -k 4 -c 1400 -d 110  -m rttm
-T UDP -a 10.0.0.25 -rp 10711 -b 48 -k 4 -c 1400 -d 120  -m rttm
-T UDP -a 10.0.0.32 -rp 10721 -b 132 -k 4 -c 1400 -d 130  -m rttm
-T UDP -a 10.0.0.32 -rp 10731 -b 88 -k 4 -c 1400 -d 140  -m rttm
-T UDP -a 10.0.0.34 -rp 10741 -b 192 -k 4 -c 1400 -d 150  -m rttm
-T UDP -a 10.0.0.34 -rp 10751 -b 212 -k 4 -c 1400 -d 160  -m rttm
-T UDP -a 10.0.0.27 -rp 10761 -b 152 -k 4 -c 1400 -d 170  -m rttm
-T UDP -a 10.0.0.27 -rp 10771 -b 236 -k 4 -c 1400 -d 180  -m rttm
-T UDP -a 10.0.0.31 -rp 10781 -b 92 -k 4 -c 1400 -d 190  -m rttm
-T UDP -a 10.0.0.31 -rp 10791 -b 184 -k 4 -c 1400 -d 200  -m rttm
-T UDP -a 10.0.0.21 -rp 10801 -b 236 -k 4 -c 1400 -d 210  -m rttm
-T UDP -a 10.0.0.21 -rp 10811 -b 20 -k 4 -c 1400 -d 220  -m rttm
-T UDP -a 10.0.0.23 -rp 10821 -b 220 -k 4 -c 1400 -d 230  -m rttm
-T UDP -a 10.0.0.23 -rp 10831 -b 108 -k 4 -c 1400 -d 240  -m rttm
-T UDP -a 10.0.0.26 -rp 10841 -b 132 -k 4 -c 1400 -d 250  -m rttm
-T UDP -a 10.0.0.26 -rp 10851 -b 236 -k 4 -c 1400 -d 260  -m rttm
-T UDP -a 10.0.0.28 -rp 10861 -b 216 -k 4 -c 1400 -d 270  -m rttm
-T UDP -a 10.0.0.28 -rp 10871 -b 244 -k 4 -c 1400 -d 280  -m rttm
-T UDP -a 10.0.0.29 -rp 10881 -b 8 -k 4 -c 1400 -d 290  -m rttm
-T UDP -a 10.0.0.29 -rp 10891 -b 236 -k 4 -c 1400 -d 300  -m rttm
