19.3868169785,0,0
20.4202449322,0,0
21.4387860298,0,0
22.4584619999,0,0
23.4602520466,0,0
24.4644060135,0,0
25.4957129955,0,0
26.527256012,0,0
27.5286369324,0,0
28.5319030285,0,0
29.5330021381,0,0
30.537101984,0,0
31.541175127,0,0
32.5416901112,0,0
33.5591819286,0,0
34.5667910576,0,0
35.6085309982,0,0
36.6214399338,0,0
37.6602261066,0,0
38.6611819267,0,0
39.665197134,0,0
40.6828911304,0,0
41.7012040615,0,0
42.7351350784,0,0
43.7393109798,0,0
44.742634058,0,0
45.7436299324,0,0
46.7439310551,0,0
47.7610161304,0,0
48.7790300846,0,0
49.8181610107,0,0
50.8509719372,0,0
51.889824152,0,0
52.894135952,0,0
53.8957989216,0,0
54.9061861038,0,0
55.9331691265,0,0
56.9369471073,0,0
57.9408359528,0,0
58.9453890324,0,0
59.9482970238,0,0
60.9510090351,0,0
61.9686830044,0,0
62.972315073,0,0
63.9726130962,0,0
64.9757349491,00:00:00:00:00:15,1,
65.9810519218,00:00:00:00:00:15,1,
67.0040171146,00:00:00:00:00:13,3,00:00:00:00:00:16,2,00:00:00:00:00:15,3,00:00:00:00:00:14,1,
68.021310091,00:00:00:00:00:15,4,00:00:00:00:00:13,3,00:00:00:00:00:14,3,00:00:00:00:00:16,4,
69.0252840519,00:00:00:00:00:15,4,00:00:00:00:00:13,4,00:00:00:00:00:14,4,00:00:00:00:00:16,4,
70.0604901314,00:00:00:00:00:15,4,00:00:00:00:00:13,5,00:00:00:00:00:14,5,00:00:00:00:00:16,4,
71.0770020485,00:00:00:00:00:15,4,00:00:00:00:00:13,5,00:00:00:00:00:14,5,00:00:00:00:00:16,5,
72.0998921394,00:00:00:00:00:15,5,00:00:00:00:00:13,5,00:00:00:00:00:14,5,00:00:00:00:00:16,5,
73.1135370731,00:00:00:00:00:15,5,00:00:00:00:00:13,5,00:00:00:00:00:14,5,00:00:00:00:00:16,5,
74.1391420364,00:00:00:00:00:15,5,00:00:00:00:00:13,5,00:00:00:00:00:14,5,00:00:00:00:00:16,5,
75.1417181492,00:00:00:00:00:15,5,00:00:00:00:00:13,5,00:00:00:00:00:14,5,00:00:00:00:00:16,5,
76.1720099449,00:00:00:00:00:15,5,00:00:00:00:00:13,5,00:00:00:00:00:14,5,00:00:00:00:00:16,5,
77.212772131,00:00:00:00:00:15,5,00:00:00:00:00:13,5,00:00:00:00:00:14,5,00:00:00:00:00:16,5,
78.2377970219,00:00:00:00:00:15,5,00:00:00:00:00:13,5,00:00:00:00:00:14,5,00:00:00:00:00:16,5,
79.2454519272,00:00:00:00:00:15,5,00:00:00:00:00:13,5,00:00:00:00:00:14,5,00:00:00:00:00:16,5,
80.2505159378,00:00:00:00:00:15,5,00:00:00:00:00:13,5,00:00:00:00:00:14,5,00:00:00:00:00:16,5,
81.2568030357,00:00:00:00:00:15,5,00:00:00:00:00:13,5,00:00:00:00:00:14,5,00:00:00:00:00:16,5,
82.2692010403,00:00:00:00:00:15,5,00:00:00:00:00:13,5,00:00:00:00:00:14,5,00:00:00:00:00:16,5,
83.2806861401,00:00:00:00:00:15,5,00:00:00:00:00:13,5,00:00:00:00:00:14,5,00:00:00:00:00:16,5,
84.2904520035,00:00:00:00:00:15,5,00:00:00:00:00:13,5,00:00:00:00:00:14,5,00:00:00:00:00:16,5,
85.2939870358,00:00:00:00:00:15,5,00:00:00:00:00:13,5,00:00:00:00:00:14,5,00:00:00:00:00:16,5,
86.2969820499,00:00:00:00:00:15,5,00:00:00:00:00:13,5,00:00:00:00:00:14,5,00:00:00:00:00:16,5,
87.3126261234,00:00:00:00:00:15,5,00:00:00:00:00:13,5,00:00:00:00:00:14,5,00:00:00:00:00:16,5,
88.3245530128,00:00:00:00:00:15,5,00:00:00:00:00:13,5,00:00:00:00:00:14,5,00:00:00:00:00:16,5,
89.3268311024,00:00:00:00:00:15,5,00:00:00:00:00:13,5,00:00:00:00:00:14,5,00:00:00:00:00:16,5,
90.3298630714,00:00:00:00:00:15,5,00:00:00:00:00:13,5,00:00:00:00:00:14,5,00:00:00:00:00:16,5,
91.3425481319,00:00:00:00:00:15,4,00:00:00:00:00:13,5,00:00:00:00:00:14,5,00:00:00:00:00:16,5,
92.3774790764,00:00:00:00:00:15,3,00:00:00:00:00:13,5,00:00:00:00:00:14,5,00:00:00:00:00:16,5,
93.3900940418,00:00:00:00:00:15,3,00:00:00:00:00:13,5,00:00:00:00:00:14,5,00:00:00:00:00:16,4,
94.3928809166,00:00:00:00:00:13,5,00:00:00:00:00:14,5,00:00:00:00:00:16,4,00:00:00:00:00:15,2,
95.4040260315,00:00:00:00:00:13,5,00:00:00:00:00:14,5,00:00:00:00:00:16,4,00:00:00:00:00:15,2,
96.4172019958,00:00:00:00:00:13,5,00:00:00:00:00:14,5,00:00:00:00:00:16,4,00:00:00:00:00:15,2,
97.418995142,00:00:00:00:00:13,4,00:00:00:00:00:14,5,00:00:00:00:00:16,4,00:00:00:00:00:15,2,
98.4380021095,00:00:00:00:00:13,3,00:00:00:00:00:14,5,00:00:00:00:00:16,4,00:00:00:00:00:15,2,
99.4453201294,00:00:00:00:00:13,3,00:00:00:00:00:14,5,00:00:00:00:00:16,3,00:00:00:00:00:15,2,
100.476675034,00:00:00:00:00:14,4,00:00:00:00:00:16,2,00:00:00:00:00:13,2,00:00:00:00:00:15,2,
101.489953041,00:00:00:00:00:14,4,00:00:00:00:00:16,2,00:00:00:00:00:15,2,00:00:00:00:00:13,1,
102.512331963,00:00:00:00:00:14,4,00:00:00:00:00:15,2,00:00:00:00:00:13,1,00:00:00:00:00:16,1,
103.520998955,00:00:00:00:00:14,4,00:00:00:00:00:15,1,00:00:00:00:00:13,1,00:00:00:00:00:16,1,
104.563591003,00:00:00:00:00:14,2,00:00:00:00:00:15,1,00:00:00:00:00:13,1,00:00:00:00:00:16,1,
105.564598083,00:00:00:00:00:14,2,00:00:00:00:00:15,1,
106.579580069,00:00:00:00:00:14,2,00:00:00:00:00:15,1,
107.579899073,00:00:00:00:00:14,2,00:00:00:00:00:15,1,
108.589395046,00:00:00:00:00:15,1,
109.620859146,0,0
110.622499943,0,0
111.625966072,0,0
112.629112005,0,0
113.646434069,0,0
114.673109055,0,0
115.673573017,0,0
116.679363012,0,0
117.699985981,0,0
118.717888117,0,0
119.724975109,0,0
120.742716074,0,0
121.776638031,0,0
122.794215918,0,0
123.796237946,0,0
124.825623989,0,0
125.83247304,0,0
126.837491989,0,0
127.873888969,0,0
128.892965078,0,0
129.912024021,0,0
130.91799593,0,0
131.923017025,0,0
