0,0,0,
1,0,0,
2,0,0,
3,0,0,
4,0,0,
5,0,0,
6,0,0,
7,0,0,
8,0,0,
9,0,0,
10,0,0,
11,0,0,
12,0,0,
13,0,0,
14,0,0,
15,0,0,
16,0,0,
17,0,0,
18,0,0,
19,0,0,
20,0,0,
21,0,0,
22,0,0,
23,0,0,
24,0,0,
25,0,0,
26,0,0,
27,0,0,
28,0,0,
29,0,0,
30,0,0,
31,0,0,
32,0,0,
33,0,0,
34,0,0,
35,0,0,
36,0,0,
37,0,0,
38,0,0,
39,0,0,
40,0,0,
41,0,0,
42,0,0,
43,0,0,
44,0,0,
46,0,0,
47,0,0,
48,0,0,
49,0,0,
50,0,0,
51,0,0,
52,0,0,
53,0,0,
54,4.69098612366,1,"3,4.69098612366"
55,6.52902926781,1,"3,6.52902926781"
56,6.74019576631,1,"3,6.74019576631"
57,7.17080360107,1,"3,7.17080360107"
58,7.32484001721,1,"3,7.32484001721"
59,6.60664385511,1,"3,6.60664385511"
60,6.28633119113,1,"3,6.28633119113"
61,6.84832849185,1,"3,6.84832849185"
62,5.86404368426,1,"3,5.86404368426"
63,5.54554722072,1,"3,5.54554722072"
64,5.81772039987,1,"3,5.81772039987"
65,6.80861982025,1,"3,6.80861982025"
66,7.13862984651,1,"3,7.13862984651"
67,8.17219858515,1,"3,8.17219858515"
68,6.02159260386,1,"3,6.02159260386"
69,5.60011709931,1,"3,5.60011709931"
70,11.444789099,1,"3,11.444789099"
71,6.51595391438,1,"3,6.51595391438"
72,5.30305248106,1,"3,5.30305248106"
73,5.02049012805,1,"3,5.02049012805"
74,5.39763025397,1,"3,5.39763025397"
75,4.68551526692,1,"3,4.68551526692"
76,4.54923089265,1,"3,4.54923089265"
77,0,0,
78,4.29580410514,1,"3,4.29580410514"
79,0,0,
80,2.4206181287,1,"3,2.4206181287"
81,1.46513847928,1,"3,1.46513847928"
82,2.37072948109,1,"3,2.37072948109"
83,0,0,
84,0,0,
85,0,0,
86,0,0,
87,0,0,
88,0,0,
90,0,0,
91,0,0,
92,0,0,
93,0,0,
94,0,0,
95,0,0,
96,0,0,
97,0,0,
98,0,0,
99,0,0,
100,0,0,
101,0,0,
102,0,0,
103,0,0,
104,0,0,
105,0,0,
106,0,0,
107,0,0,
108,0,0,
109,0,0,
110,0,0,
111,0,0,
112,0,0,
113,0,0,
114,0,0,
115,0,0,
116,0,0,
117,0,0,
118,0,0,
119,0,0,
120,0,0,
