-T TCP -a 10.0.0.35 -rp 13641 -b 172 -k 4 -c 1400 -d 50 -m rttm
-T TCP -a 10.0.0.26 -rp 13621 -b 124 -k 4 -c 1400 -d 30 -m rttm
-T TCP -a 10.0.0.36 -rp 13711 -b 36 -k 4 -c 1400 -d 120 -m rttm
-T TCP -a 10.0.0.22 -rp 13731 -b 80 -k 4 -c 1400 -d 140 -m rttm
-T TCP -a 10.0.0.24 -rp 13691 -b 56 -k 4 -c 1400 -d 100 -m rttm
