-T TCP -a 10.0.0.33 -rp 11351 -b 104 -k 10240 -c 1400 -d 160 -m rttm
-T TCP -a 10.0.0.25 -rp 11331 -b 16 -k 4 -c 1400 -d 140 -m rttm
-T TCP -a 10.0.0.21 -rp 11221 -b 240 -k 4 -c 1400 -d 30 -m rttm
-T TCP -a 10.0.0.26 -rp 11311 -b 108 -k 4 -c 1400 -d 120 -m rttm
-T TCP -a 10.0.0.34 -rp 11271 -b 128 -k 10240 -c 1400 -d 80 -m rttm
