-T TCP -a 10.0.0.30 -rp 11501 -b 28 -k 4 -c 1400 -d 10 -m rttm
-T TCP -a 10.0.0.30 -rp 11511 -b 208 -k 4 -c 1400 -d 20 -m rttm
-T TCP -a 10.0.0.27 -rp 11581 -b 212 -k 4 -c 1400 -d 90 -m rttm
-T TCP -a 10.0.0.21 -rp 11571 -b 48 -k 10240 -c 1400 -d 80 -m rttm
-T TCP -a 10.0.0.26 -rp 11621 -b 12 -k 4 -c 1400 -d 130 -m rttm
