-T TCP -a 10.0.0.22 -rp 10681 -b 132 -k 4 -c 1400 -d 90 -m rttm
-T TCP -a 10.0.0.24 -rp 10611 -b 192 -k 4 -c 1400 -d 20 -m rttm
-T TCP -a 10.0.0.32 -rp 10721 -b 132 -k 4 -c 1400 -d 130 -m rttm
-T TCP -a 10.0.0.24 -rp 10601 -b 92 -k 4 -c 1400 -d 10 -m rttm
-T TCP -a 10.0.0.22 -rp 10691 -b 156 -k 4 -c 1400 -d 100 -m rttm
