18,1,00:00:00:00:00:01-0
20,1,00:00:00:00:00:01-0
22,1,00:00:00:00:00:01-0
24,1,00:00:00:00:00:01-0
26,1,00:00:00:00:00:01-0
28,1,00:00:00:00:00:01-0
30,1,00:00:00:00:00:01-0
32,1,00:00:00:00:00:01-0
34,1,00:00:00:00:00:01-0
36,1,00:00:00:00:00:01-0
38,1,00:00:00:00:00:01-0
40,1,00:00:00:00:00:01-0
42,1,00:00:00:00:00:01-0
44,1,00:00:00:00:00:01-0
46,1,00:00:00:00:00:01-0
48,1,00:00:00:00:00:01-0
50,1,00:00:00:00:00:01-0
52,1,00:00:00:00:00:01-0
54,1,00:00:00:00:00:01-0
56,1,00:00:00:00:00:01-0
58,1,00:00:00:00:00:01-0
60,1,00:00:00:00:00:01-7
62,1,00:00:00:00:00:01-7
64,1,00:00:00:00:00:01-7
66,1,00:00:00:00:00:01-7
68,1,00:00:00:00:00:01-7
70,1,00:00:00:00:00:01-7
72,1,00:00:00:00:00:01-7
74,1,00:00:00:00:00:01-7
76,1,00:00:00:00:00:01-7
78,1,00:00:00:00:00:01-7
80,1,00:00:00:00:00:01-7
82,1,00:00:00:00:00:01-7
84,1,00:00:00:00:00:01-7
86,1,00:00:00:00:00:01-7
88,1,00:00:00:00:00:01-7
90,1,00:00:00:00:00:01-7
92,1,00:00:00:00:00:01-7
94,1,00:00:00:00:00:01-7
96,1,00:00:00:00:00:01-0
98,1,00:00:00:00:00:01-0
100,1,00:00:00:00:00:01-0
103,1,00:00:00:00:00:01-0
105,1,00:00:00:00:00:01-0
107,1,00:00:00:00:00:01-0
109,1,00:00:00:00:00:01-0
111,1,00:00:00:00:00:01-0
113,1,00:00:00:00:00:01-0
115,1,00:00:00:00:00:01-0
117,1,00:00:00:00:00:01-0
119,1,00:00:00:00:00:01-0
121,1,00:00:00:00:00:01-0
123,1,00:00:00:00:00:01-0
125,1,00:00:00:00:00:01-0
127,1,00:00:00:00:00:01-0
129,1,00:00:00:00:00:01-0
131,1,00:00:00:00:00:01-0
133,1,00:00:00:00:00:01-0
