-T TCP -a 10.0.0.35 -rp 13641 -b 172 -k 4 -c 1400 -d 50 -m rttm
-T TCP -a 10.0.0.26 -rp 13621 -b 124 -k 4 -c 1400 -d 30 -m rttm
-T TCP -a 10.0.0.36 -rp 13711 -b 36 -k 4 -c 1400 -d 120 -m rttm
-T TCP -a 10.0.0.22 -rp 13731 -b 80 -k 4 -c 1400 -d 140 -m rttm
-T TCP -a 10.0.0.24 -rp 13691 -b 56 -k 4 -c 1400 -d 100 -m rttm
-T TCP -a 10.0.0.32 -rp 13601 -b 188 -k 4 -c 1400 -d 10 -m rttm
-T TCP -a 10.0.0.35 -rp 13651 -b 72 -k 4 -c 1400 -d 60 -m rttm
-T TCP -a 10.0.0.22 -rp 13721 -b 164 -k 4 -c 1400 -d 130 -m rttm
-T TCP -a 10.0.0.24 -rp 13681 -b 24 -k 4 -c 1400 -d 90 -m rttm
-T TCP -a 10.0.0.21 -rp 13741 -b 36 -k 4 -c 1400 -d 150 -m rttm
-T TCP -a 10.0.0.32 -rp 13611 -b 212 -k 4 -c 1400 -d 20 -m rttm
-T TCP -a 10.0.0.29 -rp 13671 -b 104 -k 10240 -c 1400 -d 80 -m rttm
-T TCP -a 10.0.0.29 -rp 13661 -b 176 -k 4 -c 1400 -d 70 -m rttm
-T TCP -a 10.0.0.26 -rp 13631 -b 252 -k 4 -c 1400 -d 40 -m rttm
-T TCP -a 10.0.0.21 -rp 13751 -b 192 -k 10240 -c 1400 -d 160 -m rttm
-T TCP -a 10.0.0.36 -rp 13701 -b 32 -k 4 -c 1400 -d 110 -m rttm
