-T UDP -a 10.0.0.29 -rp 11801 -b 244 -k 4 -c 1400 -d 10  -m rttm
-T UDP -a 10.0.0.29 -rp 11811 -b 12 -k 4 -c 1400 -d 20  -m rttm
-T UDP -a 10.0.0.28 -rp 11821 -b 228 -k 4 -c 1400 -d 30  -m rttm
-T UDP -a 10.0.0.28 -rp 11831 -b 172 -k 4 -c 1400 -d 40  -m rttm
-T UDP -a 10.0.0.25 -rp 11841 -b 248 -k 4 -c 1400 -d 50  -m rttm
-T UDP -a 10.0.0.25 -rp 11851 -b 16 -k 4 -c 1400 -d 60  -m rttm
-T UDP -a 10.0.0.31 -rp 11861 -b 156 -k 4 -c 1400 -d 70  -m rttm
-T UDP -a 10.0.0.31 -rp 11871 -b 192 -k 10240 -c 1400 -d 80 -m rttm
