-T UDP -a 10.0.31.1 -rp 10001 -b 100 -k 4 -c 1400 -d 10  -m rttm
-T UDP -a 10.0.31.1 -rp 10011 -b 36 -k 4 -c 1400 -d 20  -m rttm
-T UDP -a 10.0.22.1 -rp 10021 -b 92 -k 4 -c 1400 -d 30  -m rttm
-T UDP -a 10.0.22.1 -rp 10031 -b 84 -k 4 -c 1400 -d 40  -m rttm
-T UDP -a 10.0.27.1 -rp 10041 -b 116 -k 4 -c 1400 -d 50  -m rttm
-T UDP -a 10.0.27.1 -rp 10051 -b 56 -k 4 -c 1400 -d 60  -m rttm
-T UDP -a 10.0.23.1 -rp 10061 -b 12 -k 4 -c 1400 -d 70  -m rttm
-T UDP -a 10.0.23.1 -rp 10071 -b 148 -k 10240 -c 1400 -d 80 -m rttm
