0,0,0,
1,0,0,
2,0,0,
3,0,0,
4,0,0,
5,0,0,
6,0,0,
7,0,0,
8,0,0,
9,0,0,
10,0,0,
11,0,0,
12,0,0,
13,0,0,
14,0,0,
15,0,0,
16,0,0,
17,0,0,
18,0,0,
19,0,0,
20,0,0,
21,0,0,
22,0,0,
23,0,0,
24,0,0,
25,0,0,
26,0,0,
27,0,0,
28,0,0,
29,0,0,
30,0,0,
31,0,0,
32,0,0,
33,0,0,
34,0,0,
35,0,0,
36,0,0,
37,0,0,
38,0,0,
39,0,0,
40,0,0,
41,0,0,
42,0,0,
43,0,0,
45,0,0,
46,0,0,
47,0,0,
48,0,0,
49,0,0,
50,0,0,
51,10.6097003514,1,1:10.6097003514
52,10.580869947,1,1:10.580869947
53,10.4635987153,1,1:10.4635987153
54,2.13665112234,1,1:2.13665112234
55,0,0,
56,0,0,
57,0,0,
58,0,0,
59,0,0,
60,0,0,
61,0,0,
62,0,0,
63,0,0,
64,10.521755173,1,1:10.521755173
65,10.1692986023,1,1:10.1692986023
66,10.4904112839,1,1:10.4904112839
67,10.4823350135,1,1:10.4823350135
68,10.3283970949,1,1:10.3283970949
69,10.4078502784,1,1:10.4078502784
70,15.1994643798,1,1:15.1994643798
71,10.4032654761,1,1:10.4032654761
72,10.4938556626,1,1:10.4938556626
73,10.3768049936,1,1:10.3768049936
74,10.4924013669,1,1:10.4924013669
75,10.1529127006,1,1:10.1529127006
76,10.3883307621,1,1:10.3883307621
77,10.3408609861,1,1:10.3408609861
78,10.2242955668,1,1:10.2242955668
79,10.0158874106,1,1:10.0158874106
80,0,0,
81,0,0,
82,0,0,
83,0,0,
84,0,0,
85,0,0,
86,0,0,
87,0,0,
88,0,0,
90,0,0,
91,0,0,
92,0,0,
93,0,0,
94,0,0,
95,0,0,
96,0,0,
97,0,0,
98,0,0,
99,0,0,
100,0,0,
101,0,0,
102,0,0,
103,0,0,
104,0,0,
105,0,0,
