-T UDP -a 10.0.0.25 -rp 12101 -b 20 -k 4 -c 1400 -d 10  -m rttm
-T UDP -a 10.0.0.25 -rp 12111 -b 92 -k 4 -c 1400 -d 20  -m rttm
-T UDP -a 10.0.0.22 -rp 12121 -b 244 -k 4 -c 1400 -d 30  -m rttm
-T UDP -a 10.0.0.22 -rp 12131 -b 20 -k 4 -c 1400 -d 40  -m rttm
-T UDP -a 10.0.0.26 -rp 12141 -b 248 -k 4 -c 1400 -d 50  -m rttm
-T UDP -a 10.0.0.26 -rp 12151 -b 24 -k 4 -c 1400 -d 60  -m rttm
-T UDP -a 10.0.0.32 -rp 12161 -b 180 -k 4 -c 1400 -d 70  -m rttm
-T UDP -a 10.0.0.32 -rp 12171 -b 184 -k 4 -c 1400 -d 80  -m rttm
-T UDP -a 10.0.0.23 -rp 12181 -b 172 -k 4 -c 1400 -d 90  -m rttm
-T UDP -a 10.0.0.23 -rp 12191 -b 104 -k 4 -c 1400 -d 100  -m rttm
-T UDP -a 10.0.0.33 -rp 12201 -b 124 -k 4 -c 1400 -d 110  -m rttm
-T UDP -a 10.0.0.33 -rp 12211 -b 168 -k 4 -c 1400 -d 120  -m rttm
-T UDP -a 10.0.0.36 -rp 12221 -b 200 -k 4 -c 1400 -d 130  -m rttm
-T UDP -a 10.0.0.36 -rp 12231 -b 208 -k 4 -c 1400 -d 140  -m rttm
-T UDP -a 10.0.0.35 -rp 12241 -b 180 -k 4 -c 1400 -d 150  -m rttm
-T UDP -a 10.0.0.35 -rp 12251 -b 208 -k 4 -c 1400 -d 160  -m rttm
