-T TCP -a 10.0.0.25 -rp 13441 -b 248 -k 4 -c 1400 -d 150 -m rttm
-T TCP -a 10.0.0.33 -rp 13421 -b 204 -k 4 -c 1400 -d 130 -m rttm
-T TCP -a 10.0.0.28 -rp 13321 -b 184 -k 4 -c 1400 -d 30 -m rttm
-T TCP -a 10.0.0.36 -rp 13371 -b 208 -k 10240 -c 1400 -d 80 -m rttm
-T TCP -a 10.0.0.29 -rp 13381 -b 100 -k 4 -c 1400 -d 90 -m rttm
-T TCP -a 10.0.0.27 -rp 13341 -b 160 -k 4 -c 1400 -d 50 -m rttm
-T TCP -a 10.0.0.36 -rp 13361 -b 92 -k 4 -c 1400 -d 70 -m rttm
-T TCP -a 10.0.0.29 -rp 13391 -b 12 -k 4 -c 1400 -d 100 -m rttm
-T TCP -a 10.0.0.27 -rp 13351 -b 84 -k 4 -c 1400 -d 60 -m rttm
-T TCP -a 10.0.0.23 -rp 13401 -b 108 -k 4 -c 1400 -d 110 -m rttm
