-T TCP -a 10.0.0.22 -rp 10031 -b 84 -k 4 -c 1400 -d 40 -m rttm
-T TCP -a 10.0.0.24 -rp 10141 -b 28 -k 4 -c 1400 -d 150 -m rttm
-T TCP -a 10.0.0.23 -rp 10061 -b 12 -k 4 -c 1400 -d 70 -m rttm
-T TCP -a 10.0.0.31 -rp 10001 -b 100 -k 4 -c 1400 -d 10 -m rttm
-T TCP -a 10.0.0.24 -rp 10151 -b 64 -k 10240 -c 1400 -d 160 -m rttm
-T TCP -a 10.0.0.27 -rp 10041 -b 116 -k 4 -c 1400 -d 50 -m rttm
-T TCP -a 10.0.0.29 -rp 10101 -b 168 -k 4 -c 1400 -d 110 -m rttm
-T TCP -a 10.0.0.22 -rp 10021 -b 92 -k 4 -c 1400 -d 30 -m rttm
-T TCP -a 10.0.0.32 -rp 10131 -b 208 -k 4 -c 1400 -d 140 -m rttm
-T TCP -a 10.0.0.32 -rp 10121 -b 112 -k 4 -c 1400 -d 130 -m rttm
