TX eth0:  kB/s RX eth0:  kB/s
TX eth0:  kB/s RX eth0:  kB/s
TX eth0:  kB/s RX eth0:  kB/s
TX eth0:  kB/s RX eth0:  kB/s
TX eth0:  kB/s RX eth0:  kB/s
TX eth0:  kB/s RX eth0:  kB/s
TX eth0:  kB/s RX eth0:  kB/s
TX eth0:  kB/s RX eth0:  kB/s
