-T UDP -a 10.0.0.1 -rp 10410 -b 113 -k 1090 -C 1000 -c 500
-T UDP -a 10.0.0.1 -rp 10411 -b 238 -k 1550 -C 1000 -c 500
-T UDP -a 10.0.0.2 -rp 10420 -b 157 -k 3270 -C 1000 -c 500
-T UDP -a 10.0.0.2 -rp 10421 -b 107 -k 610 -C 1000 -c 500
-T UDP -a 10.0.0.3 -rp 10430 -b 184 -k 3960 -C 1000 -c 500
-T UDP -a 10.0.0.3 -rp 10431 -b 164 -k 3930 -C 1000 -c 500
-T UDP -a 10.0.0.5 -rp 10450 -b 57 -k 2340 -C 1000 -c 500
-T UDP -a 10.0.0.5 -rp 10451 -b 84 -k 3700 -C 1000 -c 500
