-T UDP -a 10.0.0.1 -rp 10510 -b 119 -k 2860 -C 1000 -c 500
-T UDP -a 10.0.0.1 -rp 10511 -b 104 -k 1290 -C 1000 -c 500
-T UDP -a 10.0.0.4 -rp 10540 -b 107 -k 540 -C 1000 -c 500
-T UDP -a 10.0.0.4 -rp 10541 -b 105 -k 1040 -C 1000 -c 500
-T UDP -a 10.0.0.2 -rp 10520 -b 140 -k 1280 -C 1000 -c 500
-T UDP -a 10.0.0.2 -rp 10521 -b 50 -k 90 -C 1000 -c 500
-T UDP -a 10.0.0.3 -rp 10530 -b 251 -k 3030 -C 1000 -c 500
-T UDP -a 10.0.0.3 -rp 10531 -b 38 -k 2990 -C 1000 -c 500
