-T UDP -a 10.0.30.1 -rp 11501 -b 28 -k 4 -c 1400 -d 10  -m rttm
-T UDP -a 10.0.30.1 -rp 11511 -b 208 -k 4 -c 1400 -d 20  -m rttm
-T UDP -a 10.0.33.1 -rp 11521 -b 252 -k 4 -c 1400 -d 30  -m rttm
-T UDP -a 10.0.33.1 -rp 11531 -b 220 -k 4 -c 1400 -d 40  -m rttm
-T UDP -a 10.0.22.1 -rp 11541 -b 56 -k 4 -c 1400 -d 50  -m rttm
-T UDP -a 10.0.22.1 -rp 11551 -b 192 -k 4 -c 1400 -d 60  -m rttm
-T UDP -a 10.0.21.1 -rp 11561 -b 88 -k 4 -c 1400 -d 70  -m rttm
-T UDP -a 10.0.21.1 -rp 11571 -b 48 -k 4 -c 1400 -d 80  -m rttm
