-T TCP -a 10.0.0.35 -rp 13901 -b 232 -k 4 -c 1400 -d 10 -m rttm
-T TCP -a 10.0.0.23 -rp 13961 -b 52 -k 4 -c 1400 -d 70 -m rttm
-T TCP -a 10.0.0.22 -rp 13941 -b 72 -k 4 -c 1400 -d 50 -m rttm
-T TCP -a 10.0.0.31 -rp 14011 -b 24 -k 4 -c 1400 -d 120 -m rttm
-T TCP -a 10.0.0.31 -rp 14001 -b 140 -k 4 -c 1400 -d 110 -m rttm
-T TCP -a 10.0.0.27 -rp 13931 -b 180 -k 4 -c 1400 -d 40 -m rttm
-T TCP -a 10.0.0.28 -rp 14021 -b 136 -k 4 -c 1400 -d 130 -m rttm
-T TCP -a 10.0.0.28 -rp 14031 -b 124 -k 4 -c 1400 -d 140 -m rttm
-T TCP -a 10.0.0.24 -rp 14051 -b 24 -k 10240 -c 1400 -d 160 -m rttm
-T TCP -a 10.0.0.25 -rp 13991 -b 240 -k 4 -c 1400 -d 100 -m rttm
