-T TCP -a 10.0.0.33 -rp 10381 -b 228 -k 4 -c 1400 -d 90 -m rttm
-T TCP -a 10.0.0.35 -rp 10451 -b 236 -k 10240 -c 1400 -d 160 -m rttm
-T TCP -a 10.0.0.36 -rp 10331 -b 212 -k 4 -c 1400 -d 40 -m rttm
-T TCP -a 10.0.0.27 -rp 10421 -b 160 -k 4 -c 1400 -d 130 -m rttm
-T TCP -a 10.0.0.33 -rp 10391 -b 64 -k 4 -c 1400 -d 100 -m rttm
-T TCP -a 10.0.0.34 -rp 10341 -b 140 -k 4 -c 1400 -d 50 -m rttm
-T TCP -a 10.0.0.31 -rp 10401 -b 224 -k 4 -c 1400 -d 110 -m rttm
-T TCP -a 10.0.0.31 -rp 10411 -b 36 -k 4 -c 1400 -d 120 -m rttm
-T TCP -a 10.0.0.28 -rp 10301 -b 40 -k 4 -c 1400 -d 10 -m rttm
-T TCP -a 10.0.0.35 -rp 10441 -b 36 -k 4 -c 1400 -d 150 -m rttm
