-T UDP -a 10.0.0.24 -rp 10601 -b 92 -k 4 -c 1400 -d 10  -m rttm
-T UDP -a 10.0.0.24 -rp 10611 -b 192 -k 4 -c 1400 -d 20  -m rttm
-T UDP -a 10.0.0.36 -rp 10621 -b 136 -k 4 -c 1400 -d 30  -m rttm
-T UDP -a 10.0.0.36 -rp 10631 -b 116 -k 4 -c 1400 -d 40  -m rttm
