-T UDP -a 10.0.25.1 -rp 12101 -b 20 -k 4 -c 1400 -d 10  -m rttm
-T UDP -a 10.0.25.1 -rp 12111 -b 92 -k 4 -c 1400 -d 20  -m rttm
-T UDP -a 10.0.22.1 -rp 12121 -b 244 -k 4 -c 1400 -d 30  -m rttm
-T UDP -a 10.0.22.1 -rp 12131 -b 20 -k 4 -c 1400 -d 40  -m rttm
