18,0,0
20,0,0
22,0,0
24,0,0
26,0,0
28,0,0
30,0,0
32,0,0
34,0,0
36,0,0
38,0,0
40,0,0
42,0,0
44,0,0
46,0,0
48,0,0
50,0,0
52,0,0
54,0,0
56,0,0
58,0,0
60,0,0
62,0,0
64,0,0
66,0,0
68,0,0
70,0,0
72,0,0
74,0,0
76,0,0
78,0,0
80,0,0
82,0,0
84,0,0
86,0,0
88,0,0
90,0,0
92,0,0
94,0,0
96,0,0
98,0,0
100,0,0
103,0,0
105,0,0
107,0,0
109,0,0
111,0,0
113,0,0
115,0,0
117,0,0
119,0,0
121,0,0
123,0,0
125,0,0
127,0,0
129,0,0
131,0,0
133,0,0
