18,2,
20,2,
22,2,
24,2,
26,2,
28,2,
30,2,
32,2,
34,2,
36,2,
38,2,
40,2,
42,2,
44,2,
46,2,
48,2,
50,2,
52,2,
54,2,
56,2,
58,2,
60,2,
62,2,3-1
64,2,3-1
66,2,3-1
68,2,3-1
70,2,3-1
72,2,3-1
74,2,3-1
76,2,3-1
78,2,3-1
80,2,3-1
82,2,3-1
84,2,3-1
86,2,3-1
88,2,3-1
90,2,3-1
92,2,3-1
94,2,3-1
96,2,3-1
98,2,3-1
100,2,3-1
103,2,3-1
105,2,3-1
107,2,3-1
109,2,3-1
111,2,3-1
113,2,3-1
115,2,3-1
117,2,3-1
119,2,3-1
121,2,3-1
123,2,3-1
125,2,3-1
127,2,3-1
129,2,3-1
131,2,3-1
133,2,3-1
