0,0,0,
1,0,0,
2,0,0,
3,0,0,
4,0,0,
5,0,0,
6,0,0,
7,0,0,
8,0,0,
9,0,0,
10,0,0,
11,0,0,
12,0,0,
13,0,0,
14,0,0,
15,0,0,
16,0,0,
17,0,0,
18,0,0,
19,0,0,
20,0,0,
21,0,0,
22,0,0,
23,0,0,
24,0,0,
25,0,0,
26,0,0,
27,0,0,
28,0,0,
29,0,0,
30,0,0,
31,0,0,
32,0,0,
33,0,0,
34,0,0,
35,0,0,
36,0,0,
37,0,0,
38,0,0,
39,0,0,
41,0,0,
42,0,0,
43,0,0,
44,0,0,
45,0,0,
46,0,0,
47,0,0,
48,0,0,
49,0,0,
50,0,0,
51,0,0,
52,4.45247415196,1,3:4.45247415196
53,2.85195991973,1,3:2.85195991973
54,2.98148373545,1,3:2.98148373545
55,2.95566591865,1,3:2.95566591865
56,3.0687502477,1,3:3.0687502477
57,4.2117130981,1,3:4.2117130981
58,2.69957458309,1,3:2.69957458309
59,2.17795762534,1,3:2.17795762534
60,2.06507533979,1,3:2.06507533979
61,3.04632104788,1,3:3.04632104788
62,2.52476546501,1,3:2.52476546501
63,4.00958235159,1,3:4.00958235159
64,4.8520876883,1,3:4.8520876883
65,4.23961418667,1,3:4.23961418667
66,4.71261851927,1,3:4.71261851927
67,4.30854729622,1,3:4.30854729622
68,4.36715863871,1,3:4.36715863871
69,4.39026835943,1,3:4.39026835943
70,4.21311572525,1,3:4.21311572525
71,4.58156303168,1,3:4.58156303168
72,4.51500440285,1,3:4.51500440285
73,4.51979258279,1,3:4.51979258279
74,4.49611321156,1,3:4.49611321156
75,6.63196127141,1,3:6.63196127141
76,4.1588276992,1,3:4.1588276992
77,4.6936511118,1,3:4.6936511118
78,4.74642997245,1,3:4.74642997245
80,3.86097809575,1,3:3.86097809575
81,0,0,
82,0,0,
83,0,0,
84,0,0,
85,0,0,
86,0,0,
87,0,0,
88,0,0,
89,0,0,
90,0,0,
91,0,0,
92,0,0,
93,0,0,
94,0,0,
95,0,0,
96,0,0,
97,0,0,
98,0,0,
99,0,0,
100,0,0,
101,0,0,
102,0,0,
103,0,0,
104,0,0,
105,0,0,
106,0,0,
107,0,0,
108,0,0,
109,0,0,
110,0,0,
111,0,0,
