0,0,0,
2,0,0,
4,0,0,
6,0,0,
8,0,0,
10,0,0,
12,0,0,
14,0,0,
16,0,0,
18,0,0,
20,0,0,
22,0,0,
24,0,0,
26,0,0,
28,0,0,
30,0,0,
32,0,0,
34,0,0,
36,0,0,
38,0,0,
40,0,0,
42,0,0,
44,0,0,
46,0,0,
48,0,0,
50,0,0,
52,0,0,
54,0,0,
56,0,0,
58,0,0,
60,0,0,
62,0,3,"1:0,2:0,3:0"
64,0,3,"1:0,2:0,3:0"
66,39.2055171192,3,"1:12.0616667261,2:15.0813192538,3:12.0625311392"
68,38.9606553273,3,"1:11.9777459375,2:15.0011493095,3:11.9817600803"
70,33.7332157022,3,"1:10.3785535656,2:12.9804880789,3:10.3741740577"
72,37.1052793462,3,"1:11.4066053044,2:14.2799359074,3:11.4187381344"
74,39.3272715386,3,"1:12.0858422003,2:15.1343084021,3:12.1071209362"
76,61.4626675329,3,"1:18.9201437439,2:23.6496272491,3:18.8928965399"
78,60.2902664073,3,"1:18.5492690463,2:23.1919322444,3:18.5490651167"
80,56.139418485,3,"1:17.2748981344,2:21.6060106299,3:17.2585097207"
82,57.6912636093,3,"1:17.744296712,2:22.2050765902,3:17.7418903071"
84,59.313233106,3,"1:18.2313045491,2:22.8288965371,3:18.2530320199"
86,59.8028958877,3,"1:18.395284517,2:23.0116815121,3:18.3959298586"
88,56.9621704787,3,"1:17.5206131544,2:21.917928072,3:17.5236292524"
90,58.8818615817,3,"1:18.1217148846,2:22.6580323858,3:18.1021143112"
92,17.4515476838,3,"1:5.35996440438,2:6.71725635554,3:5.37432692385"
94,0.0,3,"1:0.0,2:0.0,3:0.0"
96,0.0,3,"1:0.0,2:0.0,3:0.0"
98,0.0,3,"1:0.0,2:0.0,3:0.0"
100,0.0,3,"1:0.0,2:0.0,3:0.0"
103,0.0,3,"1:0.0,2:0.0,3:0.0"
105,0,3,"1:0,2:0,3:0"
107,0,3,"1:0,2:0,3:0"
109,0,3,"1:0,2:0,3:0"
111,0,3,"1:0,2:0,3:0"
113,0,3,"1:0,2:0,3:0"
115,0,3,"1:0,2:0,3:0"
117,0,3,"1:0,2:0,3:0"
119,0,3,"1:0,2:0,3:0"
121,0,3,"1:0,2:0,3:0"
123,0,3,"1:0,2:0,3:0"
125,0,3,"1:0,2:0,3:0"
127,0,3,"1:0,2:0,3:0"
129,0,3,"1:0,2:0,3:0"
131,0,3,"1:0,2:0,3:0"
133,0,3,"1:0,2:0,3:0"
