18,0,"00:00:00:00:00:02-0,00:00:00:00:00:04-0,00:00:00:00:00:06-0"
20,0,"00:00:00:00:00:02-0,00:00:00:00:00:04-0,00:00:00:00:00:06-0"
22,0,"00:00:00:00:00:02-0,00:00:00:00:00:04-0,00:00:00:00:00:06-0"
24,0,"00:00:00:00:00:02-0,00:00:00:00:00:04-0,00:00:00:00:00:06-0"
26,0,"00:00:00:00:00:02-0,00:00:00:00:00:04-0,00:00:00:00:00:06-0"
28,0,"00:00:00:00:00:02-0,00:00:00:00:00:04-0,00:00:00:00:00:06-0"
30,0,"00:00:00:00:00:02-0,00:00:00:00:00:04-0,00:00:00:00:00:06-0"
32,0,"00:00:00:00:00:02-0,00:00:00:00:00:04-0,00:00:00:00:00:06-0"
34,0,"00:00:00:00:00:02-0,00:00:00:00:00:04-0,00:00:00:00:00:06-0"
36,0,"00:00:00:00:00:02-0,00:00:00:00:00:04-0,00:00:00:00:00:06-0"
38,0,"00:00:00:00:00:02-0,00:00:00:00:00:04-0,00:00:00:00:00:06-0"
40,0,"00:00:00:00:00:02-0,00:00:00:00:00:04-0,00:00:00:00:00:06-0"
42,0,"00:00:00:00:00:02-0,00:00:00:00:00:04-0,00:00:00:00:00:06-0"
44,0,"00:00:00:00:00:02-0,00:00:00:00:00:04-0,00:00:00:00:00:06-0"
46,0,"00:00:00:00:00:02-0,00:00:00:00:00:04-0,00:00:00:00:00:06-0"
48,0,"00:00:00:00:00:02-0,00:00:00:00:00:04-0,00:00:00:00:00:06-0"
50,0,"00:00:00:00:00:02-0,00:00:00:00:00:04-0,00:00:00:00:00:06-0"
52,0,"00:00:00:00:00:02-0,00:00:00:00:00:04-0,00:00:00:00:00:06-0"
54,0,"00:00:00:00:00:02-0,00:00:00:00:00:04-0,00:00:00:00:00:06-0"
56,0,"00:00:00:00:00:02-0,00:00:00:00:00:04-0,00:00:00:00:00:06-0"
58,0,"00:00:00:00:00:02-0,00:00:00:00:00:04-0,00:00:00:00:00:06-0"
60,0,"00:00:00:00:00:02-0,00:00:00:00:00:04-0,00:00:00:00:00:06-0"
62,0,"00:00:00:00:00:02-0,00:00:00:00:00:04-0,00:00:00:00:00:06-0"
64,0,"00:00:00:00:00:02-0,00:00:00:00:00:04-0,00:00:00:00:00:06-0"
66,0,"00:00:00:00:00:02-0,00:00:00:00:00:04-0,00:00:00:00:00:06-0"
68,0,"00:00:00:00:00:02-0,00:00:00:00:00:04-0,00:00:00:00:00:06-0"
70,0,"00:00:00:00:00:02-0,00:00:00:00:00:04-0,00:00:00:00:00:06-0"
72,0,"00:00:00:00:00:02-0,00:00:00:00:00:04-0,00:00:00:00:00:06-0"
74,0,"00:00:00:00:00:02-0,00:00:00:00:00:04-0,00:00:00:00:00:06-0"
76,0,"00:00:00:00:00:02-0,00:00:00:00:00:04-0,00:00:00:00:00:06-0"
78,0,"00:00:00:00:00:02-0,00:00:00:00:00:04-0,00:00:00:00:00:06-0"
80,0,"00:00:00:00:00:02-0,00:00:00:00:00:04-0,00:00:00:00:00:06-0"
82,0,"00:00:00:00:00:02-0,00:00:00:00:00:04-0,00:00:00:00:00:06-0"
84,0,"00:00:00:00:00:02-0,00:00:00:00:00:04-0,00:00:00:00:00:06-0"
86,0,"00:00:00:00:00:02-0,00:00:00:00:00:04-0,00:00:00:00:00:06-0"
88,0,"00:00:00:00:00:02-0,00:00:00:00:00:04-0,00:00:00:00:00:06-0"
90,0,"00:00:00:00:00:02-0,00:00:00:00:00:04-0,00:00:00:00:00:06-0"
92,0,"00:00:00:00:00:02-0,00:00:00:00:00:04-0,00:00:00:00:00:06-0"
94,0,"00:00:00:00:00:02-0,00:00:00:00:00:04-0,00:00:00:00:00:06-0"
96,0,"00:00:00:00:00:02-0,00:00:00:00:00:04-0,00:00:00:00:00:06-0"
98,0,"00:00:00:00:00:02-0,00:00:00:00:00:04-0,00:00:00:00:00:06-0"
100,0,"00:00:00:00:00:02-0,00:00:00:00:00:04-0,00:00:00:00:00:06-0"
103,0,"00:00:00:00:00:02-0,00:00:00:00:00:04-0,00:00:00:00:00:06-0"
105,0,"00:00:00:00:00:02-0,00:00:00:00:00:04-0,00:00:00:00:00:06-0"
107,0,"00:00:00:00:00:02-0,00:00:00:00:00:04-0,00:00:00:00:00:06-0"
109,0,"00:00:00:00:00:02-0,00:00:00:00:00:04-0,00:00:00:00:00:06-0"
111,0,"00:00:00:00:00:02-0,00:00:00:00:00:04-0,00:00:00:00:00:06-0"
113,0,"00:00:00:00:00:02-0,00:00:00:00:00:04-0,00:00:00:00:00:06-0"
115,0,"00:00:00:00:00:02-0,00:00:00:00:00:04-0,00:00:00:00:00:06-0"
117,0,"00:00:00:00:00:02-0,00:00:00:00:00:04-0,00:00:00:00:00:06-0"
119,0,"00:00:00:00:00:02-0,00:00:00:00:00:04-0,00:00:00:00:00:06-0"
121,0,"00:00:00:00:00:02-0,00:00:00:00:00:04-0,00:00:00:00:00:06-0"
123,0,"00:00:00:00:00:02-0,00:00:00:00:00:04-0,00:00:00:00:00:06-0"
125,0,"00:00:00:00:00:02-0,00:00:00:00:00:04-0,00:00:00:00:00:06-0"
127,0,"00:00:00:00:00:02-0,00:00:00:00:00:04-0,00:00:00:00:00:06-0"
129,0,"00:00:00:00:00:02-0,00:00:00:00:00:04-0,00:00:00:00:00:06-0"
131,0,"00:00:00:00:00:02-0,00:00:00:00:00:04-0,00:00:00:00:00:06-0"
133,0,"00:00:00:00:00:02-0,00:00:00:00:00:04-0,00:00:00:00:00:06-0"
