15,4,0
20,4,0
25,4,0
30,4,0
35,4,0
40,4,0
45,4,0
50,4,0
55,4,0
60,4,0
65,4,0
70,4,0
75,4,0
80,4,0
85,4,0
90,4,0
95,4,0
100,4,0
105,4,00:00:00:00:00:04-1
110,4,00:00:00:00:00:04-2
115,4,"00:00:00:00:00:08-2,00:00:00:00:00:04-2"
120,4,"00:00:00:00:00:08-3,00:00:00:00:00:04-2"
125,4,"00:00:00:00:00:08-4,00:00:00:00:00:04-4"
130,4,"00:00:00:00:00:08-6,00:00:00:00:00:04-5"
135,4,"00:00:00:00:00:08-6,00:00:00:00:00:04-4"
140,4,"00:00:00:00:00:08-6,00:00:00:00:00:04-4"
145,4,"00:00:00:00:00:08-5,00:00:00:00:00:04-4"
150,4,"00:00:00:00:00:04-4,00:00:00:00:00:08-4"
155,4,"00:00:00:00:00:08-3,00:00:00:00:00:04-2"
160,4,"00:00:00:00:00:08-3,00:00:00:00:00:04-3"
165,4,"00:00:00:00:00:04-4,00:00:00:00:00:08-3"
170,4,"00:00:00:00:00:04-4,00:00:00:00:00:08-3"
175,4,"00:00:00:00:00:04-4,00:00:00:00:00:08-3"
180,4,"00:00:00:00:00:04-3,00:00:00:00:00:08-3"
185,4,"00:00:00:00:00:04-3,00:00:00:00:00:08-2"
190,4,"00:00:00:00:00:04-3,00:00:00:00:00:08-2"
195,4,"00:00:00:00:00:04-3,00:00:00:00:00:08-1"
200,4,"00:00:00:00:00:08-1,00:00:00:00:00:04-2"
205,4,00:00:00:00:00:04-1
210,4,00:00:00:00:00:04-1
215,4,0
220,4,0
225,4,0
230,4,0
235,4,0
240,4,0
245,4,0
250,4,0
255,4,0
260,4,0
265,4,0
270,4,0
275,4,0
280,4,0
286,4,0
291,4,0
296,4,0
301,4,0
306,4,0
311,4,0
316,4,0
321,4,0
326,4,0
331,4,0
336,4,0
341,4,0
346,4,0
351,4,0
356,4,0
361,4,0
366,4,0
371,4,0
376,4,0
381,4,0
386,4,0
391,4,0
396,4,0
401,4,0
406,4,0
411,4,0
416,4,0
421,4,0
426,4,0
431,4,0
436,4,0
441,4,0
446,4,0
451,4,0
456,4,0
461,4,0
466,4,0
471,4,0
476,4,0
481,4,0
486,4,0
491,4,0
496,4,0
501,4,0
506,4,0
511,4,0
516,4,0
521,4,0
526,4,0
531,4,0
536,4,0
541,4,0
546,4,0
551,4,0
556,4,0
561,4,0
566,4,0
571,4,0
576,4,0
581,4,0
586,4,0
591,4,0
596,4,0
601,4,0
606,4,0
611,4,0
616,4,0
621,4,0
626,4,0
631,4,0
636,4,0
641,4,0
647,4,0
652,4,0
657,4,0
662,4,0
667,4,0
672,4,0
677,4,0
682,4,0
687,4,0
692,4,0
697,4,0
702,4,0
707,4,0
712,4,0
717,4,0
722,4,0
727,4,0
732,4,0
737,4,0
742,4,0
747,4,0
752,4,0
757,4,0
762,4,0
767,4,0
772,4,0
777,4,0
782,4,0
787,4,0
792,4,0
797,4,0
802,4,0
807,4,0
812,4,0
817,4,0
822,4,0
827,4,0
832,4,0
837,4,0
842,4,0
847,4,0
852,4,0
857,4,0
862,4,0
867,4,0
872,4,0
877,4,0
882,4,0
887,4,0
892,4,0
897,4,0
902,4,0
907,4,0
912,4,0
917,4,0
922,4,0
927,4,0
932,4,0
937,4,0
942,4,0
947,4,0
952,4,0
957,4,0
962,4,0
967,4,0
972,4,0
977,4,0
982,4,0
987,4,0
992,4,0
997,4,0
1002,4,0
1007,4,0
1012,4,0
1017,4,0
1022,4,0
1027,4,0
1032,4,0
1037,4,0
1042,4,0
1047,4,0
1052,4,0
1057,4,0
1062,4,0
1067,4,0
1072,4,0
1077,4,0
1082,4,0
1087,4,0
1092,4,0
1097,4,0
1102,4,0
1107,4,0
1112,4,0
1118,4,0
1123,4,0
1128,4,0
1133,4,0
1138,4,0
1143,4,0
1148,4,0
1153,4,0
1158,4,0
1163,4,0
1168,4,0
1173,4,0
1178,4,0
1183,4,0
1188,4,0
1193,4,0
1198,4,0
1203,4,0
1208,4,0
1213,4,0
1218,4,0
1223,4,0
1228,4,0
1233,4,0
1238,4,0
1243,4,0
1248,4,0
1253,4,0
1258,4,0
1263,4,0
1268,4,0
1273,4,0
1278,4,0
1283,4,0
1288,4,0
1293,4,0
1298,4,0
1303,4,0
1308,4,0
1313,4,0
1318,4,0
1323,4,0
1328,4,0
1333,4,0
1338,4,0
1343,4,0
1348,4,0
1353,4,0
1358,4,0
1363,4,0
1368,4,0
1373,4,0
1378,4,0
1383,4,0
1388,4,0
1393,4,0
1398,4,0
1403,4,0
1408,4,0
1413,4,0
1418,4,0
1423,4,0
1428,4,0
1433,4,0
1438,4,0
1443,4,0
1448,4,0
1453,4,0
1458,4,0
1463,4,0
1468,4,0
1473,4,0
1478,4,0
1483,4,0
1488,4,0
1493,4,0
1498,4,0
1503,4,0
1508,4,0
1514,4,0
1519,4,0
1524,4,0
1529,4,0
1534,4,0
1539,4,0
1544,4,0
1549,4,0
1554,4,0
1559,4,0
1564,4,0
1569,4,0
1574,4,0
1579,4,0
1584,4,0
1589,4,0
1594,4,0
1599,4,0
1604,4,0
1609,4,0
1614,4,0
1619,4,0
1624,4,0
1629,4,0
1634,4,0
1639,4,0
1644,4,0
1649,4,0
1654,4,0
1659,4,0
1664,4,0
1669,4,0
1674,4,0
1679,4,0
1684,4,0
1689,4,0
1694,4,0
1699,4,0
1704,4,0
1709,4,0
1714,4,0
1719,4,0
1724,4,0
1729,4,0
1734,4,0
1739,4,0
1744,4,0
1749,4,0
1754,4,0
1759,4,0
1764,4,0
1769,4,0
1774,4,0
1779,4,0
1784,4,0
1789,4,0
1794,4,0
1799,4,0
1804,4,0
1809,4,0
1814,4,0
1819,4,0
1824,4,0
1829,4,0
1834,4,0
1839,4,0
1844,4,0
1849,4,0
1854,4,0
1859,4,0
1864,4,0
1869,4,0
1874,4,0
1879,4,0
1884,4,0
1889,4,0
1894,4,0
1899,4,0
1904,4,0
1909,4,0
1914,4,0
1920,4,0
1925,4,0
1930,4,0
1935,4,0
1940,4,0
1945,4,0
1950,4,0
1955,4,0
1960,4,0
1965,4,0
1970,4,0
1975,4,0
1980,4,0
1985,4,0
1990,4,0
1995,4,0
2000,4,0
2005,4,0
2010,4,0
2015,4,0
2020,4,0
2025,4,0
2030,4,0
2035,4,0
2040,4,0
2045,4,0
2050,4,0
2055,4,0
2060,4,0
2065,4,0
2070,4,0
2075,4,0
2080,4,0
2085,4,0
2090,4,0
2095,4,0
2100,4,0
2105,4,0
2110,4,0
2115,4,0
2120,4,0
2125,4,0
2130,4,0
2135,4,0
2140,4,0
2145,4,0
2150,4,0
2155,4,0
2160,4,0
2165,4,0
2170,4,0
2175,4,0
2180,4,0
2185,4,0
2190,4,0
2195,4,0
2200,4,0
2205,4,0
2210,4,0
2215,4,0
2220,4,0
2225,4,0
2230,4,0
2235,4,0
2240,4,0
2245,4,0
2250,4,0
2255,4,0
2260,4,0
2265,4,0
2270,4,0
2275,4,0
2280,4,0
2285,4,0
2290,4,0
2295,4,0
2300,4,0
2305,4,0
2311,4,0
2316,4,0
2321,4,0
2326,4,0
2331,4,0
2336,4,0
2341,4,0
2346,4,0
2351,4,0
2356,4,0
2361,4,0
2366,4,0
2371,4,0
2376,4,0
2381,4,0
2386,4,0
2391,4,0
2396,4,0
2401,4,0
2406,4,0
2411,4,0
2416,4,0
2421,4,0
2426,4,0
2431,4,0
2436,4,0
2441,4,0
2446,4,0
2451,4,0
2456,4,0
2461,4,0
2466,4,0
2471,4,0
2476,4,0
2481,4,0
2486,4,0
2491,4,0
2496,4,0
2501,4,0
2506,4,0
2511,4,0
2516,4,0
2521,4,0
2526,4,0
2531,4,0
2536,4,0
2541,4,0
2546,4,0
2551,4,0
2556,4,0
2561,4,0
2566,4,0
2571,4,0
2576,4,0
2581,4,0
2586,4,0
2591,4,0
2596,4,0
2601,4,0
2606,4,0
2611,4,0
2616,4,0
2621,4,0
2626,4,0
2631,4,0
2636,4,0
2641,4,0
2646,4,0
2651,4,0
2656,4,0
2661,4,0
2666,4,0
2671,4,0
2676,4,0
2681,4,0
2686,4,0
2691,4,0
2696,4,0
2701,4,0
2707,4,0
2712,4,0
2717,4,0
2722,4,0
2727,4,0
2732,4,0
2737,4,0
2742,4,0
2747,4,0
2752,4,0
2757,4,0
2762,4,0
2767,4,0
2772,4,0
2777,4,0
2782,4,0
2787,4,0
2792,4,0
2797,4,0
2802,4,0
2807,4,0
2812,4,0
2817,4,0
2822,4,0
2827,4,0
2832,4,0
2837,4,0
2842,4,0
2847,4,0
2852,4,0
2857,4,0
2862,4,0
2867,4,0
2872,4,0
2877,4,0
2882,4,0
2887,4,0
2892,4,0
2897,4,0
2902,4,0
2907,4,0
2912,4,0
2917,4,0
2922,4,0
2927,4,0
2932,4,0
2937,4,0
2942,4,0
2947,4,0
2952,4,0
2957,4,0
2962,4,0
2967,4,0
2972,4,0
2977,4,0
2982,4,0
2987,4,0
2992,4,0
2997,4,0
3002,4,0
3007,4,0
3012,4,0
3017,4,0
3022,4,0
3027,4,0
3032,4,0
3037,4,0
3042,4,0
3047,4,0
3052,4,0
3057,4,0
3062,4,0
3067,4,0
3073,4,0
3078,4,0
3083,4,0
3088,4,0
3093,4,0
3098,4,0
3103,4,0
3108,4,0
3113,4,0
3118,4,0
3123,4,0
3128,4,0
3133,4,0
3138,4,0
3143,4,0
3148,4,0
3153,4,0
3158,4,0
3163,4,0
3168,4,0
3173,4,0
3178,4,0
3183,4,0
3188,4,0
3193,4,0
3198,4,0
3203,4,0
3208,4,0
3213,4,0
3218,4,0
3223,4,0
3228,4,0
3233,4,0
3238,4,0
3243,4,0
3248,4,0
3253,4,0
3258,4,0
3263,4,0
3268,4,0
3273,4,0
3278,4,0
3283,4,0
3288,4,0
3293,4,0
3298,4,0
3303,4,0
3308,4,0
3313,4,0
3318,4,0
3323,4,0
3328,4,0
3333,4,0
3338,4,0
3343,4,0
3348,4,0
3353,4,0
3358,4,0
3363,4,0
3368,4,0
3373,4,0
3378,4,0
3383,4,0
3388,4,0
3393,4,0
3398,4,0
3403,4,0
3408,4,0
3413,4,0
3418,4,0
3423,4,0
3428,4,0
3433,4,0
3438,4,0
3444,4,0
3449,4,0
3454,4,0
3459,4,0
3464,4,0
3469,4,0
3474,4,0
3479,4,0
3484,4,0
3489,4,0
3494,4,0
3499,4,0
3504,4,0
3509,4,0
3514,4,0
3519,4,0
3524,4,0
3529,4,0
3534,4,0
3539,4,0
3544,4,0
3549,4,0
3554,4,0
3559,4,0
3564,4,0
3569,4,0
3574,4,0
3579,4,0
3584,4,0
3589,4,0
3594,4,0
3599,4,0
3604,4,0
3609,4,0
3614,4,0
3619,4,0
3624,4,0
3629,4,0
3634,4,0
3639,4,0
3644,4,0
3649,4,0
3654,4,0
3659,4,0
3664,4,0
3669,4,0
3674,4,0
3679,4,0
3684,4,0
3689,4,0
3694,4,0
3699,4,0
3704,4,0
3709,4,0
3714,4,0
3719,4,0
3724,4,0
3729,4,0
3734,4,0
3739,4,0
3744,4,0
3749,4,0
3754,4,0
3759,4,0
3764,4,0
3769,4,0
3774,4,0
3780,4,0
3785,4,0
3790,4,0
3795,4,0
3800,4,0
3805,4,0
3810,4,0
3815,4,0
3820,4,0
3825,4,0
3830,4,0
3835,4,0
3840,4,0
3845,4,0
3850,4,0
3855,4,0
3860,4,0
3865,4,0
3870,4,0
3875,4,0
3880,4,0
3885,4,0
3890,4,0
3895,4,0
3900,4,0
3905,4,0
3910,4,0
3915,4,0
3920,4,0
3925,4,0
3930,4,0
3935,4,0
3940,4,0
3945,4,0
3950,4,0
3955,4,0
3960,4,0
3965,4,0
3970,4,0
3975,4,0
3980,4,0
3985,4,0
3990,4,0
3995,4,0
4000,4,0
4005,4,0
4010,4,0
4015,4,0
4020,4,0
4025,4,0
4030,4,0
4035,4,0
4040,4,0
4045,4,0
4050,4,0
4055,4,0
4060,4,0
4065,4,0
4070,4,0
4075,4,0
4080,4,0
4085,4,0
4090,4,0
4095,4,0
4100,4,0
4105,4,0
4110,4,0
4115,4,0
4120,4,0
4125,4,0
4130,4,0
4135,4,0
4140,4,0
4145,4,0
4150,4,0
4155,4,0
4160,4,0
4165,4,0
4171,4,0
4176,4,0
4181,4,0
4186,4,0
4191,4,0
4196,4,0
4201,4,0
4206,4,0
4211,4,0
4216,4,0
4221,4,0
4226,4,0
4231,4,0
4236,4,0
4241,4,0
4246,4,0
4251,4,0
4256,4,0
4261,4,0
4266,4,0
4271,4,0
4276,4,0
4281,4,0
4286,4,0
4291,4,0
4296,4,0
4301,4,0
4306,4,0
4311,4,0
4316,4,0
4321,4,0
4326,4,0
4331,4,0
4336,4,0
4341,4,0
4346,4,0
4351,4,0
4356,4,0
4361,4,0
4366,4,0
4371,4,0
4376,4,0
4381,4,0
4386,4,0
4391,4,0
4396,4,0
4401,4,0
4406,4,0
4411,4,0
4416,4,0
4421,4,0
4426,4,0
4431,4,0
4436,4,0
4441,4,0
4446,4,0
4451,4,0
4456,4,0
4461,4,0
4466,4,0
4471,4,0
4476,4,0
4481,4,0
4486,4,0
4491,4,0
4496,4,0
4501,4,0
4506,4,0
4511,4,0
4516,4,0
4521,4,0
4527,4,0
4532,4,0
4537,4,0
4542,4,0
4547,4,0
4552,4,0
4557,4,0
4562,4,0
4567,4,0
4572,4,0
4577,4,0
4582,4,0
4587,4,0
4592,4,0
4597,4,0
4602,4,0
4607,4,0
4612,4,0
4617,4,0
4622,4,0
4627,4,0
4632,4,0
4637,4,0
4642,4,0
4647,4,0
4652,4,0
4657,4,0
4662,4,0
4667,4,0
4672,4,0
4677,4,0
4682,4,0
4687,4,0
4692,4,0
4697,4,0
4702,4,0
4707,4,0
4712,4,0
4717,4,0
4722,4,0
4727,4,0
4732,4,0
4737,4,0
4742,4,0
4747,4,0
4752,4,0
4757,4,0
4762,4,0
4767,4,0
4772,4,0
4777,4,0
4782,4,0
4787,4,0
4792,4,0
4797,4,0
4802,4,0
4807,4,0
4812,4,0
4817,4,0
4822,4,0
4827,4,0
4832,4,0
4837,4,0
4842,4,0
4847,4,0
4852,4,0
4857,4,0
4862,4,0
4867,4,0
4872,4,0
4877,4,0
4882,4,0
4887,4,0
4892,4,0
4897,4,0
4902,4,0
4907,4,0
4913,4,0
4918,4,0
4923,4,0
4928,4,0
4933,4,0
4938,4,0
4943,4,0
4948,4,0
4953,4,0
4958,4,0
4963,4,0
4968,4,0
4973,4,0
4978,4,0
4983,4,0
4988,4,0
4993,4,0
4998,4,0
5003,4,0
5008,4,0
5013,4,0
5018,4,0
5023,4,0
5028,4,0
5033,4,0
5038,4,0
5043,4,0
5048,4,0
5053,4,0
5058,4,0
5063,4,0
5068,4,0
5073,4,0
5078,4,0
5083,4,0
5088,4,0
5093,4,0
5098,4,0
5103,4,0
5108,4,0
5113,4,0
5118,4,0
5123,4,0
5128,4,0
5133,4,0
5138,4,0
5143,4,0
5148,4,0
5153,4,0
5158,4,0
5163,4,0
5168,4,0
5173,4,0
5178,4,0
5183,4,0
5188,4,0
5193,4,0
5198,4,0
5203,4,0
5208,4,0
5213,4,0
5218,4,0
5223,4,0
5228,4,0
5233,4,0
5238,4,0
5243,4,0
5248,4,0
5253,4,0
5258,4,0
5263,4,0
5268,4,0
