1458125556.49,0,240,3
1458125556.49,0,240,3
1458125556.49,0,240,3
1458125556.5,0,240,3
1458125556.5,0,240,3
1458125556.5,0,240,3
1458125556.5,0,240,3
1458125556.5,0,240,3
1458125556.5,0,240,3
1458125556.5,0,240,3
1458125556.5,0,240,3
1458125556.51,0,240,3
1458125556.51,0,240,3
1458125556.51,0,240,3
1458125556.51,0,240,3
1458125556.51,0,240,3
1458125556.51,0,240,3
1458125556.51,0,240,3
1458125556.51,0,240,3
1458125556.51,0,240,3
1458125556.51,0,240,3
1458125556.51,0,240,3
1458125556.51,0,240,3
1458125556.52,0,240,3
1458125556.53,0,240,3
1458125556.53,0,240,3
1458125556.53,0,240,3
1458125556.53,0,240,3
1458125556.53,0,240,3
1458125556.53,0,240,3
1458125556.54,0,240,3
1458125556.54,0,240,3
1458125556.54,0,240,3
1458125556.54,0,240,3
1458125556.54,0,240,3
1458125556.54,0,240,3
1458125556.54,0,240,3
1458125556.54,0,240,3
1458125556.54,0,240,3
1458125556.54,0,240,3
1458125556.54,0,240,3
1458125556.55,0,240,3
1458125556.55,0,240,3
1458125556.55,0,240,3
1458125556.55,0,240,3
1458125556.55,0,240,3
1458125556.55,0,240,3
1458125556.55,0,240,3
1458125556.55,0,240,3
1458125556.55,0,240,3
1458125556.56,0,240,3
1458125556.56,0,240,3
1458125556.56,0,240,3
1458125556.56,0,240,3
1458125556.56,0,240,3
1458125556.56,0,240,3
1458125556.56,0,240,3
1458125556.56,0,240,3
1458125556.56,0,240,3
1458125556.56,0,240,3
1458125556.56,0,240,3
1458125556.56,0,240,3
1458125556.56,0,240,3
1458125556.56,0,240,3
1458125556.57,0,240,3
1458125556.57,0,240,3
1458125556.57,0,240,3
1458125556.57,0,240,3
1458125556.58,0,240,3
1458125556.58,0,240,3
1458125556.58,0,240,3
1458125556.58,0,240,3
1458125556.58,0,240,3
1458125556.58,0,240,3
1458125556.58,0,240,3
1458125556.58,0,240,3
1458125556.58,0,240,3
1458125556.58,0,240,3
1458125556.58,0,240,3
1458125556.58,0,240,3
1458125556.58,0,240,3
1458125556.59,0,240,3
1458125556.59,0,240,3
1458125556.59,0,240,3
1458125556.59,0,240,3
1458125556.59,0,240,3
1458125556.59,0,240,3
1458125556.59,0,240,3
1458125556.59,0,240,3
1458125556.6,0,240,3
1458125556.6,0,240,3
1458125556.6,0,240,3
1458125556.6,0,240,3
1458125556.6,0,240,3
1458125556.6,0,240,3
1458125556.6,0,240,3
1458125556.6,0,240,3
1458125556.6,0,240,3
1458125556.6,0,240,3
1458125556.6,0,240,3
1458125556.6,0,240,3
1458125556.6,0,240,3
1458125556.61,0,240,3
1458125556.61,0,240,3
1458125556.61,0,240,3
1458125556.61,0,240,3
1458125556.61,0,240,3
1458125556.61,0,240,3
1458125556.61,0,240,3
1458125556.62,0,240,3
1458125556.62,0,240,3
1458125556.62,0,240,3
1458125556.62,0,240,3
1458125556.63,0,240,3
1458125556.63,0,240,3
1458125556.63,0,240,3
1458125556.63,0,240,3
1458125556.63,0,240,3
1458125556.63,0,240,3
1458125556.63,0,240,3
1458125556.63,0,240,3
1458125556.64,0,240,3
1458125556.64,0,240,3
1458125556.64,0,240,3
1458125556.64,0,240,3
1458125556.64,0,240,3
1458125556.64,0,240,3
1458125556.64,0,240,3
1458125556.65,0,240,3
1458125556.65,0,240,3
1458125556.65,0,240,3
1458125556.65,0,240,3
1458125556.65,0,240,3
1458125556.65,0,240,3
1458125556.65,0,240,3
1458125556.65,0,240,3
1458125556.66,0,240,3
1458125556.66,0,240,3
1458125556.66,0,240,3
1458125556.66,0,240,3
1458125556.66,0,240,3
1458125556.67,0,240,3
1458125556.67,0,240,3
1458125556.67,0,240,3
1458125556.67,0,240,3
1458125556.67,0,240,3
1458125556.67,0,240,3
1458125556.67,0,240,3
1458125556.67,0,240,3
1458125556.67,0,240,3
1458125556.67,0,240,3
1458125556.67,0,240,3
1458125556.68,0,240,3
1458125556.68,0,240,3
1458125556.68,0,240,3
1458125556.68,0,240,3
1458125556.68,0,240,3
1458125556.68,0,240,3
1458125556.68,0,240,3
1458125556.68,0,240,3
1458125556.68,0,240,3
1458125556.68,0,240,3
1458125556.68,0,240,3
1458125556.68,0,240,3
1458125556.68,0,240,3
1458125556.69,0,240,3
1458125556.69,0,240,3
1458125556.69,0,240,3
1458125556.69,0,240,3
1458125556.69,0,240,3
1458125556.69,0,240,3
1458125556.69,0,240,3
1458125556.69,0,240,3
1458125556.69,0,240,3
1458125556.69,0,240,3
1458125556.69,0,240,3
1458125556.69,0,240,3
1458125556.7,0,240,3
1458125556.7,0,240,3
1458125556.7,0,240,3
1458125556.7,0,240,3
1458125556.7,0,240,3
1458125556.7,0,240,3
1458125556.7,0,240,3
1458125556.7,0,240,3
1458125556.7,0,240,3
1458125556.7,0,240,3
1458125556.71,0,240,3
1458125556.71,0,240,3
1458125556.71,0,240,3
1458125556.71,0,240,3
1458125556.71,0,240,3
1458125556.71,0,240,3
1458125556.71,0,240,3
1458125556.71,0,240,3
1458125556.72,0,240,3
1458125556.72,0,240,3
1458125556.72,0,240,3
1458125556.72,0,240,3
1458125556.72,0,240,3
1458125556.72,0,240,3
1458125556.73,0,240,3
1458125556.73,0,240,3
1458125556.73,0,240,3
1458125556.73,0,240,3
1458125556.73,0,240,3
1458125556.73,0,240,3
1458125556.73,0,240,3
1458125556.73,0,240,3
1458125556.74,0,240,3
1458125556.75,0,240,3
1458125556.75,0,240,3
1458125556.75,0,240,3
1458125556.75,0,240,3
1458125556.75,0,240,3
1458125556.75,0,240,3
1458125556.75,0,240,3
1458125556.75,0,240,3
1458125556.75,0,240,3
1458125556.75,0,240,3
1458125556.75,0,240,3
1458125556.75,0,240,3
1458125556.75,0,240,3
1458125556.75,0,240,3
1458125556.75,0,240,3
1458125556.75,0,240,3
1458125556.75,0,240,3
1458125556.75,0,240,3
1458125556.76,0,240,3
1458125556.76,0,240,3
1458125556.76,0,240,3
1458125556.76,0,240,3
1458125556.76,0,240,3
1458125556.76,0,240,3
1458125556.76,0,240,3
1458125556.76,0,240,3
1458125556.76,0,240,3
1458125556.77,0,240,3
1458125556.77,0,240,3
1458125556.77,0,240,3
1458125556.77,0,240,3
1458125556.77,0,240,3
1458125556.77,0,240,3
1458125556.78,0,240,3
1458125556.78,0,240,3
1458125556.78,0,240,3
1458125556.78,0,240,3
1458125556.78,0,240,3
1458125556.78,0,240,3
1458125556.78,0,240,3
1458125556.78,0,240,3
1458125556.78,0,240,3
1458125556.78,0,240,3
1458125556.78,0,240,3
1458125556.78,0,240,3
1458125556.78,0,240,3
1458125556.78,0,240,3
1458125556.79,0,240,3
1458125556.79,0,240,3
1458125556.79,0,240,3
1458125556.79,0,240,3
1458125556.79,0,240,3
1458125556.79,0,240,3
1458125556.79,0,240,3
1458125556.79,0,240,3
1458125556.79,0,240,3
1458125556.8,0,240,3
1458125556.8,0,240,3
1458125556.8,0,240,3
1458125556.8,0,240,3
1458125556.8,0,240,3
1458125556.8,0,240,3
1458125556.8,0,240,3
1458125556.8,0,240,3
1458125556.8,0,240,3
1458125556.8,0,240,3
1458125556.81,0,240,3
1458125556.81,0,240,3
1458125556.81,0,240,3
1458125556.81,0,240,3
1458125556.81,0,240,3
1458125556.81,0,240,3
1458125556.81,0,240,3
1458125556.82,0,240,3
1458125556.82,0,240,3
1458125556.82,0,240,3
1458125556.82,0,240,3
1458125556.82,0,240,3
1458125556.82,0,240,3
1458125556.82,0,240,3
1458125556.82,0,240,3
1458125556.82,0,240,3
1458125556.83,0,240,3
1458125556.83,0,240,3
1458125556.83,0,240,3
1458125556.83,0,240,3
1458125556.83,0,240,3
1458125556.83,0,240,3
1458125556.83,0,240,3
1458125556.83,0,240,3
1458125556.83,0,240,3
1458125556.83,0,240,3
1458125556.84,0,240,3
1458125556.84,0,240,3
1458125556.84,0,240,3
1458125556.84,0,240,3
1458125556.84,0,240,3
1458125556.84,0,240,3
1458125556.84,0,240,3
1458125556.84,0,240,3
1458125556.84,0,240,3
1458125556.85,0,240,3
1458125556.85,0,240,3
1458125556.85,0,240,3
1458125556.85,0,240,3
1458125556.85,0,240,3
1458125556.85,0,240,3
1458125556.85,0,240,3
1458125556.85,0,240,3
1458125556.85,0,240,3
1458125556.85,0,240,3
1458125556.85,0,240,3
1458125556.86,0,240,3
1458125556.86,0,240,3
1458125556.86,0,240,3
1458125556.86,0,240,3
1458125556.86,0,240,3
1458125556.86,0,240,3
1458125556.86,0,240,3
1458125556.86,0,240,3
1458125556.86,0,240,3
1458125556.86,0,240,3
1458125556.87,0,240,3
1458125556.87,0,240,3
1458125556.87,0,240,3
1458125556.87,0,240,3
1458125556.87,0,240,3
1458125556.87,0,240,3
1458125556.87,0,240,3
1458125556.87,0,240,3
1458125556.87,0,240,3
1458125556.87,0,240,3
1458125556.87,0,240,3
1458125556.88,0,240,3
1458125556.88,0,240,3
1458125556.88,0,240,3
1458125556.88,0,240,3
1458125556.88,0,240,3
1458125556.88,0,240,3
1458125556.88,0,240,3
1458125556.88,0,240,3
1458125556.88,0,240,3
1458125556.88,0,240,3
1458125556.89,0,240,3
1458125556.89,0,240,3
1458125556.89,0,240,3
1458125556.89,0,240,3
1458125556.89,0,240,3
1458125556.89,0,240,3
1458125556.89,0,240,3
1458125556.89,0,240,3
1458125556.89,0,240,3
1458125556.89,0,240,3
1458125556.9,0,240,3
1458125556.9,0,240,3
1458125556.9,0,240,3
1458125556.9,0,240,3
1458125556.9,0,240,3
1458125556.9,0,240,3
1458125556.9,0,240,3
1458125556.9,0,240,3
1458125556.9,0,240,3
1458125556.9,0,240,3
1458125556.9,0,240,3
1458125556.9,0,240,3
1458125556.9,0,240,3
1458125556.91,0,240,3
1458125556.91,0,240,3
1458125556.91,0,240,3
1458125556.91,0,240,3
1458125556.91,0,240,3
1458125556.91,0,240,3
1458125556.91,0,240,3
1458125556.91,0,240,3
1458125556.91,0,240,3
1458125556.92,0,240,3
1458125556.92,0,240,3
1458125556.92,0,240,3
1458125556.92,0,240,3
1458125556.92,0,240,3
1458125556.92,0,240,3
1458125556.92,0,240,3
1458125556.92,0,240,3
1458125556.92,0,240,3
1458125556.92,0,240,3
1458125556.92,0,240,3
1458125556.92,0,240,3
1458125556.93,0,240,3
1458125556.93,0,240,3
1458125556.93,0,240,3
1458125556.93,0,240,3
1458125556.93,0,240,3
1458125556.93,0,240,3
1458125556.93,0,240,3
1458125556.93,0,240,3
1458125556.93,0,240,3
1458125556.93,0,240,3
1458125556.94,0,240,3
1458125556.94,0,240,3
1458125556.94,0,240,3
1458125556.94,0,240,3
1458125556.94,0,240,3
1458125556.94,0,240,3
1458125556.94,0,240,3
1458125556.94,0,240,3
1458125556.94,0,240,3
1458125556.94,0,240,3
1458125556.94,0,240,3
1458125556.94,0,240,3
1458125556.95,0,240,3
1458125556.95,0,240,3
1458125556.95,0,240,3
1458125556.95,0,240,3
1458125556.95,0,240,3
1458125556.95,0,240,3
1458125556.95,0,240,3
1458125556.95,0,240,3
1458125556.95,0,240,3
1458125556.95,0,240,3
1458125556.96,0,240,3
1458125556.96,0,240,3
1458125556.96,0,240,3
1458125556.96,0,240,3
1458125556.96,0,240,3
1458125556.96,0,240,3
1458125556.96,0,240,3
1458125556.97,0,240,3
1458125556.97,0,240,3
1458125556.97,0,240,3
1458125556.97,0,240,3
1458125556.97,0,240,3
1458125556.97,0,240,3
1458125556.98,0,240,3
1458125556.98,0,240,3
1458125556.98,0,240,3
1458125556.98,0,240,3
1458125556.98,0,240,3
1458125556.98,0,240,3
1458125556.99,0,240,3
1458125556.99,0,240,3
1458125556.99,0,240,3
1458125556.99,0,240,3
1458125557.0,0,240,3
1458125557.0,0,240,3
1458125557.01,0,240,3
1458125557.01,0,240,3
1458125557.01,0,240,3
1458125557.01,0,240,3
1458125557.01,0,240,3
1458125557.01,0,240,3
1458125557.01,0,240,3
1458125557.01,0,240,3
1458125557.01,0,240,3
1458125557.01,0,240,3
1458125557.02,0,240,3
1458125557.02,0,240,3
1458125557.02,0,240,3
1458125557.02,0,240,3
1458125557.02,0,240,3
1458125557.02,0,240,3
1458125557.02,0,240,3
1458125557.02,0,240,3
1458125557.02,0,240,3
1458125557.03,0,240,3
1458125557.03,0,240,3
1458125557.03,0,240,3
1458125557.03,0,240,3
1458125557.03,0,240,3
1458125557.03,0,240,3
1458125557.04,0,240,3
1458125557.05,0,240,3
1458125557.05,0,240,3
1458125557.06,0,240,3
1458125557.06,0,240,3
1458125557.06,0,240,3
1458125557.06,0,240,3
1458125557.06,0,240,3
1458125557.1,0,240,3
1458125557.11,0,240,3
1458125557.13,0,240,3
1458125557.14,0,240,3
1458125557.14,0,240,3
1458125557.15,0,240,3
1458125557.15,0,240,3
1458125557.15,0,240,3
1458125557.16,0,240,3
1458125557.16,0,240,3
1458125557.16,0,240,3
1458125557.16,0,240,3
1458125557.18,0,240,3
1458125557.18,0,240,3
1458125557.19,0,240,3
1458125557.19,0,240,3
1458125557.2,0,240,3
1458125557.2,0,240,3
1458125557.2,0,240,3
1458125557.2,0,240,3
1458125557.21,0,240,3
1458125557.21,0,240,3
1458125557.21,0,240,3
1458125557.22,0,240,3
1458125557.22,0,240,3
1458125557.23,0,240,3
1458125557.23,0,240,3
1458125557.23,0,240,3
1458125557.23,0,240,3
1458125557.24,0,240,3
1458125557.24,0,240,3
1458125557.28,0,240,3
1458125557.29,0,240,3
1458125557.29,0,240,3
1458125557.31,0,240,3
1458125557.31,0,240,3
1458125557.32,0,240,3
1458125557.32,0,240,3
1458125557.33,0,240,3
1458125557.33,0,240,3
1458125557.33,0,240,3
1458125557.34,0,240,3
1458125557.34,0,240,3
1458125557.34,0,240,3
1458125557.35,0,240,3
1458125557.35,0,240,3
1458125557.35,0,240,3
1458125557.36,0,240,3
1458125557.36,0,240,3
1458125557.36,0,240,3
1458125557.36,0,240,3
1458125557.37,0,240,3
1458125557.37,0,240,3
1458125557.37,0,240,3
1458125557.37,0,240,3
1458125557.38,0,240,3
1458125557.38,0,240,3
1458125557.38,0,240,3
1458125557.39,0,240,3
1458125557.39,0,240,3
1458125557.4,0,240,3
1458125557.41,0,240,3
1458125557.42,0,240,3
1458125557.42,0,240,3
1458125557.42,0,240,3
1458125557.43,0,240,3
1458125557.43,0,240,3
1458125557.44,0,240,3
1458125557.44,0,240,3
1458125557.44,0,240,3
1458125557.44,0,240,3
1458125557.44,0,240,3
1458125557.45,0,240,3
1458125557.45,0,240,3
1458125557.45,0,240,3
1458125557.45,0,240,3
1458125557.45,0,240,3
1458125557.45,0,240,3
1458125557.46,0,240,3
1458125557.46,0,240,3
1458125557.46,0,240,3
1458125557.46,0,240,3
1458125557.46,0,240,3
1458125557.46,0,240,3
1458125557.46,0,240,3
1458125557.46,0,240,3
1458125557.47,0,240,3
1458125557.47,0,240,3
1458125557.47,0,240,3
1458125557.47,0,240,3
1458125557.47,0,240,3
1458125557.47,0,240,3
1458125557.47,0,240,3
1458125557.48,0,240,3
1458125557.48,0,240,3
1458125557.48,0,240,3
1458125557.48,0,240,3
1458125557.48,0,240,3
1458125557.49,0,240,3
1458125557.49,0,240,3
1458125557.5,0,240,3
1458125557.5,0,240,3
1458125557.51,0,240,3
1458125557.51,0,240,3
1458125557.52,0,240,3
1458125557.53,0,240,3
1458125557.53,0,240,3
1458125557.54,0,240,3
1458125557.54,0,240,3
1458125557.54,0,240,3
1458125557.55,0,240,3
1458125557.55,0,240,3
1458125557.55,0,240,3
1458125557.55,0,240,3
1458125557.56,0,240,3
1458125557.56,0,240,3
1458125557.56,0,240,3
1458125557.56,0,240,3
1458125557.56,0,240,3
1458125557.56,0,240,3
1458125557.57,0,240,3
1458125557.57,0,240,3
1458125557.58,0,240,3
1458125557.59,0,240,3
1458125557.59,0,240,3
1458125557.59,0,240,3
1458125557.59,0,240,3
1458125557.59,0,240,3
1458125557.6,0,240,3
1458125557.6,0,240,3
1458125557.6,0,240,3
1458125557.61,0,240,3
1458125557.61,0,240,3
1458125557.61,0,240,3
1458125557.62,0,240,3
1458125557.62,0,240,3
1458125557.62,0,240,3
1458125557.62,0,240,3
1458125557.63,0,240,3
1458125557.63,0,240,3
1458125557.63,0,240,3
1458125557.63,0,240,3
1458125557.63,0,240,3
1458125557.63,0,240,3
1458125557.64,0,240,3
1458125557.64,0,240,3
1458125557.64,0,240,3
1458125557.64,0,240,3
1458125557.65,0,240,3
1458125557.65,0,240,3
1458125557.65,0,240,3
1458125557.65,0,240,3
1458125557.66,0,240,3
1458125557.66,0,240,3
1458125557.66,0,240,3
1458125557.66,0,240,3
1458125557.66,0,240,3
1458125557.67,0,240,3
1458125557.67,0,240,3
1458125557.67,0,240,3
1458125557.67,0,240,3
1458125557.68,0,240,3
1458125557.68,0,240,3
1458125557.69,0,240,3
1458125557.69,0,240,3
1458125557.69,0,240,3
1458125557.7,0,240,3
1458125557.7,0,240,3
1458125557.7,0,240,3
1458125557.71,0,240,3
1458125557.71,0,240,3
1458125557.72,0,240,3
1458125557.72,0,240,3
1458125557.73,0,240,3
1458125557.73,0,240,3
1458125557.74,0,240,3
1458125557.74,0,240,3
1458125557.74,0,240,3
1458125557.74,0,240,3
1458125557.74,0,240,3
1458125557.74,0,240,3
1458125557.75,0,240,3
1458125557.75,0,240,3
1458125557.75,0,240,3
1458125557.75,0,240,3
1458125557.75,0,240,3
1458125557.76,0,240,3
1458125557.76,0,240,3
1458125557.76,0,240,3
1458125557.76,0,240,3
1458125557.76,0,240,3
1458125557.76,0,240,3
1458125557.77,0,240,3
1458125557.77,0,240,3
1458125557.77,0,240,3
1458125557.78,0,240,3
1458125557.78,0,240,3
1458125557.78,0,240,3
1458125557.78,0,240,3
1458125557.78,0,240,3
1458125557.79,0,240,3
1458125557.79,0,240,3
1458125557.79,0,240,3
1458125557.8,0,240,3
1458125557.8,0,240,3
1458125557.81,0,240,3
1458125557.81,0,240,3
1458125557.82,0,240,3
1458125557.83,0,240,3
1458125557.84,0,240,3
1458125557.84,0,240,3
1458125557.84,0,240,3
1458125557.85,0,240,3
1458125557.85,0,240,3
1458125557.85,0,240,3
1458125557.85,0,240,3
1458125557.86,0,240,3
1458125557.87,0,240,3
1458125557.87,0,240,3
1458125557.87,0,240,3
1458125557.87,0,240,3
1458125557.87,0,240,3
1458125557.87,0,240,3
1458125557.88,0,240,3
1458125557.88,0,240,3
1458125557.88,0,240,3
1458125557.88,0,240,3
1458125557.88,0,240,3
1458125557.89,0,240,3
1458125557.89,0,240,3
1458125557.89,0,240,3
1458125557.89,0,240,3
1458125557.89,0,240,3
1458125557.89,0,240,3
1458125557.9,0,240,3
1458125557.9,0,240,3
1458125557.9,0,240,3
1458125557.9,0,240,3
1458125557.9,0,240,3
1458125557.9,0,240,3
1458125557.91,0,240,3
1458125557.91,0,240,3
1458125557.92,0,240,3
1458125557.92,0,240,3
1458125557.92,0,240,3
1458125557.92,0,240,3
1458125557.92,0,240,3
1458125557.92,0,240,3
1458125557.92,0,240,3
1458125557.92,0,240,3
1458125557.92,0,240,3
1458125557.92,0,240,3
1458125557.92,0,240,3
1458125557.92,0,240,3
1458125557.93,0,240,3
1458125557.93,0,240,3
1458125557.93,0,240,3
1458125557.93,0,240,3
1458125557.93,0,240,3
1458125557.93,0,240,3
1458125557.94,0,240,3
1458125557.94,0,240,3
1458125557.94,0,240,3
1458125557.94,0,240,3
1458125557.94,0,240,3
1458125557.94,0,240,3
1458125557.94,0,240,3
1458125557.95,0,240,3
1458125557.95,0,240,3
1458125557.95,0,240,3
1458125557.95,0,240,3
1458125557.95,0,240,3
1458125557.95,0,240,3
1458125557.95,0,240,3
1458125557.95,0,240,3
1458125557.96,0,240,3
1458125557.96,0,240,3
1458125557.96,0,240,3
1458125557.96,0,240,3
1458125557.96,0,240,3
1458125557.96,0,240,3
1458125557.96,0,240,3
1458125557.97,0,240,3
1458125557.97,0,240,3
1458125557.97,0,240,3
1458125557.98,0,240,3
1458125557.98,0,240,3
1458125557.98,0,240,3
1458125557.98,0,240,3
1458125557.98,0,240,3
1458125557.98,0,240,3
1458125557.98,0,240,3
1458125557.98,0,240,3
1458125557.98,0,240,3
1458125557.98,0,240,3
1458125557.99,0,240,3
1458125557.99,0,240,3
1458125557.99,0,240,3
1458125557.99,0,240,3
1458125558.0,0,240,3
1458125558.0,0,240,3
1458125558.0,0,240,3
1458125558.0,0,240,3
1458125558.0,0,240,3
1458125558.0,0,240,3
1458125558.0,0,240,3
1458125558.0,0,240,3
1458125558.0,0,240,3
1458125558.0,0,240,3
1458125558.01,0,240,3
1458125558.01,0,240,3
1458125558.01,0,240,3
1458125558.01,0,240,3
1458125558.01,0,240,3
1458125558.01,0,240,3
1458125558.02,0,240,3
1458125558.02,0,240,3
1458125558.02,0,240,3
1458125558.02,0,240,3
1458125558.02,0,240,3
1458125558.02,0,240,3
1458125558.02,0,240,3
1458125558.02,0,240,3
1458125558.03,0,240,3
1458125558.03,0,240,3
1458125558.03,0,240,3
1458125558.03,0,240,3
1458125558.03,0,240,3
1458125558.03,0,240,3
1458125558.03,0,240,3
1458125558.03,0,240,3
1458125558.04,0,240,3
1458125558.04,0,240,3
1458125558.05,0,240,3
1458125558.05,0,240,3
1458125558.05,0,240,3
1458125558.05,0,240,3
1458125558.05,0,240,3
1458125558.05,0,240,3
1458125558.05,0,240,3
1458125558.05,0,240,3
1458125558.05,0,240,3
1458125558.05,0,240,3
1458125558.06,0,240,3
1458125558.06,0,240,3
1458125558.06,0,240,3
1458125558.06,0,240,3
1458125558.06,0,240,3
1458125558.06,0,240,3
1458125558.06,0,240,3
1458125558.06,0,240,3
1458125558.07,0,240,3
1458125558.07,0,240,3
1458125558.07,0,240,3
1458125558.07,0,240,3
1458125558.07,0,240,3
1458125558.08,0,240,3
1458125558.08,0,240,3
1458125558.08,0,240,3
1458125558.08,0,240,3
1458125558.08,0,240,3
1458125558.08,0,240,3
1458125558.09,0,240,3
1458125558.09,0,240,3
1458125558.09,0,240,3
1458125558.1,0,240,3
1458125558.11,0,240,3
1458125558.11,0,240,3
1458125558.11,0,240,3
1458125558.12,0,240,3
1458125558.13,0,240,3
1458125558.13,0,240,3
1458125558.13,0,240,3
1458125558.13,0,240,3
1458125558.13,0,240,3
1458125558.13,0,240,3
1458125558.13,0,240,3
1458125558.13,0,240,3
1458125558.14,0,240,3
1458125558.14,0,240,3
1458125558.14,0,240,3
1458125558.15,0,240,3
1458125558.15,0,240,3
1458125558.15,0,240,3
1458125558.15,0,240,3
1458125558.15,0,240,3
1458125558.15,0,240,3
1458125558.15,0,240,3
1458125558.16,0,240,3
1458125558.16,0,240,3
1458125558.16,0,240,3
1458125558.16,0,240,3
1458125558.17,0,240,3
1458125558.17,0,240,3
1458125558.17,0,240,3
1458125558.17,0,240,3
1458125558.17,0,240,3
1458125558.17,0,240,3
1458125558.17,0,240,3
1458125558.17,0,240,3
1458125558.18,0,240,3
1458125558.18,0,240,3
1458125558.18,0,240,3
1458125558.18,0,240,3
1458125558.18,0,240,3
1458125558.18,0,240,3
1458125558.19,0,240,3
1458125558.19,0,240,3
1458125558.19,0,240,3
1458125558.19,0,240,3
1458125558.19,0,240,3
1458125558.19,0,240,3
1458125558.19,0,240,3
1458125558.19,0,240,3
1458125558.2,0,240,3
1458125558.2,0,240,3
1458125558.21,0,240,3
1458125558.21,0,240,3
1458125558.22,0,240,3
1458125558.22,0,240,3
1458125558.22,0,240,3
1458125558.22,0,240,3
1458125558.22,0,240,3
1458125558.22,0,240,3
1458125558.22,0,240,3
1458125558.22,0,240,3
1458125558.22,0,240,3
1458125558.22,0,240,3
1458125558.22,0,240,3
1458125558.22,0,240,3
1458125558.23,0,240,3
1458125558.23,0,240,3
1458125558.23,0,240,3
1458125558.23,0,240,3
1458125558.23,0,240,3
1458125558.23,0,240,3
1458125558.23,0,240,3
1458125558.24,0,240,3
1458125558.24,0,240,3
1458125558.24,0,240,3
1458125558.24,0,240,3
1458125558.24,0,240,3
1458125558.24,0,240,3
1458125558.24,0,240,3
1458125558.24,0,240,3
1458125558.24,0,240,3
1458125558.24,0,240,3
1458125558.24,0,240,3
1458125558.24,0,240,3
1458125558.24,0,240,3
1458125558.24,0,240,3
1458125558.24,0,240,3
1458125558.24,0,240,3
1458125558.24,0,240,3
1458125558.24,0,240,3
1458125558.25,0,240,3
1458125558.25,0,240,3
1458125558.25,0,240,3
1458125558.25,0,240,3
1458125558.25,0,240,3
1458125558.25,0,240,3
1458125558.25,0,240,3
1458125558.25,0,240,3
1458125558.25,0,240,3
1458125558.26,0,240,3
1458125558.26,0,240,3
1458125558.27,0,240,3
1458125558.27,0,240,3
1458125558.27,0,240,3
1458125558.27,0,240,3
1458125558.27,0,240,3
1458125558.27,0,240,3
1458125558.28,0,240,3
1458125558.28,0,240,3
1458125558.28,0,240,3
1458125558.28,0,240,3
1458125558.28,0,240,3
1458125558.28,0,240,3
1458125558.28,0,240,3
1458125558.28,0,240,3
1458125558.28,0,240,3
1458125558.29,0,240,3
1458125558.29,0,240,3
1458125558.29,0,240,3
1458125558.29,0,240,3
1458125558.29,0,240,3
1458125558.29,0,240,3
1458125558.3,0,240,3
1458125558.3,0,240,3
1458125558.3,0,240,3
1458125558.3,0,240,3
1458125558.3,0,240,3
1458125558.3,0,240,3
1458125558.3,0,240,3
1458125558.31,0,240,3
1458125558.31,0,240,3
1458125558.31,0,240,3
1458125558.31,0,240,3
1458125558.31,0,240,3
1458125558.31,0,240,3
1458125558.31,0,240,3
1458125558.31,0,240,3
1458125558.31,0,240,3
1458125558.32,0,240,3
1458125558.32,0,240,3
1458125558.32,0,240,3
1458125558.32,0,240,3
1458125558.32,0,240,3
1458125558.32,0,240,3
1458125558.32,0,240,3
1458125558.33,0,240,3
1458125558.33,0,240,3
1458125558.33,0,240,3
1458125558.33,0,240,3
1458125558.33,0,240,3
1458125558.33,0,240,3
1458125558.33,0,240,3
1458125558.34,0,240,3
1458125558.34,0,240,3
1458125558.34,0,240,3
1458125558.34,0,240,3
1458125558.34,0,240,3
1458125558.34,0,240,3
1458125558.34,0,240,3
1458125558.34,0,240,3
1458125558.34,0,240,3
1458125558.34,0,240,3
1458125558.35,0,240,3
1458125558.35,0,240,3
1458125558.35,0,240,3
1458125558.35,0,240,3
1458125558.35,0,240,3
1458125558.35,0,240,3
1458125558.36,0,240,3
1458125558.36,0,240,3
1458125558.36,0,240,3
1458125558.37,0,240,3
1458125558.37,0,240,3
1458125558.37,0,240,3
1458125558.38,0,240,3
1458125558.39,0,240,3
1458125558.39,0,240,3
1458125558.4,0,240,3
1458125558.41,0,240,3
1458125558.41,0,240,3
1458125558.41,0,240,3
1458125558.41,0,240,3
1458125558.42,0,240,3
1458125558.42,0,240,3
1458125558.42,0,240,3
1458125558.42,0,240,3
1458125558.43,0,240,3
1458125558.43,0,240,3
1458125558.43,0,240,3
1458125558.43,0,240,3
1458125558.43,0,240,3
1458125558.44,0,240,3
1458125558.44,0,240,3
1458125558.44,0,240,3
1458125558.44,0,240,3
1458125558.44,0,240,3
1458125558.44,0,240,3
1458125558.45,0,240,3
1458125558.45,0,240,3
1458125558.45,0,240,3
1458125558.46,0,240,3
1458125558.46,0,240,3
1458125558.46,0,240,3
1458125558.46,0,240,3
1458125558.46,0,240,3
1458125558.46,0,240,3
1458125558.47,0,240,3
1458125558.47,0,240,3
1458125558.47,0,240,3
1458125558.47,0,240,3
1458125558.47,0,240,3
1458125558.47,0,240,3
1458125558.47,0,240,3
1458125558.48,0,240,3
1458125558.48,0,240,3
1458125558.48,0,240,3
1458125558.48,0,240,3
1458125558.49,0,240,3
1458125558.49,0,240,3
1458125558.5,0,240,3
1458125558.5,0,240,3
1458125558.5,0,240,3
1458125558.5,0,240,3
1458125558.5,0,240,3
1458125558.5,0,240,3
1458125558.5,0,240,3
1458125558.5,0,240,3
1458125558.5,0,240,3
1458125558.51,0,240,3
1458125558.51,0,240,3
1458125558.51,0,240,3
1458125558.51,0,240,3
1458125558.51,0,240,3
1458125558.51,0,240,3
1458125558.52,0,240,3
1458125558.52,0,240,3
1458125558.52,0,240,3
1458125558.52,0,240,3
1458125558.52,0,240,3
1458125558.52,0,240,3
1458125558.52,0,240,3
1458125558.53,0,240,3
1458125558.53,0,240,3
1458125558.53,0,240,3
1458125558.53,0,240,3
1458125558.53,0,240,3
1458125558.53,0,240,3
1458125558.54,0,240,3
1458125558.54,0,240,3
1458125558.54,0,240,3
1458125558.54,0,240,3
1458125558.54,0,240,3
1458125558.54,0,240,3
1458125558.55,0,240,3
1458125558.55,0,240,3
1458125558.55,0,240,3
1458125558.55,0,240,3
1458125558.56,0,240,3
1458125558.56,0,240,3
1458125558.58,0,240,3
1458125558.58,0,240,3
1458125558.58,0,240,3
1458125558.58,0,240,3
1458125558.58,0,240,3
1458125558.58,0,240,3
1458125558.58,0,240,3
1458125558.59,0,240,3
1458125558.59,0,240,3
1458125558.59,0,240,3
1458125558.59,0,240,3
1458125558.59,0,240,3
1458125558.59,0,240,3
1458125558.59,0,240,3
1458125558.6,0,240,3
1458125558.6,0,240,3
1458125558.6,0,240,3
1458125558.6,0,240,3
1458125558.6,0,240,3
1458125558.6,0,240,3
1458125558.61,0,240,3
1458125558.61,0,240,3
1458125558.61,0,240,3
1458125558.61,0,240,3
1458125558.62,0,240,3
1458125558.62,0,240,3
1458125558.62,0,240,3
1458125558.62,0,240,3
1458125558.62,0,240,3
1458125558.63,0,240,3
1458125558.63,0,240,3
1458125558.63,0,240,3
1458125558.63,0,240,3
1458125558.63,0,240,3
1458125558.64,0,240,3
1458125558.64,0,240,3
1458125558.64,0,240,3
1458125558.64,0,240,3
1458125558.64,0,240,3
1458125558.64,0,240,3
1458125558.65,0,240,3
1458125558.65,0,240,3
1458125558.65,0,240,3
1458125558.65,0,240,3
1458125558.65,0,240,3
1458125558.66,0,240,3
1458125558.66,0,240,3
1458125558.66,0,240,3
1458125558.66,0,240,3
1458125558.66,0,240,3
1458125558.66,0,240,3
1458125558.66,0,240,3
1458125558.67,0,240,3
1458125558.67,0,240,3
1458125558.67,0,240,3
1458125558.67,0,240,3
1458125558.67,0,240,3
1458125558.68,0,240,3
1458125558.68,0,240,3
1458125558.68,0,240,3
1458125558.68,0,240,3
1458125558.68,0,240,3
1458125558.68,0,240,3
1458125558.69,0,240,3
1458125558.69,0,240,3
1458125558.69,0,240,3
1458125558.69,0,240,3
1458125558.69,0,240,3
1458125558.69,0,240,3
1458125558.7,0,240,3
1458125558.7,0,240,3
1458125558.7,0,240,3
1458125558.7,0,240,3
1458125558.71,0,240,3
1458125558.71,0,240,3
1458125558.71,0,240,3
1458125558.71,0,240,3
1458125558.72,0,240,3
1458125558.72,0,240,3
1458125558.72,0,240,3
1458125558.72,0,240,3
1458125558.72,0,240,3
1458125558.72,0,240,3
1458125558.73,0,240,3
1458125558.73,0,240,3
1458125558.73,0,240,3
1458125558.73,0,240,3
1458125558.73,0,240,3
1458125558.73,0,240,3
1458125558.74,0,240,3
1458125558.74,0,240,3
1458125558.74,0,240,3
1458125558.74,0,240,3
1458125558.74,0,240,3
1458125558.75,0,240,3
1458125558.75,0,240,3
1458125558.75,0,240,3
1458125558.75,0,240,3
1458125558.75,0,240,3
1458125558.75,0,240,3
1458125558.76,0,240,3
1458125558.76,0,240,3
1458125558.76,0,240,3
1458125558.76,0,240,3
1458125558.76,0,240,3
1458125558.77,0,240,3
1458125558.77,0,240,3
1458125558.77,0,240,3
1458125558.77,0,240,3
1458125558.77,0,240,3
1458125558.77,0,240,3
1458125558.77,0,240,3
1458125558.78,0,240,3
1458125558.78,0,240,3
1458125558.78,0,240,3
1458125558.78,0,240,3
1458125558.78,0,240,3
1458125558.79,0,240,3
1458125558.79,0,240,3
1458125558.79,0,240,3
1458125558.79,0,240,3
1458125558.79,0,240,3
1458125558.79,0,240,3
1458125558.81,0,240,3
1458125558.81,0,240,3
1458125558.82,0,240,3
1458125558.82,0,240,3
1458125558.83,0,240,3
1458125558.83,0,240,3
1458125558.83,0,240,3
1458125558.83,0,240,3
1458125558.83,0,240,3
1458125558.84,0,240,3
1458125558.84,0,240,3
1458125558.84,0,240,3
1458125558.84,0,240,3
1458125558.86,0,240,3
1458125558.86,0,240,3
1458125558.86,0,240,3
1458125558.86,0,240,3
1458125558.86,0,240,3
1458125558.86,0,240,3
1458125558.87,0,240,3
1458125558.87,0,240,3
1458125558.87,0,240,3
1458125558.87,0,240,3
1458125558.87,0,240,3
1458125558.87,0,240,3
1458125558.87,0,240,3
1458125558.87,0,240,3
1458125558.87,0,240,3
1458125558.87,0,240,3
1458125558.88,0,240,3
1458125558.88,0,240,3
1458125558.88,0,240,3
1458125558.88,0,240,3
1458125558.88,0,240,3
1458125558.88,0,240,3
1458125558.88,0,240,3
1458125558.88,0,240,3
1458125558.88,0,240,3
1458125558.89,0,240,3
1458125558.89,0,240,3
1458125558.89,0,240,3
1458125558.89,0,240,3
1458125558.89,0,240,3
1458125558.89,0,240,3
1458125558.89,0,240,3
1458125558.89,0,240,3
1458125558.89,0,240,3
1458125558.89,0,240,3
1458125558.89,0,240,3
1458125558.89,0,240,3
1458125558.89,0,240,3
1458125558.89,0,240,3
1458125558.89,0,240,3
1458125558.89,0,240,3
1458125558.89,0,240,3
1458125558.89,0,240,3
1458125558.89,0,240,3
1458125558.89,0,240,3
1458125558.9,0,240,3
1458125558.9,0,240,3
1458125558.9,0,240,3
1458125558.9,0,240,3
1458125558.9,0,240,3
1458125558.9,0,240,3
1458125558.9,0,240,3
1458125558.9,0,240,3
1458125558.9,0,240,3
1458125558.9,0,240,3
1458125558.9,0,240,3
1458125558.9,0,240,3
1458125558.9,0,240,3
1458125558.9,0,240,3
1458125558.91,0,240,3
1458125558.91,0,240,3
1458125558.91,0,240,3
1458125558.91,0,240,3
1458125558.92,0,240,3
1458125558.92,0,240,3
1458125558.92,0,240,3
1458125558.92,0,240,3
1458125558.92,0,240,3
1458125558.92,0,240,3
1458125558.93,0,240,3
1458125558.93,0,240,3
1458125558.93,0,240,3
1458125558.93,0,240,3
1458125558.93,0,240,3
1458125558.93,0,240,3
1458125558.93,0,240,3
1458125558.93,0,240,3
1458125558.93,0,240,3
1458125558.93,0,240,3
1458125558.94,0,240,3
1458125558.94,0,240,3
1458125558.94,0,240,3
1458125558.94,0,240,3
1458125558.94,0,240,3
