1458125631.47,0,124,3
1458125631.47,0,124,3
1458125631.49,0,124,3
1458125631.52,0,124,3
1458125631.53,0,124,3
1458125631.53,0,124,3
1458125631.55,0,124,3
1458125631.55,0,124,3
1458125631.6,0,124,3
1458125631.6,0,124,3
1458125631.63,0,124,3
1458125631.69,0,124,3
1458125631.74,0,124,3
1458125631.77,0,124,3
1458125631.81,0,124,3
1458125631.84,0,124,3
1458125631.85,0,124,3
1458125631.89,0,124,3
1458125632.02,0,124,3
1458125632.1,0,124,3
1458125632.2,0,124,3
1458125632.22,0,124,3
1458125632.36,0,124,3
1458125632.46,0,124,3
1458125632.55,0,124,3
1458125632.66,0,124,3
1458125632.72,0,124,3
1458125632.77,0,124,3
1458125632.84,0,124,3
1458125632.88,0,124,3
1458125632.93,0,124,3
1458125632.95,0,124,3
1458125632.98,0,124,3
1458125633.0,0,124,3
1458125633.01,0,124,3
1458125633.04,0,124,3
1458125633.09,0,124,3
1458125633.13,0,124,3
1458125633.14,0,124,3
1458125633.16,0,124,3
1458125633.16,0,124,3
1458125633.17,0,124,3
1458125633.26,0,124,3
1458125633.28,0,124,3
1458125633.33,0,124,3
1458125633.36,0,124,3
1458125633.39,0,124,3
1458125633.45,0,124,3
1458125633.46,0,124,3
1458125633.46,0,124,3
1458125633.47,0,124,3
1458125633.49,0,124,3
1458125633.5,0,124,3
1458125633.53,0,124,3
1458125633.53,0,124,3
1458125633.54,0,124,3
1458125633.54,0,124,3
1458125633.58,0,124,3
1458125633.58,0,124,3
1458125633.59,0,124,3
1458125633.6,0,124,3
1458125633.6,0,124,3
1458125633.62,0,124,3
1458125633.64,0,124,3
1458125633.66,0,124,3
1458125633.7,0,124,3
1458125633.72,0,124,3
1458125633.72,0,124,3
1458125633.78,0,124,3
1458125633.85,0,124,3
1458125633.87,0,124,3
1458125633.92,0,124,3
1458125633.92,0,124,3
1458125633.94,0,124,3
1458125633.94,0,124,3
1458125633.97,0,124,3
1458125634.0,0,124,3
1458125634.01,0,124,3
1458125634.04,0,124,3
1458125634.1,0,124,3
1458125634.13,0,124,3
1458125634.17,0,124,3
1458125634.27,0,124,3
1458125634.27,0,124,3
1458125634.31,0,124,3
1458125634.34,0,124,3
1458125634.37,0,124,3
1458125634.37,0,124,3
1458125634.45,0,124,3
1458125634.45,0,124,3
1458125634.45,0,124,3
1458125634.46,0,124,3
1458125634.46,0,124,3
1458125634.46,0,124,3
1458125634.46,0,124,3
1458125634.46,0,124,3
1458125634.46,0,124,3
1458125634.47,0,124,3
1458125634.47,0,124,3
1458125634.47,0,124,3
1458125634.48,0,124,3
1458125634.48,0,124,3
1458125634.48,0,124,3
1458125634.49,0,124,3
1458125634.49,0,124,3
1458125634.49,0,124,3
1458125634.49,0,124,3
1458125634.5,0,124,3
1458125634.5,0,124,3
1458125634.5,0,124,3
1458125634.51,0,124,3
1458125634.51,0,124,3
1458125634.51,0,124,3
1458125634.53,0,124,3
1458125634.53,0,124,3
1458125634.54,0,124,3
1458125634.54,0,124,3
1458125634.54,0,124,3
1458125634.55,0,124,3
1458125634.56,0,124,3
1458125634.56,0,124,3
1458125634.56,0,124,3
1458125634.56,0,124,3
1458125634.56,0,124,3
1458125634.57,0,124,3
1458125634.57,0,124,3
1458125634.57,0,124,3
1458125634.58,0,124,3
1458125634.58,0,124,3
1458125634.58,0,124,3
1458125634.59,0,124,3
1458125634.59,0,124,3
1458125634.59,0,124,3
1458125634.59,0,124,3
1458125634.6,0,124,3
1458125634.6,0,124,3
1458125634.6,0,124,3
1458125634.6,0,124,3
1458125634.61,0,124,3
1458125634.61,0,124,3
1458125634.61,0,124,3
1458125634.61,0,124,3
1458125634.61,0,124,3
1458125634.63,0,124,3
1458125634.63,0,124,3
1458125634.64,0,124,3
1458125634.65,0,124,3
1458125634.65,0,124,3
1458125634.65,0,124,3
1458125634.65,0,124,3
1458125634.66,0,124,3
1458125634.68,0,124,3
1458125634.69,0,124,3
1458125634.69,0,124,3
1458125634.69,0,124,3
1458125634.69,0,124,3
1458125634.69,0,124,3
1458125634.71,0,124,3
1458125634.71,0,124,3
1458125634.71,0,124,3
1458125634.71,0,124,3
1458125634.74,0,124,3
1458125634.74,0,124,3
1458125634.74,0,124,3
1458125634.75,0,124,3
1458125634.76,0,124,3
1458125634.76,0,124,3
1458125634.76,0,124,3
1458125634.76,0,124,3
1458125634.77,0,124,3
1458125634.78,0,124,3
1458125634.78,0,124,3
1458125634.79,0,124,3
1458125634.79,0,124,3
1458125634.79,0,124,3
1458125634.79,0,124,3
1458125634.8,0,124,3
1458125634.8,0,124,3
1458125634.81,0,124,3
1458125634.81,0,124,3
1458125634.81,0,124,3
1458125634.81,0,124,3
1458125634.81,0,124,3
1458125634.81,0,124,3
1458125634.83,0,124,3
1458125634.83,0,124,3
1458125634.83,0,124,3
1458125634.84,0,124,3
1458125634.85,0,124,3
1458125634.85,0,124,3
1458125634.85,0,124,3
1458125634.85,0,124,3
1458125634.86,0,124,3
1458125634.86,0,124,3
1458125634.86,0,124,3
1458125634.86,0,124,3
1458125634.86,0,124,3
1458125634.86,0,124,3
1458125634.87,0,124,3
1458125634.89,0,124,3
1458125634.89,0,124,3
1458125634.9,0,124,3
1458125634.9,0,124,3
1458125634.9,0,124,3
1458125634.9,0,124,3
1458125634.9,0,124,3
1458125634.9,0,124,3
1458125634.91,0,124,3
1458125634.91,0,124,3
1458125634.92,0,124,3
1458125634.92,0,124,3
1458125634.92,0,124,3
1458125634.93,0,124,3
1458125634.93,0,124,3
1458125634.93,0,124,3
1458125634.94,0,124,3
1458125634.94,0,124,3
1458125634.94,0,124,3
1458125634.95,0,124,3
1458125634.95,0,124,3
1458125634.96,0,124,3
1458125634.97,0,124,3
1458125634.97,0,124,3
1458125634.97,0,124,3
1458125634.97,0,124,3
1458125634.97,0,124,3
1458125634.99,0,124,3
1458125634.99,0,124,3
1458125634.99,0,124,3
1458125634.99,0,124,3
1458125635.0,0,124,3
1458125635.0,0,124,3
1458125635.0,0,124,3
1458125635.03,0,124,3
1458125635.03,0,124,3
1458125635.03,0,124,3
1458125635.04,0,124,3
1458125635.04,0,124,3
1458125635.04,0,124,3
1458125635.04,0,124,3
1458125635.04,0,124,3
1458125635.04,0,124,3
1458125635.04,0,124,3
1458125635.08,0,124,3
1458125635.08,0,124,3
1458125635.08,0,124,3
1458125635.08,0,124,3
1458125635.08,0,124,3
1458125635.1,0,124,3
1458125635.11,0,124,3
1458125635.11,0,124,3
1458125635.12,0,124,3
1458125635.12,0,124,3
1458125635.13,0,124,3
1458125635.14,0,124,3
1458125635.15,0,124,3
1458125635.15,0,124,3
1458125635.16,0,124,3
1458125635.16,0,124,3
1458125635.18,0,124,3
1458125635.18,0,124,3
1458125635.19,0,124,3
1458125635.22,0,124,3
1458125635.22,0,124,3
1458125635.23,0,124,3
1458125635.23,0,124,3
1458125635.23,0,124,3
1458125635.26,0,124,3
1458125635.28,0,124,3
1458125635.28,0,124,3
1458125635.28,0,124,3
1458125635.31,0,124,3
1458125635.32,0,124,3
1458125635.32,0,124,3
1458125635.33,0,124,3
1458125635.33,0,124,3
1458125635.33,0,124,3
1458125635.34,0,124,3
1458125635.35,0,124,3
1458125635.37,0,124,3
1458125635.37,0,124,3
1458125635.37,0,124,3
1458125635.38,0,124,3
1458125635.38,0,124,3
1458125635.39,0,124,3
1458125635.39,0,124,3
1458125635.42,0,124,3
1458125635.42,0,124,3
1458125635.42,0,124,3
1458125635.42,0,124,3
1458125635.43,0,124,3
1458125635.43,0,124,3
1458125635.43,0,124,3
1458125635.43,0,124,3
1458125635.43,0,124,3
1458125635.43,0,124,3
1458125635.44,0,124,3
1458125635.5,0,124,3
1458125635.53,0,124,3
1458125635.53,0,124,3
1458125635.53,0,124,3
1458125635.54,0,124,3
1458125635.54,0,124,3
1458125635.57,0,124,3
1458125635.57,0,124,3
1458125635.58,0,124,3
1458125635.59,0,124,3
1458125635.59,0,124,3
1458125635.6,0,124,3
1458125635.61,0,124,3
1458125635.61,0,124,3
1458125635.61,0,124,3
1458125635.62,0,124,3
1458125635.62,0,124,3
1458125635.63,0,124,3
1458125635.63,0,124,3
1458125635.63,0,124,3
1458125635.63,0,124,3
1458125635.63,0,124,3
1458125635.66,0,124,3
1458125635.66,0,124,3
1458125635.66,0,124,3
1458125635.67,0,124,3
1458125635.67,0,124,3
1458125635.67,0,124,3
1458125635.67,0,124,3
1458125635.68,0,124,3
1458125635.68,0,124,3
1458125635.68,0,124,3
1458125635.68,0,124,3
1458125635.7,0,124,3
1458125635.7,0,124,3
1458125635.7,0,124,3
1458125635.7,0,124,3
1458125635.7,0,124,3
1458125635.71,0,124,3
1458125635.71,0,124,3
1458125635.71,0,124,3
1458125635.73,0,124,3
1458125635.75,0,124,3
1458125635.75,0,124,3
1458125635.75,0,124,3
1458125635.76,0,124,3
1458125635.77,0,124,3
1458125635.77,0,124,3
1458125635.77,0,124,3
1458125635.78,0,124,3
1458125635.78,0,124,3
1458125635.81,0,124,3
1458125635.81,0,124,3
1458125635.81,0,124,3
1458125635.81,0,124,3
1458125635.81,0,124,3
1458125635.81,0,124,3
1458125635.81,0,124,3
1458125635.83,0,124,3
1458125635.83,0,124,3
1458125635.83,0,124,3
1458125635.83,0,124,3
1458125635.84,0,124,3
1458125635.84,0,124,3
1458125635.84,0,124,3
1458125635.86,0,124,3
1458125635.86,0,124,3
1458125635.87,0,124,3
1458125635.87,0,124,3
1458125635.87,0,124,3
1458125635.88,0,124,3
1458125635.88,0,124,3
1458125635.89,0,124,3
1458125635.89,0,124,3
1458125635.89,0,124,3
1458125635.9,0,124,3
1458125635.91,0,124,3
1458125635.91,0,124,3
1458125635.91,0,124,3
1458125635.91,0,124,3
1458125635.92,0,124,3
1458125635.92,0,124,3
1458125635.92,0,124,3
1458125635.94,0,124,3
1458125635.94,0,124,3
1458125635.95,0,124,3
1458125635.95,0,124,3
1458125635.95,0,124,3
1458125635.96,0,124,3
1458125635.96,0,124,3
1458125635.96,0,124,3
1458125635.96,0,124,3
1458125635.97,0,124,3
1458125635.97,0,124,3
1458125635.97,0,124,3
1458125635.97,0,124,3
1458125635.98,0,124,3
1458125636.0,0,124,3
1458125636.0,0,124,3
1458125636.0,0,124,3
1458125636.0,0,124,3
1458125636.0,0,124,3
1458125636.01,0,124,3
1458125636.01,0,124,3
1458125636.02,0,124,3
1458125636.03,0,124,3
1458125636.03,0,124,3
1458125636.03,0,124,3
1458125636.04,0,124,3
1458125636.04,0,124,3
1458125636.04,0,124,3
1458125636.06,0,124,3
1458125636.06,0,124,3
1458125636.07,0,124,3
1458125636.07,0,124,3
1458125636.09,0,124,3
1458125636.09,0,124,3
1458125636.1,0,124,3
1458125636.11,0,124,3
1458125636.12,0,124,3
1458125636.12,0,124,3
1458125636.13,0,124,3
1458125636.13,0,124,3
1458125636.14,0,124,3
1458125636.14,0,124,3
1458125636.15,0,124,3
1458125636.21,0,124,3
1458125636.23,0,124,3
1458125636.23,0,124,3
1458125636.24,0,124,3
1458125636.24,0,124,3
1458125636.25,0,124,3
1458125636.25,0,124,3
1458125636.25,0,124,3
1458125636.28,0,124,3
1458125636.28,0,124,3
1458125636.29,0,124,3
1458125636.29,0,124,3
1458125636.29,0,124,3
1458125636.31,0,124,3
1458125636.31,0,124,3
1458125636.33,0,124,3
1458125636.33,0,124,3
1458125636.33,0,124,3
1458125636.33,0,124,3
1458125636.33,0,124,3
1458125636.33,0,124,3
1458125636.34,0,124,3
1458125636.34,0,124,3
1458125636.35,0,124,3
1458125636.36,0,124,3
1458125636.36,0,124,3
1458125636.37,0,124,3
1458125636.37,0,124,3
1458125636.38,0,124,3
1458125636.38,0,124,3
1458125636.38,0,124,3
1458125636.39,0,124,3
1458125636.4,0,124,3
1458125636.42,0,124,3
1458125636.42,0,124,3
1458125636.43,0,124,3
1458125636.43,0,124,3
1458125636.43,0,124,3
1458125636.44,0,124,3
1458125636.44,0,124,3
1458125636.46,0,124,3
1458125636.46,0,124,3
1458125636.46,0,124,3
1458125636.46,0,124,3
1458125636.47,0,124,3
1458125636.47,0,124,3
1458125636.49,0,124,3
1458125636.49,0,124,3
1458125636.49,0,124,3
1458125636.49,0,124,3
1458125636.51,0,124,3
1458125636.51,0,124,3
1458125636.51,0,124,3
1458125636.53,0,124,3
1458125636.53,0,124,3
1458125636.53,0,124,3
1458125636.54,0,124,3
1458125636.54,0,124,3
1458125636.59,0,124,3
1458125636.6,0,124,3
1458125636.61,0,124,3
1458125636.61,0,124,3
1458125636.62,0,124,3
1458125636.62,0,124,3
1458125636.63,0,124,3
1458125636.63,0,124,3
1458125636.64,0,124,3
1458125636.64,0,124,3
1458125636.64,0,124,3
1458125636.65,0,124,3
1458125636.66,0,124,3
1458125636.67,0,124,3
1458125636.67,0,124,3
1458125636.68,0,124,3
1458125636.68,0,124,3
1458125636.69,0,124,3
1458125636.71,0,124,3
1458125636.73,0,124,3
1458125636.75,0,124,3
1458125636.75,0,124,3
1458125636.78,0,124,3
1458125636.78,0,124,3
1458125636.78,0,124,3
1458125636.78,0,124,3
1458125636.79,0,124,3
1458125636.8,0,124,3
1458125636.8,0,124,3
1458125636.81,0,124,3
1458125636.84,0,124,3
1458125636.84,0,124,3
1458125636.84,0,124,3
1458125636.87,0,124,3
1458125636.88,0,124,3
1458125636.88,0,124,3
1458125636.89,0,124,3
1458125636.89,0,124,3
1458125636.89,0,124,3
1458125636.93,0,124,3
1458125636.93,0,124,3
1458125636.93,0,124,3
1458125636.93,0,124,3
1458125636.96,0,124,3
1458125636.96,0,124,3
1458125636.98,0,124,3
1458125636.98,0,124,3
1458125636.99,0,124,3
1458125636.99,0,124,3
1458125637.0,0,124,3
1458125637.0,0,124,3
1458125637.02,0,124,3
1458125637.04,0,124,3
1458125637.08,0,124,3
1458125637.08,0,124,3
1458125637.08,0,124,3
1458125637.1,0,124,3
1458125637.12,0,124,3
1458125637.14,0,124,3
1458125637.14,0,124,3
1458125637.14,0,124,3
1458125637.16,0,124,3
1458125637.16,0,124,3
1458125637.16,0,124,3
1458125637.17,0,124,3
1458125637.17,0,124,3
1458125637.17,0,124,3
1458125637.17,0,124,3
1458125637.18,0,124,3
1458125637.21,0,124,3
1458125637.21,0,124,3
1458125637.22,0,124,3
1458125637.23,0,124,3
1458125637.23,0,124,3
1458125637.23,0,124,3
1458125637.23,0,124,3
1458125637.27,0,124,3
1458125637.27,0,124,3
1458125637.28,0,124,3
1458125637.28,0,124,3
1458125637.28,0,124,3
1458125637.29,0,124,3
1458125637.29,0,124,3
1458125637.3,0,124,3
1458125637.3,0,124,3
1458125637.3,0,124,3
1458125637.31,0,124,3
1458125637.32,0,124,3
1458125637.32,0,124,3
1458125637.32,0,124,3
1458125637.33,0,124,3
1458125637.33,0,124,3
1458125637.35,0,124,3
1458125637.36,0,124,3
1458125637.36,0,124,3
1458125637.37,0,124,3
1458125637.39,0,124,3
1458125637.4,0,124,3
1458125637.42,0,124,3
1458125637.42,0,124,3
1458125637.43,0,124,3
1458125637.43,0,124,3
1458125637.43,0,124,3
1458125637.43,0,124,3
1458125637.44,0,124,3
1458125637.45,0,124,3
1458125637.45,0,124,3
1458125637.45,0,124,3
1458125637.45,0,124,3
1458125637.47,0,124,3
1458125637.47,0,124,3
1458125637.47,0,124,3
1458125637.47,0,124,3
1458125637.48,0,124,3
1458125637.48,0,124,3
1458125637.48,0,124,3
1458125637.49,0,124,3
1458125637.51,0,124,3
1458125637.51,0,124,3
1458125637.51,0,124,3
1458125637.52,0,124,3
1458125637.53,0,124,3
1458125637.53,0,124,3
1458125637.54,0,124,3
1458125637.54,0,124,3
1458125637.54,0,124,3
1458125637.54,0,124,3
1458125637.55,0,124,3
1458125637.55,0,124,3
1458125637.56,0,124,3
1458125637.57,0,124,3
1458125637.58,0,124,3
1458125637.59,0,124,3
1458125637.6,0,124,3
1458125637.6,0,124,3
1458125637.6,0,124,3
1458125637.61,0,124,3
1458125637.61,0,124,3
1458125637.63,0,124,3
1458125637.63,0,124,3
1458125637.63,0,124,3
1458125637.64,0,124,3
1458125637.65,0,124,3
1458125637.65,0,124,3
1458125637.65,0,124,3
1458125637.66,0,124,3
1458125637.66,0,124,3
1458125637.68,0,124,3
1458125637.68,0,124,3
1458125637.69,0,124,3
1458125637.71,0,124,3
1458125637.72,0,124,3
1458125637.72,0,124,3
1458125637.72,0,124,3
1458125637.72,0,124,3
1458125637.73,0,124,3
1458125637.73,0,124,3
1458125637.73,0,124,3
1458125637.73,0,124,3
1458125637.73,0,124,3
1458125637.74,0,124,3
1458125637.74,0,124,3
1458125637.79,0,124,3
1458125637.79,0,124,3
1458125637.8,0,124,3
1458125637.8,0,124,3
1458125637.82,0,124,3
1458125637.83,0,124,3
1458125637.84,0,124,3
1458125637.85,0,124,3
1458125637.85,0,124,3
1458125637.85,0,124,3
1458125637.85,0,124,3
1458125637.85,0,124,3
1458125637.85,0,124,3
1458125637.87,0,124,3
1458125637.87,0,124,3
1458125637.87,0,124,3
1458125637.92,0,124,3
1458125637.93,0,124,3
1458125637.94,0,124,3
1458125637.95,0,124,3
1458125637.96,0,124,3
1458125637.97,0,124,3
1458125637.98,0,124,3
1458125637.98,0,124,3
1458125638.0,0,124,3
1458125638.0,0,124,3
1458125638.01,0,124,3
1458125638.01,0,124,3
1458125638.01,0,124,3
1458125638.05,0,124,3
1458125638.06,0,124,3
1458125638.08,0,124,3
1458125638.08,0,124,3
1458125638.08,0,124,3
1458125638.08,0,124,3
1458125638.08,0,124,3
1458125638.09,0,124,3
1458125638.1,0,124,3
1458125638.1,0,124,3
1458125638.11,0,124,3
1458125638.11,0,124,3
1458125638.11,0,124,3
1458125638.11,0,124,3
1458125638.13,0,124,3
1458125638.14,0,124,3
1458125638.15,0,124,3
1458125638.16,0,124,3
1458125638.16,0,124,3
1458125638.16,0,124,3
1458125638.17,0,124,3
1458125638.18,0,124,3
1458125638.2,0,124,3
1458125638.21,0,124,3
1458125638.21,0,124,3
1458125638.21,0,124,3
1458125638.23,0,124,3
1458125638.23,0,124,3
1458125638.23,0,124,3
1458125638.23,0,124,3
1458125638.24,0,124,3
1458125638.25,0,124,3
1458125638.25,0,124,3
1458125638.25,0,124,3
1458125638.26,0,124,3
1458125638.26,0,124,3
1458125638.26,0,124,3
1458125638.26,0,124,3
1458125638.27,0,124,3
1458125638.29,0,124,3
1458125638.3,0,124,3
1458125638.3,0,124,3
1458125638.3,0,124,3
1458125638.3,0,124,3
1458125638.31,0,124,3
1458125638.32,0,124,3
1458125638.33,0,124,3
1458125638.33,0,124,3
1458125638.33,0,124,3
1458125638.34,0,124,3
1458125638.34,0,124,3
1458125638.35,0,124,3
1458125638.35,0,124,3
1458125638.35,0,124,3
1458125638.35,0,124,3
1458125638.35,0,124,3
1458125638.35,0,124,3
1458125638.35,0,124,3
1458125638.36,0,124,3
1458125638.36,0,124,3
1458125638.36,0,124,3
1458125638.37,0,124,3
1458125638.37,0,124,3
1458125638.37,0,124,3
1458125638.37,0,124,3
1458125638.37,0,124,3
1458125638.37,0,124,3
1458125638.38,0,124,3
1458125638.38,0,124,3
1458125638.38,0,124,3
1458125638.38,0,124,3
1458125638.39,0,124,3
1458125638.39,0,124,3
1458125638.39,0,124,3
1458125638.39,0,124,3
1458125638.39,0,124,3
1458125638.39,0,124,3
1458125638.39,0,124,3
1458125638.39,0,124,3
1458125638.4,0,124,3
1458125638.4,0,124,3
1458125638.4,0,124,3
1458125638.41,0,124,3
1458125638.41,0,124,3
1458125638.41,0,124,3
1458125638.41,0,124,3
1458125638.41,0,124,3
1458125638.43,0,124,3
1458125638.43,0,124,3
1458125638.43,0,124,3
1458125638.43,0,124,3
1458125638.43,0,124,3
1458125638.44,0,124,3
1458125638.44,0,124,3
1458125638.44,0,124,3
1458125638.44,0,124,3
1458125638.46,0,124,3
1458125638.46,0,124,3
1458125638.47,0,124,3
1458125638.47,0,124,3
1458125638.47,0,124,3
1458125638.48,0,124,3
1458125638.48,0,124,3
1458125638.48,0,124,3
1458125638.48,0,124,3
1458125638.48,0,124,3
1458125638.48,0,124,3
1458125638.49,0,124,3
1458125638.49,0,124,3
1458125638.5,0,124,3
1458125638.51,0,124,3
1458125638.51,0,124,3
1458125638.52,0,124,3
1458125638.52,0,124,3
1458125638.52,0,124,3
1458125638.52,0,124,3
1458125638.52,0,124,3
1458125638.52,0,124,3
1458125638.52,0,124,3
1458125638.53,0,124,3
1458125638.53,0,124,3
1458125638.53,0,124,3
1458125638.53,0,124,3
1458125638.54,0,124,3
1458125638.54,0,124,3
1458125638.56,0,124,3
1458125638.56,0,124,3
1458125638.56,0,124,3
1458125638.56,0,124,3
1458125638.58,0,124,3
1458125638.58,0,124,3
1458125638.58,0,124,3
1458125638.58,0,124,3
1458125638.58,0,124,3
1458125638.6,0,124,3
1458125638.6,0,124,3
1458125638.61,0,124,3
1458125638.61,0,124,3
1458125638.61,0,124,3
1458125638.63,0,124,3
1458125638.65,0,124,3
1458125638.66,0,124,3
1458125638.66,0,124,3
1458125638.66,0,124,3
1458125638.67,0,124,3
1458125638.67,0,124,3
1458125638.67,0,124,3
1458125638.67,0,124,3
1458125638.68,0,124,3
1458125638.68,0,124,3
1458125638.68,0,124,3
1458125638.68,0,124,3
1458125638.69,0,124,3
1458125638.69,0,124,3
1458125638.69,0,124,3
1458125638.7,0,124,3
1458125638.72,0,124,3
1458125638.73,0,124,3
1458125638.73,0,124,3
1458125638.73,0,124,3
1458125638.73,0,124,3
1458125638.74,0,124,3
1458125638.74,0,124,3
1458125638.74,0,124,3
1458125638.74,0,124,3
1458125638.75,0,124,3
1458125638.76,0,124,3
1458125638.76,0,124,3
1458125638.78,0,124,3
1458125638.78,0,124,3
1458125638.78,0,124,3
1458125638.78,0,124,3
1458125638.8,0,124,3
1458125638.81,0,124,3
1458125638.81,0,124,3
1458125638.81,0,124,3
1458125638.82,0,124,3
1458125638.83,0,124,3
1458125638.83,0,124,3
1458125638.84,0,124,3
1458125638.85,0,124,3
1458125638.85,0,124,3
1458125638.86,0,124,3
1458125638.86,0,124,3
1458125638.89,0,124,3
1458125638.89,0,124,3
1458125638.89,0,124,3
1458125638.89,0,124,3
1458125638.89,0,124,3
1458125638.89,0,124,3
1458125638.89,0,124,3
1458125638.9,0,124,3
1458125638.9,0,124,3
1458125638.91,0,124,3
1458125638.91,0,124,3
1458125638.91,0,124,3
1458125638.91,0,124,3
1458125638.91,0,124,3
1458125638.91,0,124,3
1458125638.92,0,124,3
1458125638.92,0,124,3
1458125638.93,0,124,3
1458125638.93,0,124,3
1458125638.93,0,124,3
1458125638.93,0,124,3
1458125638.94,0,124,3
1458125638.94,0,124,3
1458125638.94,0,124,3
1458125638.94,0,124,3
1458125638.95,0,124,3
1458125638.95,0,124,3
1458125638.95,0,124,3
1458125638.95,0,124,3
1458125638.96,0,124,3
1458125638.96,0,124,3
1458125638.96,0,124,3
1458125638.97,0,124,3
1458125638.97,0,124,3
1458125638.97,0,124,3
1458125638.99,0,124,3
1458125639.0,0,124,3
1458125639.0,0,124,3
1458125639.0,0,124,3
1458125639.01,0,124,3
1458125639.02,0,124,3
1458125639.03,0,124,3
1458125639.03,0,124,3
1458125639.04,0,124,3
1458125639.04,0,124,3
1458125639.05,0,124,3
1458125639.05,0,124,3
1458125639.06,0,124,3
1458125639.06,0,124,3
1458125639.06,0,124,3
1458125639.07,0,124,3
1458125639.07,0,124,3
1458125639.08,0,124,3
1458125639.08,0,124,3
1458125639.09,0,124,3
1458125639.1,0,124,3
1458125639.1,0,124,3
1458125639.1,0,124,3
1458125639.12,0,124,3
1458125639.12,0,124,3
1458125639.12,0,124,3
1458125639.12,0,124,3
1458125639.12,0,124,3
1458125639.13,0,124,3
1458125639.13,0,124,3
1458125639.13,0,124,3
1458125639.14,0,124,3
1458125639.14,0,124,3
1458125639.15,0,124,3
1458125639.15,0,124,3
1458125639.15,0,124,3
1458125639.16,0,124,3
1458125639.17,0,124,3
1458125639.18,0,124,3
1458125639.18,0,124,3
1458125639.18,0,124,3
1458125639.19,0,124,3
1458125639.2,0,124,3
1458125639.2,0,124,3
1458125639.2,0,124,3
1458125639.2,0,124,3
1458125639.2,0,124,3
1458125639.22,0,124,3
1458125639.25,0,124,3
1458125639.25,0,124,3
1458125639.25,0,124,3
1458125639.25,0,124,3
1458125639.27,0,124,3
1458125639.27,0,124,3
1458125639.28,0,124,3
1458125639.29,0,124,3
1458125639.29,0,124,3
1458125639.3,0,124,3
1458125639.3,0,124,3
1458125639.3,0,124,3
1458125639.3,0,124,3
1458125639.31,0,124,3
1458125639.31,0,124,3
1458125639.31,0,124,3
1458125639.32,0,124,3
1458125639.33,0,124,3
1458125639.36,0,124,3
1458125639.36,0,124,3
1458125639.37,0,124,3
1458125639.37,0,124,3
1458125639.38,0,124,3
1458125639.39,0,124,3
1458125639.39,0,124,3
1458125639.4,0,124,3
1458125639.4,0,124,3
1458125639.4,0,124,3
1458125639.41,0,124,3
1458125639.42,0,124,3
1458125639.42,0,124,3
1458125639.42,0,124,3
1458125639.43,0,124,3
1458125639.43,0,124,3
1458125639.44,0,124,3
1458125639.45,0,124,3
1458125639.46,0,124,3
1458125639.47,0,124,3
1458125639.47,0,124,3
1458125639.47,0,124,3
1458125639.49,0,124,3
1458125639.49,0,124,3
1458125639.49,0,124,3
1458125639.52,0,124,3
1458125639.52,0,124,3
1458125639.52,0,124,3
1458125639.52,0,124,3
1458125639.53,0,124,3
1458125639.53,0,124,3
1458125639.53,0,124,3
1458125639.53,0,124,3
1458125639.54,0,124,3
1458125639.55,0,124,3
1458125639.55,0,124,3
1458125639.56,0,124,3
1458125639.56,0,124,3
1458125639.56,0,124,3
1458125639.56,0,124,3
1458125639.57,0,124,3
1458125639.57,0,124,3
1458125639.57,0,124,3
1458125639.58,0,124,3
1458125639.58,0,124,3
1458125639.58,0,124,3
1458125639.58,0,124,3
1458125639.58,0,124,3
1458125639.59,0,124,3
1458125639.6,0,124,3
1458125639.61,0,124,3
1458125639.62,0,124,3
1458125639.62,0,124,3
1458125639.66,0,124,3
1458125639.66,0,124,3
1458125639.68,0,124,3
1458125639.7,0,124,3
1458125639.7,0,124,3
1458125639.7,0,124,3
1458125639.7,0,124,3
1458125639.72,0,124,3
1458125639.72,0,124,3
1458125639.75,0,124,3
1458125639.75,0,124,3
1458125639.75,0,124,3
1458125639.76,0,124,3
1458125639.77,0,124,3
1458125639.77,0,124,3
1458125639.78,0,124,3
1458125639.78,0,124,3
1458125639.79,0,124,3
1458125639.79,0,124,3
1458125639.79,0,124,3
1458125639.81,0,124,3
1458125639.82,0,124,3
1458125639.82,0,124,3
1458125639.83,0,124,3
1458125639.83,0,124,3
1458125639.84,0,124,3
1458125639.84,0,124,3
1458125639.84,0,124,3
1458125639.86,0,124,3
1458125639.87,0,124,3
1458125639.87,0,124,3
1458125639.87,0,124,3
1458125639.87,0,124,3
1458125639.88,0,124,3
1458125639.89,0,124,3
1458125639.9,0,124,3
1458125639.9,0,124,3
1458125639.9,0,124,3
1458125639.91,0,124,3
1458125639.91,0,124,3
1458125639.91,0,124,3
1458125639.92,0,124,3
1458125639.92,0,124,3
1458125639.95,0,124,3
1458125639.96,0,124,3
1458125639.96,0,124,3
1458125639.96,0,124,3
1458125639.96,0,124,3
1458125639.96,0,124,3
1458125639.97,0,124,3
1458125639.97,0,124,3
1458125640.0,0,124,3
1458125640.0,0,124,3
1458125640.02,0,124,3
1458125640.02,0,124,3
1458125640.04,0,124,3
1458125640.04,0,124,3
1458125640.05,0,124,3
1458125640.05,0,124,3
1458125640.06,0,124,3
1458125640.07,0,124,3
1458125640.07,0,124,3
1458125640.09,0,124,3
1458125640.09,0,124,3
1458125640.09,0,124,3
1458125640.09,0,124,3
1458125640.09,0,124,3
1458125640.1,0,124,3
1458125640.1,0,124,3
1458125640.11,0,124,3
1458125640.11,0,124,3
1458125640.12,0,124,3
1458125640.12,0,124,3
1458125640.13,0,124,3
1458125640.14,0,124,3
1458125640.14,0,124,3
1458125640.14,0,124,3
1458125640.14,0,124,3
1458125640.15,0,124,3
1458125640.16,0,124,3
1458125640.17,0,124,3
1458125640.17,0,124,3
1458125640.2,0,124,3
1458125640.2,0,124,3
1458125640.2,0,124,3
1458125640.22,0,124,3
1458125640.23,0,124,3
1458125640.23,0,124,3
1458125640.23,0,124,3
1458125640.23,0,124,3
1458125640.24,0,124,3
1458125640.24,0,124,3
1458125640.24,0,124,3
1458125640.25,0,124,3
1458125640.26,0,124,3
1458125640.26,0,124,3
1458125640.26,0,124,3
1458125640.26,0,124,3
1458125640.28,0,124,3
1458125640.29,0,124,3
1458125640.29,0,124,3
1458125640.3,0,124,3
1458125640.3,0,124,3
1458125640.3,0,124,3
1458125640.3,0,124,3
1458125640.31,0,124,3
1458125640.33,0,124,3
1458125640.35,0,124,3
1458125640.35,0,124,3
1458125640.37,0,124,3
1458125640.38,0,124,3
1458125640.38,0,124,3
1458125640.38,0,124,3
1458125640.39,0,124,3
1458125640.4,0,124,3
1458125640.42,0,124,3
1458125640.42,0,124,3
1458125640.43,0,124,3
1458125640.43,0,124,3
1458125640.43,0,124,3
1458125640.44,0,124,3
1458125640.45,0,124,3
1458125640.45,0,124,3
1458125640.45,0,124,3
1458125640.45,0,124,3
1458125640.45,0,124,3
1458125640.46,0,124,3
1458125640.47,0,124,3
1458125640.47,0,124,3
1458125640.52,0,124,3
1458125640.52,0,124,3
1458125640.53,0,124,3
1458125640.53,0,124,3
1458125640.53,0,124,3
1458125640.53,0,124,3
1458125640.54,0,124,3
1458125640.54,0,124,3
1458125640.55,0,124,3
1458125640.56,0,124,3
1458125640.56,0,124,3
1458125640.56,0,124,3
1458125640.58,0,124,3
1458125640.58,0,124,3
1458125640.58,0,124,3
1458125640.58,0,124,3
1458125640.58,0,124,3
1458125640.59,0,124,3
1458125640.6,0,124,3
1458125640.61,0,124,3
1458125640.61,0,124,3
1458125640.62,0,124,3
1458125640.62,0,124,3
1458125640.65,0,124,3
1458125640.69,0,124,3
1458125640.69,0,124,3
1458125640.7,0,124,3
1458125640.71,0,124,3
1458125640.71,0,124,3
1458125640.71,0,124,3
1458125640.72,0,124,3
1458125640.73,0,124,3
1458125640.73,0,124,3
1458125640.75,0,124,3
1458125640.76,0,124,3
1458125640.76,0,124,3
1458125640.76,0,124,3
1458125640.76,0,124,3
1458125640.77,0,124,3
1458125640.77,0,124,3
1458125640.77,0,124,3
1458125640.78,0,124,3
1458125640.78,0,124,3
1458125640.78,0,124,3
1458125640.79,0,124,3
1458125640.79,0,124,3
1458125640.79,0,124,3
1458125640.79,0,124,3
1458125640.79,0,124,3
1458125640.8,0,124,3
1458125640.8,0,124,3
1458125640.8,0,124,3
1458125640.8,0,124,3
1458125640.8,0,124,3
1458125640.81,0,124,3
1458125640.81,0,124,3
1458125640.82,0,124,3
1458125640.82,0,124,3
1458125640.82,0,124,3
1458125640.83,0,124,3
1458125640.83,0,124,3
1458125640.83,0,124,3
1458125640.83,0,124,3
1458125640.84,0,124,3
1458125640.84,0,124,3
1458125640.84,0,124,3
1458125640.85,0,124,3
1458125640.85,0,124,3
1458125640.85,0,124,3
1458125640.86,0,124,3
1458125640.86,0,124,3
1458125640.86,0,124,3
1458125640.86,0,124,3
1458125640.87,0,124,3
1458125640.87,0,124,3
1458125640.87,0,124,3
1458125640.88,0,124,3
1458125640.88,0,124,3
1458125640.88,0,124,3
1458125640.89,0,124,3
1458125640.89,0,124,3
1458125640.89,0,124,3
1458125640.9,0,124,3
1458125640.9,0,124,3
1458125640.9,0,124,3
1458125640.9,0,124,3
1458125640.91,0,124,3
1458125640.91,0,124,3
1458125640.91,0,124,3
1458125640.92,0,124,3
1458125640.93,0,124,3
1458125640.93,0,124,3
1458125640.93,0,124,3
1458125640.93,0,124,3
1458125640.93,0,124,3
1458125640.93,0,124,3
1458125640.93,0,124,3
1458125640.93,0,124,3
1458125640.93,0,124,3
1458125640.93,0,124,3
1458125640.93,0,124,3
1458125640.93,0,124,3
1458125640.94,0,124,3
1458125640.94,0,124,3
1458125640.94,0,124,3
1458125640.94,0,124,3
1458125640.96,0,124,3
1458125640.96,0,124,3
1458125640.96,0,124,3
1458125640.97,0,124,3
1458125640.97,0,124,3
1458125640.97,0,124,3
1458125640.97,0,124,3
1458125640.99,0,124,3
1458125641.0,0,124,3
1458125641.0,0,124,3
1458125641.0,0,124,3
1458125641.0,0,124,3
1458125641.01,0,124,3
1458125641.01,0,124,3
1458125641.01,0,124,3
1458125641.01,0,124,3
1458125641.01,0,124,3
1458125641.04,0,124,3
1458125641.04,0,124,3
1458125641.04,0,124,3
1458125641.04,0,124,3
1458125641.04,0,124,3
1458125641.04,0,124,3
1458125641.05,0,124,3
1458125641.05,0,124,3
1458125641.06,0,124,3
1458125641.06,0,124,3
1458125641.06,0,124,3
1458125641.06,0,124,3
1458125641.06,0,124,3
1458125641.08,0,124,3
1458125641.08,0,124,3
1458125641.08,0,124,3
1458125641.09,0,124,3
1458125641.09,0,124,3
1458125641.09,0,124,3
1458125641.09,0,124,3
1458125641.09,0,124,3
1458125641.09,0,124,3
1458125641.1,0,124,3
1458125641.1,0,124,3
1458125641.1,0,124,3
1458125641.11,0,124,3
1458125641.12,0,124,3
1458125641.12,0,124,3
1458125641.12,0,124,3
1458125641.13,0,124,3
1458125641.13,0,124,3
1458125641.13,0,124,3
1458125641.14,0,124,3
1458125641.15,0,124,3
1458125641.15,0,124,3
1458125641.15,0,124,3
1458125641.15,0,124,3
1458125641.2,0,124,3
1458125641.2,0,124,3
1458125641.2,0,124,3
1458125641.2,0,124,3
1458125641.2,0,124,3
1458125641.21,0,124,3
1458125641.21,0,124,3
1458125641.23,0,124,3
1458125641.24,0,124,3
1458125641.24,0,124,3
1458125641.24,0,124,3
1458125641.25,0,124,3
1458125641.26,0,124,3
1458125641.26,0,124,3
1458125641.31,0,124,3
1458125641.32,0,124,3
1458125641.33,0,124,3
1458125641.33,0,124,3
1458125641.33,0,124,3
1458125641.34,0,124,3
1458125641.34,0,124,3
1458125641.36,0,124,3
1458125641.37,0,124,3
1458125641.37,0,124,3
1458125641.39,0,124,3
1458125641.39,0,124,3
1458125641.39,0,124,3
1458125641.4,0,124,3
1458125641.41,0,124,3
1458125641.41,0,124,3
1458125641.42,0,124,3
1458125641.43,0,124,3
1458125641.43,0,124,3
1458125641.43,0,124,3
1458125641.43,0,124,3
1458125641.43,0,124,3
1458125641.43,0,124,3
1458125641.43,0,124,3
1458125641.48,0,124,3
1458125641.49,0,124,3
1458125641.49,0,124,3
1458125641.49,0,124,3
1458125641.49,0,124,3
1458125641.49,0,124,3
1458125641.5,0,124,3
1458125641.5,0,124,3
1458125641.5,0,124,3
1458125641.5,0,124,3
1458125641.5,0,124,3
1458125641.51,0,124,3
1458125641.54,0,124,3
1458125641.54,0,124,3
1458125641.55,0,124,3
1458125641.55,0,124,3
1458125641.56,0,124,3
1458125641.56,0,124,3
1458125641.56,0,124,3
1458125641.56,0,124,3
1458125641.56,0,124,3
1458125641.6,0,124,3
1458125641.6,0,124,3
1458125641.6,0,124,3
1458125641.61,0,124,3
1458125641.61,0,124,3
1458125641.61,0,124,3
1458125641.61,0,124,3
1458125641.61,0,124,3
1458125641.63,0,124,3
1458125641.64,0,124,3
1458125641.64,0,124,3
1458125641.64,0,124,3
1458125641.65,0,124,3
1458125641.67,0,124,3
1458125641.67,0,124,3
1458125641.71,0,124,3
1458125641.72,0,124,3
1458125641.72,0,124,3
1458125641.72,0,124,3
1458125641.73,0,124,3
1458125641.74,0,124,3
1458125641.74,0,124,3
1458125641.75,0,124,3
1458125641.75,0,124,3
1458125641.75,0,124,3
1458125641.76,0,124,3
1458125641.76,0,124,3
1458125641.76,0,124,3
1458125641.77,0,124,3
1458125641.77,0,124,3
1458125641.78,0,124,3
1458125641.78,0,124,3
1458125641.79,0,124,3
1458125641.79,0,124,3
1458125641.8,0,124,3
1458125641.8,0,124,3
1458125641.8,0,124,3
1458125641.8,0,124,3
1458125641.8,0,124,3
1458125641.81,0,124,3
1458125641.85,0,124,3
1458125641.86,0,124,3
1458125641.87,0,124,3
1458125641.88,0,124,3
1458125641.88,0,124,3
1458125641.88,0,124,3
1458125641.89,0,124,3
1458125641.9,0,124,3
1458125641.9,0,124,3
1458125641.9,0,124,3
1458125641.91,0,124,3
1458125641.91,0,124,3
1458125641.91,0,124,3
1458125641.91,0,124,3
1458125641.91,0,124,3
1458125641.92,0,124,3
1458125641.93,0,124,3
1458125641.95,0,124,3
1458125641.96,0,124,3
1458125641.96,0,124,3
1458125641.96,0,124,3
1458125641.96,0,124,3
1458125641.97,0,124,3
1458125641.97,0,124,3
1458125641.98,0,124,3
1458125641.98,0,124,3
1458125641.99,0,124,3
1458125641.99,0,124,3
1458125641.99,0,124,3
1458125641.99,0,124,3
1458125641.99,0,124,3
1458125641.99,0,124,3
1458125642.02,0,124,3
1458125642.02,0,124,3
1458125642.02,0,124,3
1458125642.03,0,124,3
1458125642.03,0,124,3
1458125642.03,0,124,3
1458125642.04,0,124,3
1458125642.04,0,124,3
1458125642.07,0,124,3
1458125642.07,0,124,3
1458125642.07,0,124,3
1458125642.07,0,124,3
1458125642.08,0,124,3
1458125642.08,0,124,3
1458125642.08,0,124,3
1458125642.09,0,124,3
1458125642.09,0,124,3
1458125642.09,0,124,3
1458125642.1,0,124,3
1458125642.11,0,124,3
1458125642.11,0,124,3
1458125642.11,0,124,3
1458125642.12,0,124,3
1458125642.12,0,124,3
1458125642.13,0,124,3
1458125642.13,0,124,3
1458125642.13,0,124,3
1458125642.14,0,124,3
1458125642.14,0,124,3
1458125642.14,0,124,3
1458125642.15,0,124,3
1458125642.17,0,124,3
1458125642.18,0,124,3
1458125642.18,0,124,3
1458125642.18,0,124,3
1458125642.19,0,124,3
1458125642.19,0,124,3
1458125642.19,0,124,3
1458125642.19,0,124,3
1458125642.2,0,124,3
1458125642.2,0,124,3
1458125642.2,0,124,3
1458125642.21,0,124,3
1458125642.21,0,124,3
1458125642.21,0,124,3
1458125642.24,0,124,3
1458125642.24,0,124,3
1458125642.25,0,124,3
1458125642.25,0,124,3
1458125642.25,0,124,3
1458125642.26,0,124,3
1458125642.26,0,124,3
1458125642.26,0,124,3
1458125642.27,0,124,3
1458125642.3,0,124,3
1458125642.3,0,124,3
1458125642.31,0,124,3
1458125642.31,0,124,3
1458125642.32,0,124,3
1458125642.32,0,124,3
1458125642.32,0,124,3
1458125642.32,0,124,3
1458125642.32,0,124,3
1458125642.34,0,124,3
1458125642.34,0,124,3
1458125642.35,0,124,3
1458125642.35,0,124,3
1458125642.35,0,124,3
1458125642.36,0,124,3
1458125642.36,0,124,3
1458125642.36,0,124,3
1458125642.36,0,124,3
1458125642.37,0,124,3
1458125642.37,0,124,3
1458125642.39,0,124,3
1458125642.39,0,124,3
1458125642.39,0,124,3
1458125642.39,0,124,3
1458125642.39,0,124,3
1458125642.39,0,124,3
1458125642.39,0,124,3
1458125642.39,0,124,3
1458125642.39,0,124,3
1458125642.4,0,124,3
1458125642.4,0,124,3
1458125642.4,0,124,3
1458125642.41,0,124,3
1458125642.43,0,124,3
1458125642.43,0,124,3
1458125642.43,0,124,3
1458125642.44,0,124,3
1458125642.44,0,124,3
1458125642.44,0,124,3
1458125642.44,0,124,3
1458125642.44,0,124,3
1458125642.44,0,124,3
1458125642.44,0,124,3
1458125642.45,0,124,3
1458125642.46,0,124,3
1458125642.46,0,124,3
1458125642.46,0,124,3
1458125642.46,0,124,3
1458125642.46,0,124,3
1458125642.47,0,124,3
1458125642.48,0,124,3
1458125642.48,0,124,3
1458125642.48,0,124,3
1458125642.48,0,124,3
1458125642.49,0,124,3
1458125642.49,0,124,3
1458125642.49,0,124,3
1458125642.49,0,124,3
1458125642.49,0,124,3
1458125642.49,0,124,3
1458125642.5,0,124,3
1458125642.5,0,124,3
1458125642.5,0,124,3
1458125642.51,0,124,3
1458125642.51,0,124,3
1458125642.51,0,124,3
1458125642.51,0,124,3
1458125642.51,0,124,3
1458125642.52,0,124,3
1458125642.52,0,124,3
1458125642.52,0,124,3
1458125642.52,0,124,3
1458125642.53,0,124,3
1458125642.53,0,124,3
1458125642.54,0,124,3
1458125642.55,0,124,3
1458125642.55,0,124,3
1458125642.56,0,124,3
1458125642.56,0,124,3
1458125642.57,0,124,3
1458125642.57,0,124,3
1458125642.58,0,124,3
1458125642.58,0,124,3
1458125642.58,0,124,3
1458125642.58,0,124,3
1458125642.59,0,124,3
1458125642.59,0,124,3
1458125642.6,0,124,3
1458125642.6,0,124,3
1458125642.6,0,124,3
1458125642.6,0,124,3
1458125642.6,0,124,3
1458125642.6,0,124,3
1458125642.61,0,124,3
1458125642.61,0,124,3
1458125642.61,0,124,3
1458125642.61,0,124,3
1458125642.61,0,124,3
1458125642.61,0,124,3
1458125642.61,0,124,3
1458125642.62,0,124,3
1458125642.62,0,124,3
1458125642.62,0,124,3
1458125642.63,0,124,3
1458125642.63,0,124,3
1458125642.63,0,124,3
1458125642.63,0,124,3
1458125642.63,0,124,3
1458125642.63,0,124,3
1458125642.64,0,124,3
1458125642.64,0,124,3
1458125642.64,0,124,3
1458125642.64,0,124,3
1458125642.64,0,124,3
1458125642.64,0,124,3
1458125642.64,0,124,3
1458125642.64,0,124,3
1458125642.65,0,124,3
1458125642.66,0,124,3
1458125642.66,0,124,3
1458125642.66,0,124,3
1458125642.66,0,124,3
1458125642.67,0,124,3
1458125642.67,0,124,3
1458125642.67,0,124,3
1458125642.68,0,124,3
1458125642.69,0,124,3
1458125642.69,0,124,3
1458125642.69,0,124,3
1458125642.69,0,124,3
1458125642.7,0,124,3
1458125642.75,0,124,3
1458125642.75,0,124,3
1458125642.75,0,124,3
1458125642.75,0,124,3
1458125642.75,0,124,3
1458125642.75,0,124,3
1458125642.76,0,124,3
1458125642.76,0,124,3
1458125642.76,0,124,3
1458125642.76,0,124,3
1458125642.76,0,124,3
1458125642.77,0,124,3
1458125642.77,0,124,3
1458125642.77,0,124,3
1458125642.77,0,124,3
1458125642.78,0,124,3
1458125642.78,0,124,3
1458125642.79,0,124,3
1458125642.79,0,124,3
1458125642.8,0,124,3
1458125642.8,0,124,3
1458125642.8,0,124,3
1458125642.81,0,124,3
1458125642.81,0,124,3
1458125642.81,0,124,3
1458125642.81,0,124,3
1458125642.82,0,124,3
1458125642.82,0,124,3
1458125642.83,0,124,3
1458125642.83,0,124,3
1458125642.83,0,124,3
1458125642.84,0,124,3
1458125642.85,0,124,3
1458125642.86,0,124,3
1458125642.88,0,124,3
1458125642.89,0,124,3
1458125642.89,0,124,3
1458125642.89,0,124,3
1458125642.9,0,124,3
1458125642.92,0,124,3
1458125642.92,0,124,3
1458125642.92,0,124,3
1458125642.93,0,124,3
1458125642.93,0,124,3
1458125642.93,0,124,3
1458125642.94,0,124,3
1458125642.94,0,124,3
1458125642.94,0,124,3
1458125642.95,0,124,3
1458125642.95,0,124,3
1458125642.95,0,124,3
1458125642.96,0,124,3
1458125642.96,0,124,3
1458125642.96,0,124,3
1458125642.96,0,124,3
1458125642.97,0,124,3
1458125642.97,0,124,3
1458125642.97,0,124,3
1458125642.97,0,124,3
1458125642.98,0,124,3
1458125642.98,0,124,3
1458125643.0,0,124,3
1458125643.02,0,124,3
1458125643.02,0,124,3
1458125643.02,0,124,3
1458125643.03,0,124,3
1458125643.04,0,124,3
1458125643.06,0,124,3
1458125643.07,0,124,3
1458125643.07,0,124,3
1458125643.08,0,124,3
1458125643.08,0,124,3
1458125643.08,0,124,3
1458125643.08,0,124,3
1458125643.08,0,124,3
1458125643.08,0,124,3
1458125643.08,0,124,3
1458125643.09,0,124,3
1458125643.09,0,124,3
1458125643.09,0,124,3
1458125643.09,0,124,3
1458125643.09,0,124,3
1458125643.09,0,124,3
1458125643.1,0,124,3
1458125643.11,0,124,3
1458125643.11,0,124,3
1458125643.12,0,124,3
1458125643.12,0,124,3
1458125643.12,0,124,3
1458125643.12,0,124,3
1458125643.12,0,124,3
1458125643.13,0,124,3
1458125643.13,0,124,3
1458125643.13,0,124,3
1458125643.13,0,124,3
1458125643.14,0,124,3
1458125643.14,0,124,3
1458125643.14,0,124,3
1458125643.14,0,124,3
1458125643.15,0,124,3
1458125643.15,0,124,3
1458125643.15,0,124,3
1458125643.16,0,124,3
1458125643.16,0,124,3
1458125643.16,0,124,3
1458125643.18,0,124,3
1458125643.18,0,124,3
1458125643.19,0,124,3
1458125643.19,0,124,3
1458125643.19,0,124,3
1458125643.2,0,124,3
1458125643.2,0,124,3
1458125643.21,0,124,3
1458125643.22,0,124,3
1458125643.22,0,124,3
1458125643.23,0,124,3
1458125643.23,0,124,3
1458125643.23,0,124,3
1458125643.23,0,124,3
1458125643.25,0,124,3
1458125643.25,0,124,3
1458125643.26,0,124,3
1458125643.26,0,124,3
1458125643.26,0,124,3
1458125643.26,0,124,3
1458125643.26,0,124,3
1458125643.27,0,124,3
1458125643.27,0,124,3
1458125643.27,0,124,3
1458125643.27,0,124,3
1458125643.27,0,124,3
1458125643.27,0,124,3
1458125643.27,0,124,3
1458125643.28,0,124,3
1458125643.29,0,124,3
1458125643.29,0,124,3
1458125643.29,0,124,3
1458125643.3,0,124,3
1458125643.3,0,124,3
1458125643.3,0,124,3
1458125643.3,0,124,3
1458125643.32,0,124,3
1458125643.32,0,124,3
1458125643.32,0,124,3
1458125643.32,0,124,3
1458125643.32,0,124,3
1458125643.33,0,124,3
1458125643.33,0,124,3
1458125643.34,0,124,3
1458125643.34,0,124,3
1458125643.34,0,124,3
1458125643.34,0,124,3
1458125643.37,0,124,3
1458125643.37,0,124,3
1458125643.37,0,124,3
1458125643.37,0,124,3
1458125643.38,0,124,3
1458125643.39,0,124,3
1458125643.41,0,124,3
1458125643.41,0,124,3
1458125643.42,0,124,3
1458125643.42,0,124,3
1458125643.42,0,124,3
1458125643.42,0,124,3
1458125643.42,0,124,3
1458125643.42,0,124,3
1458125643.42,0,124,3
1458125643.42,0,124,3
1458125643.43,0,124,3
1458125643.43,0,124,3
1458125643.44,0,124,3
1458125643.44,0,124,3
1458125643.44,0,124,3
1458125643.44,0,124,3
1458125643.44,0,124,3
1458125643.45,0,124,3
1458125643.45,0,124,3
1458125643.45,0,124,3
1458125643.46,0,124,3
1458125643.46,0,124,3
1458125643.46,0,124,3
1458125643.47,0,124,3
1458125643.47,0,124,3
1458125643.47,0,124,3
1458125643.47,0,124,3
1458125643.47,0,124,3
1458125643.47,0,124,3
1458125643.47,0,124,3
1458125643.48,0,124,3
1458125643.48,0,124,3
1458125643.48,0,124,3
1458125643.48,0,124,3
1458125643.49,0,124,3
1458125643.49,0,124,3
1458125643.49,0,124,3
1458125643.49,0,124,3
1458125643.49,0,124,3
1458125643.49,0,124,3
1458125643.5,0,124,3
1458125643.5,0,124,3
1458125643.51,0,124,3
1458125643.51,0,124,3
1458125643.52,0,124,3
1458125643.52,0,124,3
1458125643.55,0,124,3
1458125643.56,0,124,3
1458125643.56,0,124,3
1458125643.56,0,124,3
1458125643.56,0,124,3
1458125643.57,0,124,3
1458125643.57,0,124,3
1458125643.57,0,124,3
1458125643.57,0,124,3
1458125643.6,0,124,3
1458125643.61,0,124,3
1458125643.61,0,124,3
1458125643.61,0,124,3
1458125643.61,0,124,3
1458125643.62,0,124,3
1458125643.62,0,124,3
1458125643.62,0,124,3
1458125643.64,0,124,3
1458125643.64,0,124,3
1458125643.64,0,124,3
1458125643.65,0,124,3
1458125643.65,0,124,3
1458125643.66,0,124,3
1458125643.66,0,124,3
1458125643.66,0,124,3
1458125643.66,0,124,3
1458125643.66,0,124,3
1458125643.66,0,124,3
1458125643.67,0,124,3
1458125643.67,0,124,3
1458125643.68,0,124,3
1458125643.68,0,124,3
1458125643.68,0,124,3
1458125643.69,0,124,3
1458125643.69,0,124,3
1458125643.69,0,124,3
1458125643.7,0,124,3
1458125643.7,0,124,3
1458125643.7,0,124,3
1458125643.7,0,124,3
1458125643.7,0,124,3
1458125643.71,0,124,3
1458125643.71,0,124,3
1458125643.71,0,124,3
1458125643.71,0,124,3
1458125643.71,0,124,3
1458125643.71,0,124,3
1458125643.72,0,124,3
1458125643.73,0,124,3
1458125643.73,0,124,3
1458125643.73,0,124,3
1458125643.74,0,124,3
1458125643.74,0,124,3
1458125643.75,0,124,3
1458125643.76,0,124,3
1458125643.76,0,124,3
1458125643.76,0,124,3
1458125643.76,0,124,3
1458125643.76,0,124,3
1458125643.77,0,124,3
1458125643.77,0,124,3
1458125643.78,0,124,3
1458125643.79,0,124,3
1458125643.79,0,124,3
1458125643.79,0,124,3
1458125643.79,0,124,3
1458125643.79,0,124,3
1458125643.79,0,124,3
1458125643.8,0,124,3
1458125643.81,0,124,3
1458125643.83,0,124,3
1458125643.84,0,124,3
1458125643.84,0,124,3
1458125643.84,0,124,3
1458125643.84,0,124,3
1458125643.84,0,124,3
1458125643.85,0,124,3
1458125643.85,0,124,3
1458125643.85,0,124,3
1458125643.85,0,124,3
1458125643.85,0,124,3
1458125643.86,0,124,3
1458125643.86,0,124,3
1458125643.86,0,124,3
1458125643.86,0,124,3
1458125643.88,0,124,3
1458125643.9,0,124,3
1458125643.9,0,124,3
1458125643.91,0,124,3
1458125643.91,0,124,3
1458125643.91,0,124,3
1458125643.92,0,124,3
1458125643.92,0,124,3
1458125643.92,0,124,3
1458125643.92,0,124,3
1458125643.93,0,124,3
1458125643.93,0,124,3
1458125643.94,0,124,3
1458125643.94,0,124,3
1458125643.94,0,124,3
1458125643.94,0,124,3
1458125643.95,0,124,3
1458125643.95,0,124,3
1458125643.95,0,124,3
1458125643.95,0,124,3
1458125643.95,0,124,3
1458125643.95,0,124,3
1458125643.95,0,124,3
1458125643.95,0,124,3
1458125643.95,0,124,3
1458125643.96,0,124,3
1458125643.96,0,124,3
1458125643.97,0,124,3
1458125643.97,0,124,3
1458125643.97,0,124,3
1458125643.97,0,124,3
1458125643.99,0,124,3
1458125643.99,0,124,3
1458125643.99,0,124,3
1458125643.99,0,124,3
1458125643.99,0,124,3
1458125644.0,0,124,3
1458125644.0,0,124,3
1458125644.0,0,124,3
1458125644.0,0,124,3
1458125644.0,0,124,3
1458125644.0,0,124,3
1458125644.0,0,124,3
1458125644.0,0,124,3
1458125644.01,0,124,3
1458125644.01,0,124,3
1458125644.02,0,124,3
1458125644.02,0,124,3
1458125644.02,0,124,3
1458125644.02,0,124,3
1458125644.03,0,124,3
1458125644.03,0,124,3
1458125644.03,0,124,3
1458125644.03,0,124,3
1458125644.04,0,124,3
1458125644.04,0,124,3
1458125644.05,0,124,3
1458125644.05,0,124,3
1458125644.06,0,124,3
1458125644.06,0,124,3
1458125644.07,0,124,3
1458125644.07,0,124,3
1458125644.1,0,124,3
1458125644.1,0,124,3
1458125644.1,0,124,3
1458125644.1,0,124,3
1458125644.1,0,124,3
1458125644.11,0,124,3
1458125644.12,0,124,3
1458125644.12,0,124,3
1458125644.12,0,124,3
1458125644.12,0,124,3
1458125644.12,0,124,3
1458125644.12,0,124,3
1458125644.13,0,124,3
1458125644.14,0,124,3
1458125644.14,0,124,3
1458125644.15,0,124,3
1458125644.15,0,124,3
1458125644.15,0,124,3
1458125644.15,0,124,3
1458125644.15,0,124,3
1458125644.15,0,124,3
1458125644.16,0,124,3
1458125644.16,0,124,3
1458125644.17,0,124,3
1458125644.17,0,124,3
1458125644.18,0,124,3
1458125644.18,0,124,3
1458125644.19,0,124,3
1458125644.19,0,124,3
1458125644.19,0,124,3
1458125644.2,0,124,3
1458125644.2,0,124,3
1458125644.2,0,124,3
1458125644.2,0,124,3
1458125644.2,0,124,3
1458125644.21,0,124,3
1458125644.21,0,124,3
1458125644.21,0,124,3
1458125644.22,0,124,3
1458125644.22,0,124,3
1458125644.22,0,124,3
1458125644.22,0,124,3
1458125644.22,0,124,3
1458125644.22,0,124,3
1458125644.23,0,124,3
1458125644.23,0,124,3
1458125644.23,0,124,3
1458125644.23,0,124,3
1458125644.24,0,124,3
1458125644.25,0,124,3
1458125644.25,0,124,3
1458125644.25,0,124,3
1458125644.25,0,124,3
1458125644.25,0,124,3
1458125644.26,0,124,3
1458125644.26,0,124,3
1458125644.26,0,124,3
1458125644.26,0,124,3
1458125644.26,0,124,3
1458125644.26,0,124,3
1458125644.26,0,124,3
1458125644.27,0,124,3
1458125644.27,0,124,3
1458125644.27,0,124,3
1458125644.27,0,124,3
1458125644.27,0,124,3
1458125644.27,0,124,3
1458125644.28,0,124,3
1458125644.28,0,124,3
1458125644.28,0,124,3
1458125644.28,0,124,3
1458125644.28,0,124,3
1458125644.28,0,124,3
1458125644.29,0,124,3
1458125644.29,0,124,3
1458125644.29,0,124,3
1458125644.29,0,124,3
1458125644.3,0,124,3
1458125644.3,0,124,3
1458125644.3,0,124,3
1458125644.3,0,124,3
1458125644.3,0,124,3
1458125644.3,0,124,3
1458125644.3,0,124,3
1458125644.3,0,124,3
1458125644.3,0,124,3
1458125644.31,0,124,3
1458125644.31,0,124,3
1458125644.31,0,124,3
1458125644.32,0,124,3
1458125644.32,0,124,3
1458125644.32,0,124,3
1458125644.33,0,124,3
1458125644.33,0,124,3
1458125644.33,0,124,3
1458125644.33,0,124,3
1458125644.34,0,124,3
1458125644.34,0,124,3
1458125644.34,0,124,3
1458125644.34,0,124,3
1458125644.34,0,124,3
1458125644.34,0,124,3
1458125644.34,0,124,3
1458125644.35,0,124,3
1458125644.35,0,124,3
1458125644.35,0,124,3
1458125644.35,0,124,3
1458125644.35,0,124,3
1458125644.35,0,124,3
1458125644.35,0,124,3
1458125644.36,0,124,3
1458125644.36,0,124,3
1458125644.36,0,124,3
1458125644.36,0,124,3
1458125644.36,0,124,3
1458125644.37,0,124,3
1458125644.37,0,124,3
1458125644.37,0,124,3
1458125644.37,0,124,3
1458125644.37,0,124,3
1458125644.37,0,124,3
1458125644.37,0,124,3
1458125644.38,0,124,3
1458125644.38,0,124,3
1458125644.39,0,124,3
1458125644.39,0,124,3
1458125644.4,0,124,3
1458125644.4,0,124,3
1458125644.41,0,124,3
1458125644.41,0,124,3
1458125644.41,0,124,3
1458125644.41,0,124,3
1458125644.43,0,124,3
1458125644.43,0,124,3
1458125644.44,0,124,3
1458125644.44,0,124,3
1458125644.44,0,124,3
1458125644.44,0,124,3
1458125644.44,0,124,3
1458125644.45,0,124,3
1458125644.45,0,124,3
1458125644.45,0,124,3
1458125644.45,0,124,3
1458125644.45,0,124,3
1458125644.45,0,124,3
1458125644.46,0,124,3
1458125644.46,0,124,3
1458125644.46,0,124,3
1458125644.46,0,124,3
1458125644.46,0,124,3
1458125644.46,0,124,3
1458125644.46,0,124,3
1458125644.47,0,124,3
1458125644.48,0,124,3
1458125644.49,0,124,3
1458125644.49,0,124,3
1458125644.51,0,124,3
1458125644.51,0,124,3
1458125644.51,0,124,3
1458125644.51,0,124,3
1458125644.51,0,124,3
1458125644.51,0,124,3
1458125644.51,0,124,3
1458125644.51,0,124,3
1458125644.52,0,124,3
1458125644.53,0,124,3
1458125644.53,0,124,3
1458125644.54,0,124,3
1458125644.54,0,124,3
1458125644.54,0,124,3
1458125644.55,0,124,3
1458125644.56,0,124,3
1458125644.56,0,124,3
1458125644.56,0,124,3
1458125644.56,0,124,3
1458125644.56,0,124,3
1458125644.56,0,124,3
1458125644.56,0,124,3
1458125644.57,0,124,3
1458125644.58,0,124,3
1458125644.58,0,124,3
1458125644.58,0,124,3
1458125644.59,0,124,3
1458125644.6,0,124,3
1458125644.6,0,124,3
1458125644.61,0,124,3
1458125644.61,0,124,3
1458125644.61,0,124,3
1458125644.61,0,124,3
1458125644.61,0,124,3
1458125644.61,0,124,3
1458125644.63,0,124,3
1458125644.63,0,124,3
1458125644.64,0,124,3
1458125644.64,0,124,3
1458125644.65,0,124,3
1458125644.65,0,124,3
1458125644.66,0,124,3
1458125644.66,0,124,3
1458125644.66,0,124,3
1458125644.67,0,124,3
1458125644.67,0,124,3
1458125644.67,0,124,3
1458125644.67,0,124,3
1458125644.68,0,124,3
1458125644.68,0,124,3
1458125644.69,0,124,3
1458125644.69,0,124,3
1458125644.7,0,124,3
1458125644.7,0,124,3
1458125644.71,0,124,3
1458125644.71,0,124,3
1458125644.71,0,124,3
1458125644.71,0,124,3
1458125644.72,0,124,3
1458125644.73,0,124,3
1458125644.73,0,124,3
1458125644.74,0,124,3
1458125644.74,0,124,3
1458125644.74,0,124,3
1458125644.74,0,124,3
1458125644.75,0,124,3
1458125644.75,0,124,3
1458125644.75,0,124,3
1458125644.75,0,124,3
1458125644.75,0,124,3
1458125644.76,0,124,3
1458125644.76,0,124,3
1458125644.77,0,124,3
1458125644.77,0,124,3
1458125644.78,0,124,3
1458125644.78,0,124,3
1458125644.79,0,124,3
1458125644.79,0,124,3
1458125644.79,0,124,3
1458125644.79,0,124,3
1458125644.79,0,124,3
1458125644.79,0,124,3
1458125644.8,0,124,3
1458125644.8,0,124,3
1458125644.81,0,124,3
1458125644.82,0,124,3
1458125644.83,0,124,3
1458125644.83,0,124,3
1458125644.84,0,124,3
1458125644.85,0,124,3
1458125644.86,0,124,3
1458125644.86,0,124,3
1458125644.87,0,124,3
1458125644.87,0,124,3
1458125644.87,0,124,3
1458125644.88,0,124,3
1458125644.88,0,124,3
1458125644.88,0,124,3
1458125644.89,0,124,3
1458125644.9,0,124,3
1458125644.92,0,124,3
1458125644.92,0,124,3
1458125644.93,0,124,3
1458125644.93,0,124,3
1458125644.94,0,124,3
1458125644.94,0,124,3
1458125644.95,0,124,3
1458125644.95,0,124,3
1458125644.96,0,124,3
1458125644.96,0,124,3
1458125644.96,0,124,3
1458125644.96,0,124,3
1458125644.96,0,124,3
1458125644.96,0,124,3
1458125644.96,0,124,3
1458125644.96,0,124,3
1458125644.98,0,124,3
1458125645.0,0,124,3
1458125645.0,0,124,3
1458125645.0,0,124,3
1458125645.0,0,124,3
1458125645.0,0,124,3
1458125645.01,0,124,3
1458125645.01,0,124,3
1458125645.02,0,124,3
1458125645.02,0,124,3
1458125645.02,0,124,3
1458125645.03,0,124,3
1458125645.04,0,124,3
1458125645.04,0,124,3
1458125645.04,0,124,3
1458125645.04,0,124,3
1458125645.05,0,124,3
1458125645.09,0,124,3
1458125645.1,0,124,3
1458125645.11,0,124,3
1458125645.11,0,124,3
1458125645.11,0,124,3
1458125645.12,0,124,3
1458125645.12,0,124,3
1458125645.12,0,124,3
1458125645.13,0,124,3
1458125645.13,0,124,3
1458125645.13,0,124,3
1458125645.15,0,124,3
1458125645.16,0,124,3
1458125645.16,0,124,3
1458125645.17,0,124,3
1458125645.17,0,124,3
1458125645.17,0,124,3
1458125645.17,0,124,3
1458125645.17,0,124,3
1458125645.17,0,124,3
1458125645.17,0,124,3
1458125645.18,0,124,3
1458125645.19,0,124,3
1458125645.19,0,124,3
1458125645.2,0,124,3
1458125645.22,0,124,3
1458125645.22,0,124,3
1458125645.24,0,124,3
1458125645.24,0,124,3
1458125645.24,0,124,3
1458125645.24,0,124,3
1458125645.24,0,124,3
1458125645.24,0,124,3
1458125645.24,0,124,3
1458125645.25,0,124,3
1458125645.25,0,124,3
1458125645.26,0,124,3
1458125645.26,0,124,3
1458125645.26,0,124,3
1458125645.26,0,124,3
1458125645.26,0,124,3
1458125645.26,0,124,3
1458125645.27,0,124,3
1458125645.27,0,124,3
1458125645.27,0,124,3
1458125645.27,0,124,3
1458125645.27,0,124,3
1458125645.27,0,124,3
1458125645.27,0,124,3
1458125645.27,0,124,3
1458125645.28,0,124,3
1458125645.28,0,124,3
1458125645.28,0,124,3
1458125645.28,0,124,3
1458125645.28,0,124,3
1458125645.29,0,124,3
1458125645.29,0,124,3
1458125645.29,0,124,3
1458125645.29,0,124,3
1458125645.29,0,124,3
1458125645.29,0,124,3
1458125645.29,0,124,3
1458125645.3,0,124,3
1458125645.3,0,124,3
1458125645.3,0,124,3
1458125645.3,0,124,3
1458125645.31,0,124,3
1458125645.31,0,124,3
1458125645.31,0,124,3
1458125645.31,0,124,3
1458125645.31,0,124,3
1458125645.31,0,124,3
1458125645.31,0,124,3
1458125645.31,0,124,3
1458125645.32,0,124,3
1458125645.32,0,124,3
1458125645.32,0,124,3
1458125645.32,0,124,3
1458125645.32,0,124,3
1458125645.32,0,124,3
1458125645.33,0,124,3
1458125645.33,0,124,3
1458125645.33,0,124,3
1458125645.33,0,124,3
1458125645.33,0,124,3
1458125645.33,0,124,3
1458125645.34,0,124,3
1458125645.34,0,124,3
1458125645.34,0,124,3
1458125645.35,0,124,3
1458125645.35,0,124,3
1458125645.35,0,124,3
1458125645.35,0,124,3
1458125645.35,0,124,3
1458125645.36,0,124,3
1458125645.36,0,124,3
1458125645.36,0,124,3
1458125645.36,0,124,3
1458125645.36,0,124,3
1458125645.36,0,124,3
1458125645.36,0,124,3
1458125645.36,0,124,3
1458125645.36,0,124,3
1458125645.36,0,124,3
1458125645.36,0,124,3
1458125645.37,0,124,3
1458125645.37,0,124,3
1458125645.37,0,124,3
1458125645.37,0,124,3
1458125645.38,0,124,3
1458125645.38,0,124,3
1458125645.38,0,124,3
1458125645.39,0,124,3
1458125645.39,0,124,3
1458125645.39,0,124,3
1458125645.39,0,124,3
1458125645.39,0,124,3
1458125645.39,0,124,3
1458125645.39,0,124,3
1458125645.39,0,124,3
1458125645.39,0,124,3
1458125645.39,0,124,3
1458125645.39,0,124,3
1458125645.39,0,124,3
1458125645.4,0,124,3
1458125645.4,0,124,3
1458125645.4,0,124,3
1458125645.4,0,124,3
1458125645.4,0,124,3
1458125645.4,0,124,3
1458125645.4,0,124,3
1458125645.4,0,124,3
1458125645.41,0,124,3
1458125645.41,0,124,3
1458125645.41,0,124,3
1458125645.41,0,124,3
1458125645.41,0,124,3
1458125645.42,0,124,3
1458125645.42,0,124,3
1458125645.42,0,124,3
1458125645.42,0,124,3
1458125645.42,0,124,3
1458125645.42,0,124,3
1458125645.42,0,124,3
1458125645.42,0,124,3
1458125645.42,0,124,3
1458125645.42,0,124,3
1458125645.43,0,124,3
1458125645.43,0,124,3
1458125645.43,0,124,3
1458125645.43,0,124,3
1458125645.44,0,124,3
1458125645.44,0,124,3
1458125645.44,0,124,3
1458125645.44,0,124,3
1458125645.44,0,124,3
1458125645.44,0,124,3
1458125645.44,0,124,3
1458125645.45,0,124,3
1458125645.45,0,124,3
1458125645.45,0,124,3
1458125645.45,0,124,3
1458125645.45,0,124,3
1458125645.46,0,124,3
1458125645.46,0,124,3
1458125645.46,0,124,3
1458125645.46,0,124,3
1458125645.46,0,124,3
1458125645.46,0,124,3
1458125645.46,0,124,3
1458125645.46,0,124,3
1458125645.46,0,124,3
1458125645.46,0,124,3
1458125645.46,0,124,3
1458125645.47,0,124,3
1458125645.47,0,124,3
1458125645.47,0,124,3
1458125645.48,0,124,3
1458125645.48,0,124,3
1458125645.48,0,124,3
1458125645.48,0,124,3
1458125645.48,0,124,3
1458125645.48,0,124,3
1458125645.48,0,124,3
1458125645.49,0,124,3
1458125645.49,0,124,3
1458125645.49,0,124,3
1458125645.49,0,124,3
1458125645.49,0,124,3
1458125645.49,0,124,3
1458125645.49,0,124,3
1458125645.49,0,124,3
1458125645.49,0,124,3
1458125645.51,0,124,3
1458125645.51,0,124,3
1458125645.51,0,124,3
1458125645.51,0,124,3
1458125645.51,0,124,3
1458125645.51,0,124,3
1458125645.52,0,124,3
1458125645.52,0,124,3
1458125645.53,0,124,3
1458125645.53,0,124,3
1458125645.53,0,124,3
1458125645.53,0,124,3
1458125645.54,0,124,3
1458125645.54,0,124,3
1458125645.54,0,124,3
1458125645.54,0,124,3
1458125645.54,0,124,3
1458125645.54,0,124,3
1458125645.54,0,124,3
1458125645.55,0,124,3
1458125645.55,0,124,3
1458125645.56,0,124,3
1458125645.56,0,124,3
1458125645.56,0,124,3
1458125645.56,0,124,3
1458125645.56,0,124,3
1458125645.56,0,124,3
1458125645.56,0,124,3
1458125645.56,0,124,3
1458125645.56,0,124,3
1458125645.57,0,124,3
1458125645.57,0,124,3
1458125645.57,0,124,3
1458125645.57,0,124,3
1458125645.57,0,124,3
1458125645.57,0,124,3
1458125645.58,0,124,3
1458125645.58,0,124,3
1458125645.58,0,124,3
1458125645.59,0,124,3
1458125645.59,0,124,3
1458125645.59,0,124,3
1458125645.59,0,124,3
1458125645.59,0,124,3
1458125645.59,0,124,3
1458125645.6,0,124,3
1458125645.6,0,124,3
1458125645.6,0,124,3
1458125645.6,0,124,3
1458125645.6,0,124,3
1458125645.61,0,124,3
1458125645.61,0,124,3
1458125645.61,0,124,3
1458125645.61,0,124,3
1458125645.61,0,124,3
1458125645.62,0,124,3
1458125645.62,0,124,3
1458125645.62,0,124,3
1458125645.62,0,124,3
1458125645.63,0,124,3
1458125645.63,0,124,3
1458125645.63,0,124,3
1458125645.63,0,124,3
1458125645.63,0,124,3
1458125645.64,0,124,3
1458125645.65,0,124,3
1458125645.65,0,124,3
1458125645.65,0,124,3
1458125645.65,0,124,3
1458125645.65,0,124,3
1458125645.65,0,124,3
1458125645.65,0,124,3
1458125645.65,0,124,3
1458125645.65,0,124,3
1458125645.65,0,124,3
1458125645.66,0,124,3
1458125645.66,0,124,3
1458125645.66,0,124,3
1458125645.66,0,124,3
1458125645.66,0,124,3
1458125645.67,0,124,3
1458125645.67,0,124,3
1458125645.67,0,124,3
1458125645.67,0,124,3
1458125645.67,0,124,3
1458125645.68,0,124,3
1458125645.68,0,124,3
1458125645.69,0,124,3
1458125645.69,0,124,3
1458125645.69,0,124,3
1458125645.7,0,124,3
1458125645.7,0,124,3
1458125645.7,0,124,3
1458125645.7,0,124,3
1458125645.7,0,124,3
1458125645.7,0,124,3
1458125645.7,0,124,3
1458125645.7,0,124,3
1458125645.71,0,124,3
1458125645.71,0,124,3
1458125645.72,0,124,3
1458125645.72,0,124,3
1458125645.72,0,124,3
1458125645.72,0,124,3
1458125645.72,0,124,3
1458125645.72,0,124,3
1458125645.72,0,124,3
1458125645.72,0,124,3
1458125645.72,0,124,3
1458125645.72,0,124,3
1458125645.72,0,124,3
1458125645.72,0,124,3
1458125645.72,0,124,3
1458125645.72,0,124,3
1458125645.73,0,124,3
1458125645.73,0,124,3
1458125645.73,0,124,3
1458125645.73,0,124,3
1458125645.74,0,124,3
1458125645.74,0,124,3
1458125645.75,0,124,3
1458125645.76,0,124,3
1458125645.77,0,124,3
1458125645.77,0,124,3
1458125645.8,0,124,3
1458125645.81,0,124,3
1458125645.85,0,124,3
1458125645.85,0,124,3
1458125645.86,0,124,3
1458125645.88,0,124,3
1458125645.88,0,124,3
1458125645.88,0,124,3
1458125645.9,0,124,3
1458125645.91,0,124,3
1458125645.92,0,124,3
1458125645.92,0,124,3
1458125645.93,0,124,3
1458125645.94,0,124,3
1458125645.94,0,124,3
1458125645.96,0,124,3
1458125645.96,0,124,3
1458125645.96,0,124,3
1458125645.97,0,124,3
1458125645.98,0,124,3
1458125645.98,0,124,3
1458125645.98,0,124,3
1458125645.99,0,124,3
1458125645.99,0,124,3
1458125645.99,0,124,3
1458125646.0,0,124,3
1458125646.0,0,124,3
1458125646.02,0,124,3
1458125646.02,0,124,3
1458125646.02,0,124,3
1458125646.03,0,124,3
1458125646.04,0,124,3
1458125646.05,0,124,3
1458125646.05,0,124,3
1458125646.06,0,124,3
1458125646.06,0,124,3
1458125646.07,0,124,3
1458125646.07,0,124,3
1458125646.08,0,124,3
1458125646.08,0,124,3
1458125646.08,0,124,3
1458125646.09,0,124,3
1458125646.09,0,124,3
1458125646.09,0,124,3
1458125646.1,0,124,3
1458125646.1,0,124,3
1458125646.1,0,124,3
1458125646.11,0,124,3
1458125646.11,0,124,3
1458125646.12,0,124,3
1458125646.12,0,124,3
1458125646.12,0,124,3
1458125646.13,0,124,3
1458125646.13,0,124,3
1458125646.14,0,124,3
1458125646.14,0,124,3
1458125646.14,0,124,3
1458125646.15,0,124,3
1458125646.15,0,124,3
1458125646.15,0,124,3
1458125646.15,0,124,3
1458125646.16,0,124,3
1458125646.16,0,124,3
1458125646.16,0,124,3
1458125646.16,0,124,3
1458125646.17,0,124,3
1458125646.17,0,124,3
1458125646.17,0,124,3
1458125646.17,0,124,3
1458125646.18,0,124,3
1458125646.18,0,124,3
1458125646.18,0,124,3
1458125646.19,0,124,3
1458125646.19,0,124,3
1458125646.19,0,124,3
1458125646.19,0,124,3
1458125646.2,0,124,3
1458125646.2,0,124,3
1458125646.2,0,124,3
1458125646.2,0,124,3
1458125646.2,0,124,3
1458125646.2,0,124,3
1458125646.21,0,124,3
1458125646.22,0,124,3
1458125646.22,0,124,3
1458125646.22,0,124,3
1458125646.22,0,124,3
1458125646.23,0,124,3
1458125646.24,0,124,3
1458125646.24,0,124,3
1458125646.25,0,124,3
1458125646.26,0,124,3
1458125646.26,0,124,3
1458125646.26,0,124,3
1458125646.27,0,124,3
1458125646.27,0,124,3
1458125646.27,0,124,3
1458125646.27,0,124,3
1458125646.27,0,124,3
1458125646.28,0,124,3
1458125646.28,0,124,3
1458125646.28,0,124,3
1458125646.28,0,124,3
1458125646.29,0,124,3
1458125646.29,0,124,3
1458125646.29,0,124,3
1458125646.29,0,124,3
1458125646.29,0,124,3
1458125646.29,0,124,3
1458125646.3,0,124,3
1458125646.3,0,124,3
1458125646.31,0,124,3
1458125646.31,0,124,3
1458125646.31,0,124,3
1458125646.31,0,124,3
1458125646.31,0,124,3
1458125646.32,0,124,3
1458125646.32,0,124,3
1458125646.33,0,124,3
1458125646.33,0,124,3
1458125646.33,0,124,3
1458125646.33,0,124,3
1458125646.34,0,124,3
1458125646.34,0,124,3
1458125646.34,0,124,3
1458125646.34,0,124,3
1458125646.34,0,124,3
1458125646.34,0,124,3
1458125646.35,0,124,3
1458125646.35,0,124,3
1458125646.35,0,124,3
1458125646.35,0,124,3
1458125646.35,0,124,3
1458125646.35,0,124,3
1458125646.35,0,124,3
1458125646.36,0,124,3
1458125646.36,0,124,3
1458125646.36,0,124,3
1458125646.36,0,124,3
1458125646.37,0,124,3
1458125646.37,0,124,3
1458125646.38,0,124,3
1458125646.38,0,124,3
1458125646.38,0,124,3
1458125646.39,0,124,3
1458125646.39,0,124,3
1458125646.39,0,124,3
1458125646.4,0,124,3
1458125646.4,0,124,3
1458125646.4,0,124,3
1458125646.4,0,124,3
1458125646.4,0,124,3
1458125646.4,0,124,3
1458125646.41,0,124,3
1458125646.41,0,124,3
1458125646.42,0,124,3
1458125646.42,0,124,3
1458125646.42,0,124,3
1458125646.42,0,124,3
1458125646.42,0,124,3
1458125646.43,0,124,3
1458125646.43,0,124,3
1458125646.44,0,124,3
1458125646.44,0,124,3
1458125646.45,0,124,3
1458125646.45,0,124,3
1458125646.45,0,124,3
1458125646.45,0,124,3
1458125646.46,0,124,3
1458125646.46,0,124,3
1458125646.46,0,124,3
1458125646.47,0,124,3
1458125646.47,0,124,3
1458125646.47,0,124,3
1458125646.47,0,124,3
1458125646.47,0,124,3
1458125646.48,0,124,3
1458125646.48,0,124,3
1458125646.49,0,124,3
1458125646.49,0,124,3
1458125646.5,0,124,3
1458125646.5,0,124,3
1458125646.5,0,124,3
1458125646.5,0,124,3
1458125646.51,0,124,3
1458125646.51,0,124,3
1458125646.51,0,124,3
1458125646.51,0,124,3
1458125646.51,0,124,3
1458125646.51,0,124,3
1458125646.53,0,124,3
1458125646.53,0,124,3
1458125646.53,0,124,3
1458125646.54,0,124,3
1458125646.54,0,124,3
1458125646.55,0,124,3
1458125646.56,0,124,3
1458125646.57,0,124,3
1458125646.58,0,124,3
1458125646.59,0,124,3
1458125646.59,0,124,3
1458125646.61,0,124,3
1458125646.61,0,124,3
1458125646.62,0,124,3
1458125646.62,0,124,3
1458125646.63,0,124,3
1458125646.63,0,124,3
1458125646.64,0,124,3
1458125646.64,0,124,3
1458125646.65,0,124,3
1458125646.66,0,124,3
1458125646.66,0,124,3
1458125646.68,0,124,3
1458125646.69,0,124,3
1458125646.7,0,124,3
1458125646.7,0,124,3
1458125646.72,0,124,3
1458125646.72,0,124,3
1458125646.72,0,124,3
1458125646.72,0,124,3
