19,2,00:00:00:00:00:03-0
20,2,00:00:00:00:00:03-0
21,2,00:00:00:00:00:03-0
22,2,00:00:00:00:00:03-0
23,2,00:00:00:00:00:03-0
24,2,00:00:00:00:00:03-0
25,2,00:00:00:00:00:03-0
26,2,00:00:00:00:00:03-0
27,2,00:00:00:00:00:03-0
28,2,00:00:00:00:00:03-0
29,2,00:00:00:00:00:03-0
30,2,00:00:00:00:00:03-0
31,2,00:00:00:00:00:03-0
32,2,00:00:00:00:00:03-0
33,2,00:00:00:00:00:03-0
34,2,00:00:00:00:00:03-0
35,2,00:00:00:00:00:03-0
36,2,00:00:00:00:00:03-0
37,2,00:00:00:00:00:03-0
38,2,00:00:00:00:00:03-0
39,2,00:00:00:00:00:03-0
40,2,00:00:00:00:00:03-0
41,2,00:00:00:00:00:03-0
42,2,00:00:00:00:00:03-0
43,2,00:00:00:00:00:03-0
44,2,00:00:00:00:00:03-0
45,2,00:00:00:00:00:03-0
46,2,00:00:00:00:00:03-0
47,2,00:00:00:00:00:03-0
48,2,00:00:00:00:00:03-0
49,2,00:00:00:00:00:03-0
50,2,00:00:00:00:00:03-0
51,2,00:00:00:00:00:03-0
52,2,00:00:00:00:00:03-0
53,2,00:00:00:00:00:03-0
54,2,00:00:00:00:00:03-0
56,2,00:00:00:00:00:03-0
57,2,00:00:00:00:00:03-0
58,2,00:00:00:00:00:03-0
59,2,00:00:00:00:00:03-0
60,2,00:00:00:00:00:03-0
61,2,00:00:00:00:00:03-0
62,2,00:00:00:00:00:03-7
63,2,00:00:00:00:00:03-7
64,2,00:00:00:00:00:03-7
65,2,00:00:00:00:00:03-7
66,2,00:00:00:00:00:06-7
67,2,00:00:00:00:00:06-7
68,2,00:00:00:00:00:06-16
69,2,00:00:00:00:00:01-0
70,2,00:00:00:00:00:01-0
71,2,00:00:00:00:00:01-0
72,2,00:00:00:00:00:01-0
73,2,00:00:00:00:00:01-0
74,2,00:00:00:00:00:01-0
75,2,00:00:00:00:00:01-0
76,2,00:00:00:00:00:01-0
77,2,00:00:00:00:00:01-0
78,2,00:00:00:00:00:01-0
79,2,00:00:00:00:00:01-0
80,2,00:00:00:00:00:01-0
81,2,00:00:00:00:00:01-0
82,2,00:00:00:00:00:01-0
83,2,00:00:00:00:00:01-0
84,2,00:00:00:00:00:01-0
85,2,00:00:00:00:00:01-0
86,2,00:00:00:00:00:01-0
87,2,00:00:00:00:00:01-0
88,2,00:00:00:00:00:01-0
89,2,00:00:00:00:00:01-0
90,2,00:00:00:00:00:01-0
91,2,00:00:00:00:00:01-0
92,2,00:00:00:00:00:01-0
93,2,00:00:00:00:00:01-0
94,2,00:00:00:00:00:01-0
95,2,00:00:00:00:00:01-0
96,2,00:00:00:00:00:01-0
97,2,00:00:00:00:00:01-0
98,2,00:00:00:00:00:01-0
99,2,00:00:00:00:00:01-0
100,2,00:00:00:00:00:01-0
101,2,00:00:00:00:00:01-0
102,2,00:00:00:00:00:01-0
103,2,00:00:00:00:00:01-0
104,2,00:00:00:00:00:01-0
105,2,00:00:00:00:00:01-0
106,2,00:00:00:00:00:01-0
107,2,00:00:00:00:00:01-0
109,2,00:00:00:00:00:01-0
