19,3,00:00:00:00:00:05-0
20,3,00:00:00:00:00:05-0
21,3,00:00:00:00:00:05-0
22,3,00:00:00:00:00:05-0
23,3,00:00:00:00:00:05-0
24,3,00:00:00:00:00:05-0
25,3,00:00:00:00:00:05-0
26,3,00:00:00:00:00:05-0
27,3,00:00:00:00:00:05-0
28,3,00:00:00:00:00:05-0
29,3,00:00:00:00:00:05-0
30,3,00:00:00:00:00:05-0
31,3,00:00:00:00:00:05-0
32,3,00:00:00:00:00:05-0
33,3,00:00:00:00:00:05-0
34,3,00:00:00:00:00:05-0
35,3,00:00:00:00:00:05-0
36,3,00:00:00:00:00:05-0
37,3,00:00:00:00:00:05-0
38,3,00:00:00:00:00:05-0
39,3,00:00:00:00:00:05-0
40,3,00:00:00:00:00:05-0
41,3,00:00:00:00:00:05-0
42,3,00:00:00:00:00:05-0
43,3,00:00:00:00:00:05-0
44,3,00:00:00:00:00:05-0
45,3,00:00:00:00:00:05-0
46,3,00:00:00:00:00:05-0
47,3,00:00:00:00:00:05-0
48,3,00:00:00:00:00:05-0
49,3,00:00:00:00:00:05-0
50,3,00:00:00:00:00:05-0
51,3,00:00:00:00:00:05-0
52,3,00:00:00:00:00:05-0
53,3,00:00:00:00:00:05-0
54,3,00:00:00:00:00:05-0
56,3,00:00:00:00:00:05-0
57,3,00:00:00:00:00:05-0
58,3,00:00:00:00:00:05-0
59,3,00:00:00:00:00:05-0
60,3,00:00:00:00:00:05-0
61,3,00:00:00:00:00:05-0
62,3,00:00:00:00:00:05-7
63,3,00:00:00:00:00:05-7
64,3,00:00:00:00:00:05-7
65,3,00:00:00:00:00:05-7
66,3,00:00:00:00:00:05-7
67,3,00:00:00:00:00:05-7
68,3,00:00:00:00:00:02-7
69,3,00:00:00:00:00:02-7
70,3,00:00:00:00:00:02-7
71,3,00:00:00:00:00:02-7
72,3,00:00:00:00:00:02-7
73,3,00:00:00:00:00:02-7
74,3,00:00:00:00:00:02-7
75,3,00:00:00:00:00:02-7
76,3,00:00:00:00:00:02-7
77,3,00:00:00:00:00:02-7
78,3,00:00:00:00:00:02-7
79,3,00:00:00:00:00:02-7
80,3,00:00:00:00:00:02-7
81,3,00:00:00:00:00:02-7
82,3,00:00:00:00:00:02-7
83,3,00:00:00:00:00:02-7
84,3,00:00:00:00:00:02-7
85,3,00:00:00:00:00:02-7
86,3,00:00:00:00:00:02-7
87,3,00:00:00:00:00:02-7
88,3,00:00:00:00:00:02-7
89,3,00:00:00:00:00:02-7
90,3,00:00:00:00:00:02-7
91,3,00:00:00:00:00:02-7
92,3,00:00:00:00:00:02-7
93,3,00:00:00:00:00:02-7
94,3,00:00:00:00:00:02-7
95,3,00:00:00:00:00:02-7
96,3,00:00:00:00:00:02-7
97,3,00:00:00:00:00:02-7
98,3,00:00:00:00:00:02-7
99,3,00:00:00:00:00:02-7
100,3,00:00:00:00:00:02-7
101,3,00:00:00:00:00:02-7
102,3,00:00:00:00:00:02-7
103,3,00:00:00:00:00:02-7
104,3,00:00:00:00:00:02-7
105,3,00:00:00:00:00:02-7
106,3,00:00:00:00:00:02-7
107,3,00:00:00:00:00:02-7
109,3,00:00:00:00:00:02-7
