-T UDP -a 10.0.26.1 -rp 12401 -b 192 -k 4 -c 1400 -d 10  -m rttm
-T UDP -a 10.0.26.1 -rp 12411 -b 176 -k 4 -c 1400 -d 20  -m rttm
-T UDP -a 10.0.34.1 -rp 12421 -b 140 -k 4 -c 1400 -d 30  -m rttm
-T UDP -a 10.0.34.1 -rp 12431 -b 92 -k 4 -c 1400 -d 40  -m rttm
