-T UDP -a 10.0.0.29 -rp 11801 -b 244 -k 4 -c 1400 -d 10  -m rttm
-T UDP -a 10.0.0.29 -rp 11811 -b 12 -k 4 -c 1400 -d 20  -m rttm
-T UDP -a 10.0.0.28 -rp 11821 -b 228 -k 4 -c 1400 -d 30  -m rttm
-T UDP -a 10.0.0.28 -rp 11831 -b 172 -k 4 -c 1400 -d 40  -m rttm
