-T UDP -a 10.0.0.35 -rp 13301 -b 40 -k 4 -c 1400 -d 10  -m rttm
-T UDP -a 10.0.0.35 -rp 13311 -b 12 -k 4 -c 1400 -d 20  -m rttm
-T UDP -a 10.0.0.28 -rp 13321 -b 184 -k 4 -c 1400 -d 30  -m rttm
-T UDP -a 10.0.0.28 -rp 13331 -b 212 -k 4 -c 1400 -d 40  -m rttm
