-T UDP -a 10.0.0.35 -rp 13901 -b 232 -k 4 -c 1400 -d 10  -m rttm
-T UDP -a 10.0.0.35 -rp 13911 -b 100 -k 4 -c 1400 -d 20  -m rttm
-T UDP -a 10.0.0.27 -rp 13921 -b 168 -k 4 -c 1400 -d 30  -m rttm
-T UDP -a 10.0.0.27 -rp 13931 -b 180 -k 4 -c 1400 -d 40  -m rttm
