-T UDP -a 10.0.0.21 -rp 14501 -b 168 -k 200 -c 1400 -d 10 
-T UDP -a 10.0.0.21 -rp 14511 -b 232 -k 200 -c 1400 -d 20 
-T UDP -a 10.0.0.34 -rp 14521 -b 76 -k 200 -c 1400 -d 30 
-T UDP -a 10.0.0.34 -rp 14531 -b 96 -k 200 -c 1400 -d 40 
-T UDP -a 10.0.0.35 -rp 14541 -b 48 -k 200 -c 1400 -d 50 
-T UDP -a 10.0.0.35 -rp 14551 -b 180 -k 200 -c 1400 -d 60 
-T UDP -a 10.0.0.26 -rp 14561 -b 180 -k 200 -c 1400 -d 70 
-T UDP -a 10.0.0.26 -rp 14571 -b 176 -k 200 -c 1400 -d 80 
-T UDP -a 10.0.0.25 -rp 14581 -b 104 -k 200 -c 1400 -d 90 
-T UDP -a 10.0.0.25 -rp 14591 -b 216 -k 200 -c 1400 -d 100 
-T UDP -a 10.0.0.32 -rp 14601 -b 160 -k 200 -c 1400 -d 110 
-T UDP -a 10.0.0.32 -rp 14611 -b 188 -k 200 -c 1400 -d 120 
-T UDP -a 10.0.0.33 -rp 14621 -b 220 -k 200 -c 1400 -d 130 
-T UDP -a 10.0.0.33 -rp 14631 -b 16 -k 200 -c 1400 -d 140 
-T UDP -a 10.0.0.22 -rp 14641 -b 120 -k 200 -c 1400 -d 150 
-T UDP -a 10.0.0.22 -rp 14651 -b 228 -k 200 -c 1400 -d 160 
-T UDP -a 10.0.0.36 -rp 14661 -b 136 -k 200 -c 1400 -d 170 
-T UDP -a 10.0.0.36 -rp 14671 -b 16 -k 200 -c 1400 -d 180 
-T UDP -a 10.0.0.31 -rp 14681 -b 144 -k 200 -c 1400 -d 190 
-T UDP -a 10.0.0.31 -rp 14691 -b 48 -k 200 -c 1400 -d 200 
-T UDP -a 10.0.0.24 -rp 14701 -b 128 -k 200 -c 1400 -d 210 
-T UDP -a 10.0.0.24 -rp 14711 -b 56 -k 200 -c 1400 -d 220 
-T UDP -a 10.0.0.28 -rp 14721 -b 28 -k 200 -c 1400 -d 230 
-T UDP -a 10.0.0.28 -rp 14731 -b 132 -k 200 -c 1400 -d 240 
-T UDP -a 10.0.0.27 -rp 14741 -b 152 -k 200 -c 1400 -d 250 
-T UDP -a 10.0.0.27 -rp 14751 -b 36 -k 200 -c 1400 -d 260 
-T UDP -a 10.0.0.30 -rp 14761 -b 156 -k 200 -c 1400 -d 270 
-T UDP -a 10.0.0.30 -rp 14771 -b 24 -k 200 -c 1400 -d 280 
-T UDP -a 10.0.0.29 -rp 14781 -b 76 -k 200 -c 1400 -d 290 
-T UDP -a 10.0.0.29 -rp 14791 -b 164 -k 200 -c 1400 -d 300 
