-T UDP -a 10.0.29.1 -rp 14201 -b 76 -k 4 -c 1400 -d 10  -m rttm
-T UDP -a 10.0.29.1 -rp 14211 -b 52 -k 4 -c 1400 -d 20  -m rttm
-T UDP -a 10.0.31.1 -rp 14221 -b 72 -k 4 -c 1400 -d 30  -m rttm
-T UDP -a 10.0.31.1 -rp 14231 -b 156 -k 4 -c 1400 -d 40  -m rttm
-T UDP -a 10.0.27.1 -rp 14241 -b 200 -k 4 -c 1400 -d 50  -m rttm
-T UDP -a 10.0.27.1 -rp 14251 -b 208 -k 4 -c 1400 -d 60  -m rttm
-T UDP -a 10.0.21.1 -rp 14261 -b 156 -k 4 -c 1400 -d 70  -m rttm
-T UDP -a 10.0.21.1 -rp 14271 -b 232 -k 4 -c 1400 -d 80  -m rttm
-T UDP -a 10.0.26.1 -rp 14281 -b 40 -k 4 -c 1400 -d 90  -m rttm
-T UDP -a 10.0.26.1 -rp 14291 -b 136 -k 4 -c 1400 -d 100  -m rttm
-T UDP -a 10.0.33.1 -rp 14301 -b 72 -k 4 -c 1400 -d 110  -m rttm
-T UDP -a 10.0.33.1 -rp 14311 -b 128 -k 4 -c 1400 -d 120  -m rttm
-T UDP -a 10.0.34.1 -rp 14321 -b 80 -k 4 -c 1400 -d 130  -m rttm
-T UDP -a 10.0.34.1 -rp 14331 -b 36 -k 4 -c 1400 -d 140  -m rttm
-T UDP -a 10.0.24.1 -rp 14341 -b 192 -k 4 -c 1400 -d 150  -m rttm
-T UDP -a 10.0.24.1 -rp 14351 -b 184 -k 4 -c 1400 -d 160  -m rttm
