-T TCP -a 10.0.0.32 -rp 11201 -b 64 -k 10240 -c 1400 -d 10 -m rttm
-T TCP -a 10.0.0.32 -rp 11211 -b 16 -k 10240 -c 1400 -d 20 -m rttm
-T TCP -a 10.0.0.21 -rp 11221 -b 240 -k 10240 -c 1400 -d 30 -m rttm
-T TCP -a 10.0.0.21 -rp 11231 -b 244 -k 10240 -c 1400 -d 40 -m rttm
