-T TCP -a 10.0.32.1 -rp 13601 -b 188 -k 10240 -c 1400 -d 10 -m rttm
-T TCP -a 10.0.32.1 -rp 13611 -b 212 -k 10240 -c 1400 -d 20 -m rttm
-T TCP -a 10.0.26.1 -rp 13621 -b 124 -k 10240 -c 1400 -d 30 -m rttm
-T TCP -a 10.0.26.1 -rp 13631 -b 252 -k 10240 -c 1400 -d 40 -m rttm
