WARNING:openflow.discovery_sk:Link [00-00-00-00-00-05.5 -> 00-00-00-00-00-03.4] Added! 
WARNING:openflow.discovery_sk:Link [00-00-00-00-00-05.4 -> 00-00-00-00-00-02.5] Added! 
WARNING:openflow.discovery_sk:Link [00-00-00-00-00-04.3 -> 00-00-00-00-00-02.4] Added! 
WARNING:openflow.discovery_sk:Link [00-00-00-00-00-04.4 -> 00-00-00-00-00-03.3] Added! 
WARNING:openflow.discovery_sk:Link [00-00-00-00-00-03.3 -> 00-00-00-00-00-04.4] Added! 
WARNING:openflow.discovery_sk:Link [00-00-00-00-00-03.6 -> 00-00-00-00-00-10.1] Added! 
WARNING:openflow.discovery_sk:Link [00-00-00-00-00-03.5 -> 00-00-00-00-00-06.1] Added! 
WARNING:openflow.discovery_sk:Link [00-00-00-00-00-03.4 -> 00-00-00-00-00-05.5] Added! 
WARNING:openflow.discovery_sk:Link [00-00-00-00-00-01.3 -> 00-00-00-00-00-0c.3] Added! 
WARNING:openflow.discovery_sk:Link [00-00-00-00-00-01.1 -> 00-00-00-00-00-02.3] Added! 
WARNING:openflow.discovery_sk:Link [00-00-00-00-00-01.2 -> 00-00-00-00-00-07.3] Added! 
WARNING:openflow.discovery_sk:Link [00-00-00-00-00-01.4 -> 00-00-00-00-00-11.3] Added! 
WARNING:openflow.discovery_sk:Link [00-00-00-00-00-02.3 -> 00-00-00-00-00-01.1] Added! 
WARNING:openflow.discovery_sk:Link [00-00-00-00-00-02.5 -> 00-00-00-00-00-05.4] Added! 
WARNING:openflow.discovery_sk:Link [00-00-00-00-00-02.6 -> 00-00-00-00-00-0b.1] Added! 
WARNING:openflow.discovery_sk:Link [00-00-00-00-00-02.4 -> 00-00-00-00-00-04.3] Added! 
WARNING:openflow.discovery_sk:Link [00-00-00-00-00-10.3 -> 00-00-00-00-00-0d.6] Added! 
WARNING:openflow.discovery_sk:Link [00-00-00-00-00-10.1 -> 00-00-00-00-00-03.6] Added! 
WARNING:openflow.discovery_sk:Link [00-00-00-00-00-10.4 -> 00-00-00-00-00-12.6] Added! 
WARNING:openflow.discovery_sk:Link [00-00-00-00-00-10.2 -> 00-00-00-00-00-08.6] Added! 
WARNING:openflow.discovery_sk:Link [00-00-00-00-00-13.3 -> 00-00-00-00-00-11.5] Added! 
WARNING:openflow.discovery_sk:Link [00-00-00-00-00-13.4 -> 00-00-00-00-00-12.4] Added! 
WARNING:openflow.discovery_sk:Link [00-00-00-00-00-12.6 -> 00-00-00-00-00-10.4] Added! 
WARNING:openflow.discovery_sk:Link [00-00-00-00-00-12.3 -> 00-00-00-00-00-06.4] Added! 
WARNING:openflow.discovery_sk:Link [00-00-00-00-00-12.5 -> 00-00-00-00-00-14.5] Added! 
WARNING:openflow.discovery_sk:Link [00-00-00-00-00-11.3 -> 00-00-00-00-00-01.4] Added! 
WARNING:openflow.discovery_sk:Link [00-00-00-00-00-12.4 -> 00-00-00-00-00-13.4] Added! 
WARNING:openflow.discovery_sk:Link [00-00-00-00-00-11.5 -> 00-00-00-00-00-13.3] Added! 
WARNING:openflow.discovery_sk:Link [00-00-00-00-00-11.6 -> 00-00-00-00-00-14.4] Added! 
WARNING:openflow.discovery_sk:Link [00-00-00-00-00-11.4 -> 00-00-00-00-00-0b.4] Added! 
WARNING:openflow.discovery_sk:Link [00-00-00-00-00-14.5 -> 00-00-00-00-00-12.5] Added! 
WARNING:openflow.discovery_sk:Link [00-00-00-00-00-14.4 -> 00-00-00-00-00-11.6] Added! 
WARNING:openflow.discovery_sk:Link [00-00-00-00-00-0d.3 -> 00-00-00-00-00-06.3] Added! 
WARNING:openflow.discovery_sk:Link [00-00-00-00-00-0d.6 -> 00-00-00-00-00-10.3] Added! 
WARNING:openflow.discovery_sk:Link [00-00-00-00-00-0d.5 -> 00-00-00-00-00-0f.5] Added! 
WARNING:openflow.discovery_sk:Link [00-00-00-00-00-0d.4 -> 00-00-00-00-00-0e.4] Added! 
WARNING:openflow.discovery_sk:Link [00-00-00-00-00-0c.3 -> 00-00-00-00-00-01.3] Added! 
WARNING:openflow.discovery_sk:Link [00-00-00-00-00-0c.6 -> 00-00-00-00-00-0b.3] Added! 
WARNING:openflow.discovery_sk:Link [00-00-00-00-00-0c.5 -> 00-00-00-00-00-0f.4] Added! 
WARNING:openflow.discovery_sk:Link [00-00-00-00-00-0c.4 -> 00-00-00-00-00-0e.3] Added! 
WARNING:openflow.discovery_sk:Link [00-00-00-00-00-0f.5 -> 00-00-00-00-00-0d.5] Added! 
WARNING:openflow.discovery_sk:Link [00-00-00-00-00-0f.4 -> 00-00-00-00-00-0c.5] Added! 
WARNING:openflow.discovery_sk:Link [00-00-00-00-00-0b.3 -> 00-00-00-00-00-0c.6] Added! 
WARNING:openflow.discovery_sk:Link [00-00-00-00-00-0b.1 -> 00-00-00-00-00-02.6] Added! 
WARNING:openflow.discovery_sk:Link [00-00-00-00-00-0b.4 -> 00-00-00-00-00-11.4] Added! 
WARNING:openflow.discovery_sk:Link [00-00-00-00-00-0b.2 -> 00-00-00-00-00-07.6] Added! 
WARNING:openflow.discovery_sk:Link [00-00-00-00-00-0e.3 -> 00-00-00-00-00-0c.4] Added! 
WARNING:openflow.discovery_sk:Link [00-00-00-00-00-0e.4 -> 00-00-00-00-00-0d.4] Added! 
WARNING:openflow.discovery_sk:Link [00-00-00-00-00-07.3 -> 00-00-00-00-00-01.2] Added! 
WARNING:openflow.discovery_sk:Link [00-00-00-00-00-07.6 -> 00-00-00-00-00-0b.2] Added! 
WARNING:openflow.discovery_sk:Link [00-00-00-00-00-07.5 -> 00-00-00-00-00-0a.4] Added! 
WARNING:openflow.discovery_sk:Link [00-00-00-00-00-07.4 -> 00-00-00-00-00-09.3] Added! 
WARNING:openflow.discovery_sk:Link [00-00-00-00-00-08.3 -> 00-00-00-00-00-09.4] Added! 
WARNING:openflow.discovery_sk:Link [00-00-00-00-00-08.6 -> 00-00-00-00-00-10.2] Added! 
WARNING:openflow.discovery_sk:Link [00-00-00-00-00-08.4 -> 00-00-00-00-00-0a.5] Added! 
WARNING:openflow.discovery_sk:Link [00-00-00-00-00-08.5 -> 00-00-00-00-00-06.2] Added! 
WARNING:openflow.discovery_sk:Link [00-00-00-00-00-06.3 -> 00-00-00-00-00-0d.3] Added! 
WARNING:openflow.discovery_sk:Link [00-00-00-00-00-06.1 -> 00-00-00-00-00-03.5] Added! 
WARNING:openflow.discovery_sk:Link [00-00-00-00-00-06.2 -> 00-00-00-00-00-08.5] Added! 
WARNING:openflow.discovery_sk:Link [00-00-00-00-00-06.4 -> 00-00-00-00-00-12.3] Added! 
WARNING:openflow.discovery_sk:Link [00-00-00-00-00-09.3 -> 00-00-00-00-00-07.4] Added! 
WARNING:openflow.discovery_sk:Link [00-00-00-00-00-09.4 -> 00-00-00-00-00-08.3] Added! 
WARNING:openflow.discovery_sk:Link [00-00-00-00-00-0a.5 -> 00-00-00-00-00-08.4] Added! 
WARNING:openflow.discovery_sk:Link [00-00-00-00-00-0a.4 -> 00-00-00-00-00-07.5] Added! 
WARNING:forwarding.l2_multi_sk:Learned SRC0 00:00:00:00:00:22 at 00-00-00-00-00-04.2
WARNING:forwarding.l2_multi_sk:Learned SRC0 00:00:00:00:00:01 at 00-00-00-00-00-02.1
WARNING:forwarding.l2_multi_sk:Learned SRC0 00:00:00:00:00:02 at 00-00-00-00-00-02.2
WARNING:forwarding.l2_multi_sk:Learned SRC0 00:00:00:00:00:24 at 00-00-00-00-00-05.3
WARNING:forwarding.l2_multi_sk:Learned SRC0 00:00:00:00:00:04 at 00-00-00-00-00-03.2
WARNING:forwarding.l2_multi_sk:Learned SRC0 00:00:00:00:00:23 at 00-00-00-00-00-05.2
WARNING:forwarding.l2_multi_sk:Learned SRC0 00:00:00:00:00:21 at 00-00-00-00-00-04.1
WARNING:forwarding.l2_multi_sk:Learned SRC0 00:00:00:00:00:03 at 00-00-00-00-00-03.1
WARNING:forwarding.l2_multi_sk:Learned SRC0 00:00:00:00:00:13 at 00-00-00-00-00-0d.1
WARNING:forwarding.l2_multi_sk:Learned SRC0 00:00:00:00:00:18 at 00-00-00-00-00-12.1
WARNING:forwarding.l2_multi_sk:Learned SRC0 00:00:00:00:00:16 at 00-00-00-00-00-11.1
WARNING:forwarding.l2_multi_sk:Learned SRC0 00:00:00:00:00:05 at 00-00-00-00-00-05.1
WARNING:forwarding.l2_multi_sk:Learned SRC0 00:00:00:00:00:12 at 00-00-00-00-00-0c.2
WARNING:forwarding.l2_multi_sk:Learned SRC0 00:00:00:00:00:19 at 00-00-00-00-00-12.2
WARNING:forwarding.l2_multi_sk:Learned SRC0 00:00:00:00:00:06 at 00-00-00-00-00-07.1
WARNING:forwarding.l2_multi_sk:Learned SRC0 00:00:00:00:00:20 at 00-00-00-00-00-14.1
WARNING:forwarding.l2_multi_sk:Learned SRC0 00:00:00:00:00:36 at 00-00-00-00-00-14.3
WARNING:forwarding.l2_multi_sk:Learned SRC0 00:00:00:00:00:34 at 00-00-00-00-00-13.2
WARNING:forwarding.l2_multi_sk:Learned SRC0 00:00:00:00:00:35 at 00-00-00-00-00-14.2
WARNING:forwarding.l2_multi_sk:Learned SRC0 00:00:00:00:00:15 at 00-00-00-00-00-0f.1
WARNING:forwarding.l2_multi_sk:Learned SRC0 00:00:00:00:00:25 at 00-00-00-00-00-09.1
WARNING:forwarding.l2_multi_sk:Learned SRC0 00:00:00:00:00:26 at 00-00-00-00-00-09.2
WARNING:forwarding.l2_multi_sk:Learned SRC0 00:00:00:00:00:07 at 00-00-00-00-00-07.2
WARNING:forwarding.l2_multi_sk:Learned SRC0 00:00:00:00:00:27 at 00-00-00-00-00-0a.2
WARNING:forwarding.l2_multi_sk:Learned SRC0 00:00:00:00:00:08 at 00-00-00-00-00-08.1
WARNING:forwarding.l2_multi_sk:Learned SRC0 00:00:00:00:00:17 at 00-00-00-00-00-11.2
WARNING:forwarding.l2_multi_sk:Learned SRC0 00:00:00:00:00:28 at 00-00-00-00-00-0a.3
WARNING:forwarding.l2_multi_sk:Learned SRC0 00:00:00:00:00:09 at 00-00-00-00-00-08.2
WARNING:forwarding.l2_multi_sk:Learned SRC0 00:00:00:00:00:11 at 00-00-00-00-00-0c.1
WARNING:forwarding.l2_multi_sk:Learned SRC0 00:00:00:00:00:32 at 00-00-00-00-00-0f.3
WARNING:forwarding.l2_multi_sk:Learned SRC0 00:00:00:00:00:30 at 00-00-00-00-00-0e.2
WARNING:forwarding.l2_multi_sk:Learned SRC0 00:00:00:00:00:10 at 00-00-00-00-00-0a.1
WARNING:forwarding.l2_multi_sk:Learned SRC0 00:00:00:00:00:31 at 00-00-00-00-00-0f.2
WARNING:forwarding.l2_multi_sk:Learned SRC0 00:00:00:00:00:29 at 00-00-00-00-00-0e.1
WARNING:forwarding.l2_multi_sk:Learned SRC0 00:00:00:00:00:14 at 00-00-00-00-00-0d.2
WARNING:forwarding.l2_multi_sk:Learned SRC0 00:00:00:00:00:33 at 00-00-00-00-00-13.1
WARNING:openflow.discovery_sk:<addto_svcdict> New Service:0 Detected at:00:00:00:00:00:01, 10.0.0.1, 2-1
WARNING:openflow.discovery_sk:<addto_svcdict> Existing Service:0 Detected at 00:00:00:00:00:02, 10.0.0.2, 2-2
WARNING:openflow.discovery_sk:<addto_svcdict> Existing Service:0 Detected at 00:00:00:00:00:03, 10.0.0.3, 3-1
WARNING:openflow.discovery_sk:<addto_svcdict> Existing Service:0 Detected at 00:00:00:00:00:04, 10.0.0.4, 3-2
WARNING:openflow.discovery_sk:<addto_svcdict> Existing Service:0 Detected at 00:00:00:00:00:05, 10.0.0.5, 5-1
WARNING:openflow.discovery_sk:<addto_svcdict> Existing Service:0 Detected at 00:00:00:00:00:06, 10.0.0.6, 7-1
WARNING:openflow.discovery_sk:<addto_svcdict> Existing Service:0 Detected at 00:00:00:00:00:07, 10.0.0.7, 7-2
WARNING:openflow.discovery_sk:<addto_svcdict> Existing Service:0 Detected at 00:00:00:00:00:08, 10.0.0.8, 8-1
WARNING:openflow.discovery_sk:<addto_svcdict> Existing Service:0 Detected at 00:00:00:00:00:09, 10.0.0.9, 8-2
WARNING:openflow.discovery_sk:<addto_svcdict> Existing Service:0 Detected at 00:00:00:00:00:10, 10.0.0.10, 10-1
WARNING:openflow.discovery_sk:<addto_svcdict> Existing Service:0 Detected at 00:00:00:00:00:11, 10.0.0.11, 12-1
WARNING:openflow.discovery_sk:<addto_svcdict> Existing Service:0 Detected at 00:00:00:00:00:12, 10.0.0.12, 12-2
WARNING:openflow.discovery_sk:<addto_svcdict> Existing Service:0 Detected at 00:00:00:00:00:13, 10.0.0.13, 13-1
WARNING:openflow.discovery_sk:<addto_svcdict> Existing Service:0 Detected at 00:00:00:00:00:14, 10.0.0.14, 13-2
WARNING:openflow.discovery_sk:<addto_svcdict> Existing Service:0 Detected at 00:00:00:00:00:15, 10.0.0.15, 15-1
WARNING:openflow.discovery_sk:<addto_svcdict> Existing Service:0 Detected at 00:00:00:00:00:16, 10.0.0.16, 17-1
WARNING:openflow.discovery_sk:<addto_svcdict> Existing Service:0 Detected at 00:00:00:00:00:17, 10.0.0.17, 17-2
WARNING:openflow.discovery_sk:<addto_svcdict> Existing Service:0 Detected at 00:00:00:00:00:18, 10.0.0.18, 18-1
WARNING:openflow.discovery_sk:<addto_svcdict> Existing Service:0 Detected at 00:00:00:00:00:19, 10.0.0.19, 18-2
WARNING:openflow.discovery_sk:<addto_svcdict> Existing Service:0 Detected at 00:00:00:00:00:20, 10.0.0.20, 20-1
WARNING:openflow.discovery_sk:Link [00-00-00-00-00-12.1 -> 00-00-00-00-00-0c.2] Added! 
WARNING:forwarding.l2_multi_sk:skip Unlearned 00:00:00:00:00:12
WARNING:openflow.discovery_sk:Link [00-00-00-00-00-14.1 -> 00-00-00-00-00-0d.2] Added! 
WARNING:forwarding.l2_multi_sk:skip Unlearned 00:00:00:00:00:14
WARNING:openflow.discovery_sk:Link [00-00-00-00-00-13.1 -> 00-00-00-00-00-0d.1] Added! 
WARNING:forwarding.l2_multi_sk:skip Unlearned 00:00:00:00:00:13
WARNING:openflow.discovery_sk:Link [00-00-00-00-00-11.1 -> 00-00-00-00-00-0c.1] Added! 
WARNING:forwarding.l2_multi_sk:skip Unlearned 00:00:00:00:00:16
WARNING:openflow.discovery_sk:Link [00-00-00-00-00-09.1 -> 00-00-00-00-00-08.2] Added! 
WARNING:forwarding.l2_multi_sk:skip Unlearned 00:00:00:00:00:25
WARNING:openflow.discovery_sk:Link [00-00-00-00-00-07.1 -> 00-00-00-00-00-07.2] Added! 
WARNING:forwarding.l2_multi_sk:skip Unlearned 00:00:00:00:00:06
WARNING:openflow.discovery_sk:Link [00-00-00-00-00-06.1 -> 00-00-00-00-00-07.1] Added! 
WARNING:forwarding.l2_multi_sk:skip Unlearned 00:00:00:00:00:06
WARNING:openflow.discovery_sk:Link [00-00-00-00-00-10.1 -> 00-00-00-00-00-0a.1] Added! 
WARNING:forwarding.l2_multi_sk:skip Unlearned 00:00:00:00:00:10
WARNING:openflow.discovery_sk:Link [00-00-00-00-00-01.1 -> 00-00-00-00-00-02.1] Added! 
WARNING:forwarding.l2_multi_sk:skip Unlearned 00:00:00:00:00:01
WARNING:openflow.discovery_sk:Link [00-00-00-00-00-04.1 -> 00-00-00-00-00-03.2] Added! 
WARNING:forwarding.l2_multi_sk:skip Unlearned 00:00:00:00:00:04
WARNING:openflow.discovery_sk:Link [00-00-00-00-00-02.1 -> 00-00-00-00-00-02.2] Added! 
WARNING:forwarding.l2_multi_sk:skip Unlearned 00:00:00:00:00:02
WARNING:forwarding.l2_multi_sk:SYN:1, ACK:1, FIN:0 RST:0
WARNING:forwarding.l2_multi_sk: Requested SVC[4] has no instances!!
WARNING:forwarding.l2_multi_sk:No Available Service: Try to Instantiate a new service Instance!
WARNING:openflow.discovery_sk:Trying to instantiate [1] instances for Service[4], svc_loc_info_list[[[0, '00:00:00:00:00:01', '10.0.0.1', 2, 1]]]
WARNING:forwarding.l2_multi_sk:At:[1463018837.5] Installing Path for Service[4, 20] with Cost[10] -->[[(00-00-00-00-00-04, 1, 3), (00-00-00-00-00-02, 4, 1)]]
WARNING:forwarding.flow_mapper_sk:Set of current related flows for New flow_key((IPAddr('10.0.0.21'), 6, 64, 39817, IPAddr('10.0.0.34'))) = 1
WARNING:forwarding.l2_multi_sk:Flow already in flow table! skip processing
WARNING:forwarding.l2_multi_sk:SYN:1, ACK:1, FIN:0 RST:0
WARNING:forwarding.l2_multi_sk:At:[1463018837.59] Installing Path for Service[4, 20] with Cost[14] -->[[(00-00-00-00-00-04, 1, 3), (00-00-00-00-00-02, 4, 1)]]
WARNING:forwarding.flow_mapper_sk:Set of current related flows for New flow_key((IPAddr('10.0.0.21'), 6, 160, 40754, IPAddr('10.0.0.26'))) = 1
WARNING:forwarding.l2_multi_sk:Flow already in flow table! skip processing
WARNING:forwarding.l2_multi_sk:SYN:1, ACK:1, FIN:0 RST:0
WARNING:forwarding.l2_multi_sk: Requested SVC[6] has no instances!!
WARNING:forwarding.l2_multi_sk:No Available Service: Try to Instantiate a new service Instance!
WARNING:openflow.discovery_sk:Trying to instantiate [1] instances for Service[6], svc_loc_info_list[[[0, '00:00:00:00:00:02', '10.0.0.2', 2, 2]]]
WARNING:forwarding.l2_multi_sk:At:[1463018837.64] Installing Path for Service[6, 38] with Cost[10] -->[[(00-00-00-00-00-04, 1, 3), (00-00-00-00-00-02, 4, 2)]]
WARNING:forwarding.flow_mapper_sk:Set of current related flows for New flow_key((IPAddr('10.0.0.21'), 6, 12, 34032, IPAddr('10.0.0.29'))) = 1
WARNING:forwarding.l2_multi_sk:Flow already in flow table! skip processing
WARNING:forwarding.l2_multi_sk:SYN:1, ACK:1, FIN:0 RST:0
WARNING:forwarding.l2_multi_sk: Requested SVC[3] has no instances!!
WARNING:forwarding.l2_multi_sk:No Available Service: Try to Instantiate a new service Instance!
WARNING:openflow.discovery_sk:Trying to instantiate [1] instances for Service[3], svc_loc_info_list[[[0, '00:00:00:00:00:03', '10.0.0.3', 3, 1]]]
WARNING:forwarding.l2_multi_sk:At:[1463018837.73] Installing Path for Service[3, 51] with Cost[40] -->[[(00-00-00-00-00-04, 1, 4), (00-00-00-00-00-03, 3, 1)]]
WARNING:forwarding.flow_mapper_sk:Set of current related flows for New flow_key((IPAddr('10.0.0.21'), 6, 204, 46185, IPAddr('10.0.0.22'))) = 1
WARNING:forwarding.l2_multi_sk:Flow already in flow table! skip processing
WARNING:forwarding.l2_multi_sk:Flow already in flow table! skip processing
WARNING:forwarding.l2_multi_sk:Flow already in flow table! skip processing
WARNING:forwarding.l2_multi_sk:Flow already in flow table! skip processing
WARNING:forwarding.l2_multi_sk:Flow already in flow table! skip processing
WARNING:forwarding.l2_multi_sk:Flow already in flow table! skip processing
WARNING:forwarding.l2_multi_sk:Flow already in flow table! skip processing
WARNING:forwarding.l2_multi_sk: Requested SVC[2] has no instances!!
WARNING:forwarding.l2_multi_sk:No Available Service: Try to Instantiate a new service Instance!
WARNING:openflow.discovery_sk:Trying to instantiate [1] instances for Service[2], svc_loc_info_list[[[0, '00:00:00:00:00:04', '10.0.0.4', 3, 2]]]
WARNING:forwarding.l2_multi_sk:At:[1463018837.75] Installing Path for Service[2, 66] with Cost[15] -->[[(00-00-00-00-00-02, 1, 4), (00-00-00-00-00-04, 3, 4), (00-00-00-00-00-03, 3, 2)]]
WARNING:forwarding.flow_mapper_sk:Set of current related flows for flow_key((IPAddr('10.0.0.21'), 6, 64, 39817, IPAddr('10.0.0.34'))) = 2
WARNING:forwarding.l2_multi_sk: Requested SVC[5] has no instances!!
WARNING:forwarding.l2_multi_sk:No Available Service: Try to Instantiate a new service Instance!
WARNING:openflow.discovery_sk:Trying to instantiate [1] instances for Service[5], svc_loc_info_list[[[0, '00:00:00:00:00:05', '10.0.0.5', 5, 1]]]
WARNING:forwarding.l2_multi_sk:At:[1463018837.78] Installing Path for Service[5, 85] with Cost[25] -->[[(00-00-00-00-00-03, 1, 4), (00-00-00-00-00-05, 5, 1)]]
WARNING:forwarding.flow_mapper_sk:Set of current related flows for flow_key((IPAddr('10.0.0.21'), 6, 204, 46185, IPAddr('10.0.0.22'))) = 2
WARNING:forwarding.l2_multi_sk:At:[1463018837.83] Installing Path for Service[3, 51] with Cost[19] -->[[(00-00-00-00-00-02, 2, 4), (00-00-00-00-00-04, 3, 4), (00-00-00-00-00-03, 3, 1)]]
WARNING:forwarding.flow_mapper_sk:Set of current related flows for flow_key((IPAddr('10.0.0.21'), 6, 12, 34032, IPAddr('10.0.0.29'))) = 2
WARNING:forwarding.l2_multi_sk:At:[1463018837.87] Installing Path for Service[5, 85] with Cost[24] -->[[(00-00-00-00-00-02, 1, 5), (00-00-00-00-00-05, 4, 1)]]
WARNING:forwarding.flow_mapper_sk:Set of current related flows for flow_key((IPAddr('10.0.0.21'), 6, 160, 40754, IPAddr('10.0.0.26'))) = 2
WARNING:forwarding.l2_multi_sk:At:[1463018838.12] Installing Path for Service[5, 85] with Cost[35] -->[[(00-00-00-00-00-03, 1, 4), (00-00-00-00-00-05, 5, 1)]]
WARNING:forwarding.flow_mapper_sk:Set of current related flows for flow_key((IPAddr('10.0.0.21'), 6, 12, 34032, IPAddr('10.0.0.29'))) = 3
WARNING:forwarding.l2_multi_sk:At:[1463018838.16] Installing Path for Service[6, 38] with Cost[19] -->[[(00-00-00-00-00-03, 2, 3), (00-00-00-00-00-04, 4, 3), (00-00-00-00-00-02, 4, 2)]]
WARNING:forwarding.flow_mapper_sk:Set of current related flows for flow_key((IPAddr('10.0.0.21'), 6, 64, 39817, IPAddr('10.0.0.34'))) = 3
WARNING:forwarding.l2_multi_sk:At:[1463018838.26] Installing Path for Service[6, 38] with Cost[20] -->[[(00-00-00-00-00-05, 1, 4), (00-00-00-00-00-02, 5, 2)]]
WARNING:forwarding.flow_mapper_sk:Set of current related flows for flow_key((IPAddr('10.0.0.21'), 6, 204, 46185, IPAddr('10.0.0.22'))) = 3
WARNING:forwarding.l2_multi_sk:At:[1463018838.3] Installing Path for Service[3, 51] with Cost[20] -->[[(00-00-00-00-00-05, 1, 5), (00-00-00-00-00-03, 4, 1)]]
WARNING:forwarding.flow_mapper_sk:Set of current related flows for flow_key((IPAddr('10.0.0.21'), 6, 160, 40754, IPAddr('10.0.0.26'))) = 3
WARNING:forwarding.l2_multi_sk:SYN:1, ACK:1, FIN:0 RST:0
WARNING:forwarding.l2_multi_sk:At:[1463018838.61] Installing Path for Service[4, 20] with Cost[20] -->[[(00-00-00-00-00-05, 2, 4), (00-00-00-00-00-02, 5, 1)]]
WARNING:forwarding.flow_mapper_sk:Set of current related flows for New flow_key((IPAddr('10.0.0.23'), 6, 160, 55941, IPAddr('10.0.0.22'))) = 1
WARNING:forwarding.l2_multi_sk:Flow already in flow table! skip processing
WARNING:forwarding.l2_multi_sk:SYN:1, ACK:1, FIN:0 RST:0
WARNING:forwarding.l2_multi_sk:At:[1463018838.69] Installing Path to End Destination with SVC_CHAIN[3] -->[[(00-00-00-00-00-05, 1, 4), (00-00-00-00-00-02, 5, 6), (00-00-00-00-00-0b, 1, 3), (00-00-00-00-00-0c, 6, 4), (00-00-00-00-00-0e, 3, 1)]]
WARNING:forwarding.flow_mapper_sk:Set of current related flows for flow_key((IPAddr('10.0.0.21'), 6, 12, 34032, IPAddr('10.0.0.29'))) = 4
WARNING:forwarding.l2_multi_sk: Requested SVC[1] has no instances!!
WARNING:forwarding.l2_multi_sk:No Available Service: Try to Instantiate a new service Instance!
WARNING:openflow.discovery_sk:Trying to instantiate [1] instances for Service[1], svc_loc_info_list[[[0, '00:00:00:00:00:06', '10.0.0.6', 7, 1]]]
WARNING:forwarding.l2_multi_sk:At:[1463018838.7] Installing Path for Service[1, 97] with Cost[53] -->[[(00-00-00-00-00-05, 2, 4), (00-00-00-00-00-02, 5, 3), (00-00-00-00-00-01, 1, 2), (00-00-00-00-00-07, 3, 1)]]
WARNING:forwarding.flow_mapper_sk:Set of current related flows for New flow_key((IPAddr('10.0.0.23'), 6, 208, 37715, IPAddr('10.0.0.21'))) = 1
WARNING:forwarding.l2_multi_sk:Flow already in flow table! skip processing
WARNING:forwarding.l2_multi_sk:SYN:1, ACK:1, FIN:0 RST:0
WARNING:forwarding.l2_multi_sk:At:[1463018838.78] Installing Path for Service[3, 51] with Cost[27] -->[[(00-00-00-00-00-05, 2, 5), (00-00-00-00-00-03, 4, 1)]]
WARNING:forwarding.flow_mapper_sk:Set of current related flows for New flow_key((IPAddr('10.0.0.23'), 6, 176, 36924, IPAddr('10.0.0.26'))) = 1
WARNING:forwarding.l2_multi_sk:Flow already in flow table! skip processing
WARNING:forwarding.l2_multi_sk:At:[1463018838.84] Installing Path to End Destination with SVC_CHAIN[3] -->[[(00-00-00-00-00-02, 2, 4), (00-00-00-00-00-04, 3, 2)]]
WARNING:forwarding.flow_mapper_sk:Set of current related flows for flow_key((IPAddr('10.0.0.21'), 6, 204, 46185, IPAddr('10.0.0.22'))) = 4
WARNING:forwarding.l2_multi_sk:SYN:1, ACK:1, FIN:0 RST:0
WARNING:forwarding.l2_multi_sk:At:[1463018838.92] Installing Path for Service[6, 38] with Cost[27] -->[[(00-00-00-00-00-05, 2, 4), (00-00-00-00-00-02, 5, 2)]]
WARNING:forwarding.flow_mapper_sk:Set of current related flows for New flow_key((IPAddr('10.0.0.23'), 6, 224, 58202, IPAddr('10.0.0.35'))) = 1
WARNING:forwarding.l2_multi_sk:At:[1463018838.93] Installing Path to End Destination with SVC_CHAIN[3] -->[[(00-00-00-00-00-02, 2, 6), (00-00-00-00-00-0b, 1, 4), (00-00-00-00-00-11, 4, 5), (00-00-00-00-00-13, 3, 2)]]
WARNING:forwarding.flow_mapper_sk:Set of current related flows for flow_key((IPAddr('10.0.0.21'), 6, 64, 39817, IPAddr('10.0.0.34'))) = 4
WARNING:forwarding.l2_multi_sk:Flow already in flow table! skip processing
WARNING:forwarding.l2_multi_sk:At:[1463018839.0] Installing Path for Service[4, 20] with Cost[32] -->[[(00-00-00-00-00-07, 1, 3), (00-00-00-00-00-01, 2, 1), (00-00-00-00-00-02, 3, 1)]]
WARNING:forwarding.flow_mapper_sk:Set of current related flows for flow_key((IPAddr('10.0.0.23'), 6, 208, 37715, IPAddr('10.0.0.21'))) = 2
WARNING:forwarding.l2_multi_sk:At:[1463018839.01] Installing Path for Service[4, 20] with Cost[38] -->[[(00-00-00-00-00-03, 1, 3), (00-00-00-00-00-04, 4, 3), (00-00-00-00-00-02, 4, 1)]]
WARNING:forwarding.flow_mapper_sk:Set of current related flows for flow_key((IPAddr('10.0.0.23'), 6, 176, 36924, IPAddr('10.0.0.26'))) = 2
WARNING:forwarding.l2_multi_sk:At:[1463018839.08] Installing Path for Service[5, 85] with Cost[67] -->[[(00-00-00-00-00-02, 1, 5), (00-00-00-00-00-05, 4, 1)]]
WARNING:forwarding.flow_mapper_sk:Set of current related flows for flow_key((IPAddr('10.0.0.23'), 6, 160, 55941, IPAddr('10.0.0.22'))) = 2
WARNING:forwarding.l2_multi_sk:At:[1463018839.13] Installing Path to End Destination with SVC_CHAIN[3] -->[[(00-00-00-00-00-03, 1, 5), (00-00-00-00-00-06, 1, 2), (00-00-00-00-00-08, 5, 3), (00-00-00-00-00-09, 4, 2)]]
WARNING:forwarding.flow_mapper_sk:Set of current related flows for flow_key((IPAddr('10.0.0.21'), 6, 160, 40754, IPAddr('10.0.0.26'))) = 4
WARNING:forwarding.l2_multi_sk:At:[1463018839.18] Installing Path for Service[5, 85] with Cost[57] -->[[(00-00-00-00-00-02, 2, 5), (00-00-00-00-00-05, 4, 1)]]
WARNING:forwarding.flow_mapper_sk:Set of current related flows for flow_key((IPAddr('10.0.0.23'), 6, 224, 58202, IPAddr('10.0.0.35'))) = 2
WARNING:forwarding.l2_multi_sk:At:[1463018839.37] Installing Path for Service[6, 38] with Cost[28] -->[[(00-00-00-00-00-02, 1, 2)]]
WARNING:forwarding.flow_mapper_sk:Set of current related flows for flow_key((IPAddr('10.0.0.23'), 6, 176, 36924, IPAddr('10.0.0.26'))) = 3
WARNING:forwarding.l2_multi_sk:At:[1463018839.44] Installing Path for Service[3, 51] with Cost[38] -->[[(00-00-00-00-00-02, 1, 4), (00-00-00-00-00-04, 3, 4), (00-00-00-00-00-03, 3, 1)]]
WARNING:forwarding.flow_mapper_sk:Set of current related flows for flow_key((IPAddr('10.0.0.23'), 6, 208, 37715, IPAddr('10.0.0.21'))) = 3
WARNING:forwarding.l2_multi_sk:SYN:1, ACK:1, FIN:0 RST:0
WARNING:forwarding.l2_multi_sk:At:[1463018839.58] Installing Path for Service[3, 51] with Cost[40] -->[[(00-00-00-00-00-05, 1, 5), (00-00-00-00-00-03, 4, 1)]]
WARNING:forwarding.flow_mapper_sk:Set of current related flows for flow_key((IPAddr('10.0.0.23'), 6, 224, 58202, IPAddr('10.0.0.35'))) = 3
WARNING:forwarding.l2_multi_sk:At:[1463018839.62] Installing Path for Service[6, 38] with Cost[400] -->[[(00-00-00-00-00-09, 1, 3), (00-00-00-00-00-07, 4, 3), (00-00-00-00-00-01, 2, 1), (00-00-00-00-00-02, 3, 2)]]
WARNING:forwarding.flow_mapper_sk:Set of current related flows for New flow_key((IPAddr('10.0.0.25'), 6, 168, 47961, IPAddr('10.0.0.26'))) = 1
WARNING:forwarding.l2_multi_sk:Flow already in flow table! skip processing
WARNING:forwarding.l2_multi_sk:SYN:1, ACK:1, FIN:0 RST:0
WARNING:forwarding.l2_multi_sk:At:[1463018839.71] Installing Path for Service[2, 66] with Cost[24] -->[[(00-00-00-00-00-09, 1, 4), (00-00-00-00-00-08, 3, 6), (00-00-00-00-00-10, 2, 1), (00-00-00-00-00-03, 6, 2)]]
WARNING:forwarding.flow_mapper_sk:Set of current related flows for New flow_key((IPAddr('10.0.0.25'), 6, 240, 33245, IPAddr('10.0.0.31'))) = 1
WARNING:forwarding.l2_multi_sk:Flow already in flow table! skip processing
WARNING:forwarding.l2_multi_sk:SYN:1, ACK:1, FIN:0 RST:0
WARNING:forwarding.l2_multi_sk:At:[1463018839.77] Installing Path for Service[3, 51] with Cost[47] -->[[(00-00-00-00-00-05, 1, 5), (00-00-00-00-00-03, 4, 1)]]
WARNING:forwarding.flow_mapper_sk:Set of current related flows for flow_key((IPAddr('10.0.0.23'), 6, 160, 55941, IPAddr('10.0.0.22'))) = 3
WARNING:forwarding.l2_multi_sk:At:[1463018839.8] Installing Path for Service[1, 97] with Cost[19] -->[[(00-00-00-00-00-02, 2, 3), (00-00-00-00-00-01, 1, 2), (00-00-00-00-00-07, 3, 1)]]
WARNING:forwarding.flow_mapper_sk:Set of current related flows for flow_key((IPAddr('10.0.0.25'), 6, 168, 47961, IPAddr('10.0.0.26'))) = 2
WARNING:forwarding.l2_multi_sk:At:[1463018839.81] Installing Path for Service[6, 38] with Cost[57] -->[[(00-00-00-00-00-09, 1, 3), (00-00-00-00-00-07, 4, 6), (00-00-00-00-00-0b, 2, 1), (00-00-00-00-00-02, 6, 2)]]
WARNING:forwarding.flow_mapper_sk:Set of current related flows for New flow_key((IPAddr('10.0.0.25'), 6, 212, 45381, IPAddr('10.0.0.24'))) = 1
WARNING:forwarding.l2_multi_sk:Flow already in flow table! skip processing
WARNING:forwarding.l2_multi_sk:SYN:1, ACK:1, FIN:0 RST:0
WARNING:forwarding.l2_multi_sk:At:[1463018839.93] Installing Path for Service[4, 20] with Cost[50] -->[[(00-00-00-00-00-09, 1, 3), (00-00-00-00-00-07, 4, 3), (00-00-00-00-00-01, 2, 1), (00-00-00-00-00-02, 3, 1)]]
WARNING:forwarding.flow_mapper_sk:Set of current related flows for New flow_key((IPAddr('10.0.0.25'), 6, 200, 36635, IPAddr('10.0.0.23'))) = 1
WARNING:forwarding.l2_multi_sk:Flow already in flow table! skip processing
WARNING:forwarding.l2_multi_sk:At:[1463018840.0] Installing Path to End Destination with SVC_CHAIN[3] -->[[(00-00-00-00-00-02, 2, 6), (00-00-00-00-00-0b, 1, 2), (00-00-00-00-00-07, 6, 4), (00-00-00-00-00-09, 3, 2)]]
WARNING:forwarding.flow_mapper_sk:Set of current related flows for flow_key((IPAddr('10.0.0.23'), 6, 176, 36924, IPAddr('10.0.0.26'))) = 4
WARNING:forwarding.l2_multi_sk:At:[1463018840.01] Installing Path for Service[6, 38] with Cost[58] -->[[(00-00-00-00-00-03, 2, 4), (00-00-00-00-00-05, 5, 4), (00-00-00-00-00-02, 5, 2)]]
WARNING:forwarding.flow_mapper_sk:Set of current related flows for flow_key((IPAddr('10.0.0.25'), 6, 240, 33245, IPAddr('10.0.0.31'))) = 2
WARNING:forwarding.l2_multi_sk:At:[1463018840.06] Installing Path for Service[1, 97] with Cost[87] -->[[(00-00-00-00-00-02, 2, 6), (00-00-00-00-00-0b, 1, 2), (00-00-00-00-00-07, 6, 1)]]
WARNING:forwarding.flow_mapper_sk:Set of current related flows for flow_key((IPAddr('10.0.0.25'), 6, 212, 45381, IPAddr('10.0.0.24'))) = 2
WARNING:forwarding.l2_multi_sk:At:[1463018840.09] Installing Path for Service[5, 85] with Cost[225] -->[[(00-00-00-00-00-07, 1, 3), (00-00-00-00-00-01, 2, 1), (00-00-00-00-00-02, 3, 5), (00-00-00-00-00-05, 4, 1)]]
WARNING:forwarding.flow_mapper_sk:Set of current related flows for flow_key((IPAddr('10.0.0.25'), 6, 168, 47961, IPAddr('10.0.0.26'))) = 3
WARNING:forwarding.l2_multi_sk:At:[1463018840.09] Installing Path for Service[1, 97] with Cost[112] -->[[(00-00-00-00-00-02, 1, 3), (00-00-00-00-00-01, 1, 2), (00-00-00-00-00-07, 3, 1)]]
WARNING:forwarding.flow_mapper_sk:Set of current related flows for flow_key((IPAddr('10.0.0.25'), 6, 200, 36635, IPAddr('10.0.0.23'))) = 2
WARNING:forwarding.l2_multi_sk:At:[1463018840.34] Installing Path to End Destination with SVC_CHAIN[3] -->[[(00-00-00-00-00-03, 1, 3), (00-00-00-00-00-04, 4, 1)]]
WARNING:forwarding.flow_mapper_sk:Set of current related flows for flow_key((IPAddr('10.0.0.23'), 6, 208, 37715, IPAddr('10.0.0.21'))) = 4
WARNING:forwarding.l2_multi_sk:At:[1463018840.35] Installing Path to End Destination with SVC_CHAIN[3] -->[[(00-00-00-00-00-03, 1, 5), (00-00-00-00-00-06, 1, 4), (00-00-00-00-00-12, 3, 5), (00-00-00-00-00-14, 5, 2)]]
WARNING:forwarding.flow_mapper_sk:Set of current related flows for flow_key((IPAddr('10.0.0.23'), 6, 224, 58202, IPAddr('10.0.0.35'))) = 4
WARNING:forwarding.l2_multi_sk:At:[1463018840.38] Installing Path for Service[2, 66] with Cost[35] -->[[(00-00-00-00-00-07, 1, 3), (00-00-00-00-00-01, 2, 1), (00-00-00-00-00-02, 3, 4), (00-00-00-00-00-04, 3, 4), (00-00-00-00-00-03, 3, 2)]]
WARNING:forwarding.flow_mapper_sk:Set of current related flows for flow_key((IPAddr('10.0.0.25'), 6, 200, 36635, IPAddr('10.0.0.23'))) = 3
WARNING:forwarding.l2_multi_sk:At:[1463018840.45] Installing Path for Service[5, 85] with Cost[82] -->[[(00-00-00-00-00-02, 2, 5), (00-00-00-00-00-05, 4, 1)]]
WARNING:forwarding.flow_mapper_sk:Set of current related flows for flow_key((IPAddr('10.0.0.25'), 6, 240, 33245, IPAddr('10.0.0.31'))) = 3
WARNING:forwarding.l2_multi_sk:At:[1463018840.46] Installing Path for Service[2, 66] with Cost[42] -->[[(00-00-00-00-00-07, 1, 6), (00-00-00-00-00-0b, 2, 1), (00-00-00-00-00-02, 6, 4), (00-00-00-00-00-04, 3, 4), (00-00-00-00-00-03, 3, 2)]]
WARNING:forwarding.flow_mapper_sk:Set of current related flows for flow_key((IPAddr('10.0.0.25'), 6, 212, 45381, IPAddr('10.0.0.24'))) = 3
WARNING:forwarding.l2_multi_sk:SYN:1, ACK:1, FIN:0 RST:0
WARNING:forwarding.l2_multi_sk:At:[1463018840.51] Installing Path for Service[3, 51] with Cost[63] -->[[(00-00-00-00-00-0a, 2, 5), (00-00-00-00-00-08, 4, 6), (00-00-00-00-00-10, 2, 1), (00-00-00-00-00-03, 6, 1)]]
WARNING:forwarding.flow_mapper_sk:Set of current related flows for New flow_key((IPAddr('10.0.0.27'), 6, 184, 48831, IPAddr('10.0.0.32'))) = 1
WARNING:forwarding.l2_multi_sk:Flow already in flow table! skip processing
WARNING:forwarding.l2_multi_sk:Flow already in flow table! skip processing
WARNING:forwarding.l2_multi_sk:Flow already in flow table! skip processing
WARNING:forwarding.l2_multi_sk:Flow already in flow table! skip processing
WARNING:forwarding.l2_multi_sk:Flow already in flow table! skip processing
WARNING:forwarding.l2_multi_sk:At:[1463018840.56] Installing Path for Service[4, 20] with Cost[52] -->[[(00-00-00-00-00-03, 1, 4), (00-00-00-00-00-05, 5, 4), (00-00-00-00-00-02, 5, 1)]]
WARNING:forwarding.flow_mapper_sk:Set of current related flows for flow_key((IPAddr('10.0.0.27'), 6, 184, 48831, IPAddr('10.0.0.32'))) = 2
WARNING:forwarding.l2_multi_sk:SYN:1, ACK:1, FIN:0 RST:0
WARNING:forwarding.l2_multi_sk:At:[1463018840.66] Installing Path to End Destination with SVC_CHAIN[3] -->[[(00-00-00-00-00-05, 1, 5), (00-00-00-00-00-03, 4, 5), (00-00-00-00-00-06, 1, 2), (00-00-00-00-00-08, 5, 3), (00-00-00-00-00-09, 4, 2)]]
WARNING:forwarding.flow_mapper_sk:Set of current related flows for flow_key((IPAddr('10.0.0.25'), 6, 168, 47961, IPAddr('10.0.0.26'))) = 4
WARNING:forwarding.l2_multi_sk:At:[1463018840.69] Installing Path for Service[1, 97] with Cost[33] -->[[(00-00-00-00-00-0a, 2, 4), (00-00-00-00-00-07, 5, 1)]]
WARNING:forwarding.flow_mapper_sk:Set of current related flows for New flow_key((IPAddr('10.0.0.27'), 6, 208, 50470, IPAddr('10.0.0.35'))) = 1
WARNING:forwarding.l2_multi_sk:Flow already in flow table! skip processing
WARNING:forwarding.l2_multi_sk:Flow already in flow table! skip processing
WARNING:forwarding.l2_multi_sk:Flow already in flow table! skip processing
WARNING:forwarding.l2_multi_sk:Flow already in flow table! skip processing
WARNING:forwarding.l2_multi_sk:SYN:1, ACK:1, FIN:0 RST:0
WARNING:forwarding.l2_multi_sk:At:[1463018840.78] Installing Path for Service[4, 20] with Cost[58] -->[[(00-00-00-00-00-07, 1, 6), (00-00-00-00-00-0b, 2, 1), (00-00-00-00-00-02, 6, 1)]]
WARNING:forwarding.flow_mapper_sk:Set of current related flows for flow_key((IPAddr('10.0.0.27'), 6, 208, 50470, IPAddr('10.0.0.35'))) = 2
WARNING:forwarding.l2_multi_sk:At:[1463018840.78] Installing Path for Service[6, 38] with Cost[186] -->[[(00-00-00-00-00-0a, 2, 4), (00-00-00-00-00-07, 5, 3), (00-00-00-00-00-01, 2, 1), (00-00-00-00-00-02, 3, 2)]]
WARNING:forwarding.flow_mapper_sk:Set of current related flows for New flow_key((IPAddr('10.0.0.27'), 6, 248, 55022, IPAddr('10.0.0.26'))) = 1
WARNING:forwarding.l2_multi_sk:Flow already in flow table! skip processing
WARNING:forwarding.l2_multi_sk:SYN:1, ACK:1, FIN:0 RST:0
WARNING:forwarding.l2_multi_sk:At:[1463018840.91] Installing Path for Service[2, 66] with Cost[43] -->[[(00-00-00-00-00-0a, 2, 5), (00-00-00-00-00-08, 4, 6), (00-00-00-00-00-10, 2, 1), (00-00-00-00-00-03, 6, 2)]]
WARNING:forwarding.flow_mapper_sk:Set of current related flows for New flow_key((IPAddr('10.0.0.27'), 6, 20, 39090, IPAddr('10.0.0.22'))) = 1
WARNING:forwarding.l2_multi_sk:Flow already in flow table! skip processing
WARNING:forwarding.l2_multi_sk:At:[1463018840.93] Installing Path to End Destination with SVC_CHAIN[3] -->[[(00-00-00-00-00-03, 2, 4), (00-00-00-00-00-05, 5, 2)]]
WARNING:forwarding.flow_mapper_sk:Set of current related flows for flow_key((IPAddr('10.0.0.25'), 6, 200, 36635, IPAddr('10.0.0.23'))) = 4
WARNING:forwarding.l2_multi_sk:At:[1463018841.01] Installing Path for Service[3, 51] with Cost[65] -->[[(00-00-00-00-00-02, 2, 5), (00-00-00-00-00-05, 4, 5), (00-00-00-00-00-03, 4, 1)]]
WARNING:forwarding.flow_mapper_sk:Set of current related flows for flow_key((IPAddr('10.0.0.27'), 6, 248, 55022, IPAddr('10.0.0.26'))) = 2
WARNING:forwarding.l2_multi_sk:At:[1463018841.02] Installing Path for Service[6, 38] with Cost[62] -->[[(00-00-00-00-00-02, 1, 2)]]
WARNING:forwarding.flow_mapper_sk:Set of current related flows for flow_key((IPAddr('10.0.0.27'), 6, 184, 48831, IPAddr('10.0.0.32'))) = 3
WARNING:forwarding.l2_multi_sk:At:[1463018841.13] Installing Path to End Destination with SVC_CHAIN[3] -->[[(00-00-00-00-00-03, 2, 4), (00-00-00-00-00-05, 5, 3)]]
WARNING:forwarding.flow_mapper_sk:Set of current related flows for flow_key((IPAddr('10.0.0.25'), 6, 212, 45381, IPAddr('10.0.0.24'))) = 4
WARNING:forwarding.l2_multi_sk:At:[1463018841.14] Installing Path to End Destination with SVC_CHAIN[3] -->[[(00-00-00-00-00-03, 1, 3), (00-00-00-00-00-04, 4, 2)]]
WARNING:forwarding.flow_mapper_sk:Set of current related flows for flow_key((IPAddr('10.0.0.23'), 6, 160, 55941, IPAddr('10.0.0.22'))) = 4
WARNING:forwarding.l2_multi_sk:At:[1463018841.18] Installing Path for Service[6, 38] with Cost[78] -->[[(00-00-00-00-00-03, 2, 3), (00-00-00-00-00-04, 4, 3), (00-00-00-00-00-02, 4, 2)]]
WARNING:forwarding.flow_mapper_sk:Set of current related flows for flow_key((IPAddr('10.0.0.27'), 6, 20, 39090, IPAddr('10.0.0.22'))) = 2
WARNING:forwarding.l2_multi_sk:At:[1463018841.26] Installing Path to End Destination with SVC_CHAIN[3] -->[[(00-00-00-00-00-05, 1, 4), (00-00-00-00-00-02, 5, 6), (00-00-00-00-00-0b, 1, 3), (00-00-00-00-00-0c, 6, 5), (00-00-00-00-00-0f, 4, 2)]]
WARNING:forwarding.flow_mapper_sk:Set of current related flows for flow_key((IPAddr('10.0.0.25'), 6, 240, 33245, IPAddr('10.0.0.31'))) = 4
WARNING:forwarding.l2_multi_sk:At:[1463018841.36] Installing Path for Service[3, 51] with Cost[72] -->[[(00-00-00-00-00-02, 1, 5), (00-00-00-00-00-05, 4, 5), (00-00-00-00-00-03, 4, 1)]]
WARNING:forwarding.flow_mapper_sk:Set of current related flows for flow_key((IPAddr('10.0.0.27'), 6, 208, 50470, IPAddr('10.0.0.35'))) = 3
WARNING:forwarding.l2_multi_sk:At:[1463018841.37] Installing Path for Service[4, 20] with Cost[65] -->[[(00-00-00-00-00-03, 1, 3), (00-00-00-00-00-04, 4, 3), (00-00-00-00-00-02, 4, 1)]]
WARNING:forwarding.flow_mapper_sk:Set of current related flows for flow_key((IPAddr('10.0.0.27'), 6, 248, 55022, IPAddr('10.0.0.26'))) = 3
WARNING:forwarding.l2_multi_sk:SYN:1, ACK:1, FIN:0 RST:0
WARNING:forwarding.l2_multi_sk:At:[1463018841.52] Installing Path for Service[6, 38] with Cost[90] -->[[(00-00-00-00-00-0e, 1, 3), (00-00-00-00-00-0c, 4, 3), (00-00-00-00-00-01, 3, 1), (00-00-00-00-00-02, 3, 2)]]
WARNING:forwarding.flow_mapper_sk:Set of current related flows for New flow_key((IPAddr('10.0.0.29'), 6, 212, 33646, IPAddr('10.0.0.36'))) = 1
WARNING:forwarding.l2_multi_sk:Flow already in flow table! skip processing
WARNING:forwarding.l2_multi_sk:At:[1463018841.55] Installing Path for Service[4, 20] with Cost[62] -->[[(00-00-00-00-00-02, 2, 1)]]
WARNING:forwarding.flow_mapper_sk:Set of current related flows for flow_key((IPAddr('10.0.0.27'), 6, 20, 39090, IPAddr('10.0.0.22'))) = 3
WARNING:forwarding.l2_multi_sk:SYN:1, ACK:1, FIN:0 RST:0
WARNING:forwarding.l2_multi_sk:At:[1463018841.62] Installing Path to End Destination with SVC_CHAIN[3] -->[[(00-00-00-00-00-02, 2, 6), (00-00-00-00-00-0b, 1, 3), (00-00-00-00-00-0c, 6, 5), (00-00-00-00-00-0f, 4, 3)]]
WARNING:forwarding.flow_mapper_sk:Set of current related flows for flow_key((IPAddr('10.0.0.27'), 6, 184, 48831, IPAddr('10.0.0.32'))) = 4
WARNING:forwarding.l2_multi_sk:At:[1463018841.66] Installing Path for Service[6, 38] with Cost[97] -->[[(00-00-00-00-00-0e, 1, 3), (00-00-00-00-00-0c, 4, 6), (00-00-00-00-00-0b, 3, 1), (00-00-00-00-00-02, 6, 2)]]
WARNING:forwarding.flow_mapper_sk:Set of current related flows for New flow_key((IPAddr('10.0.0.29'), 6, 236, 33346, IPAddr('10.0.0.35'))) = 1
WARNING:forwarding.l2_multi_sk:Flow already in flow table! skip processing
WARNING:forwarding.l2_multi_sk:Flow already in flow table! skip processing
WARNING:forwarding.l2_multi_sk:Flow already in flow table! skip processing
WARNING:forwarding.l2_multi_sk:Flow already in flow table! skip processing
WARNING:forwarding.l2_multi_sk:SYN:1, ACK:1, FIN:0 RST:0
WARNING:forwarding.l2_multi_sk:At:[1463018841.76] Installing Path for Service[6, 38] with Cost[103] -->[[(00-00-00-00-00-0e, 1, 3), (00-00-00-00-00-0c, 4, 3), (00-00-00-00-00-01, 3, 1), (00-00-00-00-00-02, 3, 2)]]
WARNING:forwarding.flow_mapper_sk:Set of current related flows for New flow_key((IPAddr('10.0.0.29'), 6, 228, 54602, IPAddr('10.0.0.33'))) = 1
WARNING:forwarding.l2_multi_sk:Flow already in flow table! skip processing
WARNING:forwarding.l2_multi_sk:SYN:1, ACK:1, FIN:0 RST:0
WARNING:forwarding.l2_multi_sk:At:[1463018841.82] Installing Path for Service[4, 20] with Cost[83] -->[[(00-00-00-00-00-0e, 1, 3), (00-00-00-00-00-0c, 4, 3), (00-00-00-00-00-01, 3, 1), (00-00-00-00-00-02, 3, 1)]]
WARNING:forwarding.flow_mapper_sk:Set of current related flows for New flow_key((IPAddr('10.0.0.29'), 6, 160, 50100, IPAddr('10.0.0.27'))) = 1
WARNING:forwarding.l2_multi_sk:Flow already in flow table! skip processing
WARNING:forwarding.l2_multi_sk:At:[1463018841.89] Installing Path for Service[1, 97] with Cost[45] -->[[(00-00-00-00-00-02, 2, 3), (00-00-00-00-00-01, 1, 2), (00-00-00-00-00-07, 3, 1)]]
WARNING:forwarding.flow_mapper_sk:Set of current related flows for flow_key((IPAddr('10.0.0.29'), 6, 212, 33646, IPAddr('10.0.0.36'))) = 2
WARNING:forwarding.l2_multi_sk:At:[1463018842.04] Installing Path for Service[5, 85] with Cost[92] -->[[(00-00-00-00-00-02, 1, 5), (00-00-00-00-00-05, 4, 1)]]
WARNING:forwarding.flow_mapper_sk:Set of current related flows for flow_key((IPAddr('10.0.0.29'), 6, 160, 50100, IPAddr('10.0.0.27'))) = 2
WARNING:forwarding.l2_multi_sk:At:[1463018842.04] Installing Path for Service[3, 51] with Cost[78] -->[[(00-00-00-00-00-02, 2, 4), (00-00-00-00-00-04, 3, 4), (00-00-00-00-00-03, 3, 1)]]
WARNING:forwarding.flow_mapper_sk:Set of current related flows for flow_key((IPAddr('10.0.0.29'), 6, 228, 54602, IPAddr('10.0.0.33'))) = 2
WARNING:forwarding.l2_multi_sk:At:[1463018842.09] Installing Path to End Destination with SVC_CHAIN[3] -->[[(00-00-00-00-00-02, 1, 6), (00-00-00-00-00-0b, 1, 2), (00-00-00-00-00-07, 6, 4), (00-00-00-00-00-09, 3, 2)]]
WARNING:forwarding.flow_mapper_sk:Set of current related flows for flow_key((IPAddr('10.0.0.27'), 6, 248, 55022, IPAddr('10.0.0.26'))) = 4
WARNING:forwarding.l2_multi_sk:At:[1463018842.13] Installing Path to End Destination with SVC_CHAIN[3] -->[[(00-00-00-00-00-03, 1, 5), (00-00-00-00-00-06, 1, 4), (00-00-00-00-00-12, 3, 5), (00-00-00-00-00-14, 5, 2)]]
WARNING:forwarding.flow_mapper_sk:Set of current related flows for flow_key((IPAddr('10.0.0.27'), 6, 208, 50470, IPAddr('10.0.0.35'))) = 4
WARNING:forwarding.l2_multi_sk:At:[1463018842.32] Installing Path for Service[3, 51] with Cost[80] -->[[(00-00-00-00-00-05, 1, 5), (00-00-00-00-00-03, 4, 1)]]
WARNING:forwarding.flow_mapper_sk:Set of current related flows for flow_key((IPAddr('10.0.0.29'), 6, 160, 50100, IPAddr('10.0.0.27'))) = 3
WARNING:forwarding.l2_multi_sk:At:[1463018842.34] Installing Path to End Destination with SVC_CHAIN[3] -->[[(00-00-00-00-00-02, 1, 4), (00-00-00-00-00-04, 3, 2)]]
WARNING:forwarding.flow_mapper_sk:Set of current related flows for flow_key((IPAddr('10.0.0.27'), 6, 20, 39090, IPAddr('10.0.0.22'))) = 4
WARNING:forwarding.l2_multi_sk:At:[1463018842.38] Installing Path for Service[4, 20] with Cost[75] -->[[(00-00-00-00-00-02, 2, 1)]]
WARNING:forwarding.flow_mapper_sk:Set of current related flows for flow_key((IPAddr('10.0.0.29'), 6, 236, 33346, IPAddr('10.0.0.35'))) = 2
WARNING:forwarding.l2_multi_sk:At:[1463018842.45] Installing Path for Service[2, 66] with Cost[55] -->[[(00-00-00-00-00-07, 1, 3), (00-00-00-00-00-01, 2, 1), (00-00-00-00-00-02, 3, 5), (00-00-00-00-00-05, 4, 5), (00-00-00-00-00-03, 4, 2)]]
WARNING:forwarding.flow_mapper_sk:Set of current related flows for flow_key((IPAddr('10.0.0.29'), 6, 212, 33646, IPAddr('10.0.0.36'))) = 3
WARNING:forwarding.l2_multi_sk:At:[1463018842.48] Installing Path for Service[1, 97] with Cost[62] -->[[(00-00-00-00-00-03, 1, 6), (00-00-00-00-00-10, 1, 2), (00-00-00-00-00-08, 6, 3), (00-00-00-00-00-09, 4, 3), (00-00-00-00-00-07, 4, 1)]]
WARNING:forwarding.flow_mapper_sk:Set of current related flows for flow_key((IPAddr('10.0.0.29'), 6, 228, 54602, IPAddr('10.0.0.33'))) = 3
WARNING:forwarding.l2_multi_sk:At:[1463018842.92] Installing Path to End Destination with SVC_CHAIN[3] -->[[(00-00-00-00-00-03, 1, 5), (00-00-00-00-00-06, 1, 2), (00-00-00-00-00-08, 5, 4), (00-00-00-00-00-0a, 5, 2)]]
WARNING:forwarding.flow_mapper_sk:Set of current related flows for flow_key((IPAddr('10.0.0.29'), 6, 160, 50100, IPAddr('10.0.0.27'))) = 4
WARNING:forwarding.l2_multi_sk:At:[1463018843.22] Installing Path for Service[5, 85] with Cost[105] -->[[(00-00-00-00-00-02, 1, 5), (00-00-00-00-00-05, 4, 1)]]
WARNING:forwarding.flow_mapper_sk:Set of current related flows for flow_key((IPAddr('10.0.0.29'), 6, 236, 33346, IPAddr('10.0.0.35'))) = 3
WARNING:forwarding.l2_multi_sk:At:[1463018843.3] Installing Path to End Destination with SVC_CHAIN[3] -->[[(00-00-00-00-00-07, 1, 6), (00-00-00-00-00-0b, 2, 4), (00-00-00-00-00-11, 4, 5), (00-00-00-00-00-13, 3, 1)]]
WARNING:forwarding.flow_mapper_sk:Set of current related flows for flow_key((IPAddr('10.0.0.29'), 6, 228, 54602, IPAddr('10.0.0.33'))) = 4
WARNING:forwarding.l2_multi_sk:At:[1463018843.5] Installing Path to End Destination with SVC_CHAIN[3] -->[[(00-00-00-00-00-03, 2, 5), (00-00-00-00-00-06, 1, 4), (00-00-00-00-00-12, 3, 5), (00-00-00-00-00-14, 5, 3)]]
WARNING:forwarding.flow_mapper_sk:Set of current related flows for flow_key((IPAddr('10.0.0.29'), 6, 212, 33646, IPAddr('10.0.0.36'))) = 4
WARNING:forwarding.l2_multi_sk:At:[1463018844.93] Installing Path to End Destination with SVC_CHAIN[3] -->[[(00-00-00-00-00-05, 1, 5), (00-00-00-00-00-03, 4, 5), (00-00-00-00-00-06, 1, 4), (00-00-00-00-00-12, 3, 5), (00-00-00-00-00-14, 5, 2)]]
WARNING:forwarding.flow_mapper_sk:Set of current related flows for flow_key((IPAddr('10.0.0.29'), 6, 236, 33346, IPAddr('10.0.0.35'))) = 4
WARNING:forwarding.flow_mapper_sk:deleted sub-flow for keys((EthAddr('00:00:00:00:00:03'), 6, 12, 34032, 11813, EthAddr('00:00:00:00:00:29')), (IPAddr('10.0.0.21'), 6, 12, 34032, IPAddr('10.0.0.29'))), remaining[3]
WARNING:forwarding.flow_mapper_sk:deleted sub-flow for keys((EthAddr('00:00:00:00:00:04'), 6, 64, 39817, 11903, EthAddr('00:00:00:00:00:34')), (IPAddr('10.0.0.21'), 6, 64, 39817, IPAddr('10.0.0.34'))), remaining[3]
WARNING:forwarding.flow_mapper_sk:deleted sub-flow for keys((EthAddr('00:00:00:00:00:21'), 6, 64, 39817, 11901, EthAddr('00:00:00:00:00:34')), (IPAddr('10.0.0.21'), 6, 64, 39817, IPAddr('10.0.0.34'))), remaining[2]
WARNING:forwarding.flow_mapper_sk:deleted sub-flow for keys((EthAddr('00:00:00:00:00:21'), 6, 12, 34032, 11811, EthAddr('00:00:00:00:00:29')), (IPAddr('10.0.0.21'), 6, 12, 34032, IPAddr('10.0.0.29'))), remaining[2]
WARNING:forwarding.flow_mapper_sk:deleted sub-flow for keys((EthAddr('00:00:00:00:00:01'), 6, 64, 39817, 11902, EthAddr('00:00:00:00:00:34')), (IPAddr('10.0.0.21'), 6, 64, 39817, IPAddr('10.0.0.34'))), remaining[1]
WARNING:forwarding.flow_mapper_sk:deleted sub-flow for keys((EthAddr('00:00:00:00:00:02'), 6, 12, 34032, 11812, EthAddr('00:00:00:00:00:29')), (IPAddr('10.0.0.21'), 6, 12, 34032, IPAddr('10.0.0.29'))), remaining[1]
WARNING:forwarding.flow_mapper_sk:deleted sub-flow for keys((EthAddr('00:00:00:00:00:02'), 6, 64, 39817, 11904, EthAddr('00:00:00:00:00:34')), (IPAddr('10.0.0.21'), 6, 64, 39817, IPAddr('10.0.0.34'))), remaining[0]
WARNING:forwarding.flow_mapper_sk:deleted sub-flow for keys((EthAddr('00:00:00:00:00:05'), 6, 12, 34032, 11814, EthAddr('00:00:00:00:00:29')), (IPAddr('10.0.0.21'), 6, 12, 34032, IPAddr('10.0.0.29'))), remaining[0]
WARNING:forwarding.flow_mapper_sk:deleted sub-flow for keys((EthAddr('00:00:00:00:00:03'), 6, 176, 36924, 12412, EthAddr('00:00:00:00:00:26')), (IPAddr('10.0.0.23'), 6, 176, 36924, IPAddr('10.0.0.26'))), remaining[3]
WARNING:forwarding.flow_mapper_sk:deleted sub-flow for keys((EthAddr('00:00:00:00:00:03'), 6, 160, 40754, 11934, EthAddr('00:00:00:00:00:26')), (IPAddr('10.0.0.21'), 6, 160, 40754, IPAddr('10.0.0.26'))), remaining[3]
WARNING:forwarding.flow_mapper_sk:deleted sub-flow for keys((EthAddr('00:00:00:00:00:21'), 6, 160, 40754, 11931, EthAddr('00:00:00:00:00:26')), (IPAddr('10.0.0.21'), 6, 160, 40754, IPAddr('10.0.0.26'))), remaining[2]
WARNING:forwarding.flow_mapper_sk:deleted sub-flow for keys((EthAddr('00:00:00:00:00:01'), 6, 160, 40754, 11932, EthAddr('00:00:00:00:00:26')), (IPAddr('10.0.0.21'), 6, 160, 40754, IPAddr('10.0.0.26'))), remaining[1]
WARNING:forwarding.flow_mapper_sk:deleted sub-flow for keys((EthAddr('00:00:00:00:00:01'), 6, 176, 36924, 12413, EthAddr('00:00:00:00:00:26')), (IPAddr('10.0.0.23'), 6, 176, 36924, IPAddr('10.0.0.26'))), remaining[2]
WARNING:forwarding.flow_mapper_sk:deleted sub-flow for keys((EthAddr('00:00:00:00:00:02'), 6, 176, 36924, 12414, EthAddr('00:00:00:00:00:26')), (IPAddr('10.0.0.23'), 6, 176, 36924, IPAddr('10.0.0.26'))), remaining[1]
WARNING:forwarding.flow_mapper_sk:deleted sub-flow for keys((EthAddr('00:00:00:00:00:05'), 6, 160, 40754, 11933, EthAddr('00:00:00:00:00:26')), (IPAddr('10.0.0.21'), 6, 160, 40754, IPAddr('10.0.0.26'))), remaining[0]
WARNING:forwarding.flow_mapper_sk:deleted sub-flow for keys((EthAddr('00:00:00:00:00:23'), 6, 176, 36924, 12411, EthAddr('00:00:00:00:00:26')), (IPAddr('10.0.0.23'), 6, 176, 36924, IPAddr('10.0.0.26'))), remaining[0]
WARNING:forwarding.flow_mapper_sk:deleted sub-flow for keys((EthAddr('00:00:00:00:00:06'), 6, 208, 37715, 12522, EthAddr('00:00:00:00:00:21')), (IPAddr('10.0.0.23'), 6, 208, 37715, IPAddr('10.0.0.21'))), remaining[3]
WARNING:forwarding.flow_mapper_sk:deleted sub-flow for keys((EthAddr('00:00:00:00:00:06'), 6, 168, 47961, 11043, EthAddr('00:00:00:00:00:26')), (IPAddr('10.0.0.25'), 6, 168, 47961, IPAddr('10.0.0.26'))), remaining[3]
WARNING:forwarding.flow_mapper_sk:deleted sub-flow for keys((EthAddr('00:00:00:00:00:25'), 6, 168, 47961, 11041, EthAddr('00:00:00:00:00:26')), (IPAddr('10.0.0.25'), 6, 168, 47961, IPAddr('10.0.0.26'))), remaining[2]
WARNING:forwarding.flow_mapper_sk:deleted sub-flow for keys((EthAddr('00:00:00:00:00:03'), 6, 208, 37715, 12524, EthAddr('00:00:00:00:00:21')), (IPAddr('10.0.0.23'), 6, 208, 37715, IPAddr('10.0.0.21'))), remaining[2]
WARNING:forwarding.flow_mapper_sk:deleted sub-flow for keys((EthAddr('00:00:00:00:00:03'), 6, 224, 58202, 12504, EthAddr('00:00:00:00:00:35')), (IPAddr('10.0.0.23'), 6, 224, 58202, IPAddr('10.0.0.35'))), remaining[3]
WARNING:forwarding.flow_mapper_sk:deleted sub-flow for keys((EthAddr('00:00:00:00:00:04'), 6, 200, 36635, 10914, EthAddr('00:00:00:00:00:23')), (IPAddr('10.0.0.25'), 6, 200, 36635, IPAddr('10.0.0.23'))), remaining[3]
WARNING:forwarding.flow_mapper_sk:deleted sub-flow for keys((EthAddr('00:00:00:00:00:02'), 6, 224, 58202, 12502, EthAddr('00:00:00:00:00:35')), (IPAddr('10.0.0.23'), 6, 224, 58202, IPAddr('10.0.0.35'))), remaining[2]
WARNING:forwarding.flow_mapper_sk:deleted sub-flow for keys((EthAddr('00:00:00:00:00:01'), 6, 208, 37715, 12523, EthAddr('00:00:00:00:00:21')), (IPAddr('10.0.0.23'), 6, 208, 37715, IPAddr('10.0.0.21'))), remaining[1]
WARNING:forwarding.flow_mapper_sk:deleted sub-flow for keys((EthAddr('00:00:00:00:00:02'), 6, 168, 47961, 11042, EthAddr('00:00:00:00:00:26')), (IPAddr('10.0.0.25'), 6, 168, 47961, IPAddr('10.0.0.26'))), remaining[1]
WARNING:forwarding.flow_mapper_sk:deleted sub-flow for keys((EthAddr('00:00:00:00:00:01'), 6, 200, 36635, 10912, EthAddr('00:00:00:00:00:23')), (IPAddr('10.0.0.25'), 6, 200, 36635, IPAddr('10.0.0.23'))), remaining[2]
WARNING:forwarding.flow_mapper_sk:deleted sub-flow for keys((EthAddr('00:00:00:00:00:23'), 6, 208, 37715, 12521, EthAddr('00:00:00:00:00:21')), (IPAddr('10.0.0.23'), 6, 208, 37715, IPAddr('10.0.0.21'))), remaining[0]
WARNING:forwarding.flow_mapper_sk:deleted sub-flow for keys((EthAddr('00:00:00:00:00:23'), 6, 224, 58202, 12501, EthAddr('00:00:00:00:00:35')), (IPAddr('10.0.0.23'), 6, 224, 58202, IPAddr('10.0.0.35'))), remaining[1]
WARNING:forwarding.flow_mapper_sk:deleted sub-flow for keys((EthAddr('00:00:00:00:00:05'), 6, 224, 58202, 12503, EthAddr('00:00:00:00:00:35')), (IPAddr('10.0.0.23'), 6, 224, 58202, IPAddr('10.0.0.35'))), remaining[0]
WARNING:forwarding.flow_mapper_sk:deleted sub-flow for keys((EthAddr('00:00:00:00:00:05'), 6, 168, 47961, 11044, EthAddr('00:00:00:00:00:26')), (IPAddr('10.0.0.25'), 6, 168, 47961, IPAddr('10.0.0.26'))), remaining[0]
WARNING:forwarding.flow_mapper_sk:deleted sub-flow for keys((EthAddr('00:00:00:00:00:25'), 6, 240, 33245, 11021, EthAddr('00:00:00:00:00:31')), (IPAddr('10.0.0.25'), 6, 240, 33245, IPAddr('10.0.0.31'))), remaining[3]
WARNING:forwarding.flow_mapper_sk:deleted sub-flow for keys((EthAddr('00:00:00:00:00:25'), 6, 212, 45381, 10981, EthAddr('00:00:00:00:00:24')), (IPAddr('10.0.0.25'), 6, 212, 45381, IPAddr('10.0.0.24'))), remaining[3]
WARNING:forwarding.flow_mapper_sk:deleted sub-flow for keys((EthAddr('00:00:00:00:00:25'), 6, 200, 36635, 10911, EthAddr('00:00:00:00:00:23')), (IPAddr('10.0.0.25'), 6, 200, 36635, IPAddr('10.0.0.23'))), remaining[1]
WARNING:forwarding.flow_mapper_sk:deleted sub-flow for keys((EthAddr('00:00:00:00:00:06'), 6, 200, 36635, 10913, EthAddr('00:00:00:00:00:23')), (IPAddr('10.0.0.25'), 6, 200, 36635, IPAddr('10.0.0.23'))), remaining[0]
WARNING:forwarding.flow_mapper_sk:deleted sub-flow for keys((EthAddr('00:00:00:00:00:06'), 6, 212, 45381, 10983, EthAddr('00:00:00:00:00:24')), (IPAddr('10.0.0.25'), 6, 212, 45381, IPAddr('10.0.0.24'))), remaining[2]
WARNING:forwarding.flow_mapper_sk:deleted sub-flow for keys((EthAddr('00:00:00:00:00:04'), 6, 240, 33245, 11022, EthAddr('00:00:00:00:00:31')), (IPAddr('10.0.0.25'), 6, 240, 33245, IPAddr('10.0.0.31'))), remaining[2]
WARNING:forwarding.flow_mapper_sk:deleted sub-flow for keys((EthAddr('00:00:00:00:00:04'), 6, 212, 45381, 10984, EthAddr('00:00:00:00:00:24')), (IPAddr('10.0.0.25'), 6, 212, 45381, IPAddr('10.0.0.24'))), remaining[1]
WARNING:forwarding.flow_mapper_sk:deleted sub-flow for keys((EthAddr('00:00:00:00:00:03'), 6, 160, 55941, 12464, EthAddr('00:00:00:00:00:22')), (IPAddr('10.0.0.23'), 6, 160, 55941, IPAddr('10.0.0.22'))), remaining[3]
WARNING:forwarding.flow_mapper_sk:deleted sub-flow for keys((EthAddr('00:00:00:00:00:01'), 6, 160, 55941, 12462, EthAddr('00:00:00:00:00:22')), (IPAddr('10.0.0.23'), 6, 160, 55941, IPAddr('10.0.0.22'))), remaining[2]
WARNING:forwarding.flow_mapper_sk:deleted sub-flow for keys((EthAddr('00:00:00:00:00:02'), 6, 212, 45381, 10982, EthAddr('00:00:00:00:00:24')), (IPAddr('10.0.0.25'), 6, 212, 45381, IPAddr('10.0.0.24'))), remaining[0]
WARNING:forwarding.flow_mapper_sk:deleted sub-flow for keys((EthAddr('00:00:00:00:00:02'), 6, 240, 33245, 11023, EthAddr('00:00:00:00:00:31')), (IPAddr('10.0.0.25'), 6, 240, 33245, IPAddr('10.0.0.31'))), remaining[1]
WARNING:forwarding.flow_mapper_sk:deleted sub-flow for keys((EthAddr('00:00:00:00:00:23'), 6, 160, 55941, 12461, EthAddr('00:00:00:00:00:22')), (IPAddr('10.0.0.23'), 6, 160, 55941, IPAddr('10.0.0.22'))), remaining[1]
WARNING:forwarding.flow_mapper_sk:deleted sub-flow for keys((EthAddr('00:00:00:00:00:05'), 6, 160, 55941, 12463, EthAddr('00:00:00:00:00:22')), (IPAddr('10.0.0.23'), 6, 160, 55941, IPAddr('10.0.0.22'))), remaining[0]
WARNING:forwarding.flow_mapper_sk:deleted sub-flow for keys((EthAddr('00:00:00:00:00:05'), 6, 240, 33245, 11024, EthAddr('00:00:00:00:00:31')), (IPAddr('10.0.0.25'), 6, 240, 33245, IPAddr('10.0.0.31'))), remaining[0]
WARNING:forwarding.flow_mapper_sk:deleted sub-flow for keys((EthAddr('00:00:00:00:00:27'), 6, 248, 55022, 12141, EthAddr('00:00:00:00:00:26')), (IPAddr('10.0.0.27'), 6, 248, 55022, IPAddr('10.0.0.26'))), remaining[3]
WARNING:forwarding.flow_mapper_sk:deleted sub-flow for keys((EthAddr('00:00:00:00:00:27'), 6, 20, 39090, 12131, EthAddr('00:00:00:00:00:22')), (IPAddr('10.0.0.27'), 6, 20, 39090, IPAddr('10.0.0.22'))), remaining[3]
WARNING:forwarding.flow_mapper_sk:deleted sub-flow for keys((EthAddr('00:00:00:00:00:04'), 6, 20, 39090, 12132, EthAddr('00:00:00:00:00:22')), (IPAddr('10.0.0.27'), 6, 20, 39090, IPAddr('10.0.0.22'))), remaining[2]
WARNING:forwarding.flow_mapper_sk:deleted sub-flow for keys((EthAddr('00:00:00:00:00:03'), 6, 248, 55022, 12143, EthAddr('00:00:00:00:00:26')), (IPAddr('10.0.0.27'), 6, 248, 55022, IPAddr('10.0.0.26'))), remaining[2]
WARNING:forwarding.flow_mapper_sk:deleted sub-flow for keys((EthAddr('00:00:00:00:00:03'), 6, 160, 50100, 10424, EthAddr('00:00:00:00:00:27')), (IPAddr('10.0.0.29'), 6, 160, 50100, IPAddr('10.0.0.27'))), remaining[3]
WARNING:forwarding.flow_mapper_sk:deleted sub-flow for keys((EthAddr('00:00:00:00:00:02'), 6, 248, 55022, 12142, EthAddr('00:00:00:00:00:26')), (IPAddr('10.0.0.27'), 6, 248, 55022, IPAddr('10.0.0.26'))), remaining[1]
WARNING:forwarding.flow_mapper_sk:deleted sub-flow for keys((EthAddr('00:00:00:00:00:02'), 6, 20, 39090, 12133, EthAddr('00:00:00:00:00:22')), (IPAddr('10.0.0.27'), 6, 20, 39090, IPAddr('10.0.0.22'))), remaining[1]
WARNING:forwarding.flow_mapper_sk:deleted sub-flow for keys((EthAddr('00:00:00:00:00:01'), 6, 160, 50100, 10422, EthAddr('00:00:00:00:00:27')), (IPAddr('10.0.0.29'), 6, 160, 50100, IPAddr('10.0.0.27'))), remaining[2]
WARNING:forwarding.flow_mapper_sk:deleted sub-flow for keys((EthAddr('00:00:00:00:00:01'), 6, 248, 55022, 12144, EthAddr('00:00:00:00:00:26')), (IPAddr('10.0.0.27'), 6, 248, 55022, IPAddr('10.0.0.26'))), remaining[0]
WARNING:forwarding.flow_mapper_sk:deleted sub-flow for keys((EthAddr('00:00:00:00:00:01'), 6, 20, 39090, 12134, EthAddr('00:00:00:00:00:22')), (IPAddr('10.0.0.27'), 6, 20, 39090, IPAddr('10.0.0.22'))), remaining[0]
WARNING:forwarding.flow_mapper_sk:deleted sub-flow for keys((EthAddr('00:00:00:00:00:05'), 6, 160, 50100, 10423, EthAddr('00:00:00:00:00:27')), (IPAddr('10.0.0.29'), 6, 160, 50100, IPAddr('10.0.0.27'))), remaining[1]
WARNING:forwarding.flow_mapper_sk:deleted sub-flow for keys((EthAddr('00:00:00:00:00:06'), 6, 212, 33646, 10333, EthAddr('00:00:00:00:00:36')), (IPAddr('10.0.0.29'), 6, 212, 33646, IPAddr('10.0.0.36'))), remaining[3]
WARNING:forwarding.flow_mapper_sk:deleted sub-flow for keys((EthAddr('00:00:00:00:00:06'), 6, 228, 54602, 10384, EthAddr('00:00:00:00:00:33')), (IPAddr('10.0.0.29'), 6, 228, 54602, IPAddr('10.0.0.33'))), remaining[3]
WARNING:forwarding.flow_mapper_sk:deleted sub-flow for keys((EthAddr('00:00:00:00:00:29'), 6, 212, 33646, 10331, EthAddr('00:00:00:00:00:36')), (IPAddr('10.0.0.29'), 6, 212, 33646, IPAddr('10.0.0.36'))), remaining[2]
WARNING:forwarding.flow_mapper_sk:deleted sub-flow for keys((EthAddr('00:00:00:00:00:29'), 6, 228, 54602, 10381, EthAddr('00:00:00:00:00:33')), (IPAddr('10.0.0.29'), 6, 228, 54602, IPAddr('10.0.0.33'))), remaining[2]
WARNING:forwarding.flow_mapper_sk:deleted sub-flow for keys((EthAddr('00:00:00:00:00:29'), 6, 160, 50100, 10421, EthAddr('00:00:00:00:00:27')), (IPAddr('10.0.0.29'), 6, 160, 50100, IPAddr('10.0.0.27'))), remaining[0]
WARNING:forwarding.flow_mapper_sk:deleted sub-flow for keys((EthAddr('00:00:00:00:00:03'), 6, 228, 54602, 10383, EthAddr('00:00:00:00:00:33')), (IPAddr('10.0.0.29'), 6, 228, 54602, IPAddr('10.0.0.33'))), remaining[1]
WARNING:forwarding.flow_mapper_sk:deleted sub-flow for keys((EthAddr('00:00:00:00:00:04'), 6, 212, 33646, 10334, EthAddr('00:00:00:00:00:36')), (IPAddr('10.0.0.29'), 6, 212, 33646, IPAddr('10.0.0.36'))), remaining[1]
WARNING:forwarding.flow_mapper_sk:deleted sub-flow for keys((EthAddr('00:00:00:00:00:02'), 6, 212, 33646, 10332, EthAddr('00:00:00:00:00:36')), (IPAddr('10.0.0.29'), 6, 212, 33646, IPAddr('10.0.0.36'))), remaining[0]
WARNING:forwarding.flow_mapper_sk:deleted sub-flow for keys((EthAddr('00:00:00:00:00:02'), 6, 228, 54602, 10382, EthAddr('00:00:00:00:00:33')), (IPAddr('10.0.0.29'), 6, 228, 54602, IPAddr('10.0.0.33'))), remaining[0]
WARNING:forwarding.flow_mapper_sk:deleted sub-flow for keys((EthAddr('00:00:00:00:00:03'), 6, 204, 46185, 11952, EthAddr('00:00:00:00:00:22')), (IPAddr('10.0.0.21'), 6, 204, 46185, IPAddr('10.0.0.22'))), remaining[3]
WARNING:forwarding.flow_mapper_sk:deleted sub-flow for keys((EthAddr('00:00:00:00:00:21'), 6, 204, 46185, 11951, EthAddr('00:00:00:00:00:22')), (IPAddr('10.0.0.21'), 6, 204, 46185, IPAddr('10.0.0.22'))), remaining[2]
WARNING:forwarding.flow_mapper_sk:deleted sub-flow for keys((EthAddr('00:00:00:00:00:02'), 6, 204, 46185, 11954, EthAddr('00:00:00:00:00:22')), (IPAddr('10.0.0.21'), 6, 204, 46185, IPAddr('10.0.0.22'))), remaining[1]
WARNING:forwarding.flow_mapper_sk:deleted sub-flow for keys((EthAddr('00:00:00:00:00:05'), 6, 204, 46185, 11953, EthAddr('00:00:00:00:00:22')), (IPAddr('10.0.0.21'), 6, 204, 46185, IPAddr('10.0.0.22'))), remaining[0]
WARNING:forwarding.flow_mapper_sk:deleted sub-flow for keys((EthAddr('00:00:00:00:00:27'), 6, 184, 48831, 12171, EthAddr('00:00:00:00:00:32')), (IPAddr('10.0.0.27'), 6, 184, 48831, IPAddr('10.0.0.32'))), remaining[3]
WARNING:forwarding.flow_mapper_sk:deleted sub-flow for keys((EthAddr('00:00:00:00:00:03'), 6, 184, 48831, 12172, EthAddr('00:00:00:00:00:32')), (IPAddr('10.0.0.27'), 6, 184, 48831, IPAddr('10.0.0.32'))), remaining[2]
WARNING:forwarding.flow_mapper_sk:deleted sub-flow for keys((EthAddr('00:00:00:00:00:01'), 6, 184, 48831, 12173, EthAddr('00:00:00:00:00:32')), (IPAddr('10.0.0.27'), 6, 184, 48831, IPAddr('10.0.0.32'))), remaining[1]
WARNING:forwarding.flow_mapper_sk:deleted sub-flow for keys((EthAddr('00:00:00:00:00:02'), 6, 184, 48831, 12174, EthAddr('00:00:00:00:00:32')), (IPAddr('10.0.0.27'), 6, 184, 48831, IPAddr('10.0.0.32'))), remaining[0]
WARNING:forwarding.flow_mapper_sk:deleted sub-flow for keys((EthAddr('00:00:00:00:00:06'), 6, 208, 50470, 12252, EthAddr('00:00:00:00:00:35')), (IPAddr('10.0.0.27'), 6, 208, 50470, IPAddr('10.0.0.35'))), remaining[3]
WARNING:forwarding.flow_mapper_sk:deleted sub-flow for keys((EthAddr('00:00:00:00:00:27'), 6, 208, 50470, 12251, EthAddr('00:00:00:00:00:35')), (IPAddr('10.0.0.27'), 6, 208, 50470, IPAddr('10.0.0.35'))), remaining[2]
WARNING:forwarding.flow_mapper_sk:deleted sub-flow for keys((EthAddr('00:00:00:00:00:03'), 6, 208, 50470, 12254, EthAddr('00:00:00:00:00:35')), (IPAddr('10.0.0.27'), 6, 208, 50470, IPAddr('10.0.0.35'))), remaining[1]
WARNING:forwarding.flow_mapper_sk:deleted sub-flow for keys((EthAddr('00:00:00:00:00:01'), 6, 208, 50470, 12253, EthAddr('00:00:00:00:00:35')), (IPAddr('10.0.0.27'), 6, 208, 50470, IPAddr('10.0.0.35'))), remaining[0]
WARNING:forwarding.flow_mapper_sk:deleted sub-flow for keys((EthAddr('00:00:00:00:00:05'), 6, 236, 33346, 10454, EthAddr('00:00:00:00:00:35')), (IPAddr('10.0.0.29'), 6, 236, 33346, IPAddr('10.0.0.35'))), remaining[3]
WARNING:forwarding.flow_mapper_sk:deleted sub-flow for keys((EthAddr('00:00:00:00:00:02'), 6, 236, 33346, 10452, EthAddr('00:00:00:00:00:35')), (IPAddr('10.0.0.29'), 6, 236, 33346, IPAddr('10.0.0.35'))), remaining[2]
WARNING:forwarding.flow_mapper_sk:deleted sub-flow for keys((EthAddr('00:00:00:00:00:01'), 6, 236, 33346, 10453, EthAddr('00:00:00:00:00:35')), (IPAddr('10.0.0.29'), 6, 236, 33346, IPAddr('10.0.0.35'))), remaining[1]
WARNING:forwarding.flow_mapper_sk:deleted sub-flow for keys((EthAddr('00:00:00:00:00:29'), 6, 236, 33346, 10451, EthAddr('00:00:00:00:00:35')), (IPAddr('10.0.0.29'), 6, 236, 33346, IPAddr('10.0.0.35'))), remaining[0]
WARNING:openflow.discovery_sk:Link [00-00-00-00-00-01.4 -> 00-00-00-00-00-11.3] Removed! 
WARNING:openflow.discovery_sk:Link [00-00-00-00-00-02.3 -> 00-00-00-00-00-01.1] Removed! 
WARNING:openflow.discovery_sk:Link [00-00-00-00-00-01.2 -> 00-00-00-00-00-07.3] Removed! 
WARNING:openflow.discovery_sk:Link [00-00-00-00-00-11.3 -> 00-00-00-00-00-01.4] Removed! 
WARNING:openflow.discovery_sk:Link [00-00-00-00-00-01.3 -> 00-00-00-00-00-0c.3] Removed! 
WARNING:openflow.discovery_sk:Link [00-00-00-00-00-07.3 -> 00-00-00-00-00-01.2] Removed! 
WARNING:openflow.discovery_sk:Link [00-00-00-00-00-0c.3 -> 00-00-00-00-00-01.3] Removed! 
WARNING:openflow.discovery_sk:Link [00-00-00-00-00-01.1 -> 00-00-00-00-00-02.3] Removed! 
ERROR:forwarding.l2_multi_sk:Switch Disconnect [00-00-00-00-00-01 5]
WARNING:openflow.discovery_sk:Link [00-00-00-00-00-02.5 -> 00-00-00-00-00-05.4] Removed! 
WARNING:openflow.discovery_sk:Link [00-00-00-00-00-0b.1 -> 00-00-00-00-00-02.6] Removed! 
WARNING:openflow.discovery_sk:Link [00-00-00-00-00-04.3 -> 00-00-00-00-00-02.4] Removed! 
WARNING:openflow.discovery_sk:Link [00-00-00-00-00-02.6 -> 00-00-00-00-00-0b.1] Removed! 
WARNING:openflow.discovery_sk:Link [00-00-00-00-00-02.4 -> 00-00-00-00-00-04.3] Removed! 
WARNING:openflow.discovery_sk:Link [00-00-00-00-00-05.4 -> 00-00-00-00-00-02.5] Removed! 
ERROR:forwarding.l2_multi_sk:Switch Disconnect [00-00-00-00-00-02 4]
WARNING:openflow.discovery_sk:Link [00-00-00-00-00-03.6 -> 00-00-00-00-00-10.1] Removed! 
WARNING:openflow.discovery_sk:Link [00-00-00-00-00-04.4 -> 00-00-00-00-00-03.3] Removed! 
WARNING:openflow.discovery_sk:Link [00-00-00-00-00-06.1 -> 00-00-00-00-00-03.5] Removed! 
WARNING:openflow.discovery_sk:Link [00-00-00-00-00-03.3 -> 00-00-00-00-00-04.4] Removed! 
WARNING:openflow.discovery_sk:Link [00-00-00-00-00-03.4 -> 00-00-00-00-00-05.5] Removed! 
WARNING:openflow.discovery_sk:Link [00-00-00-00-00-03.5 -> 00-00-00-00-00-06.1] Removed! 
WARNING:openflow.discovery_sk:Link [00-00-00-00-00-10.1 -> 00-00-00-00-00-03.6] Removed! 
WARNING:openflow.discovery_sk:Link [00-00-00-00-00-05.5 -> 00-00-00-00-00-03.4] Removed! 
ERROR:forwarding.l2_multi_sk:Switch Disconnect [00-00-00-00-00-03 3]
ERROR:forwarding.l2_multi_sk:Switch Disconnect [00-00-00-00-00-04 2]
ERROR:forwarding.l2_multi_sk:Switch Disconnect [00-00-00-00-00-05 1]
WARNING:openflow.discovery_sk:Link [00-00-00-00-00-12.3 -> 00-00-00-00-00-06.4] Removed! 
WARNING:openflow.discovery_sk:Link [00-00-00-00-00-06.3 -> 00-00-00-00-00-0d.3] Removed! 
WARNING:openflow.discovery_sk:Link [00-00-00-00-00-0d.3 -> 00-00-00-00-00-06.3] Removed! 
WARNING:openflow.discovery_sk:Link [00-00-00-00-00-06.4 -> 00-00-00-00-00-12.3] Removed! 
WARNING:openflow.discovery_sk:Link [00-00-00-00-00-08.5 -> 00-00-00-00-00-06.2] Removed! 
WARNING:openflow.discovery_sk:Link [00-00-00-00-00-06.2 -> 00-00-00-00-00-08.5] Removed! 
ERROR:forwarding.l2_multi_sk:Switch Disconnect [00-00-00-00-00-06 17]
WARNING:openflow.discovery_sk:Link [00-00-00-00-00-07.6 -> 00-00-00-00-00-0b.2] Removed! 
WARNING:openflow.discovery_sk:Link [00-00-00-00-00-07.5 -> 00-00-00-00-00-0a.4] Removed! 
WARNING:openflow.discovery_sk:Link [00-00-00-00-00-0b.2 -> 00-00-00-00-00-07.6] Removed! 
WARNING:openflow.discovery_sk:Link [00-00-00-00-00-09.3 -> 00-00-00-00-00-07.4] Removed! 
WARNING:openflow.discovery_sk:Link [00-00-00-00-00-0a.4 -> 00-00-00-00-00-07.5] Removed! 
WARNING:openflow.discovery_sk:Link [00-00-00-00-00-07.4 -> 00-00-00-00-00-09.3] Removed! 
ERROR:forwarding.l2_multi_sk:Switch Disconnect [00-00-00-00-00-07 16]
WARNING:openflow.discovery_sk:Link [00-00-00-00-00-08.3 -> 00-00-00-00-00-09.4] Removed! 
WARNING:openflow.discovery_sk:Link [00-00-00-00-00-08.4 -> 00-00-00-00-00-0a.5] Removed! 
WARNING:openflow.discovery_sk:Link [00-00-00-00-00-08.6 -> 00-00-00-00-00-10.2] Removed! 
WARNING:openflow.discovery_sk:Link [00-00-00-00-00-09.4 -> 00-00-00-00-00-08.3] Removed! 
WARNING:openflow.discovery_sk:Link [00-00-00-00-00-10.2 -> 00-00-00-00-00-08.6] Removed! 
WARNING:openflow.discovery_sk:Link [00-00-00-00-00-0a.5 -> 00-00-00-00-00-08.4] Removed! 
ERROR:forwarding.l2_multi_sk:Switch Disconnect [00-00-00-00-00-08 18]
ERROR:forwarding.l2_multi_sk:Switch Disconnect [00-00-00-00-00-09 20]
ERROR:forwarding.l2_multi_sk:Switch Disconnect [00-00-00-00-00-0a 19]
WARNING:openflow.discovery_sk:Link [00-00-00-00-00-0b.4 -> 00-00-00-00-00-11.4] Removed! 
WARNING:openflow.discovery_sk:Link [00-00-00-00-00-0b.3 -> 00-00-00-00-00-0c.6] Removed! 
WARNING:openflow.discovery_sk:Link [00-00-00-00-00-11.4 -> 00-00-00-00-00-0b.4] Removed! 
WARNING:openflow.discovery_sk:Link [00-00-00-00-00-0c.6 -> 00-00-00-00-00-0b.3] Removed! 
ERROR:forwarding.l2_multi_sk:Switch Disconnect [00-00-00-00-00-0b 13]
WARNING:openflow.discovery_sk:Link [00-00-00-00-00-0e.3 -> 00-00-00-00-00-0c.4] Removed! 
WARNING:openflow.discovery_sk:Link [00-00-00-00-00-0c.5 -> 00-00-00-00-00-0f.4] Removed! 
WARNING:openflow.discovery_sk:Link [00-00-00-00-00-0c.4 -> 00-00-00-00-00-0e.3] Removed! 
WARNING:openflow.discovery_sk:Link [00-00-00-00-00-0f.4 -> 00-00-00-00-00-0c.5] Removed! 
ERROR:forwarding.l2_multi_sk:Switch Disconnect [00-00-00-00-00-0c 14]
WARNING:openflow.discovery_sk:Link [00-00-00-00-00-10.3 -> 00-00-00-00-00-0d.6] Removed! 
WARNING:openflow.discovery_sk:Link [00-00-00-00-00-0d.6 -> 00-00-00-00-00-10.3] Removed! 
WARNING:openflow.discovery_sk:Link [00-00-00-00-00-0f.5 -> 00-00-00-00-00-0d.5] Removed! 
WARNING:openflow.discovery_sk:Link [00-00-00-00-00-0e.4 -> 00-00-00-00-00-0d.4] Removed! 
WARNING:openflow.discovery_sk:Link [00-00-00-00-00-0d.4 -> 00-00-00-00-00-0e.4] Removed! 
WARNING:openflow.discovery_sk:Link [00-00-00-00-00-0d.5 -> 00-00-00-00-00-0f.5] Removed! 
ERROR:forwarding.l2_multi_sk:Switch Disconnect [00-00-00-00-00-0d 11]
ERROR:forwarding.l2_multi_sk:Switch Disconnect [00-00-00-00-00-0e 15]
ERROR:forwarding.l2_multi_sk:Switch Disconnect [00-00-00-00-00-0f 12]
WARNING:openflow.discovery_sk:Link [00-00-00-00-00-10.4 -> 00-00-00-00-00-12.6] Removed! 
WARNING:openflow.discovery_sk:Link [00-00-00-00-00-12.6 -> 00-00-00-00-00-10.4] Removed! 
ERROR:forwarding.l2_multi_sk:Switch Disconnect [00-00-00-00-00-10 7]
WARNING:openflow.discovery_sk:Link [00-00-00-00-00-13.3 -> 00-00-00-00-00-11.5] Removed! 
WARNING:openflow.discovery_sk:Link [00-00-00-00-00-14.4 -> 00-00-00-00-00-11.6] Removed! 
WARNING:openflow.discovery_sk:Link [00-00-00-00-00-11.5 -> 00-00-00-00-00-13.3] Removed! 
WARNING:openflow.discovery_sk:Link [00-00-00-00-00-11.6 -> 00-00-00-00-00-14.4] Removed! 
ERROR:forwarding.l2_multi_sk:Switch Disconnect [00-00-00-00-00-11 6]
WARNING:openflow.discovery_sk:Link [00-00-00-00-00-14.5 -> 00-00-00-00-00-12.5] Removed! 
WARNING:openflow.discovery_sk:Link [00-00-00-00-00-12.4 -> 00-00-00-00-00-13.4] Removed! 
WARNING:openflow.discovery_sk:Link [00-00-00-00-00-12.5 -> 00-00-00-00-00-14.5] Removed! 
WARNING:openflow.discovery_sk:Link [00-00-00-00-00-13.4 -> 00-00-00-00-00-12.4] Removed! 
ERROR:forwarding.l2_multi_sk:Switch Disconnect [00-00-00-00-00-12 8]
ERROR:forwarding.l2_multi_sk:Switch Disconnect [00-00-00-00-00-13 9]
ERROR:forwarding.l2_multi_sk:Switch Disconnect [00-00-00-00-00-14 10]
