66.7796609402,00:00:00:00:00:05,3,
67.8263361454,00:00:00:00:00:05,5,
68.8278291225,00:00:00:00:00:05,6,
69.8289239407,00:00:00:00:00:05,7,
70.8365271091,00:00:00:00:00:05,8,
71.83694911,00:00:00:00:00:05,9,
72.8834710121,00:00:00:00:00:05,9,
73.9119739532,00:00:00:00:00:05,8,
74.9403309822,00:00:00:00:00:05,7,
75.9562349319,00:00:00:00:00:05,5,
77.0017180443,00:00:00:00:00:05,3,
78.0207340717,00:00:00:00:00:05,2,
79.0319840908,00:00:00:00:00:05,2,
80.0413041115,00:00:00:00:00:05,2,
81.0492110252,00:00:00:00:00:05,2,
82.0869190693,00:00:00:00:00:05,1,
83.092813015,00:00:00:00:00:05,1,
84.1090121269,00:00:00:00:00:05,1,
85.1123290062,00:00:00:00:00:05,1,
86.1257889271,00:00:00:00:00:05,1,
87.1291260719,00:00:00:00:00:05,1,
88.1430370808,0,0
89.1507329941,0,0
90.1516170502,0,0
91.1671731472,0,0
92.1743500233,0,0
93.176887989,0,0
94.2020559311,0,0
95.2026431561,0,0
96.2131550312,0,0
97.2212030888,0,0
98.2354991436,0,0
99.2389240265,0,0
100.240684986,0,0
101.268059015,0,0
102.277949095,0,0
103.282305956,0,0
104.30116415,0,0
105.336873055,0,0
106.369599104,0,0
107.413872957,0,0
108.416579962,0,0
109.443072081,0,0
110.467210054,0,0
111.481292009,0,0
112.483818054,0,0
113.500504971,0,0
114.512061119,0,0
115.556079149,0,0
116.563068151,0,0
117.587403059,0,0
118.590759039,0,0
119.625951052,0,0
120.627017975,0,0
121.634817123,0,0
122.652197123,0,0
123.676090956,0,0
124.685281038,0,0
125.696043968,0,0
126.705582142,0,0
127.712140083,0,0
128.716397047,0,0
129.72764802,0,0
130.752249002,0,0
131.754966974,0,0
