19.2561690807,
20.2615151405,
21.2625060081,
22.2663891315,
23.2681601048,
24.2698299885,
25.2734820843,
26.3142659664,
27.3173730373,
28.3315320015,
29.3433020115,
30.3864600658,
31.4231791496,
32.465059042,
33.4684281349,
34.4785540104,
35.5000760555,
36.5418989658,
37.543200016,
38.5444560051,
39.5783190727,
40.5835380554,
41.5898201466,
42.594627142,
43.5988590717,
44.6127490997,
45.6181669235,
46.624227047,
47.6247749329,
48.6272051334,
49.6331410408,
50.637606144,
51.6412489414,
52.6525819302,
53.6603519917,
54.6642270088,
55.6846809387,
56.7282271385,
57.7351710796,
58.7414059639,
59.7588551044,
60.760972023,
61.7646541595,
62.766395092,
63.7729690075,
64.7742459774,
65.7761070728,
66.7796609402,
67.8263361454,2,2,12,1,3,1,8,1,17,1,
68.8278291225,2,6,3,5,8,3,17,3,12,2,20,1,5,1,
69.8289239407,2,9,3,7,7,4,8,3,17,3,12,3,5,3,20,1,15,1,18,1,
70.8365271091,3,11,2,11,7,8,12,5,5,5,17,4,8,4,15,2,20,2,18,1,
71.83694911,2,14,3,12,12,9,7,9,17,7,5,5,8,5,20,4,15,2,18,2,13,1,10,1,
72.8834710121,2,14,3,13,7,10,12,9,17,8,8,6,5,5,20,4,15,2,18,2,13,1,10,1,
73.9119739532,2,14,3,14,7,10,12,9,17,8,8,6,5,5,20,4,18,3,15,2,13,1,10,1,
74.9403309822,3,15,2,10,7,10,12,7,17,6,8,6,5,5,20,4,18,4,15,2,13,1,10,1,
75.9562349319,3,12,7,10,2,9,12,7,17,6,5,5,8,4,20,4,18,4,15,2,13,1,10,1,
77.0017180443,7,9,2,7,3,7,12,7,17,5,5,3,18,3,20,3,8,2,15,2,13,1,10,1,
78.0207340717,7,6,2,5,12,5,17,5,3,4,18,3,20,3,8,2,5,1,15,1,13,1,10,1,
79.0319840908,12,5,17,5,7,3,3,3,18,3,20,3,2,2,8,2,5,1,15,1,13,1,10,1,
80.0413041115,12,3,17,2,18,2,20,2,3,2,7,2,2,2,5,1,15,1,
81.0492110252,12,3,17,2,18,2,20,2,3,2,7,2,2,2,5,1,15,1,
82.0869190693,12,3,17,2,18,2,20,2,3,2,7,2,2,2,5,1,15,1,
83.092813015,12,3,17,2,18,2,20,2,3,2,7,2,2,1,5,1,15,1,
84.1090121269,12,3,17,2,18,2,20,2,3,2,7,2,2,1,5,1,15,1,
85.1123290062,12,3,17,2,18,2,20,2,3,2,7,2,2,1,5,1,15,1,
86.1257889271,17,2,18,2,20,2,3,2,12,1,7,1,5,1,
87.1291260719,17,1,18,1,20,1,3,1,12,1,5,1,
88.1430370808,17,1,18,1,20,1,3,1,12,1,5,1,
89.1507329941,17,1,18,1,20,1,12,1,
90.1516170502,17,1,18,1,20,1,12,1,
91.1671731472,17,1,18,1,20,1,12,1,
92.1743500233,17,1,18,1,20,1,12,1,
93.176887989,17,1,18,1,20,1,12,1,
94.2020559311,17,1,18,1,20,1,12,1,
95.2026431561,17,1,18,1,20,1,12,1,
96.2131550312,17,1,18,1,20,1,12,1,
97.2212030888,17,1,18,1,20,1,12,1,
98.2354991436,17,1,18,1,20,1,12,1,
99.2389240265,17,1,18,1,20,1,12,1,
100.240684986,17,1,18,1,20,1,12,1,
101.268059015,17,1,18,1,20,1,12,1,
102.277949095,17,1,18,1,20,1,12,1,
103.282305956,17,1,18,1,20,1,12,1,
104.30116415,17,1,18,1,20,1,12,1,
105.336873055,17,1,18,1,20,1,12,1,
106.369599104,17,1,18,1,20,1,12,1,
107.413872957,17,1,18,1,20,1,12,1,
108.416579962,17,1,18,1,20,1,12,1,
109.443072081,17,1,18,1,20,1,12,1,
110.467210054,17,1,18,1,20,1,12,1,
111.481292009,17,1,18,1,20,1,12,1,
112.483818054,17,1,18,1,20,1,12,1,
113.500504971,17,1,18,1,20,1,12,1,
114.512061119,17,1,18,1,20,1,12,1,
115.556079149,17,1,18,1,20,1,12,1,
116.563068151,17,1,18,1,20,1,12,1,
117.587403059,17,1,18,1,20,1,12,1,
118.590759039,17,1,18,1,20,1,12,1,
119.625951052,17,1,18,1,20,1,12,1,
120.627017975,17,1,18,1,20,1,12,1,
121.634817123,17,1,18,1,20,1,12,1,
122.652197123,17,1,18,1,20,1,12,1,
123.676090956,17,1,18,1,20,1,12,1,
124.685281038,17,1,18,1,20,1,12,1,
125.696043968,17,1,18,1,20,1,12,1,
126.705582142,17,1,18,1,20,1,12,1,
127.712140083,17,1,18,1,20,1,12,1,
128.716397047,17,1,18,1,20,1,12,1,
129.72764802,17,1,18,1,20,1,12,1,
130.752249002,17,1,18,1,20,1,12,1,
131.754966974,17,1,18,1,20,1,12,1,
