15,0,0
20,0,0
25,0,0
30,0,0
35,0,0
40,0,0
45,0,0
50,0,0
55,0,0
60,0,0
65,0,0
70,0,0
75,0,0
80,0,0
85,0,0
90,0,0
95,0,0
100,0,0
105,0,0
110,0,0
115,0,0
120,0,0
125,0,0
130,0,0
135,0,0
140,0,0
145,0,0
150,0,0
155,0,0
160,0,0
165,0,0
170,0,0
175,0,0
180,0,0
185,0,0
190,0,0
195,0,0
200,0,0
205,0,0
210,0,0
215,0,0
220,0,0
225,0,0
230,0,0
235,0,0
240,0,0
245,0,0
250,0,0
255,0,0
260,0,0
265,0,0
270,0,0
275,0,0
280,0,0
286,0,0
291,0,0
296,0,0
301,0,0
306,0,0
311,0,0
316,0,0
321,0,0
326,0,0
331,0,0
336,0,0
341,0,0
346,0,0
351,0,0
356,0,0
361,0,0
366,0,0
371,0,0
376,0,0
381,0,0
386,0,0
391,0,0
396,0,0
401,0,0
406,0,0
411,0,0
416,0,0
421,0,0
426,0,0
431,0,0
436,0,0
441,0,0
446,0,0
451,0,0
456,0,0
461,0,0
466,0,0
471,0,0
476,0,0
481,0,0
486,0,0
491,0,0
496,0,0
501,0,0
506,0,0
511,0,0
516,0,0
521,0,0
526,0,0
531,0,0
536,0,0
541,0,0
546,0,0
551,0,0
556,0,0
561,0,0
566,0,0
571,0,0
576,0,0
581,0,0
586,0,0
591,0,0
596,0,0
601,0,0
606,0,0
611,0,0
616,0,0
621,0,0
626,0,0
631,0,0
636,0,0
641,0,0
647,0,0
652,0,0
657,0,0
662,0,0
667,0,0
672,0,0
677,0,0
682,0,0
687,0,0
692,0,0
697,0,0
702,0,0
707,0,0
712,0,0
717,0,0
722,0,0
727,0,0
732,0,0
737,0,0
742,0,0
747,0,0
752,0,0
757,0,0
762,0,0
767,0,0
772,0,0
777,0,0
782,0,0
787,0,0
792,0,0
797,0,0
802,0,0
807,0,0
812,0,0
817,0,0
822,0,0
827,0,0
832,0,0
837,0,0
842,0,0
847,0,0
852,0,0
857,0,0
862,0,0
867,0,0
872,0,0
877,0,0
882,0,0
887,0,0
892,0,0
897,0,0
902,0,0
907,0,0
912,0,0
917,0,0
922,0,0
927,0,0
932,0,0
937,0,0
942,0,0
947,0,0
952,0,0
957,0,0
962,0,0
967,0,0
972,0,0
977,0,0
982,0,0
987,0,0
992,0,0
997,0,0
1002,0,0
1007,0,0
1012,0,0
1017,0,0
1022,0,0
1027,0,0
1032,0,0
1037,0,0
1042,0,0
1047,0,0
1052,0,0
1057,0,0
1062,0,0
1067,0,0
1072,0,0
1077,0,0
1082,0,0
1087,0,0
1092,0,0
1097,0,0
1102,0,0
1107,0,0
1112,0,0
1118,0,0
1123,0,0
1128,0,0
1133,0,0
1138,0,0
1143,0,0
1148,0,0
1153,0,0
1158,0,0
1163,0,0
1168,0,0
1173,0,0
1178,0,0
1183,0,0
1188,0,0
1193,0,0
1198,0,0
1203,0,0
1208,0,0
1213,0,0
1218,0,0
1223,0,0
1228,0,0
1233,0,0
1238,0,0
1243,0,0
1248,0,0
1253,0,0
1258,0,0
1263,0,0
1268,0,0
1273,0,0
1278,0,0
1283,0,0
1288,0,0
1293,0,0
1298,0,0
1303,0,0
1308,0,0
1313,0,0
1318,0,0
1323,0,0
1328,0,0
1333,0,0
1338,0,0
1343,0,0
1348,0,0
1353,0,0
1358,0,0
1363,0,0
1368,0,0
1373,0,0
1378,0,0
1383,0,0
1388,0,0
1393,0,0
1398,0,0
1403,0,0
1408,0,0
1413,0,0
1418,0,0
1423,0,0
1428,0,0
1433,0,0
1438,0,0
1443,0,0
1448,0,0
1453,0,0
1458,0,0
1463,0,0
1468,0,0
1473,0,0
1478,0,0
1483,0,0
1488,0,0
1493,0,0
1498,0,0
1503,0,0
1508,0,0
1514,0,0
1519,0,0
1524,0,0
1529,0,0
1534,0,0
1539,0,0
1544,0,0
1549,0,0
1554,0,0
1559,0,0
1564,0,0
1569,0,0
1574,0,0
1579,0,0
1584,0,0
1589,0,0
1594,0,0
1599,0,0
1604,0,0
1609,0,0
1614,0,0
1619,0,0
1624,0,0
1629,0,0
1634,0,0
1639,0,0
1644,0,0
1649,0,0
1654,0,0
1659,0,0
1664,0,0
1669,0,0
1674,0,0
1679,0,0
1684,0,0
1689,0,0
1694,0,0
1699,0,0
1704,0,0
1709,0,0
1714,0,0
1719,0,0
1724,0,0
1729,0,0
1734,0,0
1739,0,0
1744,0,0
1749,0,0
1754,0,0
1759,0,0
1764,0,0
1769,0,0
1774,0,0
1779,0,0
1784,0,0
1789,0,0
1794,0,0
1799,0,0
1804,0,0
1809,0,0
1814,0,0
1819,0,0
1824,0,0
1829,0,0
1834,0,0
1839,0,0
1844,0,0
1849,0,0
1854,0,0
1859,0,0
1864,0,0
1869,0,0
1874,0,0
1879,0,0
1884,0,0
1889,0,0
1894,0,0
1899,0,0
1904,0,0
1909,0,0
1914,0,0
1920,0,0
1925,0,0
1930,0,0
1935,0,0
1940,0,0
1945,0,0
1950,0,0
1955,0,0
1960,0,0
1965,0,0
1970,0,0
1975,0,0
1980,0,0
1985,0,0
1990,0,0
1995,0,0
2000,0,0
2005,0,0
2010,0,0
2015,0,0
2020,0,0
2025,0,0
2030,0,0
2035,0,0
2040,0,0
2045,0,0
2050,0,0
2055,0,0
2060,0,0
2065,0,0
2070,0,0
2075,0,0
2080,0,0
2085,0,0
2090,0,0
2095,0,0
2100,0,0
2105,0,0
2110,0,0
2115,0,0
2120,0,0
2125,0,0
2130,0,0
2135,0,0
2140,0,0
2145,0,0
2150,0,0
2155,0,0
2160,0,0
2165,0,0
2170,0,0
2175,0,0
2180,0,0
2185,0,0
2190,0,0
2195,0,0
2200,0,0
2205,0,0
2210,0,0
2215,0,0
2220,0,0
2225,0,0
2230,0,0
2235,0,0
2240,0,0
2245,0,0
2250,0,0
2255,0,0
2260,0,0
2265,0,0
2270,0,0
2275,0,0
2280,0,0
2285,0,0
2290,0,0
2295,0,0
2300,0,0
2305,0,0
2311,0,0
2316,0,0
2321,0,0
2326,0,0
2331,0,0
2336,0,0
2341,0,0
2346,0,0
2351,0,0
2356,0,0
2361,0,0
2366,0,0
2371,0,0
2376,0,0
2381,0,0
2386,0,0
2391,0,0
2396,0,0
2401,0,0
2406,0,0
2411,0,0
2416,0,0
2421,0,0
2426,0,0
2431,0,0
2436,0,0
2441,0,0
2446,0,0
2451,0,0
2456,0,0
2461,0,0
2466,0,0
2471,0,0
2476,0,0
2481,0,0
2486,0,0
2491,0,0
2496,0,0
2501,0,0
2506,0,0
2511,0,0
2516,0,0
2521,0,0
2526,0,0
2531,0,0
2536,0,0
2541,0,0
2546,0,0
2551,0,0
2556,0,0
2561,0,0
2566,0,0
2571,0,0
2576,0,0
2581,0,0
2586,0,0
2591,0,0
2596,0,0
2601,0,0
2606,0,0
2611,0,0
2616,0,0
2621,0,0
2626,0,0
2631,0,0
2636,0,0
2641,0,0
2646,0,0
2651,0,0
2656,0,0
2661,0,0
2666,0,0
2671,0,0
2676,0,0
2681,0,0
2686,0,0
2691,0,0
2696,0,0
2701,0,0
2707,0,0
2712,0,0
2717,0,0
2722,0,0
2727,0,0
2732,0,0
2737,0,0
2742,0,0
2747,0,0
2752,0,0
2757,0,0
2762,0,0
2767,0,0
2772,0,0
2777,0,0
2782,0,0
2787,0,0
2792,0,0
2797,0,0
2802,0,0
2807,0,0
2812,0,0
2817,0,0
2822,0,0
2827,0,0
2832,0,0
2837,0,0
2842,0,0
2847,0,0
2852,0,0
2857,0,0
2862,0,0
2867,0,0
2872,0,0
2877,0,0
2882,0,0
2887,0,0
2892,0,0
2897,0,0
2902,0,0
2907,0,0
2912,0,0
2917,0,0
2922,0,0
2927,0,0
2932,0,0
2937,0,0
2942,0,0
2947,0,0
2952,0,0
2957,0,0
2962,0,0
2967,0,0
2972,0,0
2977,0,0
2982,0,0
2987,0,0
2992,0,0
2997,0,0
3002,0,0
3007,0,0
3012,0,0
3017,0,0
3022,0,0
3027,0,0
3032,0,0
3037,0,0
3042,0,0
3047,0,0
3052,0,0
3057,0,0
3062,0,0
3067,0,0
3073,0,0
3078,0,0
3083,0,0
3088,0,0
3093,0,0
3098,0,0
3103,0,0
3108,0,0
3113,0,0
3118,0,0
3123,0,0
3128,0,0
3133,0,0
3138,0,0
3143,0,0
3148,0,0
3153,0,0
3158,0,0
3163,0,0
3168,0,0
3173,0,0
3178,0,0
3183,0,0
3188,0,0
3193,0,0
3198,0,0
3203,0,0
3208,0,0
3213,0,0
3218,0,0
3223,0,0
3228,0,0
3233,0,0
3238,0,0
3243,0,0
3248,0,0
3253,0,0
3258,0,0
3263,0,0
3268,0,0
3273,0,0
3278,0,0
3283,0,0
3288,0,0
3293,0,0
3298,0,0
3303,0,0
3308,0,0
3313,0,0
3318,0,0
3323,0,0
3328,0,0
3333,0,0
3338,0,0
3343,0,0
3348,0,0
3353,0,0
3358,0,0
3363,0,0
3368,0,0
3373,0,0
3378,0,0
3383,0,0
3388,0,0
3393,0,0
3398,0,0
3403,0,0
3408,0,0
3413,0,0
3418,0,0
3423,0,0
3428,0,0
3433,0,0
3438,0,0
3444,0,0
3449,0,0
3454,0,0
3459,0,0
3464,0,0
3469,0,0
3474,0,0
3479,0,0
3484,0,0
3489,0,0
3494,0,0
3499,0,0
3504,0,0
3509,0,0
3514,0,0
3519,0,0
3524,0,0
3529,0,0
3534,0,0
3539,0,0
3544,0,0
3549,0,0
3554,0,0
3559,0,0
3564,0,0
3569,0,0
3574,0,0
3579,0,0
3584,0,0
3589,0,0
3594,0,0
3599,0,0
3604,0,0
3609,0,0
3614,0,0
3619,0,0
3624,0,0
3629,0,0
3634,0,0
3639,0,0
3644,0,0
3649,0,0
3654,0,0
3659,0,0
3664,0,0
3669,0,0
3674,0,0
3679,0,0
3684,0,0
3689,0,0
3694,0,0
3699,0,0
3704,0,0
3709,0,0
3714,0,0
3719,0,0
3724,0,0
3729,0,0
3734,0,0
3739,0,0
3744,0,0
3749,0,0
3754,0,0
3759,0,0
3764,0,0
3769,0,0
3774,0,0
3780,0,0
3785,0,0
3790,0,0
3795,0,0
3800,0,0
3805,0,0
3810,0,0
3815,0,0
3820,0,0
3825,0,0
3830,0,0
3835,0,0
3840,0,0
3845,0,0
3850,0,0
3855,0,0
3860,0,0
3865,0,0
3870,0,0
3875,0,0
3880,0,0
3885,0,0
3890,0,0
3895,0,0
3900,0,0
3905,0,0
3910,0,0
3915,0,0
3920,0,0
3925,0,0
3930,0,0
3935,0,0
3940,0,0
3945,0,0
3950,0,0
3955,0,0
3960,0,0
3965,0,0
3970,0,0
3975,0,0
3980,0,0
3985,0,0
3990,0,0
3995,0,0
4000,0,0
4005,0,0
4010,0,0
4015,0,0
4020,0,0
4025,0,0
4030,0,0
4035,0,0
4040,0,0
4045,0,0
4050,0,0
4055,0,0
4060,0,0
4065,0,0
4070,0,0
4075,0,0
4080,0,0
4085,0,0
4090,0,0
4095,0,0
4100,0,0
4105,0,0
4110,0,0
4115,0,0
4120,0,0
4125,0,0
4130,0,0
4135,0,0
4140,0,0
4145,0,0
4150,0,0
4155,0,0
4160,0,0
4165,0,0
4171,0,0
4176,0,0
4181,0,0
4186,0,0
4191,0,0
4196,0,0
4201,0,0
4206,0,0
4211,0,0
4216,0,0
4221,0,0
4226,0,0
4231,0,0
4236,0,0
4241,0,0
4246,0,0
4251,0,0
4256,0,0
4261,0,0
4266,0,0
4271,0,0
4276,0,0
4281,0,0
4286,0,0
4291,0,0
4296,0,0
4301,0,0
4306,0,0
4311,0,0
4316,0,0
4321,0,0
4326,0,0
4331,0,0
4336,0,0
4341,0,0
4346,0,0
4351,0,0
4356,0,0
4361,0,0
4366,0,0
4371,0,0
4376,0,0
4381,0,0
4386,0,0
4391,0,0
4396,0,0
4401,0,0
4406,0,0
4411,0,0
4416,0,0
4421,0,0
4426,0,0
4431,0,0
4436,0,0
4441,0,0
4446,0,0
4451,0,0
4456,0,0
4461,0,0
4466,0,0
4471,0,0
4476,0,0
4481,0,0
4486,0,0
4491,0,0
4496,0,0
4501,0,0
4506,0,0
4511,0,0
4516,0,0
4521,0,0
4527,0,0
4532,0,0
4537,0,0
4542,0,0
4547,0,0
4552,0,0
4557,0,0
4562,0,0
4567,0,0
4572,0,0
4577,0,0
4582,0,0
4587,0,0
4592,0,0
4597,0,0
4602,0,0
4607,0,0
4612,0,0
4617,0,0
4622,0,0
4627,0,0
4632,0,0
4637,0,0
4642,0,0
4647,0,0
4652,0,0
4657,0,0
4662,0,0
4667,0,0
4672,0,0
4677,0,0
4682,0,0
4687,0,0
4692,0,0
4697,0,0
4702,0,0
4707,0,0
4712,0,0
4717,0,0
4722,0,0
4727,0,0
4732,0,0
4737,0,0
4742,0,0
4747,0,0
4752,0,0
4757,0,0
4762,0,0
4767,0,0
4772,0,0
4777,0,0
4782,0,0
4787,0,0
4792,0,0
4797,0,0
4802,0,0
4807,0,0
4812,0,0
4817,0,0
4822,0,0
4827,0,0
4832,0,0
4837,0,0
4842,0,0
4847,0,0
4852,0,0
4857,0,0
4862,0,0
4867,0,0
4872,0,0
4877,0,0
4882,0,0
4887,0,0
4892,0,0
4897,0,0
4902,0,0
4907,0,0
4913,0,0
4918,0,0
4923,0,0
4928,0,0
4933,0,0
4938,0,0
4943,0,0
4948,0,0
4953,0,0
4958,0,0
4963,0,0
4968,0,0
4973,0,0
4978,0,0
4983,0,0
4988,0,0
4993,0,0
4998,0,0
5003,0,0
5008,0,0
5013,0,0
5018,0,0
5023,0,0
5028,0,0
5033,0,0
5038,0,0
5043,0,0
5048,0,0
5053,0,0
5058,0,0
5063,0,0
5068,0,0
5073,0,0
5078,0,0
5083,0,0
5088,0,0
5093,0,0
5098,0,0
5103,0,0
5108,0,0
5113,0,0
5118,0,0
5123,0,0
5128,0,0
5133,0,0
5138,0,0
5143,0,0
5148,0,0
5153,0,0
5158,0,0
5163,0,0
5168,0,0
5173,0,0
5178,0,0
5183,0,0
5188,0,0
5193,0,0
5198,0,0
5203,0,0
5208,0,0
5213,0,0
5218,0,0
5223,0,0
5228,0,0
5233,0,0
5238,0,0
5243,0,0
5248,0,0
5253,0,0
5258,0,0
5263,0,0
5268,0,0
