15,4,
20,4,
25,4,
30,4,
35,4,
40,4,
45,4,
50,4,
55,4,
60,4,
65,4,
70,4,
75,4,
80,4,
85,4,
90,4,
95,4,
100,4,
105,4,2-1
110,4,2-1
115,4,"2-1,7-1"
120,4,"7-2,2-1"
125,4,"7-2,12-2,2-1,15-1"
130,4,"7-3,12-2,2-2,15-1"
135,4,"7-3,12-2,2-1,15-1"
140,4,"7-3,12-2,2-1,15-1"
145,4,"7-3,12-2,2-1,15-1"
150,4,"7-2,12-2,2-1,15-1"
155,4,"7-2,12-2,2-1,15-1"
160,4,"7-3,12-2,2-1,15-1"
165,4,"7-4,12-2,2-1,15-1,10-1"
170,4,"7-4,12-2,2-1,15-1,10-1"
175,4,"7-4,12-2,2-1,15-1,10-1"
180,4,"7-4,12-2,2-1,15-1,10-1"
185,4,"7-3,12-2,2-1,15-1,10-1"
190,4,"7-3,12-2,2-1,15-1,10-1"
195,4,"7-3,12-2,2-1,15-1,10-1"
200,4,"7-2,12-2,2-1,15-1,10-1"
205,4,"12-2,7-1,2-1,15-1,10-1"
210,4,"12-2,7-1,2-1,15-1,10-1"
215,4,"12-2,7-1,2-1,15-1,10-1"
220,4,"12-2,7-1,2-1,15-1,10-1"
225,4,"12-2,7-1,2-1,15-1,10-1"
230,4,"12-2,7-1,2-1,15-1,10-1"
235,4,"12-2,7-1,2-1,15-1,10-1"
240,4,"12-2,7-1,2-1,15-1,10-1"
245,4,"12-2,7-1,2-1,15-1,10-1"
250,4,"12-2,7-1,2-1,15-1,10-1"
255,4,"12-2,7-1,2-1,15-1,10-1"
260,4,"12-2,7-1,2-1,15-1,10-1"
265,4,"12-2,7-1,2-1,15-1,10-1"
270,4,"12-2,7-1,2-1,15-1,10-1"
275,4,"12-2,7-1,2-1,15-1,10-1"
280,4,"12-2,7-1,2-1,15-1,10-1"
286,4,"12-2,7-1,2-1,15-1,10-1"
291,4,"12-2,7-1,2-1,15-1,10-1"
296,4,"12-2,7-1,2-1,15-1,10-1"
301,4,"12-2,7-1,2-1,15-1,10-1"
306,4,"12-2,7-1,2-1,15-1,10-1"
311,4,"12-2,7-1,2-1,15-1,10-1"
316,4,"12-2,7-1,2-1,15-1,10-1"
321,4,"12-2,7-1,2-1,15-1,10-1"
326,4,"12-2,7-1,2-1,15-1,10-1"
331,4,"12-2,7-1,2-1,15-1,10-1"
336,4,"12-2,7-1,2-1,15-1,10-1"
341,4,"12-2,7-1,2-1,15-1,10-1"
346,4,"12-2,7-1,2-1,15-1,10-1"
351,4,"12-2,7-1,2-1,15-1,10-1"
356,4,"12-2,7-1,2-1,15-1,10-1"
361,4,"12-2,7-1,2-1,15-1,10-1"
366,4,"12-2,7-1,2-1,15-1,10-1"
371,4,"12-2,7-1,2-1,15-1,10-1"
376,4,"12-2,7-1,2-1,15-1,10-1"
381,4,"12-2,7-1,2-1,15-1,10-1"
386,4,"12-2,7-1,2-1,15-1,10-1"
391,4,"12-2,7-1,2-1,15-1,10-1"
396,4,"12-2,7-1,2-1,15-1,10-1"
401,4,"12-2,7-1,2-1,15-1,10-1"
406,4,"12-2,7-1,2-1,15-1,10-1"
411,4,"12-2,7-1,2-1,15-1,10-1"
416,4,"12-2,7-1,2-1,15-1,10-1"
421,4,"12-2,7-1,2-1,15-1,10-1"
426,4,"12-2,7-1,2-1,15-1,10-1"
431,4,"12-2,7-1,2-1,15-1,10-1"
436,4,"12-2,7-1,2-1,15-1,10-1"
441,4,"12-2,7-1,2-1,15-1,10-1"
446,4,"12-2,7-1,2-1,15-1,10-1"
451,4,"12-2,7-1,2-1,15-1,10-1"
456,4,"12-2,7-1,2-1,15-1,10-1"
461,4,"12-2,7-1,2-1,15-1,10-1"
466,4,"12-2,7-1,2-1,15-1,10-1"
471,4,"12-2,7-1,2-1,15-1,10-1"
476,4,"12-2,7-1,2-1,15-1,10-1"
481,4,"12-2,7-1,2-1,15-1,10-1"
486,4,"12-2,7-1,2-1,15-1,10-1"
491,4,"12-2,7-1,2-1,15-1,10-1"
496,4,"12-2,7-1,2-1,15-1,10-1"
501,4,"12-2,7-1,2-1,15-1,10-1"
506,4,"12-2,7-1,2-1,15-1,10-1"
511,4,"12-2,7-1,2-1,15-1,10-1"
516,4,"12-2,7-1,2-1,15-1,10-1"
521,4,"12-2,7-1,2-1,15-1,10-1"
526,4,"12-2,7-1,2-1,15-1,10-1"
531,4,"12-2,7-1,2-1,15-1,10-1"
536,4,"12-2,7-1,2-1,15-1,10-1"
541,4,"12-2,7-1,2-1,15-1,10-1"
546,4,"12-2,7-1,2-1,15-1,10-1"
551,4,"12-2,7-1,2-1,15-1,10-1"
556,4,"12-2,7-1,2-1,15-1,10-1"
561,4,"12-2,7-1,2-1,15-1,10-1"
566,4,"12-2,7-1,2-1,15-1,10-1"
571,4,"12-2,7-1,2-1,15-1,10-1"
576,4,"12-2,7-1,2-1,15-1,10-1"
581,4,"12-2,7-1,2-1,15-1,10-1"
586,4,"12-2,7-1,2-1,15-1,10-1"
591,4,"12-2,7-1,2-1,15-1,10-1"
596,4,"12-2,7-1,2-1,15-1,10-1"
601,4,"12-2,7-1,2-1,15-1,10-1"
606,4,"12-2,7-1,2-1,15-1,10-1"
611,4,"12-2,7-1,2-1,15-1,10-1"
616,4,"12-2,7-1,2-1,15-1,10-1"
621,4,"12-2,7-1,2-1,15-1,10-1"
626,4,"12-2,7-1,2-1,15-1,10-1"
631,4,"12-2,7-1,2-1,15-1,10-1"
636,4,"12-2,7-1,2-1,15-1,10-1"
641,4,"12-2,7-1,2-1,15-1,10-1"
647,4,"12-2,7-1,2-1,15-1,10-1"
652,4,"12-2,7-1,2-1,15-1,10-1"
657,4,"12-2,7-1,2-1,15-1,10-1"
662,4,"12-2,7-1,2-1,15-1,10-1"
667,4,"12-2,7-1,2-1,15-1,10-1"
672,4,"12-2,7-1,2-1,15-1,10-1"
677,4,"12-2,7-1,2-1,15-1,10-1"
682,4,"12-2,7-1,2-1,15-1,10-1"
687,4,"12-2,7-1,2-1,15-1,10-1"
692,4,"12-2,7-1,2-1,15-1,10-1"
697,4,"12-2,7-1,2-1,15-1,10-1"
702,4,"12-2,7-1,2-1,15-1,10-1"
707,4,"12-2,7-1,2-1,15-1,10-1"
712,4,"12-2,7-1,2-1,15-1,10-1"
717,4,"12-2,7-1,2-1,15-1,10-1"
722,4,"12-2,7-1,2-1,15-1,10-1"
727,4,"12-2,7-1,2-1,15-1,10-1"
732,4,"12-2,7-1,2-1,15-1,10-1"
737,4,"12-2,7-1,2-1,15-1,10-1"
742,4,"12-2,7-1,2-1,15-1,10-1"
747,4,"12-2,7-1,2-1,15-1,10-1"
752,4,"12-2,7-1,2-1,15-1,10-1"
757,4,"12-2,7-1,2-1,15-1,10-1"
762,4,"12-2,7-1,2-1,15-1,10-1"
767,4,"12-2,7-1,2-1,15-1,10-1"
772,4,"12-2,7-1,2-1,15-1,10-1"
777,4,"12-2,7-1,2-1,15-1,10-1"
782,4,"12-2,7-1,2-1,15-1,10-1"
787,4,"12-2,7-1,2-1,15-1,10-1"
792,4,"12-2,7-1,2-1,15-1,10-1"
797,4,"12-2,7-1,2-1,15-1,10-1"
802,4,"12-2,7-1,2-1,15-1,10-1"
807,4,"12-2,7-1,2-1,15-1,10-1"
812,4,"12-2,7-1,2-1,15-1,10-1"
817,4,"12-2,7-1,2-1,15-1,10-1"
822,4,"12-2,7-1,2-1,15-1,10-1"
827,4,"12-2,7-1,2-1,15-1,10-1"
832,4,"12-2,7-1,2-1,15-1,10-1"
837,4,"12-2,7-1,2-1,15-1,10-1"
842,4,"12-2,7-1,2-1,15-1,10-1"
847,4,"12-2,7-1,2-1,15-1,10-1"
852,4,"12-2,7-1,2-1,15-1,10-1"
857,4,"12-2,7-1,2-1,15-1,10-1"
862,4,"12-2,7-1,2-1,15-1,10-1"
867,4,"12-2,7-1,2-1,15-1,10-1"
872,4,"12-2,7-1,2-1,15-1,10-1"
877,4,"12-2,7-1,2-1,15-1,10-1"
882,4,"12-2,7-1,2-1,15-1,10-1"
887,4,"12-2,7-1,2-1,15-1,10-1"
892,4,"12-2,7-1,2-1,15-1,10-1"
897,4,"12-2,7-1,2-1,15-1,10-1"
902,4,"12-2,7-1,2-1,15-1,10-1"
907,4,"12-2,7-1,2-1,15-1,10-1"
912,4,"12-2,7-1,2-1,15-1,10-1"
917,4,"12-2,7-1,2-1,15-1,10-1"
922,4,"12-2,7-1,2-1,15-1,10-1"
927,4,"12-2,7-1,2-1,15-1,10-1"
932,4,"12-2,7-1,2-1,15-1,10-1"
937,4,"12-2,7-1,2-1,15-1,10-1"
942,4,"12-2,7-1,2-1,15-1,10-1"
947,4,"12-2,7-1,2-1,15-1,10-1"
952,4,"12-2,7-1,2-1,15-1,10-1"
957,4,"12-2,7-1,2-1,15-1,10-1"
962,4,"12-2,7-1,2-1,15-1,10-1"
967,4,"12-2,7-1,2-1,15-1,10-1"
972,4,"12-2,7-1,2-1,15-1,10-1"
977,4,"12-2,7-1,2-1,15-1,10-1"
982,4,"12-2,7-1,2-1,15-1,10-1"
987,4,"12-2,7-1,2-1,15-1,10-1"
992,4,"12-2,7-1,2-1,15-1,10-1"
997,4,"12-2,7-1,2-1,15-1,10-1"
1002,4,"12-2,7-1,2-1,15-1,10-1"
1007,4,"12-2,7-1,2-1,15-1,10-1"
1012,4,"12-2,7-1,2-1,15-1,10-1"
1017,4,"12-2,7-1,2-1,15-1,10-1"
1022,4,"12-2,7-1,2-1,15-1,10-1"
1027,4,"12-2,7-1,2-1,15-1,10-1"
1032,4,"12-2,7-1,2-1,15-1,10-1"
1037,4,"12-2,7-1,2-1,15-1,10-1"
1042,4,"12-2,7-1,2-1,15-1,10-1"
1047,4,"12-2,7-1,2-1,15-1,10-1"
1052,4,"12-2,7-1,2-1,15-1,10-1"
1057,4,"12-2,7-1,2-1,15-1,10-1"
1062,4,"12-2,7-1,2-1,15-1,10-1"
1067,4,"12-2,7-1,2-1,15-1,10-1"
1072,4,"12-2,7-1,2-1,15-1,10-1"
1077,4,"12-2,7-1,2-1,15-1,10-1"
1082,4,"12-2,7-1,2-1,15-1,10-1"
1087,4,"12-2,7-1,2-1,15-1,10-1"
1092,4,"12-2,7-1,2-1,15-1,10-1"
1097,4,"12-2,7-1,2-1,15-1,10-1"
1102,4,"12-2,7-1,2-1,15-1,10-1"
1107,4,"12-2,7-1,2-1,15-1,10-1"
1112,4,"12-2,7-1,2-1,15-1,10-1"
1118,4,"12-2,7-1,2-1,15-1,10-1"
1123,4,"12-2,7-1,2-1,15-1,10-1"
1128,4,"12-2,7-1,2-1,15-1,10-1"
1133,4,"12-2,7-1,2-1,15-1,10-1"
1138,4,"12-2,7-1,2-1,15-1,10-1"
1143,4,"12-2,7-1,2-1,15-1,10-1"
1148,4,"12-2,7-1,2-1,15-1,10-1"
1153,4,"12-2,7-1,2-1,15-1,10-1"
1158,4,"12-2,7-1,2-1,15-1,10-1"
1163,4,"12-2,7-1,2-1,15-1,10-1"
1168,4,"12-2,7-1,2-1,15-1,10-1"
1173,4,"12-2,7-1,2-1,15-1,10-1"
1178,4,"12-2,7-1,2-1,15-1,10-1"
1183,4,"12-2,7-1,2-1,15-1,10-1"
1188,4,"12-2,7-1,2-1,15-1,10-1"
1193,4,"12-2,7-1,2-1,15-1,10-1"
1198,4,"12-2,7-1,2-1,15-1,10-1"
1203,4,"12-2,7-1,2-1,15-1,10-1"
1208,4,"12-2,7-1,2-1,15-1,10-1"
1213,4,"12-2,7-1,2-1,15-1,10-1"
1218,4,"12-2,7-1,2-1,15-1,10-1"
1223,4,"12-2,7-1,2-1,15-1,10-1"
1228,4,"12-2,7-1,2-1,15-1,10-1"
1233,4,"12-2,7-1,2-1,15-1,10-1"
1238,4,"12-2,7-1,2-1,15-1,10-1"
1243,4,"12-2,7-1,2-1,15-1,10-1"
1248,4,"12-2,7-1,2-1,15-1,10-1"
1253,4,"12-2,7-1,2-1,15-1,10-1"
1258,4,"12-2,7-1,2-1,15-1,10-1"
1263,4,"12-2,7-1,2-1,15-1,10-1"
1268,4,"12-2,7-1,2-1,15-1,10-1"
1273,4,"12-2,7-1,2-1,15-1,10-1"
1278,4,"12-2,7-1,2-1,15-1,10-1"
1283,4,"12-2,7-1,2-1,15-1,10-1"
1288,4,"12-2,7-1,2-1,15-1,10-1"
1293,4,"12-2,7-1,2-1,15-1,10-1"
1298,4,"12-2,7-1,2-1,15-1,10-1"
1303,4,"12-2,7-1,2-1,15-1,10-1"
1308,4,"12-2,7-1,2-1,15-1,10-1"
1313,4,"12-2,7-1,2-1,15-1,10-1"
1318,4,"12-2,7-1,2-1,15-1,10-1"
1323,4,"12-2,7-1,2-1,15-1,10-1"
1328,4,"12-2,7-1,2-1,15-1,10-1"
1333,4,"12-2,7-1,2-1,15-1,10-1"
1338,4,"12-2,7-1,2-1,15-1,10-1"
1343,4,"12-2,7-1,2-1,15-1,10-1"
1348,4,"12-2,7-1,2-1,15-1,10-1"
1353,4,"12-2,7-1,2-1,15-1,10-1"
1358,4,"12-2,7-1,2-1,15-1,10-1"
1363,4,"12-2,7-1,2-1,15-1,10-1"
1368,4,"12-2,7-1,2-1,15-1,10-1"
1373,4,"12-2,7-1,2-1,15-1,10-1"
1378,4,"12-2,7-1,2-1,15-1,10-1"
1383,4,"12-2,7-1,2-1,15-1,10-1"
1388,4,"12-2,7-1,2-1,15-1,10-1"
1393,4,"12-2,7-1,2-1,15-1,10-1"
1398,4,"12-2,7-1,2-1,15-1,10-1"
1403,4,"12-2,7-1,2-1,15-1,10-1"
1408,4,"12-2,7-1,2-1,15-1,10-1"
1413,4,"12-2,7-1,2-1,15-1,10-1"
1418,4,"12-2,7-1,2-1,15-1,10-1"
1423,4,"12-2,7-1,2-1,15-1,10-1"
1428,4,"12-2,7-1,2-1,15-1,10-1"
1433,4,"12-2,7-1,2-1,15-1,10-1"
1438,4,"12-2,7-1,2-1,15-1,10-1"
1443,4,"12-2,7-1,2-1,15-1,10-1"
1448,4,"12-2,7-1,2-1,15-1,10-1"
1453,4,"12-2,7-1,2-1,15-1,10-1"
1458,4,"12-2,7-1,2-1,15-1,10-1"
1463,4,"12-2,7-1,2-1,15-1,10-1"
1468,4,"12-2,7-1,2-1,15-1,10-1"
1473,4,"12-2,7-1,2-1,15-1,10-1"
1478,4,"12-2,7-1,2-1,15-1,10-1"
1483,4,"12-2,7-1,2-1,15-1,10-1"
1488,4,"12-2,7-1,2-1,15-1,10-1"
1493,4,"12-2,7-1,2-1,15-1,10-1"
1498,4,"12-2,7-1,2-1,15-1,10-1"
1503,4,"12-2,7-1,2-1,15-1,10-1"
1508,4,"12-2,7-1,2-1,15-1,10-1"
1514,4,"12-2,7-1,2-1,15-1,10-1"
1519,4,"12-2,7-1,2-1,15-1,10-1"
1524,4,"12-2,7-1,2-1,15-1,10-1"
1529,4,"12-2,7-1,2-1,15-1,10-1"
1534,4,"12-2,7-1,2-1,15-1,10-1"
1539,4,"12-2,7-1,2-1,15-1,10-1"
1544,4,"12-2,7-1,2-1,15-1,10-1"
1549,4,"12-2,7-1,2-1,15-1,10-1"
1554,4,"12-2,7-1,2-1,15-1,10-1"
1559,4,"12-2,7-1,2-1,15-1,10-1"
1564,4,"12-2,7-1,2-1,15-1,10-1"
1569,4,"12-2,7-1,2-1,15-1,10-1"
1574,4,"12-2,7-1,2-1,15-1,10-1"
1579,4,"12-2,7-1,2-1,15-1,10-1"
1584,4,"12-2,7-1,2-1,15-1,10-1"
1589,4,"12-2,7-1,2-1,15-1,10-1"
1594,4,"12-2,7-1,2-1,15-1,10-1"
1599,4,"12-2,7-1,2-1,15-1,10-1"
1604,4,"12-2,7-1,2-1,15-1,10-1"
1609,4,"12-2,7-1,2-1,15-1,10-1"
1614,4,"12-2,7-1,2-1,15-1,10-1"
1619,4,"12-2,7-1,2-1,15-1,10-1"
1624,4,"12-2,7-1,2-1,15-1,10-1"
1629,4,"12-2,7-1,2-1,15-1,10-1"
1634,4,"12-2,7-1,2-1,15-1,10-1"
1639,4,"12-2,7-1,2-1,15-1,10-1"
1644,4,"12-2,7-1,2-1,15-1,10-1"
1649,4,"12-2,7-1,2-1,15-1,10-1"
1654,4,"12-2,7-1,2-1,15-1,10-1"
1659,4,"12-2,7-1,2-1,15-1,10-1"
1664,4,"12-2,7-1,2-1,15-1,10-1"
1669,4,"12-2,7-1,2-1,15-1,10-1"
1674,4,"12-2,7-1,2-1,15-1,10-1"
1679,4,"12-2,7-1,2-1,15-1,10-1"
1684,4,"12-2,7-1,2-1,15-1,10-1"
1689,4,"12-2,7-1,2-1,15-1,10-1"
1694,4,"12-2,7-1,2-1,15-1,10-1"
1699,4,"12-2,7-1,2-1,15-1,10-1"
1704,4,"12-2,7-1,2-1,15-1,10-1"
1709,4,"12-2,7-1,2-1,15-1,10-1"
1714,4,"12-2,7-1,2-1,15-1,10-1"
1719,4,"12-2,7-1,2-1,15-1,10-1"
1724,4,"12-2,7-1,2-1,15-1,10-1"
1729,4,"12-2,7-1,2-1,15-1,10-1"
1734,4,"12-2,7-1,2-1,15-1,10-1"
1739,4,"12-2,7-1,2-1,15-1,10-1"
1744,4,"12-2,7-1,2-1,15-1,10-1"
1749,4,"12-2,7-1,2-1,15-1,10-1"
1754,4,"12-2,7-1,2-1,15-1,10-1"
1759,4,"12-2,7-1,2-1,15-1,10-1"
1764,4,"12-2,7-1,2-1,15-1,10-1"
1769,4,"12-2,7-1,2-1,15-1,10-1"
1774,4,"12-2,7-1,2-1,15-1,10-1"
1779,4,"12-2,7-1,2-1,15-1,10-1"
1784,4,"12-2,7-1,2-1,15-1,10-1"
1789,4,"12-2,7-1,2-1,15-1,10-1"
1794,4,"12-2,7-1,2-1,15-1,10-1"
1799,4,"12-2,7-1,2-1,15-1,10-1"
1804,4,"12-2,7-1,2-1,15-1,10-1"
1809,4,"12-2,7-1,2-1,15-1,10-1"
1814,4,"12-2,7-1,2-1,15-1,10-1"
1819,4,"12-2,7-1,2-1,15-1,10-1"
1824,4,"12-2,7-1,2-1,15-1,10-1"
1829,4,"12-2,7-1,2-1,15-1,10-1"
1834,4,"12-2,7-1,2-1,15-1,10-1"
1839,4,"12-2,7-1,2-1,15-1,10-1"
1844,4,"12-2,7-1,2-1,15-1,10-1"
1849,4,"12-2,7-1,2-1,15-1,10-1"
1854,4,"12-2,7-1,2-1,15-1,10-1"
1859,4,"12-2,7-1,2-1,15-1,10-1"
1864,4,"12-2,7-1,2-1,15-1,10-1"
1869,4,"12-2,7-1,2-1,15-1,10-1"
1874,4,"12-2,7-1,2-1,15-1,10-1"
1879,4,"12-2,7-1,2-1,15-1,10-1"
1884,4,"12-2,7-1,2-1,15-1,10-1"
1889,4,"12-2,7-1,2-1,15-1,10-1"
1894,4,"12-2,7-1,2-1,15-1,10-1"
1899,4,"12-2,7-1,2-1,15-1,10-1"
1904,4,"12-2,7-1,2-1,15-1,10-1"
1909,4,"12-2,7-1,2-1,15-1,10-1"
1914,4,"12-2,7-1,2-1,15-1,10-1"
1920,4,"12-2,7-1,2-1,15-1,10-1"
1925,4,"12-2,7-1,2-1,15-1,10-1"
1930,4,"12-2,7-1,2-1,15-1,10-1"
1935,4,"12-2,7-1,2-1,15-1,10-1"
1940,4,"12-2,7-1,2-1,15-1,10-1"
1945,4,"12-2,7-1,2-1,15-1,10-1"
1950,4,"12-2,7-1,2-1,15-1,10-1"
1955,4,"12-2,7-1,2-1,15-1,10-1"
1960,4,"12-2,7-1,2-1,15-1,10-1"
1965,4,"12-2,7-1,2-1,15-1,10-1"
1970,4,"12-2,7-1,2-1,15-1,10-1"
1975,4,"12-2,7-1,2-1,15-1,10-1"
1980,4,"12-2,7-1,2-1,15-1,10-1"
1985,4,"12-2,7-1,2-1,15-1,10-1"
1990,4,"12-2,7-1,2-1,15-1,10-1"
1995,4,"12-2,7-1,2-1,15-1,10-1"
2000,4,"12-2,7-1,2-1,15-1,10-1"
2005,4,"12-2,7-1,2-1,15-1,10-1"
2010,4,"12-2,7-1,2-1,15-1,10-1"
2015,4,"12-2,7-1,2-1,15-1,10-1"
2020,4,"12-2,7-1,2-1,15-1,10-1"
2025,4,"12-2,7-1,2-1,15-1,10-1"
2030,4,"12-2,7-1,2-1,15-1,10-1"
2035,4,"12-2,7-1,2-1,15-1,10-1"
2040,4,"12-2,7-1,2-1,15-1,10-1"
2045,4,"12-2,7-1,2-1,15-1,10-1"
2050,4,"12-2,7-1,2-1,15-1,10-1"
2055,4,"12-2,7-1,2-1,15-1,10-1"
2060,4,"12-2,7-1,2-1,15-1,10-1"
2065,4,"12-2,7-1,2-1,15-1,10-1"
2070,4,"12-2,7-1,2-1,15-1,10-1"
2075,4,"12-2,7-1,2-1,15-1,10-1"
2080,4,"12-2,7-1,2-1,15-1,10-1"
2085,4,"12-2,7-1,2-1,15-1,10-1"
2090,4,"12-2,7-1,2-1,15-1,10-1"
2095,4,"12-2,7-1,2-1,15-1,10-1"
2100,4,"12-2,7-1,2-1,15-1,10-1"
2105,4,"12-2,7-1,2-1,15-1,10-1"
2110,4,"12-2,7-1,2-1,15-1,10-1"
2115,4,"12-2,7-1,2-1,15-1,10-1"
2120,4,"12-2,7-1,2-1,15-1,10-1"
2125,4,"12-2,7-1,2-1,15-1,10-1"
2130,4,"12-2,7-1,2-1,15-1,10-1"
2135,4,"12-2,7-1,2-1,15-1,10-1"
2140,4,"12-2,7-1,2-1,15-1,10-1"
2145,4,"12-2,7-1,2-1,15-1,10-1"
2150,4,"12-2,7-1,2-1,15-1,10-1"
2155,4,"12-2,7-1,2-1,15-1,10-1"
2160,4,"12-2,7-1,2-1,15-1,10-1"
2165,4,"12-2,7-1,2-1,15-1,10-1"
2170,4,"12-2,7-1,2-1,15-1,10-1"
2175,4,"12-2,7-1,2-1,15-1,10-1"
2180,4,"12-2,7-1,2-1,15-1,10-1"
2185,4,"12-2,7-1,2-1,15-1,10-1"
2190,4,"12-2,7-1,2-1,15-1,10-1"
2195,4,"12-2,7-1,2-1,15-1,10-1"
2200,4,"12-2,7-1,2-1,15-1,10-1"
2205,4,"12-2,7-1,2-1,15-1,10-1"
2210,4,"12-2,7-1,2-1,15-1,10-1"
2215,4,"12-2,7-1,2-1,15-1,10-1"
2220,4,"12-2,7-1,2-1,15-1,10-1"
2225,4,"12-2,7-1,2-1,15-1,10-1"
2230,4,"12-2,7-1,2-1,15-1,10-1"
2235,4,"12-2,7-1,2-1,15-1,10-1"
2240,4,"12-2,7-1,2-1,15-1,10-1"
2245,4,"12-2,7-1,2-1,15-1,10-1"
2250,4,"12-2,7-1,2-1,15-1,10-1"
2255,4,"12-2,7-1,2-1,15-1,10-1"
2260,4,"12-2,7-1,2-1,15-1,10-1"
2265,4,"12-2,7-1,2-1,15-1,10-1"
2270,4,"12-2,7-1,2-1,15-1,10-1"
2275,4,"12-2,7-1,2-1,15-1,10-1"
2280,4,"12-2,7-1,2-1,15-1,10-1"
2285,4,"12-2,7-1,2-1,15-1,10-1"
2290,4,"12-2,7-1,2-1,15-1,10-1"
2295,4,"12-2,7-1,2-1,15-1,10-1"
2300,4,"12-2,7-1,2-1,15-1,10-1"
2305,4,"12-2,7-1,2-1,15-1,10-1"
2311,4,"12-2,7-1,2-1,15-1,10-1"
2316,4,"12-2,7-1,2-1,15-1,10-1"
2321,4,"12-2,7-1,2-1,15-1,10-1"
2326,4,"12-2,7-1,2-1,15-1,10-1"
2331,4,"12-2,7-1,2-1,15-1,10-1"
2336,4,"12-2,7-1,2-1,15-1,10-1"
2341,4,"12-2,7-1,2-1,15-1,10-1"
2346,4,"12-2,7-1,2-1,15-1,10-1"
2351,4,"12-2,7-1,2-1,15-1,10-1"
2356,4,"12-2,7-1,2-1,15-1,10-1"
2361,4,"12-2,7-1,2-1,15-1,10-1"
2366,4,"12-2,7-1,2-1,15-1,10-1"
2371,4,"12-2,7-1,2-1,15-1,10-1"
2376,4,"12-2,7-1,2-1,15-1,10-1"
2381,4,"12-2,7-1,2-1,15-1,10-1"
2386,4,"12-2,7-1,2-1,15-1,10-1"
2391,4,"12-2,7-1,2-1,15-1,10-1"
2396,4,"12-2,7-1,2-1,15-1,10-1"
2401,4,"12-2,7-1,2-1,15-1,10-1"
2406,4,"12-2,7-1,2-1,15-1,10-1"
2411,4,"12-2,7-1,2-1,15-1,10-1"
2416,4,"12-2,7-1,2-1,15-1,10-1"
2421,4,"12-2,7-1,2-1,15-1,10-1"
2426,4,"12-2,7-1,2-1,15-1,10-1"
2431,4,"12-2,7-1,2-1,15-1,10-1"
2436,4,"12-2,7-1,2-1,15-1,10-1"
2441,4,"12-2,7-1,2-1,15-1,10-1"
2446,4,"12-2,7-1,2-1,15-1,10-1"
2451,4,"12-2,7-1,2-1,15-1,10-1"
2456,4,"12-2,7-1,2-1,15-1,10-1"
2461,4,"12-2,7-1,2-1,15-1,10-1"
2466,4,"12-2,7-1,2-1,15-1,10-1"
2471,4,"12-2,7-1,2-1,15-1,10-1"
2476,4,"12-2,7-1,2-1,15-1,10-1"
2481,4,"12-2,7-1,2-1,15-1,10-1"
2486,4,"12-2,7-1,2-1,15-1,10-1"
2491,4,"12-2,7-1,2-1,15-1,10-1"
2496,4,"12-2,7-1,2-1,15-1,10-1"
2501,4,"12-2,7-1,2-1,15-1,10-1"
2506,4,"12-2,7-1,2-1,15-1,10-1"
2511,4,"12-2,7-1,2-1,15-1,10-1"
2516,4,"12-2,7-1,2-1,15-1,10-1"
2521,4,"12-2,7-1,2-1,15-1,10-1"
2526,4,"12-2,7-1,2-1,15-1,10-1"
2531,4,"12-2,7-1,2-1,15-1,10-1"
2536,4,"12-2,7-1,2-1,15-1,10-1"
2541,4,"12-2,7-1,2-1,15-1,10-1"
2546,4,"12-2,7-1,2-1,15-1,10-1"
2551,4,"12-2,7-1,2-1,15-1,10-1"
2556,4,"12-2,7-1,2-1,15-1,10-1"
2561,4,"12-2,7-1,2-1,15-1,10-1"
2566,4,"12-2,7-1,2-1,15-1,10-1"
2571,4,"12-2,7-1,2-1,15-1,10-1"
2576,4,"12-2,7-1,2-1,15-1,10-1"
2581,4,"12-2,7-1,2-1,15-1,10-1"
2586,4,"12-2,7-1,2-1,15-1,10-1"
2591,4,"12-2,7-1,2-1,15-1,10-1"
2596,4,"12-2,7-1,2-1,15-1,10-1"
2601,4,"12-2,7-1,2-1,15-1,10-1"
2606,4,"12-2,7-1,2-1,15-1,10-1"
2611,4,"12-2,7-1,2-1,15-1,10-1"
2616,4,"12-2,7-1,2-1,15-1,10-1"
2621,4,"12-2,7-1,2-1,15-1,10-1"
2626,4,"12-2,7-1,2-1,15-1,10-1"
2631,4,"12-2,7-1,2-1,15-1,10-1"
2636,4,"12-2,7-1,2-1,15-1,10-1"
2641,4,"12-2,7-1,2-1,15-1,10-1"
2646,4,"12-2,7-1,2-1,15-1,10-1"
2651,4,"12-2,7-1,2-1,15-1,10-1"
2656,4,"12-2,7-1,2-1,15-1,10-1"
2661,4,"12-2,7-1,2-1,15-1,10-1"
2666,4,"12-2,7-1,2-1,15-1,10-1"
2671,4,"12-2,7-1,2-1,15-1,10-1"
2676,4,"12-2,7-1,2-1,15-1,10-1"
2681,4,"12-2,7-1,2-1,15-1,10-1"
2686,4,"12-2,7-1,2-1,15-1,10-1"
2691,4,"12-2,7-1,2-1,15-1,10-1"
2696,4,"12-2,7-1,2-1,15-1,10-1"
2701,4,"12-2,7-1,2-1,15-1,10-1"
2707,4,"12-2,7-1,2-1,15-1,10-1"
2712,4,"12-2,7-1,2-1,15-1,10-1"
2717,4,"12-2,7-1,2-1,15-1,10-1"
2722,4,"12-2,7-1,2-1,15-1,10-1"
2727,4,"12-2,7-1,2-1,15-1,10-1"
2732,4,"12-2,7-1,2-1,15-1,10-1"
2737,4,"12-2,7-1,2-1,15-1,10-1"
2742,4,"12-2,7-1,2-1,15-1,10-1"
2747,4,"12-2,7-1,2-1,15-1,10-1"
2752,4,"12-2,7-1,2-1,15-1,10-1"
2757,4,"12-2,7-1,2-1,15-1,10-1"
2762,4,"12-2,7-1,2-1,15-1,10-1"
2767,4,"12-2,7-1,2-1,15-1,10-1"
2772,4,"12-2,7-1,2-1,15-1,10-1"
2777,4,"12-2,7-1,2-1,15-1,10-1"
2782,4,"12-2,7-1,2-1,15-1,10-1"
2787,4,"12-2,7-1,2-1,15-1,10-1"
2792,4,"12-2,7-1,2-1,15-1,10-1"
2797,4,"12-2,7-1,2-1,15-1,10-1"
2802,4,"12-2,7-1,2-1,15-1,10-1"
2807,4,"12-2,7-1,2-1,15-1,10-1"
2812,4,"12-2,7-1,2-1,15-1,10-1"
2817,4,"12-2,7-1,2-1,15-1,10-1"
2822,4,"12-2,7-1,2-1,15-1,10-1"
2827,4,"12-2,7-1,2-1,15-1,10-1"
2832,4,"12-2,7-1,2-1,15-1,10-1"
2837,4,"12-2,7-1,2-1,15-1,10-1"
2842,4,"12-2,7-1,2-1,15-1,10-1"
2847,4,"12-2,7-1,2-1,15-1,10-1"
2852,4,"12-2,7-1,2-1,15-1,10-1"
2857,4,"12-2,7-1,2-1,15-1,10-1"
2862,4,"12-2,7-1,2-1,15-1,10-1"
2867,4,"12-2,7-1,2-1,15-1,10-1"
2872,4,"12-2,7-1,2-1,15-1,10-1"
2877,4,"12-2,7-1,2-1,15-1,10-1"
2882,4,"12-2,7-1,2-1,15-1,10-1"
2887,4,"12-2,7-1,2-1,15-1,10-1"
2892,4,"12-2,7-1,2-1,15-1,10-1"
2897,4,"12-2,7-1,2-1,15-1,10-1"
2902,4,"12-2,7-1,2-1,15-1,10-1"
2907,4,"12-2,7-1,2-1,15-1,10-1"
2912,4,"12-2,7-1,2-1,15-1,10-1"
2917,4,"12-2,7-1,2-1,15-1,10-1"
2922,4,"12-2,7-1,2-1,15-1,10-1"
2927,4,"12-2,7-1,2-1,15-1,10-1"
2932,4,"12-2,7-1,2-1,15-1,10-1"
2937,4,"12-2,7-1,2-1,15-1,10-1"
2942,4,"12-2,7-1,2-1,15-1,10-1"
2947,4,"12-2,7-1,2-1,15-1,10-1"
2952,4,"12-2,7-1,2-1,15-1,10-1"
2957,4,"12-2,7-1,2-1,15-1,10-1"
2962,4,"12-2,7-1,2-1,15-1,10-1"
2967,4,"12-2,7-1,2-1,15-1,10-1"
2972,4,"12-2,7-1,2-1,15-1,10-1"
2977,4,"12-2,7-1,2-1,15-1,10-1"
2982,4,"12-2,7-1,2-1,15-1,10-1"
2987,4,"12-2,7-1,2-1,15-1,10-1"
2992,4,"12-2,7-1,2-1,15-1,10-1"
2997,4,"12-2,7-1,2-1,15-1,10-1"
3002,4,"12-2,7-1,2-1,15-1,10-1"
3007,4,"12-2,7-1,2-1,15-1,10-1"
3012,4,"12-2,7-1,2-1,15-1,10-1"
3017,4,"12-2,7-1,2-1,15-1,10-1"
3022,4,"12-2,7-1,2-1,15-1,10-1"
3027,4,"12-2,7-1,2-1,15-1,10-1"
3032,4,"12-2,7-1,2-1,15-1,10-1"
3037,4,"12-2,7-1,2-1,15-1,10-1"
3042,4,"12-2,7-1,2-1,15-1,10-1"
3047,4,"12-2,7-1,2-1,15-1,10-1"
3052,4,"12-2,7-1,2-1,15-1,10-1"
3057,4,"12-2,7-1,2-1,15-1,10-1"
3062,4,"12-2,7-1,2-1,15-1,10-1"
3067,4,"12-2,7-1,2-1,15-1,10-1"
3073,4,"12-2,7-1,2-1,15-1,10-1"
3078,4,"12-2,7-1,2-1,15-1,10-1"
3083,4,"12-2,7-1,2-1,15-1,10-1"
3088,4,"12-2,7-1,2-1,15-1,10-1"
3093,4,"12-2,7-1,2-1,15-1,10-1"
3098,4,"12-2,7-1,2-1,15-1,10-1"
3103,4,"12-2,7-1,2-1,15-1,10-1"
3108,4,"12-2,7-1,2-1,15-1,10-1"
3113,4,"12-2,7-1,2-1,15-1,10-1"
3118,4,"12-2,7-1,2-1,15-1,10-1"
3123,4,"12-2,7-1,2-1,15-1,10-1"
3128,4,"12-2,7-1,2-1,15-1,10-1"
3133,4,"12-2,7-1,2-1,15-1,10-1"
3138,4,"12-2,7-1,2-1,15-1,10-1"
3143,4,"12-2,7-1,2-1,15-1,10-1"
3148,4,"12-2,7-1,2-1,15-1,10-1"
3153,4,"12-2,7-1,2-1,15-1,10-1"
3158,4,"12-2,7-1,2-1,15-1,10-1"
3163,4,"12-2,7-1,2-1,15-1,10-1"
3168,4,"12-2,7-1,2-1,15-1,10-1"
3173,4,"12-2,7-1,2-1,15-1,10-1"
3178,4,"12-2,7-1,2-1,15-1,10-1"
3183,4,"12-2,7-1,2-1,15-1,10-1"
3188,4,"12-2,7-1,2-1,15-1,10-1"
3193,4,"12-2,7-1,2-1,15-1,10-1"
3198,4,"12-2,7-1,2-1,15-1,10-1"
3203,4,"12-2,7-1,2-1,15-1,10-1"
3208,4,"12-2,7-1,2-1,15-1,10-1"
3213,4,"12-2,7-1,2-1,15-1,10-1"
3218,4,"12-2,7-1,2-1,15-1,10-1"
3223,4,"12-2,7-1,2-1,15-1,10-1"
3228,4,"12-2,7-1,2-1,15-1,10-1"
3233,4,"12-2,7-1,2-1,15-1,10-1"
3238,4,"12-2,7-1,2-1,15-1,10-1"
3243,4,"12-2,7-1,2-1,15-1,10-1"
3248,4,"12-2,7-1,2-1,15-1,10-1"
3253,4,"12-2,7-1,2-1,15-1,10-1"
3258,4,"12-2,7-1,2-1,15-1,10-1"
3263,4,"12-2,7-1,2-1,15-1,10-1"
3268,4,"12-2,7-1,2-1,15-1,10-1"
3273,4,"12-2,7-1,2-1,15-1,10-1"
3278,4,"12-2,7-1,2-1,15-1,10-1"
3283,4,"12-2,7-1,2-1,15-1,10-1"
3288,4,"12-2,7-1,2-1,15-1,10-1"
3293,4,"12-2,7-1,2-1,15-1,10-1"
3298,4,"12-2,7-1,2-1,15-1,10-1"
3303,4,"12-2,7-1,2-1,15-1,10-1"
3308,4,"12-2,7-1,2-1,15-1,10-1"
3313,4,"12-2,7-1,2-1,15-1,10-1"
3318,4,"12-2,7-1,2-1,15-1,10-1"
3323,4,"12-2,7-1,2-1,15-1,10-1"
3328,4,"12-2,7-1,2-1,15-1,10-1"
3333,4,"12-2,7-1,2-1,15-1,10-1"
3338,4,"12-2,7-1,2-1,15-1,10-1"
3343,4,"12-2,7-1,2-1,15-1,10-1"
3348,4,"12-2,7-1,2-1,15-1,10-1"
3353,4,"12-2,7-1,2-1,15-1,10-1"
3358,4,"12-2,7-1,2-1,15-1,10-1"
3363,4,"12-2,7-1,2-1,15-1,10-1"
3368,4,"12-2,7-1,2-1,15-1,10-1"
3373,4,"12-2,7-1,2-1,15-1,10-1"
3378,4,"12-2,7-1,2-1,15-1,10-1"
3383,4,"12-2,7-1,2-1,15-1,10-1"
3388,4,"12-2,7-1,2-1,15-1,10-1"
3393,4,"12-2,7-1,2-1,15-1,10-1"
3398,4,"12-2,7-1,2-1,15-1,10-1"
3403,4,"12-2,7-1,2-1,15-1,10-1"
3408,4,"12-2,7-1,2-1,15-1,10-1"
3413,4,"12-2,7-1,2-1,15-1,10-1"
3418,4,"12-2,7-1,2-1,15-1,10-1"
3423,4,"12-2,7-1,2-1,15-1,10-1"
3428,4,"12-2,7-1,2-1,15-1,10-1"
3433,4,"12-2,7-1,2-1,15-1,10-1"
3438,4,"12-2,7-1,2-1,15-1,10-1"
3444,4,"12-2,7-1,2-1,15-1,10-1"
3449,4,"12-2,7-1,2-1,15-1,10-1"
3454,4,"12-2,7-1,2-1,15-1,10-1"
3459,4,"12-2,7-1,2-1,15-1,10-1"
3464,4,"12-2,7-1,2-1,15-1,10-1"
3469,4,"12-2,7-1,2-1,15-1,10-1"
3474,4,"12-2,7-1,2-1,15-1,10-1"
3479,4,"12-2,7-1,2-1,15-1,10-1"
3484,4,"12-2,7-1,2-1,15-1,10-1"
3489,4,"12-2,7-1,2-1,15-1,10-1"
3494,4,"12-2,7-1,2-1,15-1,10-1"
3499,4,"12-2,7-1,2-1,15-1,10-1"
3504,4,"12-2,7-1,2-1,15-1,10-1"
3509,4,"12-2,7-1,2-1,15-1,10-1"
3514,4,"12-2,7-1,2-1,15-1,10-1"
3519,4,"12-2,7-1,2-1,15-1,10-1"
3524,4,"12-2,7-1,2-1,15-1,10-1"
3529,4,"12-2,7-1,2-1,15-1,10-1"
3534,4,"12-2,7-1,2-1,15-1,10-1"
3539,4,"12-2,7-1,2-1,15-1,10-1"
3544,4,"12-2,7-1,2-1,15-1,10-1"
3549,4,"12-2,7-1,2-1,15-1,10-1"
3554,4,"12-2,7-1,2-1,15-1,10-1"
3559,4,"12-2,7-1,2-1,15-1,10-1"
3564,4,"12-2,7-1,2-1,15-1,10-1"
3569,4,"12-2,7-1,2-1,15-1,10-1"
3574,4,"12-2,7-1,2-1,15-1,10-1"
3579,4,"12-2,7-1,2-1,15-1,10-1"
3584,4,"12-2,7-1,2-1,15-1,10-1"
3589,4,"12-2,7-1,2-1,15-1,10-1"
3594,4,"12-2,7-1,2-1,15-1,10-1"
3599,4,"12-2,7-1,2-1,15-1,10-1"
3604,4,"12-2,7-1,2-1,15-1,10-1"
3609,4,"12-2,7-1,2-1,15-1,10-1"
3614,4,"12-2,7-1,2-1,15-1,10-1"
3619,4,"12-2,7-1,2-1,15-1,10-1"
3624,4,"12-2,7-1,2-1,15-1,10-1"
3629,4,"12-2,7-1,2-1,15-1,10-1"
3634,4,"12-2,7-1,2-1,15-1,10-1"
3639,4,"12-2,7-1,2-1,15-1,10-1"
3644,4,"12-2,7-1,2-1,15-1,10-1"
3649,4,"12-2,7-1,2-1,15-1,10-1"
3654,4,"12-2,7-1,2-1,15-1,10-1"
3659,4,"12-2,7-1,2-1,15-1,10-1"
3664,4,"12-2,7-1,2-1,15-1,10-1"
3669,4,"12-2,7-1,2-1,15-1,10-1"
3674,4,"12-2,7-1,2-1,15-1,10-1"
3679,4,"12-2,7-1,2-1,15-1,10-1"
3684,4,"12-2,7-1,2-1,15-1,10-1"
3689,4,"12-2,7-1,2-1,15-1,10-1"
3694,4,"12-2,7-1,2-1,15-1,10-1"
3699,4,"12-2,7-1,2-1,15-1,10-1"
3704,4,"12-2,7-1,2-1,15-1,10-1"
3709,4,"12-2,7-1,2-1,15-1,10-1"
3714,4,"12-2,7-1,2-1,15-1,10-1"
3719,4,"12-2,7-1,2-1,15-1,10-1"
3724,4,"12-2,7-1,2-1,15-1,10-1"
3729,4,"12-2,7-1,2-1,15-1,10-1"
3734,4,"12-2,7-1,2-1,15-1,10-1"
3739,4,"12-2,7-1,2-1,15-1,10-1"
3744,4,"12-2,7-1,2-1,15-1,10-1"
3749,4,"12-2,7-1,2-1,15-1,10-1"
3754,4,"12-2,7-1,2-1,15-1,10-1"
3759,4,"12-2,7-1,2-1,15-1,10-1"
3764,4,"12-2,7-1,2-1,15-1,10-1"
3769,4,"12-2,7-1,2-1,15-1,10-1"
3774,4,"12-2,7-1,2-1,15-1,10-1"
3780,4,"12-2,7-1,2-1,15-1,10-1"
3785,4,"12-2,7-1,2-1,15-1,10-1"
3790,4,"12-2,7-1,2-1,15-1,10-1"
3795,4,"12-2,7-1,2-1,15-1,10-1"
3800,4,"12-2,7-1,2-1,15-1,10-1"
3805,4,"12-2,7-1,2-1,15-1,10-1"
3810,4,"12-2,7-1,2-1,15-1,10-1"
3815,4,"12-2,7-1,2-1,15-1,10-1"
3820,4,"12-2,7-1,2-1,15-1,10-1"
3825,4,"12-2,7-1,2-1,15-1,10-1"
3830,4,"12-2,7-1,2-1,15-1,10-1"
3835,4,"12-2,7-1,2-1,15-1,10-1"
3840,4,"12-2,7-1,2-1,15-1,10-1"
3845,4,"12-2,7-1,2-1,15-1,10-1"
3850,4,"12-2,7-1,2-1,15-1,10-1"
3855,4,"12-2,7-1,2-1,15-1,10-1"
3860,4,"12-2,7-1,2-1,15-1,10-1"
3865,4,"12-2,7-1,2-1,15-1,10-1"
3870,4,"12-2,7-1,2-1,15-1,10-1"
3875,4,"12-2,7-1,2-1,15-1,10-1"
3880,4,"12-2,7-1,2-1,15-1,10-1"
3885,4,"12-2,7-1,2-1,15-1,10-1"
3890,4,"12-2,7-1,2-1,15-1,10-1"
3895,4,"12-2,7-1,2-1,15-1,10-1"
3900,4,"12-2,7-1,2-1,15-1,10-1"
3905,4,"12-2,7-1,2-1,15-1,10-1"
3910,4,"12-2,7-1,2-1,15-1,10-1"
3915,4,"12-2,7-1,2-1,15-1,10-1"
3920,4,"12-2,7-1,2-1,15-1,10-1"
3925,4,"12-2,7-1,2-1,15-1,10-1"
3930,4,"12-2,7-1,2-1,15-1,10-1"
3935,4,"12-2,7-1,2-1,15-1,10-1"
3940,4,"12-2,7-1,2-1,15-1,10-1"
3945,4,"12-2,7-1,2-1,15-1,10-1"
3950,4,"12-2,7-1,2-1,15-1,10-1"
3955,4,"12-2,7-1,2-1,15-1,10-1"
3960,4,"12-2,7-1,2-1,15-1,10-1"
3965,4,"12-2,7-1,2-1,15-1,10-1"
3970,4,"12-2,7-1,2-1,15-1,10-1"
3975,4,"12-2,7-1,2-1,15-1,10-1"
3980,4,"12-2,7-1,2-1,15-1,10-1"
3985,4,"12-2,7-1,2-1,15-1,10-1"
3990,4,"12-2,7-1,2-1,15-1,10-1"
3995,4,"12-2,7-1,2-1,15-1,10-1"
4000,4,"12-2,7-1,2-1,15-1,10-1"
4005,4,"12-2,7-1,2-1,15-1,10-1"
4010,4,"12-2,7-1,2-1,15-1,10-1"
4015,4,"12-2,7-1,2-1,15-1,10-1"
4020,4,"12-2,7-1,2-1,15-1,10-1"
4025,4,"12-2,7-1,2-1,15-1,10-1"
4030,4,"12-2,7-1,2-1,15-1,10-1"
4035,4,"12-2,7-1,2-1,15-1,10-1"
4040,4,"12-2,7-1,2-1,15-1,10-1"
4045,4,"12-2,7-1,2-1,15-1,10-1"
4050,4,"12-2,7-1,2-1,15-1,10-1"
4055,4,"12-2,7-1,2-1,15-1,10-1"
4060,4,"12-2,7-1,2-1,15-1,10-1"
4065,4,"12-2,7-1,2-1,15-1,10-1"
4070,4,"12-2,7-1,2-1,15-1,10-1"
4075,4,"12-2,7-1,2-1,15-1,10-1"
4080,4,"12-2,7-1,2-1,15-1,10-1"
4085,4,"12-2,7-1,2-1,15-1,10-1"
4090,4,"12-2,7-1,2-1,15-1,10-1"
4095,4,"12-2,7-1,2-1,15-1,10-1"
4100,4,"12-2,7-1,2-1,15-1,10-1"
4105,4,"12-2,7-1,2-1,15-1,10-1"
4110,4,"12-2,7-1,2-1,15-1,10-1"
4115,4,"12-2,7-1,2-1,15-1,10-1"
4120,4,"12-2,7-1,2-1,15-1,10-1"
4125,4,"12-2,7-1,2-1,15-1,10-1"
4130,4,"12-2,7-1,2-1,15-1,10-1"
4135,4,"12-2,7-1,2-1,15-1,10-1"
4140,4,"12-2,7-1,2-1,15-1,10-1"
4145,4,"12-2,7-1,2-1,15-1,10-1"
4150,4,"12-2,7-1,2-1,15-1,10-1"
4155,4,"12-2,7-1,2-1,15-1,10-1"
4160,4,"12-2,7-1,2-1,15-1,10-1"
4165,4,"12-2,7-1,2-1,15-1,10-1"
4171,4,"12-2,7-1,2-1,15-1,10-1"
4176,4,"12-2,7-1,2-1,15-1,10-1"
4181,4,"12-2,7-1,2-1,15-1,10-1"
4186,4,"12-2,7-1,2-1,15-1,10-1"
4191,4,"12-2,7-1,2-1,15-1,10-1"
4196,4,"12-2,7-1,2-1,15-1,10-1"
4201,4,"12-2,7-1,2-1,15-1,10-1"
4206,4,"12-2,7-1,2-1,15-1,10-1"
4211,4,"12-2,7-1,2-1,15-1,10-1"
4216,4,"12-2,7-1,2-1,15-1,10-1"
4221,4,"12-2,7-1,2-1,15-1,10-1"
4226,4,"12-2,7-1,2-1,15-1,10-1"
4231,4,"12-2,7-1,2-1,15-1,10-1"
4236,4,"12-2,7-1,2-1,15-1,10-1"
4241,4,"12-2,7-1,2-1,15-1,10-1"
4246,4,"12-2,7-1,2-1,15-1,10-1"
4251,4,"12-2,7-1,2-1,15-1,10-1"
4256,4,"12-2,7-1,2-1,15-1,10-1"
4261,4,"12-2,7-1,2-1,15-1,10-1"
4266,4,"12-2,7-1,2-1,15-1,10-1"
4271,4,"12-2,7-1,2-1,15-1,10-1"
4276,4,"12-2,7-1,2-1,15-1,10-1"
4281,4,"12-2,7-1,2-1,15-1,10-1"
4286,4,"12-2,7-1,2-1,15-1,10-1"
4291,4,"12-2,7-1,2-1,15-1,10-1"
4296,4,"12-2,7-1,2-1,15-1,10-1"
4301,4,"12-2,7-1,2-1,15-1,10-1"
4306,4,"12-2,7-1,2-1,15-1,10-1"
4311,4,"12-2,7-1,2-1,15-1,10-1"
4316,4,"12-2,7-1,2-1,15-1,10-1"
4321,4,"12-2,7-1,2-1,15-1,10-1"
4326,4,"12-2,7-1,2-1,15-1,10-1"
4331,4,"12-2,7-1,2-1,15-1,10-1"
4336,4,"12-2,7-1,2-1,15-1,10-1"
4341,4,"12-2,7-1,2-1,15-1,10-1"
4346,4,"12-2,7-1,2-1,15-1,10-1"
4351,4,"12-2,7-1,2-1,15-1,10-1"
4356,4,"12-2,7-1,2-1,15-1,10-1"
4361,4,"12-2,7-1,2-1,15-1,10-1"
4366,4,"12-2,7-1,2-1,15-1,10-1"
4371,4,"12-2,7-1,2-1,15-1,10-1"
4376,4,"12-2,7-1,2-1,15-1,10-1"
4381,4,"12-2,7-1,2-1,15-1,10-1"
4386,4,"12-2,7-1,2-1,15-1,10-1"
4391,4,"12-2,7-1,2-1,15-1,10-1"
4396,4,"12-2,7-1,2-1,15-1,10-1"
4401,4,"12-2,7-1,2-1,15-1,10-1"
4406,4,"12-2,7-1,2-1,15-1,10-1"
4411,4,"12-2,7-1,2-1,15-1,10-1"
4416,4,"12-2,7-1,2-1,15-1,10-1"
4421,4,"12-2,7-1,2-1,15-1,10-1"
4426,4,"12-2,7-1,2-1,15-1,10-1"
4431,4,"12-2,7-1,2-1,15-1,10-1"
4436,4,"12-2,7-1,2-1,15-1,10-1"
4441,4,"12-2,7-1,2-1,15-1,10-1"
4446,4,"12-2,7-1,2-1,15-1,10-1"
4451,4,"12-2,7-1,2-1,15-1,10-1"
4456,4,"12-2,7-1,2-1,15-1,10-1"
4461,4,"12-2,7-1,2-1,15-1,10-1"
4466,4,"12-2,7-1,2-1,15-1,10-1"
4471,4,"12-2,7-1,2-1,15-1,10-1"
4476,4,"12-2,7-1,2-1,15-1,10-1"
4481,4,"12-2,7-1,2-1,15-1,10-1"
4486,4,"12-2,7-1,2-1,15-1,10-1"
4491,4,"12-2,7-1,2-1,15-1,10-1"
4496,4,"12-2,7-1,2-1,15-1,10-1"
4501,4,"12-2,7-1,2-1,15-1,10-1"
4506,4,"12-2,7-1,2-1,15-1,10-1"
4511,4,"12-2,7-1,2-1,15-1,10-1"
4516,4,"12-2,7-1,2-1,15-1,10-1"
4521,4,"12-2,7-1,2-1,15-1,10-1"
4527,4,"12-2,7-1,2-1,15-1,10-1"
4532,4,"12-2,7-1,2-1,15-1,10-1"
4537,4,"12-2,7-1,2-1,15-1,10-1"
4542,4,"12-2,7-1,2-1,15-1,10-1"
4547,4,"12-2,7-1,2-1,15-1,10-1"
4552,4,"12-2,7-1,2-1,15-1,10-1"
4557,4,"12-2,7-1,2-1,15-1,10-1"
4562,4,"12-2,7-1,2-1,15-1,10-1"
4567,4,"12-2,7-1,2-1,15-1,10-1"
4572,4,"12-2,7-1,2-1,15-1,10-1"
4577,4,"12-2,7-1,2-1,15-1,10-1"
4582,4,"12-2,7-1,2-1,15-1,10-1"
4587,4,"12-2,7-1,2-1,15-1,10-1"
4592,4,"12-2,7-1,2-1,15-1,10-1"
4597,4,"12-2,7-1,2-1,15-1,10-1"
4602,4,"12-2,7-1,2-1,15-1,10-1"
4607,4,"12-2,7-1,2-1,15-1,10-1"
4612,4,"12-2,7-1,2-1,15-1,10-1"
4617,4,"12-2,7-1,2-1,15-1,10-1"
4622,4,"12-2,7-1,2-1,15-1,10-1"
4627,4,"12-2,7-1,2-1,15-1,10-1"
4632,4,"12-2,7-1,2-1,15-1,10-1"
4637,4,"12-2,7-1,2-1,15-1,10-1"
4642,4,"12-2,7-1,2-1,15-1,10-1"
4647,4,"12-2,7-1,2-1,15-1,10-1"
4652,4,"12-2,7-1,2-1,15-1,10-1"
4657,4,"12-2,7-1,2-1,15-1,10-1"
4662,4,"12-2,7-1,2-1,15-1,10-1"
4667,4,"12-2,7-1,2-1,15-1,10-1"
4672,4,"12-2,7-1,2-1,15-1,10-1"
4677,4,"12-2,7-1,2-1,15-1,10-1"
4682,4,"12-2,7-1,2-1,15-1,10-1"
4687,4,"12-2,7-1,2-1,15-1,10-1"
4692,4,"12-2,7-1,2-1,15-1,10-1"
4697,4,"12-2,7-1,2-1,15-1,10-1"
4702,4,"12-2,7-1,2-1,15-1,10-1"
4707,4,"12-2,7-1,2-1,15-1,10-1"
4712,4,"12-2,7-1,2-1,15-1,10-1"
4717,4,"12-2,7-1,2-1,15-1,10-1"
4722,4,"12-2,7-1,2-1,15-1,10-1"
4727,4,"12-2,7-1,2-1,15-1,10-1"
4732,4,"12-2,7-1,2-1,15-1,10-1"
4737,4,"12-2,7-1,2-1,15-1,10-1"
4742,4,"12-2,7-1,2-1,15-1,10-1"
4747,4,"12-2,7-1,2-1,15-1,10-1"
4752,4,"12-2,7-1,2-1,15-1,10-1"
4757,4,"12-2,7-1,2-1,15-1,10-1"
4762,4,"12-2,7-1,2-1,15-1,10-1"
4767,4,"12-2,7-1,2-1,15-1,10-1"
4772,4,"12-2,7-1,2-1,15-1,10-1"
4777,4,"12-2,7-1,2-1,15-1,10-1"
4782,4,"12-2,7-1,2-1,15-1,10-1"
4787,4,"12-2,7-1,2-1,15-1,10-1"
4792,4,"12-2,7-1,2-1,15-1,10-1"
4797,4,"12-2,7-1,2-1,15-1,10-1"
4802,4,"12-2,7-1,2-1,15-1,10-1"
4807,4,"12-2,7-1,2-1,15-1,10-1"
4812,4,"12-2,7-1,2-1,15-1,10-1"
4817,4,"12-2,7-1,2-1,15-1,10-1"
4822,4,"12-2,7-1,2-1,15-1,10-1"
4827,4,"12-2,7-1,2-1,15-1,10-1"
4832,4,"12-2,7-1,2-1,15-1,10-1"
4837,4,"12-2,7-1,2-1,15-1,10-1"
4842,4,"12-2,7-1,2-1,15-1,10-1"
4847,4,"12-2,7-1,2-1,15-1,10-1"
4852,4,"12-2,7-1,2-1,15-1,10-1"
4857,4,"12-2,7-1,2-1,15-1,10-1"
4862,4,"12-2,7-1,2-1,15-1,10-1"
4867,4,"12-2,7-1,2-1,15-1,10-1"
4872,4,"12-2,7-1,2-1,15-1,10-1"
4877,4,"12-2,7-1,2-1,15-1,10-1"
4882,4,"12-2,7-1,2-1,15-1,10-1"
4887,4,"12-2,7-1,2-1,15-1,10-1"
4892,4,"12-2,7-1,2-1,15-1,10-1"
4897,4,"12-2,7-1,2-1,15-1,10-1"
4902,4,"12-2,7-1,2-1,15-1,10-1"
4907,4,"12-2,7-1,2-1,15-1,10-1"
4913,4,"12-2,7-1,2-1,15-1,10-1"
4918,4,"12-2,7-1,2-1,15-1,10-1"
4923,4,"12-2,7-1,2-1,15-1,10-1"
4928,4,"12-2,7-1,2-1,15-1,10-1"
4933,4,"12-2,7-1,2-1,15-1,10-1"
4938,4,"12-2,7-1,2-1,15-1,10-1"
4943,4,"12-2,7-1,2-1,15-1,10-1"
4948,4,"12-2,7-1,2-1,15-1,10-1"
4953,4,"12-2,7-1,2-1,15-1,10-1"
4958,4,"12-2,7-1,2-1,15-1,10-1"
4963,4,"12-2,7-1,2-1,15-1,10-1"
4968,4,"12-2,7-1,2-1,15-1,10-1"
4973,4,"12-2,7-1,2-1,15-1,10-1"
4978,4,"12-2,7-1,2-1,15-1,10-1"
4983,4,"12-2,7-1,2-1,15-1,10-1"
4988,4,"12-2,7-1,2-1,15-1,10-1"
4993,4,"12-2,7-1,2-1,15-1,10-1"
4998,4,"12-2,7-1,2-1,15-1,10-1"
5003,4,"12-2,7-1,2-1,15-1,10-1"
5008,4,"12-2,7-1,2-1,15-1,10-1"
5013,4,"12-2,7-1,2-1,15-1,10-1"
5018,4,"12-2,7-1,2-1,15-1,10-1"
5023,4,"12-2,7-1,2-1,15-1,10-1"
5028,4,"12-2,7-1,2-1,15-1,10-1"
5033,4,"12-2,7-1,2-1,15-1,10-1"
5038,4,"12-2,7-1,2-1,15-1,10-1"
5043,4,"12-2,7-1,2-1,15-1,10-1"
5048,4,"12-2,7-1,2-1,15-1,10-1"
5053,4,"12-2,7-1,2-1,15-1,10-1"
5058,4,"12-2,7-1,2-1,15-1,10-1"
5063,4,"12-2,7-1,2-1,15-1,10-1"
5068,4,"12-2,7-1,2-1,15-1,10-1"
5073,4,"12-2,7-1,2-1,15-1,10-1"
5078,4,"12-2,7-1,2-1,15-1,10-1"
5083,4,"12-2,7-1,2-1,15-1,10-1"
5088,4,"12-2,7-1,2-1,15-1,10-1"
5093,4,"12-2,7-1,2-1,15-1,10-1"
5098,4,"12-2,7-1,2-1,15-1,10-1"
5103,4,"12-2,7-1,2-1,15-1,10-1"
5108,4,"12-2,7-1,2-1,15-1,10-1"
5113,4,"12-2,7-1,2-1,15-1,10-1"
5118,4,"12-2,7-1,2-1,15-1,10-1"
5123,4,"12-2,7-1,2-1,15-1,10-1"
5128,4,"12-2,7-1,2-1,15-1,10-1"
5133,4,"12-2,7-1,2-1,15-1,10-1"
5138,4,"12-2,7-1,2-1,15-1,10-1"
5143,4,"12-2,7-1,2-1,15-1,10-1"
5148,4,"12-2,7-1,2-1,15-1,10-1"
5153,4,"12-2,7-1,2-1,15-1,10-1"
5158,4,"12-2,7-1,2-1,15-1,10-1"
5163,4,"12-2,7-1,2-1,15-1,10-1"
5168,4,"12-2,7-1,2-1,15-1,10-1"
5173,4,"12-2,7-1,2-1,15-1,10-1"
5178,4,"12-2,7-1,2-1,15-1,10-1"
5183,4,"12-2,7-1,2-1,15-1,10-1"
5188,4,"12-2,7-1,2-1,15-1,10-1"
5193,4,"12-2,7-1,2-1,15-1,10-1"
5198,4,"12-2,7-1,2-1,15-1,10-1"
5203,4,"12-2,7-1,2-1,15-1,10-1"
5208,4,"12-2,7-1,2-1,15-1,10-1"
5213,4,"12-2,7-1,2-1,15-1,10-1"
5218,4,"12-2,7-1,2-1,15-1,10-1"
5223,4,"12-2,7-1,2-1,15-1,10-1"
5228,4,"12-2,7-1,2-1,15-1,10-1"
5233,4,"12-2,7-1,2-1,15-1,10-1"
5238,4,"12-2,7-1,2-1,15-1,10-1"
5243,4,"12-2,7-1,2-1,15-1,10-1"
5248,4,"12-2,7-1,2-1,15-1,10-1"
5253,4,"12-2,7-1,2-1,15-1,10-1"
5258,4,"12-2,7-1,2-1,15-1,10-1"
5263,4,"12-2,7-1,2-1,15-1,10-1"
5268,4,"12-2,7-1,2-1,15-1,10-1"
