1458125658.21,0,224,3
1458125658.21,0,224,3
1458125658.22,0,224,3
1458125658.22,0,224,3
1458125658.22,0,224,3
1458125658.22,0,224,3
1458125658.22,0,224,3
1458125658.22,0,224,3
1458125658.22,0,224,3
1458125658.22,0,224,3
1458125658.22,0,224,3
1458125658.22,0,224,3
1458125658.23,0,224,3
1458125658.23,0,224,3
1458125658.24,0,224,3
1458125658.24,0,224,3
1458125658.24,0,224,3
1458125658.24,0,224,3
1458125658.24,0,224,3
1458125658.25,0,224,3
1458125658.25,0,224,3
1458125658.25,0,224,3
1458125658.26,0,224,3
1458125658.26,0,224,3
1458125658.26,0,224,3
1458125658.26,0,224,3
1458125658.26,0,224,3
1458125658.27,0,224,3
1458125658.27,0,224,3
1458125658.27,0,224,3
1458125658.27,0,224,3
1458125658.27,0,224,3
1458125658.27,0,224,3
1458125658.27,0,224,3
1458125658.27,0,224,3
1458125658.27,0,224,3
1458125658.27,0,224,3
1458125658.27,0,224,3
1458125658.28,0,224,3
1458125658.28,0,224,3
1458125658.28,0,224,3
1458125658.29,0,224,3
1458125658.29,0,224,3
1458125658.29,0,224,3
1458125658.29,0,224,3
1458125658.29,0,224,3
1458125658.29,0,224,3
1458125658.29,0,224,3
1458125658.29,0,224,3
1458125658.29,0,224,3
1458125658.29,0,224,3
1458125658.3,0,224,3
1458125658.3,0,224,3
1458125658.31,0,224,3
1458125658.31,0,224,3
1458125658.31,0,224,3
1458125658.31,0,224,3
1458125658.31,0,224,3
1458125658.31,0,224,3
1458125658.31,0,224,3
1458125658.32,0,224,3
1458125658.32,0,224,3
1458125658.32,0,224,3
1458125658.32,0,224,3
1458125658.32,0,224,3
1458125658.32,0,224,3
1458125658.32,0,224,3
1458125658.34,0,224,3
1458125658.34,0,224,3
1458125658.34,0,224,3
1458125658.34,0,224,3
1458125658.34,0,224,3
1458125658.34,0,224,3
1458125658.34,0,224,3
1458125658.34,0,224,3
1458125658.35,0,224,3
1458125658.36,0,224,3
1458125658.36,0,224,3
1458125658.36,0,224,3
1458125658.36,0,224,3
1458125658.36,0,224,3
1458125658.36,0,224,3
1458125658.37,0,224,3
1458125658.37,0,224,3
1458125658.37,0,224,3
1458125658.38,0,224,3
1458125658.38,0,224,3
1458125658.38,0,224,3
1458125658.38,0,224,3
1458125658.38,0,224,3
1458125658.39,0,224,3
1458125658.39,0,224,3
1458125658.39,0,224,3
1458125658.39,0,224,3
1458125658.39,0,224,3
1458125658.39,0,224,3
1458125658.4,0,224,3
1458125658.4,0,224,3
1458125658.4,0,224,3
1458125658.4,0,224,3
1458125658.4,0,224,3
1458125658.41,0,224,3
1458125658.41,0,224,3
1458125658.41,0,224,3
1458125658.41,0,224,3
1458125658.41,0,224,3
1458125658.41,0,224,3
1458125658.41,0,224,3
1458125658.41,0,224,3
1458125658.42,0,224,3
1458125658.42,0,224,3
1458125658.42,0,224,3
1458125658.42,0,224,3
1458125658.42,0,224,3
1458125658.42,0,224,3
1458125658.42,0,224,3
1458125658.42,0,224,3
1458125658.42,0,224,3
1458125658.43,0,224,3
1458125658.43,0,224,3
1458125658.43,0,224,3
1458125658.43,0,224,3
1458125658.43,0,224,3
1458125658.43,0,224,3
1458125658.43,0,224,3
1458125658.43,0,224,3
1458125658.43,0,224,3
1458125658.43,0,224,3
1458125658.44,0,224,3
1458125658.44,0,224,3
1458125658.44,0,224,3
1458125658.44,0,224,3
1458125658.44,0,224,3
1458125658.44,0,224,3
1458125658.45,0,224,3
1458125658.45,0,224,3
1458125658.45,0,224,3
1458125658.45,0,224,3
1458125658.45,0,224,3
1458125658.45,0,224,3
1458125658.45,0,224,3
1458125658.45,0,224,3
1458125658.46,0,224,3
1458125658.46,0,224,3
1458125658.46,0,224,3
1458125658.46,0,224,3
1458125658.46,0,224,3
1458125658.46,0,224,3
1458125658.46,0,224,3
1458125658.46,0,224,3
1458125658.46,0,224,3
1458125658.46,0,224,3
1458125658.46,0,224,3
1458125658.47,0,224,3
1458125658.47,0,224,3
1458125658.47,0,224,3
1458125658.47,0,224,3
1458125658.47,0,224,3
1458125658.47,0,224,3
1458125658.47,0,224,3
1458125658.47,0,224,3
1458125658.48,0,224,3
1458125658.48,0,224,3
1458125658.48,0,224,3
1458125658.48,0,224,3
1458125658.48,0,224,3
1458125658.48,0,224,3
1458125658.49,0,224,3
1458125658.49,0,224,3
1458125658.49,0,224,3
1458125658.49,0,224,3
1458125658.49,0,224,3
1458125658.49,0,224,3
1458125658.49,0,224,3
1458125658.49,0,224,3
1458125658.5,0,224,3
1458125658.5,0,224,3
1458125658.5,0,224,3
1458125658.5,0,224,3
1458125658.5,0,224,3
1458125658.5,0,224,3
1458125658.5,0,224,3
1458125658.5,0,224,3
1458125658.5,0,224,3
1458125658.5,0,224,3
1458125658.5,0,224,3
1458125658.5,0,224,3
1458125658.5,0,224,3
1458125658.5,0,224,3
1458125658.51,0,224,3
1458125658.51,0,224,3
1458125658.51,0,224,3
1458125658.51,0,224,3
1458125658.51,0,224,3
1458125658.51,0,224,3
1458125658.51,0,224,3
1458125658.51,0,224,3
1458125658.51,0,224,3
1458125658.51,0,224,3
1458125658.51,0,224,3
1458125658.52,0,224,3
1458125658.52,0,224,3
1458125658.52,0,224,3
1458125658.52,0,224,3
1458125658.52,0,224,3
1458125658.52,0,224,3
1458125658.52,0,224,3
1458125658.52,0,224,3
1458125658.52,0,224,3
1458125658.52,0,224,3
1458125658.52,0,224,3
1458125658.53,0,224,3
1458125658.53,0,224,3
1458125658.53,0,224,3
1458125658.53,0,224,3
1458125658.53,0,224,3
1458125658.53,0,224,3
1458125658.53,0,224,3
1458125658.53,0,224,3
1458125658.53,0,224,3
1458125658.53,0,224,3
1458125658.53,0,224,3
1458125658.54,0,224,3
1458125658.54,0,224,3
1458125658.54,0,224,3
1458125658.54,0,224,3
1458125658.54,0,224,3
1458125658.54,0,224,3
1458125658.54,0,224,3
1458125658.54,0,224,3
1458125658.54,0,224,3
1458125658.54,0,224,3
1458125658.54,0,224,3
1458125658.55,0,224,3
1458125658.55,0,224,3
1458125658.55,0,224,3
1458125658.55,0,224,3
1458125658.55,0,224,3
1458125658.55,0,224,3
1458125658.55,0,224,3
1458125658.55,0,224,3
1458125658.55,0,224,3
1458125658.55,0,224,3
1458125658.55,0,224,3
1458125658.56,0,224,3
1458125658.56,0,224,3
1458125658.56,0,224,3
1458125658.56,0,224,3
1458125658.56,0,224,3
1458125658.56,0,224,3
1458125658.56,0,224,3
1458125658.56,0,224,3
1458125658.56,0,224,3
1458125658.56,0,224,3
1458125658.57,0,224,3
1458125658.57,0,224,3
1458125658.57,0,224,3
1458125658.57,0,224,3
1458125658.57,0,224,3
1458125658.57,0,224,3
1458125658.57,0,224,3
1458125658.57,0,224,3
1458125658.57,0,224,3
1458125658.57,0,224,3
1458125658.57,0,224,3
1458125658.58,0,224,3
1458125658.58,0,224,3
1458125658.58,0,224,3
1458125658.58,0,224,3
1458125658.58,0,224,3
1458125658.58,0,224,3
1458125658.58,0,224,3
1458125658.58,0,224,3
1458125658.58,0,224,3
1458125658.58,0,224,3
1458125658.58,0,224,3
1458125658.59,0,224,3
1458125658.59,0,224,3
1458125658.59,0,224,3
1458125658.59,0,224,3
1458125658.59,0,224,3
1458125658.59,0,224,3
1458125658.59,0,224,3
1458125658.59,0,224,3
1458125658.59,0,224,3
1458125658.59,0,224,3
1458125658.6,0,224,3
1458125658.6,0,224,3
1458125658.6,0,224,3
1458125658.6,0,224,3
1458125658.6,0,224,3
1458125658.6,0,224,3
1458125658.6,0,224,3
1458125658.6,0,224,3
1458125658.6,0,224,3
1458125658.6,0,224,3
1458125658.6,0,224,3
1458125658.61,0,224,3
1458125658.61,0,224,3
1458125658.61,0,224,3
1458125658.61,0,224,3
1458125658.61,0,224,3
1458125658.61,0,224,3
1458125658.61,0,224,3
1458125658.61,0,224,3
1458125658.61,0,224,3
1458125658.61,0,224,3
1458125658.62,0,224,3
1458125658.62,0,224,3
1458125658.62,0,224,3
1458125658.62,0,224,3
1458125658.62,0,224,3
1458125658.62,0,224,3
1458125658.62,0,224,3
1458125658.62,0,224,3
1458125658.62,0,224,3
1458125658.62,0,224,3
1458125658.63,0,224,3
1458125658.63,0,224,3
1458125658.63,0,224,3
1458125658.63,0,224,3
1458125658.63,0,224,3
1458125658.64,0,224,3
1458125658.64,0,224,3
1458125658.64,0,224,3
1458125658.64,0,224,3
1458125658.64,0,224,3
1458125658.64,0,224,3
1458125658.65,0,224,3
1458125658.65,0,224,3
1458125658.65,0,224,3
1458125658.66,0,224,3
1458125658.66,0,224,3
1458125658.66,0,224,3
1458125658.66,0,224,3
1458125658.66,0,224,3
1458125658.66,0,224,3
1458125658.66,0,224,3
1458125658.67,0,224,3
1458125658.67,0,224,3
1458125658.67,0,224,3
1458125658.67,0,224,3
1458125658.67,0,224,3
1458125658.68,0,224,3
1458125658.68,0,224,3
1458125658.68,0,224,3
1458125658.69,0,224,3
1458125658.69,0,224,3
1458125658.7,0,224,3
1458125658.7,0,224,3
1458125658.7,0,224,3
1458125658.7,0,224,3
1458125658.71,0,224,3
1458125658.71,0,224,3
1458125658.71,0,224,3
1458125658.71,0,224,3
1458125658.72,0,224,3
1458125658.72,0,224,3
1458125658.72,0,224,3
1458125658.72,0,224,3
1458125658.72,0,224,3
1458125658.72,0,224,3
1458125658.72,0,224,3
1458125658.72,0,224,3
1458125658.72,0,224,3
1458125658.73,0,224,3
1458125658.73,0,224,3
1458125658.73,0,224,3
1458125658.73,0,224,3
1458125658.73,0,224,3
1458125658.73,0,224,3
1458125658.73,0,224,3
1458125658.74,0,224,3
1458125658.74,0,224,3
1458125658.74,0,224,3
1458125658.74,0,224,3
1458125658.74,0,224,3
1458125658.74,0,224,3
1458125658.74,0,224,3
1458125658.74,0,224,3
1458125658.75,0,224,3
1458125658.75,0,224,3
1458125658.75,0,224,3
1458125658.75,0,224,3
1458125658.75,0,224,3
1458125658.75,0,224,3
1458125658.75,0,224,3
1458125658.75,0,224,3
1458125658.76,0,224,3
1458125658.76,0,224,3
1458125658.76,0,224,3
1458125658.76,0,224,3
1458125658.76,0,224,3
1458125658.77,0,224,3
1458125658.77,0,224,3
1458125658.77,0,224,3
1458125658.77,0,224,3
1458125658.77,0,224,3
1458125658.77,0,224,3
1458125658.77,0,224,3
1458125658.77,0,224,3
1458125658.77,0,224,3
1458125658.78,0,224,3
1458125658.78,0,224,3
1458125658.78,0,224,3
1458125658.78,0,224,3
1458125658.78,0,224,3
1458125658.78,0,224,3
1458125658.79,0,224,3
1458125658.79,0,224,3
1458125658.79,0,224,3
1458125658.79,0,224,3
1458125658.79,0,224,3
1458125658.79,0,224,3
1458125658.8,0,224,3
1458125658.8,0,224,3
1458125658.8,0,224,3
1458125658.8,0,224,3
1458125658.8,0,224,3
1458125658.81,0,224,3
1458125658.81,0,224,3
1458125658.81,0,224,3
1458125658.81,0,224,3
1458125658.81,0,224,3
1458125658.81,0,224,3
1458125658.81,0,224,3
1458125658.81,0,224,3
1458125658.82,0,224,3
1458125658.82,0,224,3
1458125658.82,0,224,3
1458125658.82,0,224,3
1458125658.82,0,224,3
1458125658.83,0,224,3
1458125658.83,0,224,3
1458125658.83,0,224,3
1458125658.83,0,224,3
1458125658.84,0,224,3
1458125658.84,0,224,3
1458125658.84,0,224,3
1458125658.84,0,224,3
1458125658.84,0,224,3
1458125658.84,0,224,3
1458125658.84,0,224,3
1458125658.85,0,224,3
1458125658.85,0,224,3
1458125658.85,0,224,3
1458125658.85,0,224,3
1458125658.85,0,224,3
1458125658.85,0,224,3
1458125658.85,0,224,3
1458125658.85,0,224,3
1458125658.85,0,224,3
1458125658.85,0,224,3
1458125658.86,0,224,3
1458125658.86,0,224,3
1458125658.86,0,224,3
1458125658.86,0,224,3
1458125658.87,0,224,3
1458125658.87,0,224,3
1458125658.87,0,224,3
1458125658.87,0,224,3
1458125658.88,0,224,3
1458125658.88,0,224,3
1458125658.88,0,224,3
1458125658.88,0,224,3
1458125658.88,0,224,3
1458125658.89,0,224,3
1458125658.89,0,224,3
1458125658.89,0,224,3
1458125658.89,0,224,3
1458125658.89,0,224,3
1458125658.89,0,224,3
1458125658.89,0,224,3
1458125658.9,0,224,3
1458125658.9,0,224,3
1458125658.9,0,224,3
1458125658.9,0,224,3
1458125658.9,0,224,3
1458125658.9,0,224,3
1458125658.9,0,224,3
1458125658.9,0,224,3
1458125658.91,0,224,3
1458125658.91,0,224,3
1458125658.91,0,224,3
1458125658.92,0,224,3
1458125658.92,0,224,3
1458125658.92,0,224,3
1458125658.92,0,224,3
1458125658.92,0,224,3
1458125658.92,0,224,3
1458125658.92,0,224,3
1458125658.92,0,224,3
1458125658.93,0,224,3
1458125658.93,0,224,3
1458125658.93,0,224,3
1458125658.93,0,224,3
1458125658.93,0,224,3
1458125658.94,0,224,3
1458125658.94,0,224,3
1458125658.94,0,224,3
1458125658.94,0,224,3
1458125658.94,0,224,3
1458125658.94,0,224,3
1458125658.94,0,224,3
1458125658.94,0,224,3
1458125658.95,0,224,3
1458125658.95,0,224,3
1458125658.95,0,224,3
1458125658.95,0,224,3
1458125658.95,0,224,3
1458125658.95,0,224,3
1458125658.95,0,224,3
1458125658.96,0,224,3
1458125658.96,0,224,3
1458125658.96,0,224,3
1458125658.96,0,224,3
1458125658.96,0,224,3
1458125658.96,0,224,3
1458125658.96,0,224,3
1458125658.96,0,224,3
1458125658.97,0,224,3
1458125658.97,0,224,3
1458125658.97,0,224,3
1458125658.97,0,224,3
1458125658.97,0,224,3
1458125658.97,0,224,3
1458125658.97,0,224,3
1458125658.98,0,224,3
1458125658.98,0,224,3
1458125658.98,0,224,3
1458125658.98,0,224,3
1458125658.99,0,224,3
1458125658.99,0,224,3
1458125658.99,0,224,3
1458125659.0,0,224,3
1458125659.0,0,224,3
1458125659.0,0,224,3
1458125659.0,0,224,3
1458125659.0,0,224,3
1458125659.01,0,224,3
1458125659.01,0,224,3
1458125659.01,0,224,3
1458125659.01,0,224,3
1458125659.01,0,224,3
1458125659.01,0,224,3
1458125659.01,0,224,3
1458125659.02,0,224,3
1458125659.02,0,224,3
1458125659.03,0,224,3
1458125659.03,0,224,3
1458125659.03,0,224,3
1458125659.03,0,224,3
1458125659.03,0,224,3
1458125659.03,0,224,3
1458125659.03,0,224,3
1458125659.04,0,224,3
1458125659.04,0,224,3
1458125659.04,0,224,3
1458125659.04,0,224,3
1458125659.04,0,224,3
1458125659.05,0,224,3
1458125659.05,0,224,3
1458125659.05,0,224,3
1458125659.05,0,224,3
1458125659.05,0,224,3
1458125659.05,0,224,3
1458125659.06,0,224,3
1458125659.06,0,224,3
1458125659.06,0,224,3
1458125659.07,0,224,3
1458125659.07,0,224,3
1458125659.07,0,224,3
1458125659.07,0,224,3
1458125659.07,0,224,3
1458125659.07,0,224,3
1458125659.07,0,224,3
1458125659.07,0,224,3
1458125659.08,0,224,3
1458125659.08,0,224,3
1458125659.08,0,224,3
1458125659.09,0,224,3
1458125659.09,0,224,3
1458125659.09,0,224,3
1458125659.09,0,224,3
1458125659.09,0,224,3
1458125659.1,0,224,3
1458125659.1,0,224,3
1458125659.1,0,224,3
1458125659.1,0,224,3
1458125659.1,0,224,3
1458125659.1,0,224,3
1458125659.11,0,224,3
1458125659.11,0,224,3
1458125659.11,0,224,3
1458125659.11,0,224,3
1458125659.12,0,224,3
1458125659.12,0,224,3
1458125659.12,0,224,3
1458125659.12,0,224,3
1458125659.12,0,224,3
1458125659.13,0,224,3
1458125659.13,0,224,3
1458125659.14,0,224,3
1458125659.14,0,224,3
1458125659.14,0,224,3
1458125659.14,0,224,3
1458125659.14,0,224,3
1458125659.15,0,224,3
1458125659.15,0,224,3
1458125659.16,0,224,3
1458125659.16,0,224,3
1458125659.17,0,224,3
1458125659.17,0,224,3
1458125659.17,0,224,3
1458125659.18,0,224,3
1458125659.18,0,224,3
1458125659.18,0,224,3
1458125659.18,0,224,3
1458125659.18,0,224,3
1458125659.18,0,224,3
1458125659.18,0,224,3
1458125659.19,0,224,3
1458125659.2,0,224,3
1458125659.2,0,224,3
1458125659.2,0,224,3
1458125659.2,0,224,3
1458125659.2,0,224,3
1458125659.2,0,224,3
1458125659.2,0,224,3
1458125659.2,0,224,3
1458125659.21,0,224,3
1458125659.21,0,224,3
1458125659.21,0,224,3
1458125659.21,0,224,3
1458125659.21,0,224,3
1458125659.21,0,224,3
1458125659.21,0,224,3
1458125659.22,0,224,3
1458125659.22,0,224,3
1458125659.23,0,224,3
1458125659.23,0,224,3
1458125659.23,0,224,3
1458125659.23,0,224,3
1458125659.23,0,224,3
1458125659.23,0,224,3
1458125659.24,0,224,3
1458125659.24,0,224,3
1458125659.24,0,224,3
1458125659.24,0,224,3
1458125659.24,0,224,3
1458125659.25,0,224,3
1458125659.25,0,224,3
1458125659.25,0,224,3
1458125659.25,0,224,3
1458125659.25,0,224,3
1458125659.25,0,224,3
1458125659.25,0,224,3
1458125659.26,0,224,3
1458125659.26,0,224,3
1458125659.26,0,224,3
1458125659.26,0,224,3
1458125659.26,0,224,3
1458125659.27,0,224,3
1458125659.27,0,224,3
1458125659.27,0,224,3
1458125659.28,0,224,3
1458125659.28,0,224,3
1458125659.28,0,224,3
1458125659.28,0,224,3
1458125659.29,0,224,3
1458125659.29,0,224,3
1458125659.29,0,224,3
1458125659.29,0,224,3
1458125659.29,0,224,3
1458125659.29,0,224,3
1458125659.29,0,224,3
1458125659.29,0,224,3
1458125659.29,0,224,3
1458125659.3,0,224,3
1458125659.3,0,224,3
1458125659.3,0,224,3
1458125659.3,0,224,3
1458125659.31,0,224,3
1458125659.31,0,224,3
1458125659.31,0,224,3
1458125659.31,0,224,3
1458125659.31,0,224,3
1458125659.31,0,224,3
1458125659.31,0,224,3
1458125659.31,0,224,3
1458125659.31,0,224,3
1458125659.31,0,224,3
1458125659.32,0,224,3
1458125659.32,0,224,3
1458125659.32,0,224,3
1458125659.32,0,224,3
1458125659.32,0,224,3
1458125659.32,0,224,3
1458125659.33,0,224,3
1458125659.33,0,224,3
1458125659.33,0,224,3
1458125659.33,0,224,3
1458125659.33,0,224,3
1458125659.33,0,224,3
1458125659.34,0,224,3
1458125659.34,0,224,3
1458125659.34,0,224,3
1458125659.34,0,224,3
1458125659.34,0,224,3
1458125659.34,0,224,3
1458125659.34,0,224,3
1458125659.34,0,224,3
1458125659.34,0,224,3
1458125659.35,0,224,3
1458125659.35,0,224,3
1458125659.35,0,224,3
1458125659.35,0,224,3
1458125659.35,0,224,3
1458125659.35,0,224,3
1458125659.35,0,224,3
1458125659.35,0,224,3
1458125659.36,0,224,3
1458125659.36,0,224,3
1458125659.36,0,224,3
1458125659.36,0,224,3
1458125659.38,0,224,3
1458125659.38,0,224,3
1458125659.38,0,224,3
1458125659.38,0,224,3
1458125659.39,0,224,3
1458125659.4,0,224,3
1458125659.4,0,224,3
1458125659.4,0,224,3
1458125659.4,0,224,3
1458125659.4,0,224,3
1458125659.4,0,224,3
1458125659.4,0,224,3
1458125659.41,0,224,3
1458125659.41,0,224,3
1458125659.41,0,224,3
1458125659.41,0,224,3
1458125659.41,0,224,3
1458125659.41,0,224,3
1458125659.42,0,224,3
1458125659.42,0,224,3
1458125659.42,0,224,3
1458125659.42,0,224,3
1458125659.43,0,224,3
1458125659.43,0,224,3
1458125659.43,0,224,3
1458125659.43,0,224,3
1458125659.44,0,224,3
1458125659.44,0,224,3
1458125659.44,0,224,3
1458125659.44,0,224,3
1458125659.44,0,224,3
1458125659.44,0,224,3
1458125659.45,0,224,3
1458125659.45,0,224,3
1458125659.45,0,224,3
1458125659.45,0,224,3
1458125659.45,0,224,3
1458125659.45,0,224,3
1458125659.45,0,224,3
1458125659.45,0,224,3
1458125659.45,0,224,3
1458125659.45,0,224,3
1458125659.45,0,224,3
1458125659.47,0,224,3
1458125659.48,0,224,3
1458125659.48,0,224,3
1458125659.48,0,224,3
1458125659.48,0,224,3
1458125659.48,0,224,3
1458125659.48,0,224,3
1458125659.48,0,224,3
1458125659.48,0,224,3
1458125659.48,0,224,3
1458125659.48,0,224,3
1458125659.48,0,224,3
1458125659.48,0,224,3
1458125659.49,0,224,3
1458125659.49,0,224,3
1458125659.49,0,224,3
1458125659.49,0,224,3
1458125659.49,0,224,3
1458125659.49,0,224,3
1458125659.5,0,224,3
1458125659.5,0,224,3
1458125659.5,0,224,3
1458125659.5,0,224,3
1458125659.5,0,224,3
1458125659.5,0,224,3
1458125659.5,0,224,3
1458125659.5,0,224,3
1458125659.51,0,224,3
1458125659.51,0,224,3
1458125659.51,0,224,3
1458125659.51,0,224,3
1458125659.52,0,224,3
1458125659.52,0,224,3
1458125659.52,0,224,3
1458125659.52,0,224,3
1458125659.52,0,224,3
1458125659.52,0,224,3
1458125659.52,0,224,3
1458125659.52,0,224,3
1458125659.52,0,224,3
1458125659.52,0,224,3
1458125659.53,0,224,3
1458125659.55,0,224,3
1458125659.56,0,224,3
1458125659.56,0,224,3
1458125659.56,0,224,3
1458125659.56,0,224,3
1458125659.56,0,224,3
1458125659.56,0,224,3
1458125659.56,0,224,3
1458125659.57,0,224,3
1458125659.57,0,224,3
1458125659.58,0,224,3
1458125659.58,0,224,3
1458125659.58,0,224,3
1458125659.58,0,224,3
1458125659.59,0,224,3
1458125659.59,0,224,3
1458125659.59,0,224,3
1458125659.59,0,224,3
1458125659.59,0,224,3
1458125659.59,0,224,3
1458125659.59,0,224,3
1458125659.59,0,224,3
1458125659.6,0,224,3
1458125659.6,0,224,3
1458125659.6,0,224,3
1458125659.6,0,224,3
1458125659.62,0,224,3
1458125659.62,0,224,3
1458125659.62,0,224,3
1458125659.63,0,224,3
1458125659.64,0,224,3
1458125659.64,0,224,3
1458125659.65,0,224,3
1458125659.65,0,224,3
1458125659.65,0,224,3
1458125659.65,0,224,3
1458125659.66,0,224,3
1458125659.66,0,224,3
1458125659.66,0,224,3
1458125659.66,0,224,3
1458125659.66,0,224,3
1458125659.67,0,224,3
1458125659.67,0,224,3
1458125659.67,0,224,3
1458125659.67,0,224,3
1458125659.68,0,224,3
1458125659.68,0,224,3
1458125659.68,0,224,3
1458125659.68,0,224,3
1458125659.68,0,224,3
1458125659.69,0,224,3
1458125659.69,0,224,3
1458125659.69,0,224,3
1458125659.69,0,224,3
1458125659.69,0,224,3
1458125659.71,0,224,3
1458125659.72,0,224,3
1458125659.72,0,224,3
1458125659.72,0,224,3
1458125659.73,0,224,3
1458125659.73,0,224,3
1458125659.73,0,224,3
1458125659.73,0,224,3
1458125659.73,0,224,3
1458125659.73,0,224,3
1458125659.74,0,224,3
1458125659.75,0,224,3
1458125659.75,0,224,3
1458125659.75,0,224,3
1458125659.75,0,224,3
1458125659.76,0,224,3
1458125659.76,0,224,3
1458125659.76,0,224,3
1458125659.77,0,224,3
1458125659.77,0,224,3
1458125659.77,0,224,3
1458125659.79,0,224,3
1458125659.79,0,224,3
1458125659.79,0,224,3
1458125659.82,0,224,3
1458125659.83,0,224,3
1458125659.83,0,224,3
1458125659.83,0,224,3
1458125659.83,0,224,3
1458125659.84,0,224,3
1458125659.85,0,224,3
1458125659.85,0,224,3
1458125659.85,0,224,3
1458125659.85,0,224,3
1458125659.86,0,224,3
1458125659.86,0,224,3
1458125659.86,0,224,3
1458125659.87,0,224,3
1458125659.87,0,224,3
1458125659.87,0,224,3
1458125659.88,0,224,3
1458125659.88,0,224,3
1458125659.89,0,224,3
1458125659.89,0,224,3
1458125659.89,0,224,3
1458125659.91,0,224,3
1458125659.92,0,224,3
1458125659.93,0,224,3
1458125659.93,0,224,3
1458125659.93,0,224,3
1458125659.95,0,224,3
1458125659.96,0,224,3
1458125659.96,0,224,3
1458125659.97,0,224,3
1458125659.97,0,224,3
1458125659.98,0,224,3
1458125659.99,0,224,3
1458125660.0,0,224,3
1458125660.0,0,224,3
1458125660.0,0,224,3
1458125660.01,0,224,3
1458125660.02,0,224,3
1458125660.03,0,224,3
1458125660.04,0,224,3
1458125660.05,0,224,3
1458125660.06,0,224,3
1458125660.06,0,224,3
1458125660.07,0,224,3
1458125660.08,0,224,3
1458125660.08,0,224,3
1458125660.08,0,224,3
1458125660.08,0,224,3
1458125660.08,0,224,3
1458125660.08,0,224,3
1458125660.08,0,224,3
1458125660.09,0,224,3
1458125660.09,0,224,3
1458125660.09,0,224,3
1458125660.09,0,224,3
1458125660.09,0,224,3
1458125660.1,0,224,3
1458125660.1,0,224,3
1458125660.1,0,224,3
1458125660.11,0,224,3
1458125660.11,0,224,3
1458125660.11,0,224,3
1458125660.12,0,224,3
1458125660.13,0,224,3
1458125660.14,0,224,3
1458125660.14,0,224,3
1458125660.15,0,224,3
1458125660.15,0,224,3
1458125660.15,0,224,3
1458125660.16,0,224,3
1458125660.18,0,224,3
1458125660.18,0,224,3
1458125660.18,0,224,3
1458125660.18,0,224,3
1458125660.18,0,224,3
1458125660.18,0,224,3
1458125660.2,0,224,3
1458125660.21,0,224,3
1458125660.21,0,224,3
1458125660.21,0,224,3
1458125660.21,0,224,3
1458125660.21,0,224,3
1458125660.22,0,224,3
1458125660.23,0,224,3
1458125660.23,0,224,3
1458125660.24,0,224,3
1458125660.24,0,224,3
1458125660.24,0,224,3
1458125660.24,0,224,3
1458125660.25,0,224,3
1458125660.25,0,224,3
1458125660.26,0,224,3
1458125660.27,0,224,3
1458125660.27,0,224,3
1458125660.28,0,224,3
1458125660.28,0,224,3
1458125660.28,0,224,3
1458125660.28,0,224,3
1458125660.29,0,224,3
1458125660.3,0,224,3
1458125660.3,0,224,3
1458125660.31,0,224,3
1458125660.31,0,224,3
1458125660.31,0,224,3
1458125660.32,0,224,3
1458125660.33,0,224,3
1458125660.34,0,224,3
1458125660.34,0,224,3
1458125660.36,0,224,3
1458125660.37,0,224,3
1458125660.37,0,224,3
1458125660.37,0,224,3
1458125660.38,0,224,3
1458125660.4,0,224,3
1458125660.41,0,224,3
1458125660.41,0,224,3
1458125660.42,0,224,3
1458125660.42,0,224,3
1458125660.43,0,224,3
1458125660.43,0,224,3
1458125660.44,0,224,3
1458125660.46,0,224,3
1458125660.46,0,224,3
1458125660.47,0,224,3
1458125660.48,0,224,3
1458125660.49,0,224,3
1458125660.5,0,224,3
1458125660.5,0,224,3
1458125660.5,0,224,3
1458125660.5,0,224,3
1458125660.51,0,224,3
1458125660.53,0,224,3
1458125660.53,0,224,3
1458125660.54,0,224,3
1458125660.54,0,224,3
1458125660.55,0,224,3
1458125660.55,0,224,3
1458125660.56,0,224,3
1458125660.56,0,224,3
1458125660.56,0,224,3
1458125660.56,0,224,3
1458125660.56,0,224,3
1458125660.57,0,224,3
1458125660.57,0,224,3
1458125660.57,0,224,3
1458125660.57,0,224,3
1458125660.57,0,224,3
1458125660.57,0,224,3
1458125660.58,0,224,3
1458125660.58,0,224,3
1458125660.58,0,224,3
1458125660.58,0,224,3
1458125660.59,0,224,3
1458125660.59,0,224,3
1458125660.59,0,224,3
1458125660.6,0,224,3
1458125660.61,0,224,3
1458125660.61,0,224,3
1458125660.61,0,224,3
1458125660.61,0,224,3
1458125660.61,0,224,3
1458125660.61,0,224,3
1458125660.61,0,224,3
1458125660.62,0,224,3
1458125660.62,0,224,3
1458125660.62,0,224,3
1458125660.62,0,224,3
1458125660.62,0,224,3
1458125660.63,0,224,3
1458125660.63,0,224,3
1458125660.64,0,224,3
1458125660.64,0,224,3
1458125660.65,0,224,3
1458125660.66,0,224,3
1458125660.66,0,224,3
1458125660.66,0,224,3
1458125660.67,0,224,3
1458125660.67,0,224,3
1458125660.67,0,224,3
1458125660.67,0,224,3
1458125660.68,0,224,3
1458125660.69,0,224,3
1458125660.69,0,224,3
1458125660.69,0,224,3
1458125660.69,0,224,3
1458125660.69,0,224,3
1458125660.72,0,224,3
1458125660.73,0,224,3
1458125660.74,0,224,3
1458125660.74,0,224,3
1458125660.75,0,224,3
1458125660.75,0,224,3
1458125660.75,0,224,3
1458125660.75,0,224,3
1458125660.75,0,224,3
1458125660.75,0,224,3
1458125660.76,0,224,3
1458125660.76,0,224,3
1458125660.77,0,224,3
1458125660.77,0,224,3
1458125660.77,0,224,3
1458125660.77,0,224,3
1458125660.77,0,224,3
1458125660.77,0,224,3
1458125660.78,0,224,3
1458125660.78,0,224,3
1458125660.78,0,224,3
1458125660.79,0,224,3
1458125660.79,0,224,3
1458125660.79,0,224,3
1458125660.79,0,224,3
1458125660.81,0,224,3
1458125660.81,0,224,3
1458125660.81,0,224,3
1458125660.82,0,224,3
1458125660.82,0,224,3
1458125660.83,0,224,3
1458125660.83,0,224,3
1458125660.83,0,224,3
1458125660.83,0,224,3
1458125660.83,0,224,3
1458125660.84,0,224,3
1458125660.85,0,224,3
1458125660.85,0,224,3
1458125660.85,0,224,3
1458125660.86,0,224,3
1458125660.86,0,224,3
1458125660.86,0,224,3
1458125660.86,0,224,3
1458125660.87,0,224,3
1458125660.87,0,224,3
1458125660.87,0,224,3
1458125660.87,0,224,3
1458125660.87,0,224,3
1458125660.88,0,224,3
1458125660.89,0,224,3
1458125660.89,0,224,3
1458125660.89,0,224,3
1458125660.91,0,224,3
1458125660.91,0,224,3
1458125660.91,0,224,3
1458125660.91,0,224,3
1458125660.91,0,224,3
1458125660.92,0,224,3
1458125660.92,0,224,3
1458125660.92,0,224,3
1458125660.93,0,224,3
1458125660.93,0,224,3
1458125660.93,0,224,3
1458125660.94,0,224,3
1458125660.94,0,224,3
1458125660.95,0,224,3
1458125660.95,0,224,3
1458125660.95,0,224,3
1458125660.95,0,224,3
1458125660.96,0,224,3
1458125660.96,0,224,3
1458125660.96,0,224,3
1458125660.96,0,224,3
1458125660.96,0,224,3
1458125660.99,0,224,3
1458125661.0,0,224,3
1458125661.0,0,224,3
1458125661.01,0,224,3
1458125661.01,0,224,3
1458125661.03,0,224,3
1458125661.06,0,224,3
1458125661.08,0,224,3
1458125661.08,0,224,3
1458125661.08,0,224,3
1458125661.09,0,224,3
1458125661.09,0,224,3
1458125661.09,0,224,3
1458125661.09,0,224,3
1458125661.09,0,224,3
1458125661.09,0,224,3
1458125661.09,0,224,3
1458125661.09,0,224,3
1458125661.1,0,224,3
1458125661.1,0,224,3
1458125661.1,0,224,3
1458125661.1,0,224,3
1458125661.1,0,224,3
1458125661.1,0,224,3
1458125661.11,0,224,3
1458125661.11,0,224,3
1458125661.11,0,224,3
1458125661.11,0,224,3
1458125661.11,0,224,3
1458125661.11,0,224,3
1458125661.12,0,224,3
1458125661.12,0,224,3
1458125661.12,0,224,3
1458125661.13,0,224,3
1458125661.13,0,224,3
1458125661.13,0,224,3
1458125661.13,0,224,3
1458125661.14,0,224,3
1458125661.15,0,224,3
1458125661.15,0,224,3
1458125661.15,0,224,3
1458125661.15,0,224,3
1458125661.15,0,224,3
1458125661.16,0,224,3
1458125661.16,0,224,3
1458125661.16,0,224,3
1458125661.16,0,224,3
1458125661.16,0,224,3
1458125661.16,0,224,3
1458125661.16,0,224,3
1458125661.16,0,224,3
1458125661.17,0,224,3
1458125661.18,0,224,3
1458125661.18,0,224,3
1458125661.18,0,224,3
1458125661.19,0,224,3
1458125661.19,0,224,3
1458125661.21,0,224,3
1458125661.21,0,224,3
1458125661.21,0,224,3
1458125661.22,0,224,3
1458125661.22,0,224,3
1458125661.22,0,224,3
1458125661.22,0,224,3
1458125661.23,0,224,3
1458125661.23,0,224,3
1458125661.23,0,224,3
1458125661.23,0,224,3
1458125661.23,0,224,3
1458125661.24,0,224,3
1458125661.24,0,224,3
1458125661.25,0,224,3
1458125661.25,0,224,3
1458125661.25,0,224,3
1458125661.26,0,224,3
1458125661.26,0,224,3
1458125661.26,0,224,3
1458125661.26,0,224,3
1458125661.26,0,224,3
1458125661.27,0,224,3
1458125661.27,0,224,3
1458125661.27,0,224,3
1458125661.28,0,224,3
1458125661.28,0,224,3
1458125661.29,0,224,3
1458125661.29,0,224,3
1458125661.29,0,224,3
1458125661.3,0,224,3
1458125661.31,0,224,3
1458125661.31,0,224,3
1458125661.31,0,224,3
1458125661.32,0,224,3
1458125661.33,0,224,3
1458125661.34,0,224,3
1458125661.34,0,224,3
1458125661.35,0,224,3
1458125661.35,0,224,3
1458125661.36,0,224,3
1458125661.36,0,224,3
1458125661.37,0,224,3
1458125661.38,0,224,3
1458125661.38,0,224,3
1458125661.39,0,224,3
1458125661.39,0,224,3
1458125661.39,0,224,3
1458125661.4,0,224,3
1458125661.4,0,224,3
1458125661.41,0,224,3
1458125661.41,0,224,3
1458125661.42,0,224,3
1458125661.42,0,224,3
1458125661.42,0,224,3
1458125661.42,0,224,3
1458125661.42,0,224,3
1458125661.42,0,224,3
1458125661.42,0,224,3
1458125661.43,0,224,3
1458125661.43,0,224,3
1458125661.43,0,224,3
1458125661.43,0,224,3
1458125661.43,0,224,3
1458125661.43,0,224,3
1458125661.43,0,224,3
1458125661.43,0,224,3
1458125661.44,0,224,3
1458125661.44,0,224,3
1458125661.44,0,224,3
1458125661.44,0,224,3
1458125661.44,0,224,3
1458125661.44,0,224,3
1458125661.45,0,224,3
1458125661.45,0,224,3
1458125661.45,0,224,3
1458125661.45,0,224,3
1458125661.46,0,224,3
1458125661.46,0,224,3
1458125661.46,0,224,3
1458125661.46,0,224,3
1458125661.46,0,224,3
1458125661.46,0,224,3
1458125661.46,0,224,3
1458125661.46,0,224,3
1458125661.46,0,224,3
1458125661.46,0,224,3
1458125661.47,0,224,3
1458125661.47,0,224,3
1458125661.47,0,224,3
1458125661.47,0,224,3
1458125661.48,0,224,3
1458125661.48,0,224,3
1458125661.48,0,224,3
1458125661.48,0,224,3
1458125661.48,0,224,3
1458125661.48,0,224,3
1458125661.49,0,224,3
1458125661.49,0,224,3
1458125661.49,0,224,3
1458125661.49,0,224,3
1458125661.49,0,224,3
1458125661.49,0,224,3
1458125661.49,0,224,3
1458125661.49,0,224,3
1458125661.5,0,224,3
1458125661.5,0,224,3
1458125661.5,0,224,3
1458125661.5,0,224,3
1458125661.5,0,224,3
1458125661.5,0,224,3
1458125661.52,0,224,3
1458125661.52,0,224,3
1458125661.53,0,224,3
1458125661.53,0,224,3
1458125661.53,0,224,3
1458125661.54,0,224,3
1458125661.54,0,224,3
1458125661.54,0,224,3
1458125661.55,0,224,3
1458125661.55,0,224,3
1458125661.55,0,224,3
1458125661.55,0,224,3
1458125661.56,0,224,3
1458125661.56,0,224,3
1458125661.56,0,224,3
1458125661.56,0,224,3
1458125661.56,0,224,3
1458125661.57,0,224,3
1458125661.57,0,224,3
1458125661.57,0,224,3
1458125661.57,0,224,3
1458125661.57,0,224,3
1458125661.57,0,224,3
1458125661.57,0,224,3
1458125661.57,0,224,3
1458125661.57,0,224,3
1458125661.57,0,224,3
1458125661.58,0,224,3
1458125661.58,0,224,3
1458125661.58,0,224,3
1458125661.59,0,224,3
1458125661.59,0,224,3
1458125661.59,0,224,3
1458125661.59,0,224,3
1458125661.59,0,224,3
1458125661.6,0,224,3
1458125661.6,0,224,3
1458125661.6,0,224,3
1458125661.6,0,224,3
1458125661.6,0,224,3
1458125661.6,0,224,3
1458125661.6,0,224,3
1458125661.61,0,224,3
1458125661.61,0,224,3
1458125661.61,0,224,3
1458125661.62,0,224,3
1458125661.62,0,224,3
1458125661.63,0,224,3
1458125661.63,0,224,3
1458125661.63,0,224,3
1458125661.64,0,224,3
1458125661.64,0,224,3
1458125661.64,0,224,3
1458125661.64,0,224,3
1458125661.64,0,224,3
1458125661.64,0,224,3
1458125661.64,0,224,3
1458125661.64,0,224,3
1458125661.64,0,224,3
1458125661.65,0,224,3
1458125661.65,0,224,3
1458125661.66,0,224,3
1458125661.66,0,224,3
1458125661.67,0,224,3
1458125661.67,0,224,3
1458125661.68,0,224,3
1458125661.68,0,224,3
1458125661.68,0,224,3
1458125661.69,0,224,3
1458125661.69,0,224,3
1458125661.69,0,224,3
1458125661.69,0,224,3
1458125661.69,0,224,3
1458125661.69,0,224,3
1458125661.69,0,224,3
1458125661.69,0,224,3
1458125661.69,0,224,3
1458125661.7,0,224,3
1458125661.71,0,224,3
1458125661.71,0,224,3
1458125661.71,0,224,3
1458125661.72,0,224,3
1458125661.72,0,224,3
1458125661.73,0,224,3
1458125661.73,0,224,3
1458125661.74,0,224,3
1458125661.74,0,224,3
1458125661.74,0,224,3
1458125661.74,0,224,3
1458125661.74,0,224,3
1458125661.75,0,224,3
1458125661.75,0,224,3
1458125661.75,0,224,3
1458125661.75,0,224,3
1458125661.75,0,224,3
1458125661.75,0,224,3
1458125661.75,0,224,3
1458125661.75,0,224,3
1458125661.75,0,224,3
1458125661.75,0,224,3
1458125661.75,0,224,3
1458125661.76,0,224,3
1458125661.76,0,224,3
1458125661.76,0,224,3
1458125661.76,0,224,3
1458125661.76,0,224,3
1458125661.76,0,224,3
1458125661.76,0,224,3
1458125661.76,0,224,3
1458125661.77,0,224,3
1458125661.77,0,224,3
1458125661.78,0,224,3
1458125661.78,0,224,3
1458125661.79,0,224,3
1458125661.79,0,224,3
1458125661.79,0,224,3
1458125661.79,0,224,3
1458125661.8,0,224,3
1458125661.8,0,224,3
1458125661.8,0,224,3
1458125661.8,0,224,3
1458125661.8,0,224,3
1458125661.8,0,224,3
1458125661.81,0,224,3
1458125661.81,0,224,3
1458125661.82,0,224,3
1458125661.82,0,224,3
1458125661.82,0,224,3
1458125661.82,0,224,3
1458125661.82,0,224,3
1458125661.82,0,224,3
1458125661.83,0,224,3
1458125661.83,0,224,3
1458125661.83,0,224,3
1458125661.84,0,224,3
1458125661.84,0,224,3
1458125661.84,0,224,3
1458125661.85,0,224,3
1458125661.85,0,224,3
1458125661.86,0,224,3
1458125661.86,0,224,3
1458125661.86,0,224,3
1458125661.86,0,224,3
1458125661.87,0,224,3
1458125661.87,0,224,3
1458125661.87,0,224,3
1458125661.87,0,224,3
1458125661.87,0,224,3
1458125661.87,0,224,3
1458125661.87,0,224,3
1458125661.87,0,224,3
1458125661.87,0,224,3
1458125661.88,0,224,3
1458125661.88,0,224,3
1458125661.88,0,224,3
1458125661.88,0,224,3
1458125661.89,0,224,3
1458125661.9,0,224,3
1458125661.9,0,224,3
1458125661.9,0,224,3
1458125661.9,0,224,3
1458125661.9,0,224,3
1458125661.91,0,224,3
1458125661.92,0,224,3
1458125661.92,0,224,3
1458125661.92,0,224,3
1458125661.93,0,224,3
1458125661.93,0,224,3
1458125661.93,0,224,3
1458125661.93,0,224,3
1458125661.93,0,224,3
1458125661.93,0,224,3
1458125661.93,0,224,3
1458125661.93,0,224,3
1458125661.94,0,224,3
1458125661.94,0,224,3
1458125661.95,0,224,3
1458125661.95,0,224,3
1458125661.95,0,224,3
1458125661.95,0,224,3
1458125661.95,0,224,3
1458125661.95,0,224,3
1458125661.95,0,224,3
1458125661.95,0,224,3
1458125661.95,0,224,3
1458125661.95,0,224,3
1458125661.96,0,224,3
1458125661.96,0,224,3
1458125661.96,0,224,3
1458125661.96,0,224,3
1458125661.96,0,224,3
1458125661.96,0,224,3
1458125661.96,0,224,3
1458125661.96,0,224,3
1458125661.96,0,224,3
1458125661.96,0,224,3
1458125661.96,0,224,3
1458125661.97,0,224,3
1458125661.97,0,224,3
1458125661.97,0,224,3
1458125661.97,0,224,3
1458125661.97,0,224,3
1458125661.97,0,224,3
1458125661.97,0,224,3
1458125661.97,0,224,3
1458125661.98,0,224,3
1458125661.98,0,224,3
1458125661.98,0,224,3
1458125661.98,0,224,3
1458125661.98,0,224,3
1458125661.98,0,224,3
1458125661.99,0,224,3
1458125661.99,0,224,3
1458125661.99,0,224,3
1458125661.99,0,224,3
1458125661.99,0,224,3
1458125662.0,0,224,3
1458125662.0,0,224,3
1458125662.0,0,224,3
1458125662.0,0,224,3
1458125662.0,0,224,3
1458125662.0,0,224,3
1458125662.0,0,224,3
1458125662.0,0,224,3
1458125662.01,0,224,3
1458125662.01,0,224,3
1458125662.01,0,224,3
1458125662.01,0,224,3
1458125662.01,0,224,3
1458125662.01,0,224,3
1458125662.02,0,224,3
1458125662.02,0,224,3
1458125662.02,0,224,3
1458125662.02,0,224,3
1458125662.03,0,224,3
1458125662.03,0,224,3
1458125662.04,0,224,3
1458125662.04,0,224,3
1458125662.04,0,224,3
1458125662.04,0,224,3
1458125662.04,0,224,3
1458125662.04,0,224,3
1458125662.04,0,224,3
1458125662.04,0,224,3
1458125662.04,0,224,3
1458125662.05,0,224,3
1458125662.05,0,224,3
1458125662.05,0,224,3
1458125662.05,0,224,3
1458125662.06,0,224,3
1458125662.06,0,224,3
1458125662.06,0,224,3
1458125662.06,0,224,3
1458125662.06,0,224,3
1458125662.06,0,224,3
1458125662.06,0,224,3
1458125662.06,0,224,3
1458125662.06,0,224,3
1458125662.06,0,224,3
1458125662.06,0,224,3
1458125662.07,0,224,3
1458125662.07,0,224,3
1458125662.07,0,224,3
1458125662.07,0,224,3
1458125662.07,0,224,3
1458125662.07,0,224,3
1458125662.08,0,224,3
1458125662.08,0,224,3
1458125662.08,0,224,3
1458125662.08,0,224,3
1458125662.08,0,224,3
1458125662.08,0,224,3
1458125662.08,0,224,3
1458125662.08,0,224,3
1458125662.08,0,224,3
1458125662.09,0,224,3
1458125662.09,0,224,3
1458125662.09,0,224,3
1458125662.09,0,224,3
1458125662.1,0,224,3
1458125662.1,0,224,3
1458125662.1,0,224,3
1458125662.1,0,224,3
1458125662.1,0,224,3
1458125662.1,0,224,3
1458125662.1,0,224,3
1458125662.1,0,224,3
1458125662.1,0,224,3
1458125662.1,0,224,3
1458125662.11,0,224,3
1458125662.12,0,224,3
1458125662.12,0,224,3
1458125662.13,0,224,3
1458125662.13,0,224,3
1458125662.13,0,224,3
1458125662.13,0,224,3
1458125662.14,0,224,3
1458125662.14,0,224,3
1458125662.14,0,224,3
1458125662.14,0,224,3
1458125662.14,0,224,3
1458125662.14,0,224,3
1458125662.14,0,224,3
1458125662.14,0,224,3
1458125662.15,0,224,3
1458125662.15,0,224,3
1458125662.15,0,224,3
1458125662.15,0,224,3
1458125662.16,0,224,3
1458125662.16,0,224,3
1458125662.17,0,224,3
1458125662.17,0,224,3
1458125662.17,0,224,3
1458125662.17,0,224,3
1458125662.17,0,224,3
1458125662.17,0,224,3
1458125662.17,0,224,3
1458125662.18,0,224,3
1458125662.18,0,224,3
1458125662.18,0,224,3
1458125662.18,0,224,3
1458125662.19,0,224,3
1458125662.19,0,224,3
1458125662.19,0,224,3
1458125662.19,0,224,3
1458125662.19,0,224,3
1458125662.2,0,224,3
1458125662.2,0,224,3
1458125662.21,0,224,3
1458125662.21,0,224,3
1458125662.21,0,224,3
1458125662.21,0,224,3
1458125662.21,0,224,3
1458125662.21,0,224,3
1458125662.22,0,224,3
1458125662.22,0,224,3
1458125662.22,0,224,3
1458125662.22,0,224,3
1458125662.22,0,224,3
1458125662.22,0,224,3
1458125662.23,0,224,3
1458125662.23,0,224,3
1458125662.23,0,224,3
1458125662.24,0,224,3
1458125662.24,0,224,3
1458125662.24,0,224,3
1458125662.24,0,224,3
1458125662.24,0,224,3
1458125662.24,0,224,3
1458125662.24,0,224,3
1458125662.24,0,224,3
1458125662.25,0,224,3
1458125662.25,0,224,3
1458125662.26,0,224,3
1458125662.26,0,224,3
1458125662.26,0,224,3
1458125662.27,0,224,3
1458125662.27,0,224,3
1458125662.27,0,224,3
1458125662.27,0,224,3
1458125662.27,0,224,3
1458125662.27,0,224,3
1458125662.28,0,224,3
1458125662.28,0,224,3
1458125662.28,0,224,3
1458125662.28,0,224,3
1458125662.29,0,224,3
1458125662.29,0,224,3
1458125662.29,0,224,3
1458125662.29,0,224,3
1458125662.29,0,224,3
1458125662.3,0,224,3
1458125662.31,0,224,3
1458125662.31,0,224,3
1458125662.31,0,224,3
1458125662.32,0,224,3
1458125662.32,0,224,3
1458125662.32,0,224,3
1458125662.32,0,224,3
1458125662.32,0,224,3
1458125662.32,0,224,3
1458125662.33,0,224,3
1458125662.33,0,224,3
1458125662.33,0,224,3
1458125662.34,0,224,3
1458125662.34,0,224,3
1458125662.34,0,224,3
1458125662.34,0,224,3
1458125662.34,0,224,3
1458125662.34,0,224,3
1458125662.34,0,224,3
1458125662.34,0,224,3
1458125662.34,0,224,3
1458125662.34,0,224,3
1458125662.34,0,224,3
1458125662.35,0,224,3
1458125662.35,0,224,3
1458125662.36,0,224,3
1458125662.36,0,224,3
1458125662.36,0,224,3
1458125662.36,0,224,3
1458125662.36,0,224,3
1458125662.37,0,224,3
1458125662.37,0,224,3
1458125662.37,0,224,3
1458125662.37,0,224,3
1458125662.37,0,224,3
1458125662.37,0,224,3
1458125662.37,0,224,3
1458125662.37,0,224,3
1458125662.37,0,224,3
1458125662.38,0,224,3
1458125662.38,0,224,3
1458125662.38,0,224,3
1458125662.39,0,224,3
1458125662.39,0,224,3
1458125662.4,0,224,3
1458125662.4,0,224,3
1458125662.4,0,224,3
1458125662.4,0,224,3
1458125662.4,0,224,3
1458125662.4,0,224,3
1458125662.4,0,224,3
1458125662.4,0,224,3
1458125662.41,0,224,3
1458125662.41,0,224,3
1458125662.42,0,224,3
1458125662.42,0,224,3
1458125662.42,0,224,3
1458125662.42,0,224,3
1458125662.42,0,224,3
1458125662.42,0,224,3
1458125662.42,0,224,3
1458125662.42,0,224,3
1458125662.42,0,224,3
1458125662.42,0,224,3
1458125662.42,0,224,3
1458125662.42,0,224,3
1458125662.42,0,224,3
1458125662.42,0,224,3
1458125662.43,0,224,3
1458125662.43,0,224,3
1458125662.43,0,224,3
1458125662.44,0,224,3
1458125662.44,0,224,3
1458125662.44,0,224,3
1458125662.44,0,224,3
1458125662.44,0,224,3
1458125662.44,0,224,3
1458125662.44,0,224,3
1458125662.44,0,224,3
1458125662.45,0,224,3
1458125662.45,0,224,3
1458125662.45,0,224,3
1458125662.45,0,224,3
1458125662.45,0,224,3
1458125662.45,0,224,3
1458125662.46,0,224,3
1458125662.47,0,224,3
1458125662.47,0,224,3
1458125662.47,0,224,3
1458125662.47,0,224,3
1458125662.47,0,224,3
1458125662.47,0,224,3
1458125662.47,0,224,3
1458125662.47,0,224,3
1458125662.47,0,224,3
1458125662.47,0,224,3
1458125662.48,0,224,3
1458125662.49,0,224,3
1458125662.49,0,224,3
1458125662.49,0,224,3
1458125662.49,0,224,3
1458125662.49,0,224,3
1458125662.49,0,224,3
1458125662.49,0,224,3
1458125662.49,0,224,3
1458125662.49,0,224,3
1458125662.49,0,224,3
1458125662.5,0,224,3
1458125662.5,0,224,3
1458125662.5,0,224,3
1458125662.5,0,224,3
1458125662.51,0,224,3
1458125662.51,0,224,3
1458125662.51,0,224,3
1458125662.51,0,224,3
1458125662.52,0,224,3
1458125662.52,0,224,3
1458125662.52,0,224,3
1458125662.52,0,224,3
1458125662.52,0,224,3
1458125662.52,0,224,3
1458125662.53,0,224,3
1458125662.53,0,224,3
1458125662.54,0,224,3
1458125662.55,0,224,3
1458125662.55,0,224,3
1458125662.55,0,224,3
1458125662.55,0,224,3
1458125662.56,0,224,3
1458125662.56,0,224,3
1458125662.57,0,224,3
1458125662.57,0,224,3
1458125662.57,0,224,3
1458125662.58,0,224,3
1458125662.58,0,224,3
1458125662.58,0,224,3
1458125662.59,0,224,3
1458125662.59,0,224,3
1458125662.59,0,224,3
1458125662.6,0,224,3
1458125662.6,0,224,3
1458125662.6,0,224,3
1458125662.6,0,224,3
1458125662.6,0,224,3
1458125662.61,0,224,3
1458125662.62,0,224,3
1458125662.62,0,224,3
1458125662.62,0,224,3
1458125662.62,0,224,3
1458125662.63,0,224,3
1458125662.63,0,224,3
1458125662.63,0,224,3
1458125662.64,0,224,3
1458125662.64,0,224,3
1458125662.64,0,224,3
1458125662.64,0,224,3
1458125662.65,0,224,3
1458125662.65,0,224,3
1458125662.65,0,224,3
1458125662.65,0,224,3
1458125662.66,0,224,3
1458125662.67,0,224,3
1458125662.67,0,224,3
1458125662.67,0,224,3
1458125662.67,0,224,3
1458125662.68,0,224,3
1458125662.68,0,224,3
1458125662.68,0,224,3
1458125662.69,0,224,3
1458125662.69,0,224,3
1458125662.69,0,224,3
1458125662.69,0,224,3
1458125662.7,0,224,3
1458125662.7,0,224,3
1458125662.7,0,224,3
1458125662.7,0,224,3
1458125662.71,0,224,3
1458125662.71,0,224,3
1458125662.72,0,224,3
1458125662.72,0,224,3
1458125662.72,0,224,3
1458125662.72,0,224,3
1458125662.73,0,224,3
1458125662.73,0,224,3
1458125662.74,0,224,3
1458125662.74,0,224,3
1458125662.74,0,224,3
1458125662.74,0,224,3
1458125662.74,0,224,3
1458125662.75,0,224,3
1458125662.75,0,224,3
1458125662.76,0,224,3
1458125662.76,0,224,3
1458125662.76,0,224,3
1458125662.76,0,224,3
1458125662.77,0,224,3
1458125662.77,0,224,3
1458125662.77,0,224,3
1458125662.77,0,224,3
1458125662.77,0,224,3
1458125662.78,0,224,3
1458125662.78,0,224,3
1458125662.79,0,224,3
1458125662.79,0,224,3
