1458125562.92,0,8,3
1458125562.93,0,8,3
1458125562.95,0,8,3
1458125562.96,0,8,3
1458125562.96,0,8,3
1458125562.96,0,8,3
1458125562.96,0,8,3
1458125562.96,0,8,3
1458125562.97,0,8,3
1458125562.97,0,8,3
1458125562.97,0,8,3
1458125562.98,0,8,3
1458125562.98,0,8,3
1458125562.99,0,8,3
1458125563.0,0,8,3
1458125563.0,0,8,3
1458125563.0,0,8,3
1458125563.01,0,8,3
1458125563.01,0,8,3
1458125563.01,0,8,3
1458125563.02,0,8,3
1458125563.02,0,8,3
1458125563.03,0,8,3
1458125563.03,0,8,3
1458125563.04,0,8,3
1458125563.04,0,8,3
1458125563.04,0,8,3
1458125563.05,0,8,3
1458125563.05,0,8,3
1458125563.05,0,8,3
1458125563.06,0,8,3
1458125563.06,0,8,3
1458125563.07,0,8,3
1458125563.07,0,8,3
1458125563.07,0,8,3
1458125563.09,0,8,3
1458125563.11,0,8,3
1458125563.12,0,8,3
1458125563.13,0,8,3
1458125563.18,0,8,3
1458125563.2,0,8,3
1458125563.2,0,8,3
1458125563.21,0,8,3
1458125563.21,0,8,3
1458125563.22,0,8,3
1458125563.22,0,8,3
1458125563.23,0,8,3
1458125563.24,0,8,3
1458125563.24,0,8,3
1458125563.24,0,8,3
1458125563.25,0,8,3
1458125563.25,0,8,3
1458125563.25,0,8,3
1458125563.26,0,8,3
1458125563.26,0,8,3
1458125563.27,0,8,3
1458125563.28,0,8,3
1458125563.28,0,8,3
1458125563.29,0,8,3
1458125563.3,0,8,3
1458125563.3,0,8,3
1458125563.31,0,8,3
1458125563.34,0,8,3
1458125563.35,0,8,3
1458125563.35,0,8,3
1458125563.36,0,8,3
1458125563.38,0,8,3
1458125563.39,0,8,3
1458125563.4,0,8,3
1458125563.41,0,8,3
1458125563.42,0,8,3
1458125563.43,0,8,3
1458125563.45,0,8,3
1458125563.49,0,8,3
1458125563.49,0,8,3
1458125563.5,0,8,3
1458125563.51,0,8,3
1458125563.51,0,8,3
1458125563.51,0,8,3
1458125563.52,0,8,3
1458125563.53,0,8,3
1458125563.54,0,8,3
1458125563.54,0,8,3
1458125563.55,0,8,3
1458125563.56,0,8,3
1458125563.56,0,8,3
1458125563.58,0,8,3
1458125563.58,0,8,3
1458125563.58,0,8,3
1458125563.59,0,8,3
1458125563.59,0,8,3
1458125563.59,0,8,3
1458125563.59,0,8,3
1458125563.6,0,8,3
1458125563.6,0,8,3
1458125563.6,0,8,3
1458125563.61,0,8,3
1458125563.61,0,8,3
1458125563.61,0,8,3
1458125563.61,0,8,3
1458125563.62,0,8,3
1458125563.62,0,8,3
1458125563.62,0,8,3
1458125563.62,0,8,3
1458125563.63,0,8,3
1458125563.63,0,8,3
1458125563.66,0,8,3
1458125563.67,0,8,3
1458125563.67,0,8,3
1458125563.69,0,8,3
1458125563.69,0,8,3
1458125563.69,0,8,3
1458125563.71,0,8,3
1458125563.71,0,8,3
1458125563.71,0,8,3
1458125563.71,0,8,3
1458125563.72,0,8,3
1458125563.72,0,8,3
1458125563.73,0,8,3
1458125563.73,0,8,3
1458125563.73,0,8,3
1458125563.73,0,8,3
1458125563.74,0,8,3
1458125563.75,0,8,3
1458125563.75,0,8,3
1458125563.75,0,8,3
1458125563.75,0,8,3
1458125563.76,0,8,3
1458125563.76,0,8,3
1458125563.77,0,8,3
1458125563.77,0,8,3
1458125563.78,0,8,3
1458125563.78,0,8,3
1458125563.79,0,8,3
1458125563.8,0,8,3
1458125563.81,0,8,3
1458125563.81,0,8,3
1458125563.81,0,8,3
1458125563.82,0,8,3
1458125563.82,0,8,3
1458125563.85,0,8,3
1458125563.85,0,8,3
1458125563.85,0,8,3
1458125563.85,0,8,3
1458125563.85,0,8,3
1458125563.85,0,8,3
1458125563.86,0,8,3
1458125563.87,0,8,3
1458125563.92,0,8,3
1458125563.92,0,8,3
1458125563.93,0,8,3
1458125563.94,0,8,3
1458125563.95,0,8,3
1458125563.96,0,8,3
1458125563.98,0,8,3
1458125563.99,0,8,3
1458125563.99,0,8,3
1458125563.99,0,8,3
1458125563.99,0,8,3
1458125564.01,0,8,3
1458125564.01,0,8,3
1458125564.03,0,8,3
1458125564.04,0,8,3
1458125564.04,0,8,3
1458125564.04,0,8,3
1458125564.05,0,8,3
1458125564.06,0,8,3
1458125564.08,0,8,3
1458125564.08,0,8,3
1458125564.09,0,8,3
1458125564.09,0,8,3
1458125564.1,0,8,3
1458125564.1,0,8,3
1458125564.11,0,8,3
1458125564.11,0,8,3
1458125564.12,0,8,3
1458125564.12,0,8,3
1458125564.12,0,8,3
1458125564.12,0,8,3
1458125564.13,0,8,3
1458125564.14,0,8,3
1458125564.15,0,8,3
1458125564.15,0,8,3
1458125564.18,0,8,3
1458125564.2,0,8,3
1458125564.22,0,8,3
1458125564.23,0,8,3
1458125564.24,0,8,3
1458125564.25,0,8,3
1458125564.28,0,8,3
1458125564.3,0,8,3
1458125564.3,0,8,3
1458125564.31,0,8,3
1458125564.31,0,8,3
1458125564.32,0,8,3
1458125564.36,0,8,3
1458125564.36,0,8,3
1458125564.36,0,8,3
1458125564.37,0,8,3
1458125564.39,0,8,3
1458125564.4,0,8,3
1458125564.41,0,8,3
1458125564.43,0,8,3
1458125564.43,0,8,3
1458125564.43,0,8,3
1458125564.44,0,8,3
1458125564.45,0,8,3
1458125564.45,0,8,3
1458125564.45,0,8,3
1458125564.46,0,8,3
1458125564.47,0,8,3
1458125564.48,0,8,3
1458125564.48,0,8,3
1458125564.49,0,8,3
1458125564.49,0,8,3
1458125564.5,0,8,3
1458125564.5,0,8,3
1458125564.55,0,8,3
1458125564.56,0,8,3
1458125564.56,0,8,3
1458125564.57,0,8,3
1458125564.57,0,8,3
1458125564.58,0,8,3
1458125564.58,0,8,3
1458125564.58,0,8,3
1458125564.59,0,8,3
1458125564.59,0,8,3
1458125564.6,0,8,3
1458125564.6,0,8,3
1458125564.61,0,8,3
1458125564.62,0,8,3
1458125564.62,0,8,3
1458125564.62,0,8,3
1458125564.62,0,8,3
1458125564.63,0,8,3
1458125564.63,0,8,3
1458125564.64,0,8,3
1458125564.64,0,8,3
1458125564.64,0,8,3
1458125564.65,0,8,3
1458125564.65,0,8,3
1458125564.66,0,8,3
1458125564.68,0,8,3
1458125564.69,0,8,3
1458125564.71,0,8,3
1458125564.73,0,8,3
1458125564.75,0,8,3
1458125564.78,0,8,3
1458125564.79,0,8,3
1458125564.8,0,8,3
1458125564.81,0,8,3
1458125564.82,0,8,3
1458125564.83,0,8,3
1458125564.85,0,8,3
1458125564.87,0,8,3
1458125564.89,0,8,3
1458125564.91,0,8,3
1458125564.92,0,8,3
1458125564.94,0,8,3
1458125564.96,0,8,3
1458125564.98,0,8,3
1458125564.99,0,8,3
1458125565.0,0,8,3
1458125565.01,0,8,3
1458125565.02,0,8,3
1458125565.03,0,8,3
1458125565.06,0,8,3
1458125565.08,0,8,3
1458125565.11,0,8,3
1458125565.13,0,8,3
1458125565.14,0,8,3
1458125565.15,0,8,3
1458125565.17,0,8,3
1458125565.19,0,8,3
1458125565.19,0,8,3
1458125565.2,0,8,3
1458125565.21,0,8,3
1458125565.22,0,8,3
1458125565.23,0,8,3
1458125565.23,0,8,3
1458125565.23,0,8,3
1458125565.25,0,8,3
1458125565.27,0,8,3
1458125565.28,0,8,3
1458125565.3,0,8,3
1458125565.3,0,8,3
1458125565.33,0,8,3
1458125565.35,0,8,3
1458125565.38,0,8,3
1458125565.4,0,8,3
1458125565.44,0,8,3
1458125565.44,0,8,3
1458125565.47,0,8,3
1458125565.5,0,8,3
1458125565.51,0,8,3
1458125565.52,0,8,3
1458125565.53,0,8,3
1458125565.56,0,8,3
1458125565.57,0,8,3
1458125565.57,0,8,3
1458125565.57,0,8,3
1458125565.59,0,8,3
1458125565.61,0,8,3
1458125565.64,0,8,3
1458125565.64,0,8,3
1458125565.68,0,8,3
1458125565.7,0,8,3
1458125565.74,0,8,3
1458125565.8,0,8,3
1458125565.89,0,8,3
1458125565.93,0,8,3
1458125565.97,0,8,3
1458125566.02,0,8,3
1458125566.05,0,8,3
1458125566.27,0,8,3
1458125566.33,0,8,3
1458125566.47,0,8,3
1458125566.61,0,8,3
1458125566.66,0,8,3
1458125566.82,0,8,3
1458125566.93,0,8,3
1458125567.01,0,8,3
1458125567.05,0,8,3
1458125567.12,0,8,3
1458125567.2,0,8,3
1458125567.26,0,8,3
1458125567.26,0,8,3
1458125567.29,0,8,3
1458125567.35,0,8,3
1458125567.44,0,8,3
1458125567.5,0,8,3
1458125567.53,0,8,3
1458125567.57,0,8,3
1458125567.6,0,8,3
1458125567.68,0,8,3
1458125567.71,0,8,3
1458125567.74,0,8,3
1458125567.79,0,8,3
1458125567.85,0,8,3
1458125567.92,0,8,3
1458125568.03,0,8,3
1458125568.12,0,8,3
1458125568.17,0,8,3
1458125568.24,0,8,3
1458125568.29,0,8,3
1458125568.35,0,8,3
1458125568.39,0,8,3
1458125568.4,0,8,3
1458125568.45,0,8,3
1458125568.47,0,8,3
1458125568.48,0,8,3
1458125568.51,0,8,3
1458125568.55,0,8,3
1458125568.59,0,8,3
1458125568.6,0,8,3
1458125568.63,0,8,3
1458125568.65,0,8,3
1458125568.65,0,8,3
1458125568.68,0,8,3
1458125568.71,0,8,3
1458125568.73,0,8,3
1458125568.75,0,8,3
1458125568.78,0,8,3
1458125568.82,0,8,3
1458125568.86,0,8,3
1458125568.88,0,8,3
1458125568.91,0,8,3
1458125568.95,0,8,3
1458125568.97,0,8,3
1458125568.99,0,8,3
1458125569.02,0,8,3
1458125569.05,0,8,3
1458125569.08,0,8,3
1458125569.13,0,8,3
1458125569.15,0,8,3
1458125569.17,0,8,3
1458125569.2,0,8,3
1458125569.2,0,8,3
1458125569.21,0,8,3
1458125569.24,0,8,3
1458125569.28,0,8,3
1458125569.32,0,8,3
1458125569.34,0,8,3
1458125569.39,0,8,3
1458125569.43,0,8,3
1458125569.46,0,8,3
1458125569.5,0,8,3
1458125569.51,0,8,3
1458125569.52,0,8,3
1458125569.53,0,8,3
1458125569.53,0,8,3
1458125569.54,0,8,3
1458125569.57,0,8,3
1458125569.6,0,8,3
1458125569.62,0,8,3
1458125569.63,0,8,3
1458125569.64,0,8,3
1458125569.65,0,8,3
1458125569.67,0,8,3
1458125569.68,0,8,3
1458125569.68,0,8,3
1458125569.7,0,8,3
1458125569.71,0,8,3
1458125569.72,0,8,3
1458125569.72,0,8,3
1458125569.73,0,8,3
1458125569.75,0,8,3
1458125569.75,0,8,3
1458125569.76,0,8,3
1458125569.77,0,8,3
1458125569.77,0,8,3
1458125569.8,0,8,3
1458125569.82,0,8,3
1458125569.83,0,8,3
1458125569.84,0,8,3
1458125569.85,0,8,3
1458125569.87,0,8,3
1458125569.88,0,8,3
1458125569.89,0,8,3
1458125569.91,0,8,3
1458125569.93,0,8,3
1458125569.95,0,8,3
1458125569.98,0,8,3
1458125570.0,0,8,3
1458125570.01,0,8,3
1458125570.02,0,8,3
1458125570.04,0,8,3
1458125570.07,0,8,3
1458125570.09,0,8,3
1458125570.11,0,8,3
1458125570.12,0,8,3
1458125570.15,0,8,3
1458125570.18,0,8,3
1458125570.24,0,8,3
1458125570.25,0,8,3
1458125570.28,0,8,3
1458125570.31,0,8,3
1458125570.36,0,8,3
1458125570.37,0,8,3
1458125570.42,0,8,3
1458125570.46,0,8,3
1458125570.47,0,8,3
1458125570.5,0,8,3
1458125570.56,0,8,3
1458125570.61,0,8,3
1458125570.71,0,8,3
1458125570.75,0,8,3
1458125570.77,0,8,3
1458125570.79,0,8,3
1458125570.85,0,8,3
1458125570.88,0,8,3
1458125570.89,0,8,3
1458125570.93,0,8,3
1458125570.94,0,8,3
1458125570.97,0,8,3
1458125571.04,0,8,3
1458125571.07,0,8,3
1458125571.2,0,8,3
1458125571.3,0,8,3
1458125571.33,0,8,3
1458125571.38,0,8,3
1458125571.41,0,8,3
1458125571.49,0,8,3
1458125571.57,0,8,3
1458125571.59,0,8,3
1458125571.67,0,8,3
1458125571.69,0,8,3
1458125571.79,0,8,3
1458125571.86,0,8,3
1458125571.93,0,8,3
1458125571.95,0,8,3
1458125572.03,0,8,3
1458125572.36,0,8,3
1458125572.39,0,8,3
1458125572.53,0,8,3
1458125572.62,0,8,3
1458125572.62,0,8,3
1458125572.77,0,8,3
1458125572.8,0,8,3
1458125572.9,0,8,3
1458125573.06,0,8,3
1458125573.22,0,8,3
1458125573.29,0,8,3
1458125573.55,0,8,3
1458125573.57,0,8,3
1458125573.59,0,8,3
1458125573.63,0,8,3
1458125573.79,0,8,3
1458125573.94,0,8,3
1458125573.97,0,8,3
1458125574.04,0,8,3
1458125574.05,0,8,3
1458125574.09,0,8,3
1458125574.1,0,8,3
1458125574.12,0,8,3
1458125574.17,0,8,3
1458125574.19,0,8,3
1458125574.21,0,8,3
1458125574.22,0,8,3
1458125574.25,0,8,3
1458125574.26,0,8,3
1458125574.31,0,8,3
1458125574.33,0,8,3
1458125574.36,0,8,3
1458125574.4,0,8,3
1458125574.41,0,8,3
1458125574.43,0,8,3
1458125574.43,0,8,3
1458125574.46,0,8,3
1458125574.49,0,8,3
1458125574.51,0,8,3
1458125574.53,0,8,3
1458125574.56,0,8,3
1458125574.59,0,8,3
1458125574.63,0,8,3
1458125574.67,0,8,3
1458125574.68,0,8,3
1458125574.72,0,8,3
1458125574.74,0,8,3
1458125574.76,0,8,3
1458125574.79,0,8,3
1458125574.82,0,8,3
1458125574.83,0,8,3
1458125574.86,0,8,3
1458125574.88,0,8,3
1458125574.89,0,8,3
1458125574.9,0,8,3
1458125574.91,0,8,3
1458125574.92,0,8,3
1458125574.94,0,8,3
1458125574.96,0,8,3
1458125574.98,0,8,3
1458125574.99,0,8,3
1458125575.02,0,8,3
1458125575.11,0,8,3
1458125575.14,0,8,3
1458125575.19,0,8,3
1458125575.22,0,8,3
1458125575.32,0,8,3
1458125575.33,0,8,3
1458125575.44,0,8,3
1458125575.48,0,8,3
1458125575.52,0,8,3
1458125575.54,0,8,3
1458125575.56,0,8,3
1458125575.62,0,8,3
1458125575.7,0,8,3
1458125575.75,0,8,3
1458125575.8,0,8,3
1458125575.85,0,8,3
1458125575.91,0,8,3
1458125575.98,0,8,3
1458125576.09,0,8,3
1458125576.22,0,8,3
1458125576.29,0,8,3
1458125576.34,0,8,3
1458125576.39,0,8,3
1458125576.43,0,8,3
1458125576.47,0,8,3
1458125576.5,0,8,3
1458125576.55,0,8,3
1458125576.6,0,8,3
1458125576.66,0,8,3
1458125576.74,0,8,3
1458125576.75,0,8,3
1458125576.83,0,8,3
1458125576.93,0,8,3
1458125577.0,0,8,3
1458125577.05,0,8,3
1458125577.08,0,8,3
1458125577.15,0,8,3
1458125577.26,0,8,3
1458125577.33,0,8,3
1458125577.44,0,8,3
1458125577.46,0,8,3
1458125577.49,0,8,3
1458125577.53,0,8,3
1458125577.58,0,8,3
1458125577.63,0,8,3
1458125577.65,0,8,3
1458125577.67,0,8,3
1458125577.71,0,8,3
1458125577.75,0,8,3
1458125577.82,0,8,3
1458125577.89,0,8,3
1458125577.94,0,8,3
1458125578.07,0,8,3
1458125578.11,0,8,3
1458125578.18,0,8,3
1458125578.22,0,8,3
1458125578.25,0,8,3
1458125578.27,0,8,3
1458125578.32,0,8,3
1458125578.36,0,8,3
1458125578.43,0,8,3
1458125578.47,0,8,3
1458125578.57,0,8,3
1458125578.6,0,8,3
1458125578.61,0,8,3
1458125578.63,0,8,3
1458125578.66,0,8,3
1458125578.72,0,8,3
1458125578.75,0,8,3
1458125578.79,0,8,3
1458125578.81,0,8,3
1458125578.86,0,8,3
1458125578.89,0,8,3
1458125578.91,0,8,3
1458125578.99,0,8,3
1458125579.02,0,8,3
1458125579.05,0,8,3
1458125579.13,0,8,3
1458125579.17,0,8,3
1458125579.19,0,8,3
1458125579.29,0,8,3
1458125579.34,0,8,3
1458125579.38,0,8,3
1458125579.4,0,8,3
1458125579.45,0,8,3
1458125579.5,0,8,3
1458125579.52,0,8,3
1458125579.57,0,8,3
1458125579.58,0,8,3
1458125579.61,0,8,3
1458125579.62,0,8,3
1458125579.63,0,8,3
1458125579.65,0,8,3
1458125579.68,0,8,3
1458125579.72,0,8,3
1458125579.76,0,8,3
1458125579.78,0,8,3
1458125579.84,0,8,3
1458125579.88,0,8,3
1458125579.96,0,8,3
1458125579.99,0,8,3
1458125580.01,0,8,3
1458125580.05,0,8,3
1458125580.07,0,8,3
1458125580.12,0,8,3
1458125580.16,0,8,3
1458125580.2,0,8,3
1458125580.24,0,8,3
1458125580.38,0,8,3
1458125580.4,0,8,3
1458125580.44,0,8,3
1458125580.46,0,8,3
1458125580.49,0,8,3
1458125580.52,0,8,3
1458125580.57,0,8,3
1458125580.6,0,8,3
1458125580.65,0,8,3
1458125580.7,0,8,3
1458125580.85,0,8,3
1458125580.88,0,8,3
1458125581.14,0,8,3
1458125581.19,0,8,3
1458125581.2,0,8,3
1458125581.22,0,8,3
1458125581.28,0,8,3
1458125581.29,0,8,3
1458125581.35,0,8,3
1458125581.37,0,8,3
1458125581.39,0,8,3
1458125581.42,0,8,3
1458125581.43,0,8,3
1458125581.43,0,8,3
1458125581.45,0,8,3
1458125581.45,0,8,3
1458125581.47,0,8,3
1458125581.48,0,8,3
1458125581.48,0,8,3
1458125581.51,0,8,3
1458125581.52,0,8,3
1458125581.54,0,8,3
1458125581.56,0,8,3
1458125581.59,0,8,3
1458125581.6,0,8,3
1458125581.61,0,8,3
1458125581.65,0,8,3
1458125581.66,0,8,3
1458125581.69,0,8,3
1458125581.71,0,8,3
1458125581.72,0,8,3
1458125581.76,0,8,3
1458125581.79,0,8,3
1458125581.82,0,8,3
1458125581.84,0,8,3
1458125581.85,0,8,3
1458125581.9,0,8,3
1458125581.9,0,8,3
1458125581.92,0,8,3
1458125581.94,0,8,3
1458125581.96,0,8,3
1458125582.0,0,8,3
1458125582.05,0,8,3
1458125582.09,0,8,3
1458125582.11,0,8,3
1458125582.16,0,8,3
1458125582.21,0,8,3
1458125582.24,0,8,3
1458125582.3,0,8,3
1458125582.35,0,8,3
1458125582.41,0,8,3
1458125582.44,0,8,3
1458125582.48,0,8,3
1458125582.54,0,8,3
1458125582.55,0,8,3
1458125582.64,0,8,3
1458125582.74,0,8,3
1458125582.78,0,8,3
1458125582.82,0,8,3
1458125582.89,0,8,3
1458125582.91,0,8,3
1458125582.97,0,8,3
1458125583.01,0,8,3
1458125583.05,0,8,3
1458125583.07,0,8,3
1458125583.13,0,8,3
1458125583.17,0,8,3
1458125583.22,0,8,3
1458125583.27,0,8,3
1458125583.32,0,8,3
1458125583.39,0,8,3
1458125583.41,0,8,3
1458125583.46,0,8,3
1458125583.49,0,8,3
1458125583.58,0,8,3
1458125583.62,0,8,3
1458125583.66,0,8,3
1458125583.7,0,8,3
1458125583.83,0,8,3
1458125583.85,0,8,3
1458125583.9,0,8,3
1458125583.92,0,8,3
1458125583.96,0,8,3
1458125584.03,0,8,3
1458125584.07,0,8,3
1458125584.13,0,8,3
1458125584.19,0,8,3
1458125584.28,0,8,3
1458125584.3,0,8,3
1458125584.36,0,8,3
1458125584.38,0,8,3
1458125584.4,0,8,3
1458125584.46,0,8,3
1458125584.49,0,8,3
1458125584.52,0,8,3
1458125584.55,0,8,3
1458125584.59,0,8,3
1458125584.63,0,8,3
1458125584.66,0,8,3
1458125584.72,0,8,3
1458125584.75,0,8,3
1458125584.79,0,8,3
1458125584.81,0,8,3
1458125584.89,0,8,3
1458125584.95,0,8,3
1458125585.04,0,8,3
1458125585.08,0,8,3
1458125585.12,0,8,3
1458125585.16,0,8,3
1458125585.24,0,8,3
1458125585.29,0,8,3
1458125585.33,0,8,3
1458125585.38,0,8,3
1458125585.41,0,8,3
1458125585.46,0,8,3
1458125585.52,0,8,3
1458125585.55,0,8,3
1458125585.59,0,8,3
1458125585.59,0,8,3
1458125585.74,0,8,3
1458125585.77,0,8,3
1458125585.81,0,8,3
1458125585.92,0,8,3
1458125585.97,0,8,3
1458125586.02,0,8,3
1458125586.09,0,8,3
1458125586.15,0,8,3
1458125586.18,0,8,3
1458125586.24,0,8,3
1458125586.29,0,8,3
1458125586.34,0,8,3
1458125586.37,0,8,3
1458125586.43,0,8,3
1458125586.45,0,8,3
1458125586.51,0,8,3
1458125586.55,0,8,3
1458125586.58,0,8,3
1458125586.62,0,8,3
1458125586.69,0,8,3
1458125586.73,0,8,3
1458125586.74,0,8,3
1458125586.77,0,8,3
1458125586.84,0,8,3
1458125586.86,0,8,3
1458125586.92,0,8,3
1458125586.95,0,8,3
1458125587.03,0,8,3
1458125587.09,0,8,3
1458125587.11,0,8,3
1458125587.18,0,8,3
1458125587.21,0,8,3
1458125587.25,0,8,3
1458125587.28,0,8,3
1458125587.35,0,8,3
1458125587.4,0,8,3
1458125587.43,0,8,3
1458125587.45,0,8,3
1458125587.48,0,8,3
1458125587.5,0,8,3
1458125587.52,0,8,3
1458125587.55,0,8,3
1458125587.6,0,8,3
1458125587.63,0,8,3
1458125587.66,0,8,3
1458125587.7,0,8,3
1458125587.74,0,8,3
1458125587.8,0,8,3
1458125587.85,0,8,3
1458125587.92,0,8,3
1458125587.97,0,8,3
1458125588.1,0,8,3
1458125588.14,0,8,3
1458125588.15,0,8,3
1458125588.16,0,8,3
1458125588.21,0,8,3
1458125588.25,0,8,3
1458125588.29,0,8,3
1458125588.36,0,8,3
1458125588.41,0,8,3
1458125588.43,0,8,3
1458125588.5,0,8,3
1458125588.52,0,8,3
1458125588.55,0,8,3
1458125588.61,0,8,3
1458125588.62,0,8,3
1458125588.66,0,8,3
1458125588.72,0,8,3
1458125588.77,0,8,3
1458125588.82,0,8,3
1458125588.88,0,8,3
1458125588.97,0,8,3
1458125589.02,0,8,3
1458125589.04,0,8,3
1458125589.1,0,8,3
1458125589.21,0,8,3
1458125589.22,0,8,3
1458125589.27,0,8,3
1458125589.29,0,8,3
1458125589.36,0,8,3
1458125589.41,0,8,3
1458125589.49,0,8,3
1458125589.53,0,8,3
1458125589.64,0,8,3
1458125589.68,0,8,3
1458125589.85,0,8,3
1458125589.9,0,8,3
1458125590.04,0,8,3
1458125590.12,0,8,3
1458125590.15,0,8,3
1458125590.19,0,8,3
1458125590.21,0,8,3
1458125590.34,0,8,3
1458125590.36,0,8,3
1458125590.4,0,8,3
1458125590.5,0,8,3
1458125590.53,0,8,3
1458125590.53,0,8,3
1458125590.62,0,8,3
1458125590.65,0,8,3
1458125590.68,0,8,3
1458125590.8,0,8,3
1458125590.9,0,8,3
1458125590.94,0,8,3
1458125590.99,0,8,3
1458125591.23,0,8,3
1458125591.3,0,8,3
1458125591.38,0,8,3
1458125591.52,0,8,3
1458125591.57,0,8,3
1458125591.66,0,8,3
1458125591.79,0,8,3
1458125591.86,0,8,3
1458125591.91,0,8,3
1458125591.96,0,8,3
1458125592.06,0,8,3
1458125592.09,0,8,3
1458125592.21,0,8,3
1458125592.23,0,8,3
1458125592.38,0,8,3
1458125592.39,0,8,3
1458125592.57,0,8,3
1458125592.59,0,8,3
1458125592.68,0,8,3
1458125592.75,0,8,3
1458125592.77,0,8,3
1458125592.8,0,8,3
1458125592.84,0,8,3
1458125592.85,0,8,3
1458125592.88,0,8,3
1458125592.92,0,8,3
1458125592.96,0,8,3
1458125592.99,0,8,3
1458125593.04,0,8,3
1458125593.07,0,8,3
1458125593.09,0,8,3
1458125593.14,0,8,3
1458125593.17,0,8,3
1458125593.21,0,8,3
1458125593.27,0,8,3
1458125593.29,0,8,3
1458125593.35,0,8,3
1458125593.38,0,8,3
1458125593.45,0,8,3
1458125593.47,0,8,3
1458125593.51,0,8,3
1458125593.54,0,8,3
1458125593.57,0,8,3
1458125593.63,0,8,3
1458125593.69,0,8,3
1458125593.73,0,8,3
1458125593.75,0,8,3
1458125593.77,0,8,3
1458125593.81,0,8,3
1458125593.85,0,8,3
1458125593.87,0,8,3
1458125593.89,0,8,3
1458125593.94,0,8,3
1458125593.95,0,8,3
1458125594.01,0,8,3
1458125594.12,0,8,3
1458125594.14,0,8,3
1458125594.17,0,8,3
1458125594.23,0,8,3
1458125594.31,0,8,3
1458125594.37,0,8,3
1458125594.46,0,8,3
1458125594.5,0,8,3
1458125594.52,0,8,3
1458125594.59,0,8,3
1458125594.61,0,8,3
1458125594.62,0,8,3
1458125594.67,0,8,3
1458125594.84,0,8,3
1458125594.88,0,8,3
1458125594.91,0,8,3
1458125594.96,0,8,3
1458125595.03,0,8,3
1458125595.06,0,8,3
1458125595.09,0,8,3
1458125595.11,0,8,3
1458125595.17,0,8,3
1458125595.2,0,8,3
1458125595.23,0,8,3
1458125595.25,0,8,3
1458125595.28,0,8,3
1458125595.3,0,8,3
1458125595.34,0,8,3
1458125595.36,0,8,3
1458125595.38,0,8,3
1458125595.4,0,8,3
1458125595.41,0,8,3
1458125595.43,0,8,3
1458125595.47,0,8,3
1458125595.5,0,8,3
1458125595.51,0,8,3
1458125595.52,0,8,3
1458125595.55,0,8,3
1458125595.56,0,8,3
1458125595.58,0,8,3
1458125595.64,0,8,3
1458125595.66,0,8,3
1458125595.67,0,8,3
1458125595.73,0,8,3
1458125595.74,0,8,3
1458125595.78,0,8,3
1458125595.82,0,8,3
1458125595.84,0,8,3
1458125595.87,0,8,3
1458125595.88,0,8,3
1458125595.95,0,8,3
1458125595.96,0,8,3
1458125596.02,0,8,3
1458125596.05,0,8,3
1458125596.08,0,8,3
1458125596.1,0,8,3
1458125596.11,0,8,3
1458125596.14,0,8,3
1458125596.16,0,8,3
1458125596.18,0,8,3
1458125596.19,0,8,3
1458125596.24,0,8,3
1458125596.26,0,8,3
1458125596.27,0,8,3
1458125596.32,0,8,3
1458125596.36,0,8,3
1458125596.38,0,8,3
1458125596.4,0,8,3
1458125596.41,0,8,3
1458125596.43,0,8,3
1458125596.45,0,8,3
1458125596.49,0,8,3
1458125596.51,0,8,3
1458125596.53,0,8,3
1458125596.55,0,8,3
1458125596.56,0,8,3
1458125596.59,0,8,3
1458125596.6,0,8,3
1458125596.63,0,8,3
1458125596.68,0,8,3
1458125596.75,0,8,3
1458125596.79,0,8,3
1458125596.82,0,8,3
1458125596.84,0,8,3
1458125596.87,0,8,3
1458125596.92,0,8,3
1458125596.94,0,8,3
1458125596.98,0,8,3
1458125596.99,0,8,3
1458125597.0,0,8,3
1458125597.03,0,8,3
1458125597.05,0,8,3
1458125597.11,0,8,3
1458125597.14,0,8,3
1458125597.21,0,8,3
1458125597.24,0,8,3
1458125597.26,0,8,3
1458125597.3,0,8,3
1458125597.33,0,8,3
1458125597.38,0,8,3
1458125597.48,0,8,3
1458125597.55,0,8,3
1458125597.6,0,8,3
1458125597.63,0,8,3
1458125597.68,0,8,3
1458125597.72,0,8,3
1458125597.83,0,8,3
1458125597.9,0,8,3
1458125597.99,0,8,3
1458125598.05,0,8,3
1458125598.14,0,8,3
1458125598.19,0,8,3
1458125598.22,0,8,3
1458125598.29,0,8,3
1458125598.38,0,8,3
1458125598.54,0,8,3
1458125598.58,0,8,3
1458125598.72,0,8,3
1458125598.75,0,8,3
1458125598.85,0,8,3
1458125598.93,0,8,3
1458125599.01,0,8,3
1458125599.08,0,8,3
1458125599.13,0,8,3
1458125599.17,0,8,3
1458125599.2,0,8,3
1458125599.22,0,8,3
1458125599.24,0,8,3
1458125599.35,0,8,3
1458125599.39,0,8,3
1458125599.48,0,8,3
1458125599.55,0,8,3
1458125599.59,0,8,3
1458125599.66,0,8,3
1458125599.68,0,8,3
1458125599.76,0,8,3
1458125599.8,0,8,3
1458125599.9,0,8,3
1458125599.95,0,8,3
1458125600.02,0,8,3
1458125600.07,0,8,3
1458125600.26,0,8,3
1458125600.32,0,8,3
1458125600.5,0,8,3
1458125600.7,0,8,3
1458125600.72,0,8,3
1458125600.77,0,8,3
1458125600.91,0,8,3
1458125600.95,0,8,3
1458125601.0,0,8,3
1458125601.08,0,8,3
1458125601.13,0,8,3
1458125601.28,0,8,3
1458125601.48,0,8,3
1458125601.5,0,8,3
1458125601.6,0,8,3
1458125601.66,0,8,3
1458125601.69,0,8,3
1458125601.74,0,8,3
1458125601.77,0,8,3
1458125601.81,0,8,3
1458125601.83,0,8,3
1458125601.85,0,8,3
1458125601.9,0,8,3
1458125601.96,0,8,3
1458125602.14,0,8,3
1458125602.23,0,8,3
1458125602.35,0,8,3
1458125602.44,0,8,3
1458125602.53,0,8,3
1458125602.57,0,8,3
1458125602.65,0,8,3
1458125602.67,0,8,3
1458125602.86,0,8,3
1458125603.01,0,8,3
1458125603.1,0,8,3
1458125603.13,0,8,3
1458125603.44,0,8,3
1458125603.67,0,8,3
1458125603.83,0,8,3
1458125604.25,0,8,3
1458125604.57,0,8,3
1458125604.95,0,8,3
1458125605.01,0,8,3
1458125605.08,0,8,3
1458125605.11,0,8,3
1458125605.19,0,8,3
1458125605.26,0,8,3
1458125605.33,0,8,3
1458125605.39,0,8,3
1458125605.46,0,8,3
1458125605.47,0,8,3
1458125605.53,0,8,3
1458125605.59,0,8,3
1458125605.65,0,8,3
1458125605.69,0,8,3
1458125605.82,0,8,3
1458125605.9,0,8,3
1458125605.94,0,8,3
1458125605.99,0,8,3
1458125606.21,0,8,3
1458125606.33,0,8,3
1458125606.44,0,8,3
1458125606.66,0,8,3
1458125606.78,0,8,3
1458125606.83,0,8,3
1458125607.0,0,8,3
1458125607.23,0,8,3
1458125607.28,0,8,3
1458125607.3,0,8,3
1458125607.47,0,8,3
1458125607.59,0,8,3
1458125607.66,0,8,3
1458125607.68,0,8,3
1458125607.8,0,8,3
1458125607.87,0,8,3
1458125607.89,0,8,3
1458125608.13,0,8,3
1458125608.15,0,8,3
1458125608.21,0,8,3
1458125608.27,0,8,3
1458125608.38,0,8,3
1458125608.38,0,8,3
1458125608.52,0,8,3
1458125608.63,0,8,3
1458125608.63,0,8,3
1458125608.65,0,8,3
1458125608.75,0,8,3
1458125608.76,0,8,3
1458125608.99,0,8,3
1458125609.01,0,8,3
1458125609.05,0,8,3
1458125609.15,0,8,3
1458125609.16,0,8,3
1458125609.22,0,8,3
1458125609.28,0,8,3
1458125609.35,0,8,3
1458125609.48,0,8,3
1458125609.53,0,8,3
1458125609.6,0,8,3
1458125609.68,0,8,3
1458125609.78,0,8,3
1458125609.93,0,8,3
1458125609.98,0,8,3
1458125610.08,0,8,3
1458125610.21,0,8,3
1458125610.25,0,8,3
1458125610.26,0,8,3
1458125610.37,0,8,3
1458125610.41,0,8,3
1458125610.42,0,8,3
1458125610.43,0,8,3
1458125610.52,0,8,3
1458125610.53,0,8,3
1458125610.53,0,8,3
1458125610.63,0,8,3
1458125610.66,0,8,3
1458125610.67,0,8,3
1458125610.88,0,8,3
1458125610.92,0,8,3
1458125611.06,0,8,3
1458125611.06,0,8,3
1458125611.09,0,8,3
1458125611.23,0,8,3
1458125611.27,0,8,3
1458125611.38,0,8,3
1458125611.38,0,8,3
1458125611.44,0,8,3
1458125611.52,0,8,3
1458125611.55,0,8,3
1458125611.56,0,8,3
1458125611.67,0,8,3
1458125611.69,0,8,3
1458125611.71,0,8,3
1458125611.72,0,8,3
1458125611.83,0,8,3
1458125611.84,0,8,3
1458125612.01,0,8,3
1458125612.14,0,8,3
1458125612.16,0,8,3
1458125612.22,0,8,3
1458125612.33,0,8,3
1458125612.38,0,8,3
1458125612.45,0,8,3
1458125612.49,0,8,3
1458125612.5,0,8,3
1458125612.61,0,8,3
1458125612.66,0,8,3
1458125612.82,0,8,3
1458125612.85,0,8,3
1458125613.03,0,8,3
1458125613.08,0,8,3
1458125613.1,0,8,3
1458125613.22,0,8,3
1458125613.35,0,8,3
1458125613.47,0,8,3
1458125613.47,0,8,3
1458125613.55,0,8,3
1458125613.61,0,8,3
1458125613.65,0,8,3
1458125613.71,0,8,3
1458125613.78,0,8,3
1458125613.81,0,8,3
1458125613.83,0,8,3
1458125613.86,0,8,3
1458125613.92,0,8,3
1458125613.94,0,8,3
1458125613.97,0,8,3
1458125614.04,0,8,3
1458125614.05,0,8,3
1458125614.06,0,8,3
1458125614.14,0,8,3
1458125614.15,0,8,3
1458125614.16,0,8,3
1458125614.2,0,8,3
1458125614.23,0,8,3
1458125614.26,0,8,3
1458125614.26,0,8,3
1458125614.34,0,8,3
1458125614.43,0,8,3
1458125614.59,0,8,3
1458125614.63,0,8,3
1458125614.67,0,8,3
1458125614.72,0,8,3
1458125614.9,0,8,3
1458125614.93,0,8,3
1458125614.99,0,8,3
1458125615.01,0,8,3
1458125615.04,0,8,3
1458125615.18,0,8,3
1458125615.2,0,8,3
1458125615.28,0,8,3
1458125615.38,0,8,3
1458125615.41,0,8,3
1458125615.45,0,8,3
1458125615.49,0,8,3
1458125615.51,0,8,3
1458125615.55,0,8,3
1458125615.55,0,8,3
1458125615.7,0,8,3
1458125615.73,0,8,3
1458125615.75,0,8,3
1458125615.78,0,8,3
1458125615.78,0,8,3
1458125615.82,0,8,3
1458125615.83,0,8,3
1458125615.86,0,8,3
1458125615.86,0,8,3
1458125615.9,0,8,3
1458125615.96,0,8,3
1458125615.98,0,8,3
1458125615.98,0,8,3
1458125615.99,0,8,3
1458125616.12,0,8,3
1458125616.17,0,8,3
1458125616.2,0,8,3
1458125616.21,0,8,3
1458125616.24,0,8,3
1458125616.3,0,8,3
1458125616.32,0,8,3
1458125616.34,0,8,3
1458125616.37,0,8,3
1458125616.37,0,8,3
1458125616.4,0,8,3
1458125616.4,0,8,3
1458125616.42,0,8,3
1458125616.6,0,8,3
1458125616.63,0,8,3
1458125616.65,0,8,3
1458125616.66,0,8,3
1458125616.76,0,8,3
1458125616.8,0,8,3
1458125616.8,0,8,3
1458125616.81,0,8,3
1458125616.87,0,8,3
1458125616.9,0,8,3
1458125617.0,0,8,3
1458125617.01,0,8,3
1458125617.05,0,8,3
1458125617.08,0,8,3
1458125617.12,0,8,3
1458125617.13,0,8,3
1458125617.17,0,8,3
1458125617.2,0,8,3
1458125617.2,0,8,3
1458125617.2,0,8,3
1458125617.24,0,8,3
1458125617.25,0,8,3
1458125617.26,0,8,3
1458125617.28,0,8,3
1458125617.28,0,8,3
1458125617.31,0,8,3
1458125617.33,0,8,3
1458125617.33,0,8,3
1458125617.35,0,8,3
1458125617.36,0,8,3
1458125617.37,0,8,3
1458125617.39,0,8,3
1458125617.43,0,8,3
1458125617.44,0,8,3
1458125617.47,0,8,3
1458125617.5,0,8,3
1458125617.52,0,8,3
1458125617.55,0,8,3
1458125617.6,0,8,3
1458125617.62,0,8,3
1458125617.64,0,8,3
1458125617.68,0,8,3
1458125617.72,0,8,3
1458125617.8,0,8,3
1458125617.83,0,8,3
1458125617.87,0,8,3
1458125617.89,0,8,3
1458125617.94,0,8,3
1458125617.99,0,8,3
1458125618.0,0,8,3
1458125618.07,0,8,3
1458125618.08,0,8,3
1458125618.13,0,8,3
1458125618.17,0,8,3
1458125618.2,0,8,3
1458125618.22,0,8,3
1458125618.25,0,8,3
1458125618.32,0,8,3
1458125618.33,0,8,3
1458125618.37,0,8,3
1458125618.47,0,8,3
1458125618.47,0,8,3
1458125618.49,0,8,3
1458125618.53,0,8,3
1458125618.55,0,8,3
1458125618.56,0,8,3
1458125618.61,0,8,3
1458125618.63,0,8,3
1458125618.65,0,8,3
1458125618.68,0,8,3
1458125618.72,0,8,3
1458125618.78,0,8,3
1458125618.8,0,8,3
1458125618.83,0,8,3
1458125618.83,0,8,3
1458125618.88,0,8,3
1458125618.9,0,8,3
1458125618.93,0,8,3
1458125618.93,0,8,3
1458125619.0,0,8,3
1458125619.03,0,8,3
1458125619.04,0,8,3
1458125619.07,0,8,3
1458125619.1,0,8,3
1458125619.15,0,8,3
1458125619.16,0,8,3
1458125619.19,0,8,3
1458125619.19,0,8,3
1458125619.21,0,8,3
1458125619.23,0,8,3
1458125619.24,0,8,3
1458125619.26,0,8,3
1458125619.28,0,8,3
1458125619.29,0,8,3
1458125619.32,0,8,3
1458125619.36,0,8,3
1458125619.36,0,8,3
1458125619.39,0,8,3
1458125619.4,0,8,3
1458125619.45,0,8,3
1458125619.52,0,8,3
1458125619.52,0,8,3
1458125619.56,0,8,3
1458125619.56,0,8,3
1458125619.6,0,8,3
1458125619.61,0,8,3
1458125619.62,0,8,3
1458125619.66,0,8,3
1458125619.71,0,8,3
1458125619.74,0,8,3
1458125619.77,0,8,3
1458125619.78,0,8,3
1458125619.85,0,8,3
1458125619.87,0,8,3
1458125619.91,0,8,3
1458125619.93,0,8,3
1458125619.95,0,8,3
1458125619.95,0,8,3
1458125619.99,0,8,3
1458125620.01,0,8,3
1458125620.03,0,8,3
1458125620.07,0,8,3
1458125620.08,0,8,3
1458125620.09,0,8,3
1458125620.1,0,8,3
1458125620.11,0,8,3
1458125620.12,0,8,3
1458125620.12,0,8,3
1458125620.14,0,8,3
1458125620.15,0,8,3
1458125620.16,0,8,3
1458125620.2,0,8,3
1458125620.21,0,8,3
1458125620.21,0,8,3
1458125620.22,0,8,3
1458125620.25,0,8,3
1458125620.26,0,8,3
1458125620.28,0,8,3
1458125620.29,0,8,3
1458125620.3,0,8,3
1458125620.32,0,8,3
1458125620.33,0,8,3
1458125620.35,0,8,3
1458125620.38,0,8,3
1458125620.38,0,8,3
1458125620.4,0,8,3
1458125620.41,0,8,3
1458125620.43,0,8,3
1458125620.44,0,8,3
1458125620.48,0,8,3
1458125620.49,0,8,3
1458125620.53,0,8,3
1458125620.53,0,8,3
1458125620.54,0,8,3
1458125620.58,0,8,3
1458125620.61,0,8,3
1458125620.64,0,8,3
1458125620.66,0,8,3
1458125620.66,0,8,3
1458125620.7,0,8,3
1458125620.73,0,8,3
1458125620.76,0,8,3
1458125620.76,0,8,3
1458125620.79,0,8,3
1458125620.8,0,8,3
1458125620.8,0,8,3
1458125620.8,0,8,3
1458125620.84,0,8,3
1458125620.84,0,8,3
1458125620.85,0,8,3
1458125620.87,0,8,3
1458125620.9,0,8,3
1458125620.91,0,8,3
1458125620.91,0,8,3
1458125620.94,0,8,3
1458125620.95,0,8,3
1458125620.95,0,8,3
1458125620.98,0,8,3
1458125621.0,0,8,3
1458125621.02,0,8,3
1458125621.05,0,8,3
1458125621.07,0,8,3
1458125621.08,0,8,3
1458125621.1,0,8,3
1458125621.12,0,8,3
1458125621.12,0,8,3
1458125621.13,0,8,3
1458125621.14,0,8,3
1458125621.15,0,8,3
1458125621.17,0,8,3
1458125621.19,0,8,3
1458125621.21,0,8,3
1458125621.24,0,8,3
1458125621.25,0,8,3
1458125621.25,0,8,3
1458125621.29,0,8,3
1458125621.3,0,8,3
1458125621.32,0,8,3
1458125621.34,0,8,3
1458125621.38,0,8,3
1458125621.39,0,8,3
1458125621.43,0,8,3
1458125621.44,0,8,3
1458125621.45,0,8,3
1458125621.48,0,8,3
1458125621.49,0,8,3
1458125621.53,0,8,3
1458125621.56,0,8,3
1458125621.59,0,8,3
1458125621.61,0,8,3
1458125621.62,0,8,3
1458125621.65,0,8,3
1458125621.66,0,8,3
1458125621.7,0,8,3
1458125621.73,0,8,3
1458125621.77,0,8,3
1458125621.8,0,8,3
1458125621.81,0,8,3
1458125621.81,0,8,3
1458125621.84,0,8,3
1458125621.86,0,8,3
1458125621.87,0,8,3
1458125621.89,0,8,3
1458125621.93,0,8,3
1458125621.95,0,8,3
1458125621.97,0,8,3
1458125621.98,0,8,3
1458125622.02,0,8,3
1458125622.02,0,8,3
1458125622.04,0,8,3
1458125622.06,0,8,3
1458125622.08,0,8,3
1458125622.1,0,8,3
1458125622.11,0,8,3
1458125622.13,0,8,3
1458125622.18,0,8,3
1458125622.2,0,8,3
1458125622.21,0,8,3
1458125622.22,0,8,3
1458125622.25,0,8,3
1458125622.26,0,8,3
1458125622.28,0,8,3
1458125622.31,0,8,3
1458125622.32,0,8,3
1458125622.32,0,8,3
1458125622.32,0,8,3
1458125622.35,0,8,3
1458125622.37,0,8,3
1458125622.37,0,8,3
1458125622.38,0,8,3
1458125622.41,0,8,3
1458125622.42,0,8,3
1458125622.46,0,8,3
1458125622.51,0,8,3
1458125622.54,0,8,3
1458125622.58,0,8,3
1458125622.61,0,8,3
1458125622.65,0,8,3
1458125622.69,0,8,3
1458125622.71,0,8,3
1458125622.74,0,8,3
1458125622.77,0,8,3
1458125622.96,0,8,3
1458125623.06,0,8,3
1458125623.13,0,8,3
1458125623.16,0,8,3
1458125623.23,0,8,3
1458125623.32,0,8,3
1458125623.5,0,8,3
1458125623.62,0,8,3
1458125623.7,0,8,3
1458125623.75,0,8,3
1458125623.78,0,8,3
1458125623.85,0,8,3
1458125623.89,0,8,3
1458125623.98,0,8,3
1458125624.01,0,8,3
1458125624.07,0,8,3
1458125624.1,0,8,3
1458125624.15,0,8,3
1458125624.19,0,8,3
1458125624.23,0,8,3
1458125624.26,0,8,3
1458125624.29,0,8,3
1458125624.35,0,8,3
1458125624.42,0,8,3
1458125624.45,0,8,3
1458125624.47,0,8,3
1458125624.51,0,8,3
1458125624.54,0,8,3
1458125624.58,0,8,3
1458125624.61,0,8,3
1458125624.63,0,8,3
1458125624.67,0,8,3
1458125624.72,0,8,3
1458125624.79,0,8,3
1458125624.83,0,8,3
1458125624.92,0,8,3
1458125624.93,0,8,3
1458125624.96,0,8,3
1458125625.08,0,8,3
1458125625.12,0,8,3
1458125625.18,0,8,3
1458125625.23,0,8,3
1458125625.27,0,8,3
1458125625.34,0,8,3
1458125625.37,0,8,3
1458125625.44,0,8,3
1458125625.51,0,8,3
1458125625.66,0,8,3
1458125625.69,0,8,3
1458125625.71,0,8,3
1458125625.74,0,8,3
1458125625.78,0,8,3
1458125625.79,0,8,3
1458125625.83,0,8,3
1458125625.86,0,8,3
1458125625.91,0,8,3
1458125625.92,0,8,3
1458125625.95,0,8,3
1458125625.95,0,8,3
1458125625.97,0,8,3
1458125625.98,0,8,3
1458125625.99,0,8,3
1458125626.01,0,8,3
1458125626.04,0,8,3
1458125626.07,0,8,3
1458125626.12,0,8,3
1458125626.15,0,8,3
1458125626.19,0,8,3
1458125626.2,0,8,3
1458125626.23,0,8,3
1458125626.23,0,8,3
1458125626.27,0,8,3
1458125626.3,0,8,3
1458125626.32,0,8,3
1458125626.35,0,8,3
1458125626.36,0,8,3
1458125626.39,0,8,3
1458125626.42,0,8,3
1458125626.43,0,8,3
1458125626.47,0,8,3
1458125626.51,0,8,3
1458125626.51,0,8,3
1458125626.53,0,8,3
1458125626.57,0,8,3
1458125626.59,0,8,3
1458125626.61,0,8,3
1458125626.65,0,8,3
1458125626.66,0,8,3
1458125626.69,0,8,3
1458125626.72,0,8,3
1458125626.74,0,8,3
1458125626.76,0,8,3
1458125626.8,0,8,3
1458125626.82,0,8,3
1458125626.86,0,8,3
1458125626.89,0,8,3
1458125626.9,0,8,3
1458125626.97,0,8,3
1458125627.01,0,8,3
1458125627.1,0,8,3
1458125627.15,0,8,3
1458125627.2,0,8,3
1458125627.25,0,8,3
1458125627.25,0,8,3
1458125627.29,0,8,3
1458125627.31,0,8,3
1458125627.33,0,8,3
1458125627.33,0,8,3
1458125627.33,0,8,3
1458125627.33,0,8,3
1458125627.35,0,8,3
1458125627.35,0,8,3
1458125627.35,0,8,3
1458125627.38,0,8,3
1458125627.38,0,8,3
1458125627.4,0,8,3
1458125627.4,0,8,3
1458125627.43,0,8,3
1458125627.43,0,8,3
1458125627.43,0,8,3
1458125627.44,0,8,3
1458125627.46,0,8,3
1458125627.48,0,8,3
1458125627.48,0,8,3
1458125627.5,0,8,3
1458125627.5,0,8,3
1458125627.55,0,8,3
1458125627.6,0,8,3
1458125627.68,0,8,3
1458125627.74,0,8,3
1458125627.77,0,8,3
1458125627.78,0,8,3
1458125627.78,0,8,3
1458125627.78,0,8,3
1458125627.81,0,8,3
1458125627.85,0,8,3
1458125627.85,0,8,3
1458125627.88,0,8,3
1458125627.89,0,8,3
1458125627.91,0,8,3
1458125627.93,0,8,3
1458125627.93,0,8,3
1458125627.96,0,8,3
1458125627.96,0,8,3
1458125627.97,0,8,3
1458125628.01,0,8,3
1458125628.02,0,8,3
1458125628.04,0,8,3
1458125628.05,0,8,3
1458125628.07,0,8,3
1458125628.09,0,8,3
1458125628.1,0,8,3
1458125628.12,0,8,3
1458125628.12,0,8,3
1458125628.15,0,8,3
1458125628.22,0,8,3
1458125628.23,0,8,3
1458125628.23,0,8,3
1458125628.24,0,8,3
1458125628.26,0,8,3
1458125628.27,0,8,3
1458125628.31,0,8,3
1458125628.31,0,8,3
1458125628.31,0,8,3
1458125628.34,0,8,3
1458125628.35,0,8,3
1458125628.36,0,8,3
1458125628.36,0,8,3
1458125628.36,0,8,3
1458125628.37,0,8,3
1458125628.38,0,8,3
1458125628.38,0,8,3
1458125628.4,0,8,3
1458125628.41,0,8,3
1458125628.41,0,8,3
1458125628.41,0,8,3
1458125628.44,0,8,3
1458125628.46,0,8,3
1458125628.48,0,8,3
1458125628.49,0,8,3
1458125628.49,0,8,3
1458125628.5,0,8,3
1458125628.53,0,8,3
1458125628.53,0,8,3
1458125628.55,0,8,3
1458125628.55,0,8,3
1458125628.55,0,8,3
1458125628.55,0,8,3
1458125628.61,0,8,3
1458125628.61,0,8,3
1458125628.64,0,8,3
1458125628.65,0,8,3
1458125628.7,0,8,3
1458125628.74,0,8,3
1458125628.77,0,8,3
1458125628.83,0,8,3
1458125628.84,0,8,3
1458125628.86,0,8,3
1458125628.86,0,8,3
1458125628.89,0,8,3
1458125628.94,0,8,3
1458125628.94,0,8,3
1458125628.97,0,8,3
1458125628.98,0,8,3
1458125629.03,0,8,3
1458125629.06,0,8,3
1458125629.09,0,8,3
1458125629.1,0,8,3
1458125629.15,0,8,3
1458125629.24,0,8,3
1458125629.27,0,8,3
1458125629.34,0,8,3
1458125629.38,0,8,3
1458125629.41,0,8,3
1458125629.43,0,8,3
1458125629.46,0,8,3
1458125629.47,0,8,3
1458125629.52,0,8,3
1458125629.54,0,8,3
1458125629.55,0,8,3
1458125629.58,0,8,3
1458125629.6,0,8,3
1458125629.63,0,8,3
1458125629.66,0,8,3
1458125629.66,0,8,3
1458125629.71,0,8,3
1458125629.72,0,8,3
1458125629.73,0,8,3
1458125629.83,0,8,3
1458125629.88,0,8,3
1458125629.88,0,8,3
1458125629.95,0,8,3
1458125629.99,0,8,3
1458125630.05,0,8,3
1458125630.19,0,8,3
1458125630.19,0,8,3
1458125630.2,0,8,3
1458125630.24,0,8,3
1458125630.27,0,8,3
1458125630.28,0,8,3
1458125630.29,0,8,3
1458125630.31,0,8,3
1458125630.33,0,8,3
1458125630.33,0,8,3
1458125630.36,0,8,3
1458125630.4,0,8,3
1458125630.5,0,8,3
1458125630.53,0,8,3
1458125630.54,0,8,3
1458125630.59,0,8,3
1458125630.64,0,8,3
1458125630.68,0,8,3
1458125630.71,0,8,3
1458125630.76,0,8,3
1458125630.76,0,8,3
1458125630.79,0,8,3
1458125630.82,0,8,3
1458125630.85,0,8,3
1458125630.92,0,8,3
1458125630.99,0,8,3
1458125631.0,0,8,3
1458125631.02,0,8,3
1458125631.03,0,8,3
1458125631.07,0,8,3
1458125631.08,0,8,3
1458125631.09,0,8,3
1458125631.1,0,8,3
1458125631.12,0,8,3
1458125631.12,0,8,3
1458125631.12,0,8,3
1458125631.15,0,8,3
1458125631.16,0,8,3
1458125631.18,0,8,3
1458125631.21,0,8,3
1458125631.22,0,8,3
1458125631.25,0,8,3
1458125631.27,0,8,3
1458125631.27,0,8,3
1458125631.28,0,8,3
1458125631.33,0,8,3
1458125631.35,0,8,3
1458125631.35,0,8,3
1458125631.38,0,8,3
1458125631.39,0,8,3
1458125631.53,0,8,3
1458125631.55,0,8,3
1458125631.58,0,8,3
1458125631.59,0,8,3
1458125631.61,0,8,3
1458125631.61,0,8,3
1458125631.64,0,8,3
1458125631.65,0,8,3
1458125631.8,0,8,3
1458125631.8,0,8,3
1458125631.86,0,8,3
1458125631.99,0,8,3
1458125632.03,0,8,3
1458125632.07,0,8,3
1458125632.18,0,8,3
1458125632.22,0,8,3
1458125632.23,0,8,3
1458125632.25,0,8,3
1458125632.35,0,8,3
1458125632.36,0,8,3
1458125632.4,0,8,3
1458125632.42,0,8,3
1458125632.43,0,8,3
1458125632.46,0,8,3
1458125632.57,0,8,3
1458125632.64,0,8,3
1458125632.66,0,8,3
1458125632.77,0,8,3
1458125632.8,0,8,3
1458125632.81,0,8,3
1458125632.82,0,8,3
1458125632.83,0,8,3
1458125632.85,0,8,3
1458125632.87,0,8,3
1458125632.93,0,8,3
1458125633.08,0,8,3
1458125633.11,0,8,3
1458125633.12,0,8,3
1458125633.16,0,8,3
1458125633.17,0,8,3
1458125633.21,0,8,3
1458125633.36,0,8,3
1458125633.47,0,8,3
1458125633.48,0,8,3
1458125633.51,0,8,3
1458125633.55,0,8,3
1458125633.57,0,8,3
1458125633.6,0,8,3
1458125633.62,0,8,3
1458125633.65,0,8,3
1458125633.67,0,8,3
1458125633.71,0,8,3
1458125633.75,0,8,3
1458125633.78,0,8,3
1458125633.8,0,8,3
1458125633.81,0,8,3
1458125633.86,0,8,3
1458125633.87,0,8,3
1458125633.89,0,8,3
1458125633.89,0,8,3
1458125633.91,0,8,3
1458125633.91,0,8,3
1458125633.92,0,8,3
1458125633.94,0,8,3
1458125633.98,0,8,3
1458125634.01,0,8,3
1458125634.02,0,8,3
1458125634.02,0,8,3
1458125634.05,0,8,3
1458125634.09,0,8,3
1458125634.09,0,8,3
1458125634.12,0,8,3
1458125634.15,0,8,3
1458125634.17,0,8,3
1458125634.18,0,8,3
1458125634.19,0,8,3
1458125634.21,0,8,3
1458125634.21,0,8,3
1458125634.22,0,8,3
1458125634.25,0,8,3
1458125634.29,0,8,3
1458125634.29,0,8,3
1458125634.34,0,8,3
1458125634.34,0,8,3
1458125634.35,0,8,3
1458125634.37,0,8,3
1458125634.42,0,8,3
1458125634.45,0,8,3
1458125634.47,0,8,3
1458125634.5,0,8,3
1458125634.67,0,8,3
1458125634.71,0,8,3
1458125634.75,0,8,3
1458125634.75,0,8,3
1458125634.79,0,8,3
1458125634.82,0,8,3
1458125634.85,0,8,3
1458125634.91,0,8,3
1458125634.91,0,8,3
1458125634.99,0,8,3
1458125635.02,0,8,3
1458125635.06,0,8,3
1458125635.12,0,8,3
1458125635.14,0,8,3
1458125635.17,0,8,3
1458125635.18,0,8,3
1458125635.2,0,8,3
1458125635.24,0,8,3
1458125635.31,0,8,3
1458125635.32,0,8,3
1458125635.32,0,8,3
1458125635.36,0,8,3
1458125635.38,0,8,3
1458125635.4,0,8,3
1458125635.41,0,8,3
1458125635.47,0,8,3
1458125635.49,0,8,3
1458125635.52,0,8,3
1458125635.54,0,8,3
1458125635.59,0,8,3
1458125635.64,0,8,3
1458125635.72,0,8,3
1458125635.74,0,8,3
1458125635.77,0,8,3
1458125635.82,0,8,3
1458125635.82,0,8,3
1458125635.83,0,8,3
1458125635.84,0,8,3
1458125635.85,0,8,3
1458125635.87,0,8,3
1458125635.87,0,8,3
1458125635.9,0,8,3
1458125635.9,0,8,3
1458125635.9,0,8,3
1458125635.94,0,8,3
1458125635.98,0,8,3
1458125636.01,0,8,3
1458125636.06,0,8,3
1458125636.08,0,8,3
1458125636.14,0,8,3
1458125636.21,0,8,3
1458125636.25,0,8,3
1458125636.27,0,8,3
1458125636.33,0,8,3
1458125636.39,0,8,3
1458125636.45,0,8,3
1458125636.47,0,8,3
1458125636.59,0,8,3
1458125636.59,0,8,3
1458125636.65,0,8,3
1458125636.72,0,8,3
1458125636.73,0,8,3
1458125636.76,0,8,3
1458125636.8,0,8,3
1458125636.82,0,8,3
1458125636.84,0,8,3
1458125636.9,0,8,3
1458125636.96,0,8,3
1458125637.02,0,8,3
1458125637.07,0,8,3
1458125637.12,0,8,3
1458125637.18,0,8,3
1458125637.24,0,8,3
1458125637.31,0,8,3
1458125637.38,0,8,3
1458125637.43,0,8,3
1458125637.49,0,8,3
1458125637.5,0,8,3
1458125637.52,0,8,3
1458125637.54,0,8,3
1458125637.62,0,8,3
1458125637.69,0,8,3
1458125637.7,0,8,3
1458125637.72,0,8,3
1458125637.83,0,8,3
1458125637.84,0,8,3
1458125637.85,0,8,3
1458125637.85,0,8,3
1458125637.88,0,8,3
1458125637.88,0,8,3
1458125637.89,0,8,3
1458125637.92,0,8,3
1458125637.94,0,8,3
1458125637.94,0,8,3
1458125637.96,0,8,3
1458125637.97,0,8,3
1458125637.99,0,8,3
1458125638.03,0,8,3
1458125638.04,0,8,3
1458125638.08,0,8,3
1458125638.1,0,8,3
1458125638.12,0,8,3
1458125638.14,0,8,3
1458125638.16,0,8,3
1458125638.21,0,8,3
1458125638.28,0,8,3
1458125638.32,0,8,3
1458125638.37,0,8,3
1458125638.41,0,8,3
1458125638.46,0,8,3
1458125638.48,0,8,3
1458125638.5,0,8,3
1458125638.54,0,8,3
1458125638.55,0,8,3
1458125638.57,0,8,3
1458125638.58,0,8,3
1458125638.59,0,8,3
1458125638.6,0,8,3
1458125638.6,0,8,3
1458125638.62,0,8,3
1458125638.65,0,8,3
1458125638.67,0,8,3
1458125638.7,0,8,3
1458125638.7,0,8,3
1458125638.71,0,8,3
1458125638.71,0,8,3
1458125638.73,0,8,3
1458125638.75,0,8,3
1458125638.76,0,8,3
1458125638.77,0,8,3
1458125638.81,0,8,3
1458125638.83,0,8,3
1458125638.85,0,8,3
1458125638.85,0,8,3
1458125638.89,0,8,3
1458125638.93,0,8,3
1458125638.99,0,8,3
1458125639.02,0,8,3
1458125639.04,0,8,3
1458125639.08,0,8,3
1458125639.11,0,8,3
1458125639.13,0,8,3
1458125639.19,0,8,3
1458125639.24,0,8,3
1458125639.24,0,8,3
1458125639.3,0,8,3
1458125639.35,0,8,3
1458125639.39,0,8,3
1458125639.4,0,8,3
1458125639.42,0,8,3
1458125639.42,0,8,3
1458125639.43,0,8,3
1458125639.44,0,8,3
1458125639.46,0,8,3
1458125639.49,0,8,3
1458125639.49,0,8,3
1458125639.5,0,8,3
1458125639.51,0,8,3
1458125639.52,0,8,3
1458125639.53,0,8,3
1458125639.53,0,8,3
1458125639.55,0,8,3
1458125639.6,0,8,3
1458125639.65,0,8,3
1458125639.66,0,8,3
1458125639.77,0,8,3
1458125639.78,0,8,3
1458125639.83,0,8,3
1458125639.85,0,8,3
1458125639.88,0,8,3
1458125639.95,0,8,3
1458125640.03,0,8,3
1458125640.06,0,8,3
1458125640.09,0,8,3
1458125640.11,0,8,3
1458125640.14,0,8,3
1458125640.15,0,8,3
1458125640.2,0,8,3
1458125640.23,0,8,3
1458125640.27,0,8,3
1458125640.28,0,8,3
1458125640.3,0,8,3
1458125640.34,0,8,3
1458125640.37,0,8,3
1458125640.44,0,8,3
1458125640.48,0,8,3
1458125640.49,0,8,3
1458125640.49,0,8,3
1458125640.54,0,8,3
1458125640.62,0,8,3
1458125640.67,0,8,3
1458125640.67,0,8,3
1458125640.69,0,8,3
1458125640.7,0,8,3
1458125640.77,0,8,3
1458125640.78,0,8,3
1458125640.8,0,8,3
1458125640.81,0,8,3
1458125640.83,0,8,3
1458125640.83,0,8,3
1458125640.93,0,8,3
1458125640.96,0,8,3
1458125641.01,0,8,3
1458125641.01,0,8,3
1458125641.04,0,8,3
1458125641.09,0,8,3
1458125641.11,0,8,3
1458125641.14,0,8,3
1458125641.14,0,8,3
1458125641.18,0,8,3
1458125641.21,0,8,3
1458125641.22,0,8,3
1458125641.27,0,8,3
1458125641.29,0,8,3
1458125641.38,0,8,3
1458125641.38,0,8,3
1458125641.39,0,8,3
1458125641.42,0,8,3
1458125641.45,0,8,3
1458125641.46,0,8,3
1458125641.59,0,8,3
1458125641.59,0,8,3
1458125641.6,0,8,3
1458125641.62,0,8,3
1458125641.65,0,8,3
1458125641.66,0,8,3
1458125641.79,0,8,3
1458125641.79,0,8,3
1458125641.82,0,8,3
1458125641.82,0,8,3
1458125641.84,0,8,3
1458125641.86,0,8,3
1458125641.87,0,8,3
1458125641.89,0,8,3
1458125641.91,0,8,3
1458125641.92,0,8,3
1458125641.96,0,8,3
1458125642.13,0,8,3
1458125642.15,0,8,3
1458125642.17,0,8,3
1458125642.17,0,8,3
1458125642.19,0,8,3
1458125642.2,0,8,3
1458125642.35,0,8,3
1458125642.36,0,8,3
1458125642.4,0,8,3
1458125642.41,0,8,3
1458125642.45,0,8,3
1458125642.47,0,8,3
1458125642.5,0,8,3
1458125642.65,0,8,3
1458125642.7,0,8,3
1458125642.71,0,8,3
1458125642.72,0,8,3
1458125642.72,0,8,3
1458125642.74,0,8,3
1458125642.75,0,8,3
1458125642.79,0,8,3
1458125642.8,0,8,3
1458125642.81,0,8,3
1458125642.83,0,8,3
1458125642.83,0,8,3
1458125642.85,0,8,3
1458125642.85,0,8,3
1458125642.9,0,8,3
1458125642.91,0,8,3
1458125642.92,0,8,3
1458125642.93,0,8,3
1458125642.93,0,8,3
1458125642.96,0,8,3
1458125642.97,0,8,3
1458125642.98,0,8,3
1458125643.02,0,8,3
1458125643.07,0,8,3
1458125643.09,0,8,3
1458125643.1,0,8,3
1458125643.12,0,8,3
1458125643.13,0,8,3
1458125643.22,0,8,3
1458125643.25,0,8,3
1458125643.28,0,8,3
1458125643.31,0,8,3
1458125643.31,0,8,3
1458125643.36,0,8,3
1458125643.45,0,8,3
1458125643.46,0,8,3
1458125643.49,0,8,3
1458125643.51,0,8,3
1458125643.52,0,8,3
1458125643.53,0,8,3
1458125643.53,0,8,3
1458125643.6,0,8,3
1458125643.61,0,8,3
1458125643.63,0,8,3
1458125643.65,0,8,3
1458125643.65,0,8,3
1458125643.66,0,8,3
1458125643.66,0,8,3
1458125643.68,0,8,3
1458125643.7,0,8,3
1458125643.7,0,8,3
1458125643.72,0,8,3
1458125643.72,0,8,3
1458125643.74,0,8,3
1458125643.75,0,8,3
1458125643.76,0,8,3
1458125643.78,0,8,3
1458125643.78,0,8,3
1458125643.8,0,8,3
1458125643.8,0,8,3
1458125643.86,0,8,3
1458125643.87,0,8,3
1458125643.89,0,8,3
1458125644.0,0,8,3
1458125644.01,0,8,3
1458125644.08,0,8,3
1458125644.08,0,8,3
1458125644.25,0,8,3
1458125644.26,0,8,3
1458125644.35,0,8,3
1458125644.35,0,8,3
1458125644.46,0,8,3
1458125644.52,0,8,3
1458125644.57,0,8,3
1458125644.62,0,8,3
1458125644.7,0,8,3
1458125644.71,0,8,3
1458125644.73,0,8,3
1458125644.76,0,8,3
1458125644.79,0,8,3
1458125644.8,0,8,3
1458125644.84,0,8,3
1458125644.85,0,8,3
1458125644.87,0,8,3
1458125644.89,0,8,3
1458125644.93,0,8,3
1458125644.98,0,8,3
1458125644.99,0,8,3
1458125645.01,0,8,3
1458125645.06,0,8,3
1458125645.12,0,8,3
1458125645.17,0,8,3
1458125645.18,0,8,3
1458125645.21,0,8,3
1458125645.27,0,8,3
1458125645.28,0,8,3
1458125645.35,0,8,3
1458125645.4,0,8,3
1458125645.4,0,8,3
1458125645.46,0,8,3
1458125645.47,0,8,3
1458125645.48,0,8,3
1458125645.48,0,8,3
1458125645.49,0,8,3
1458125645.53,0,8,3
1458125645.54,0,8,3
1458125645.56,0,8,3
1458125645.59,0,8,3
1458125645.61,0,8,3
1458125645.63,0,8,3
1458125645.65,0,8,3
1458125645.73,0,8,3
1458125645.76,0,8,3
1458125645.76,0,8,3
1458125645.76,0,8,3
1458125645.78,0,8,3
1458125645.79,0,8,3
1458125645.81,0,8,3
1458125645.97,0,8,3
1458125645.97,0,8,3
1458125646.01,0,8,3
1458125646.1,0,8,3
1458125646.1,0,8,3
1458125646.17,0,8,3
1458125646.23,0,8,3
1458125646.27,0,8,3
1458125646.31,0,8,3
1458125646.35,0,8,3
1458125646.48,0,8,3
1458125646.51,0,8,3
1458125646.54,0,8,3
1458125646.56,0,8,3
1458125646.57,0,8,3
1458125646.62,0,8,3
1458125646.62,0,8,3
1458125646.86,0,8,3
1458125647.0,0,8,3
1458125647.03,0,8,3
1458125647.06,0,8,3
1458125647.11,0,8,3
1458125647.14,0,8,3
1458125647.18,0,8,3
1458125647.22,0,8,3
1458125647.22,0,8,3
1458125647.33,0,8,3
1458125647.34,0,8,3
1458125647.35,0,8,3
1458125647.39,0,8,3
1458125647.39,0,8,3
1458125647.4,0,8,3
1458125647.42,0,8,3
1458125647.43,0,8,3
1458125647.44,0,8,3
1458125647.46,0,8,3
1458125647.47,0,8,3
1458125647.49,0,8,3
1458125647.49,0,8,3
1458125647.51,0,8,3
1458125647.51,0,8,3
1458125647.51,0,8,3
1458125647.51,0,8,3
1458125647.52,0,8,3
1458125647.52,0,8,3
1458125647.53,0,8,3
1458125647.54,0,8,3
1458125647.54,0,8,3
1458125647.55,0,8,3
1458125647.56,0,8,3
1458125647.57,0,8,3
1458125647.58,0,8,3
1458125647.58,0,8,3
1458125647.59,0,8,3
1458125647.6,0,8,3
1458125647.6,0,8,3
1458125647.61,0,8,3
1458125647.62,0,8,3
1458125647.62,0,8,3
1458125647.62,0,8,3
1458125647.63,0,8,3
1458125647.64,0,8,3
1458125647.64,0,8,3
1458125647.68,0,8,3
1458125647.68,0,8,3
1458125647.69,0,8,3
1458125647.7,0,8,3
1458125647.7,0,8,3
1458125647.71,0,8,3
1458125647.71,0,8,3
1458125647.72,0,8,3
1458125647.72,0,8,3
1458125647.72,0,8,3
1458125647.73,0,8,3
1458125647.74,0,8,3
1458125647.74,0,8,3
1458125647.75,0,8,3
1458125647.75,0,8,3
1458125647.76,0,8,3
1458125647.79,0,8,3
1458125647.8,0,8,3
1458125647.81,0,8,3
1458125647.81,0,8,3
1458125647.83,0,8,3
1458125647.83,0,8,3
1458125647.83,0,8,3
1458125647.85,0,8,3
1458125647.87,0,8,3
1458125647.88,0,8,3
1458125647.89,0,8,3
1458125647.91,0,8,3
1458125647.91,0,8,3
1458125647.92,0,8,3
1458125647.92,0,8,3
1458125647.94,0,8,3
1458125647.95,0,8,3
1458125647.95,0,8,3
1458125647.96,0,8,3
1458125647.97,0,8,3
1458125647.98,0,8,3
1458125648.0,0,8,3
1458125648.0,0,8,3
1458125648.0,0,8,3
1458125648.01,0,8,3
1458125648.03,0,8,3
1458125648.03,0,8,3
1458125648.06,0,8,3
1458125648.08,0,8,3
1458125648.08,0,8,3
1458125648.09,0,8,3
1458125648.09,0,8,3
1458125648.11,0,8,3
1458125648.11,0,8,3
1458125648.12,0,8,3
1458125648.12,0,8,3
1458125648.15,0,8,3
1458125648.15,0,8,3
1458125648.16,0,8,3
1458125648.16,0,8,3
1458125648.17,0,8,3
1458125648.18,0,8,3
1458125648.18,0,8,3
1458125648.2,0,8,3
1458125648.2,0,8,3
1458125648.2,0,8,3
1458125648.2,0,8,3
1458125648.21,0,8,3
1458125648.21,0,8,3
1458125648.21,0,8,3
1458125648.22,0,8,3
1458125648.22,0,8,3
1458125648.23,0,8,3
1458125648.23,0,8,3
1458125648.23,0,8,3
1458125648.24,0,8,3
1458125648.25,0,8,3
1458125648.25,0,8,3
1458125648.25,0,8,3
1458125648.26,0,8,3
1458125648.26,0,8,3
1458125648.27,0,8,3
1458125648.27,0,8,3
1458125648.28,0,8,3
1458125648.29,0,8,3
1458125648.31,0,8,3
1458125648.31,0,8,3
1458125648.32,0,8,3
1458125648.33,0,8,3
1458125648.33,0,8,3
1458125648.33,0,8,3
1458125648.33,0,8,3
1458125648.34,0,8,3
1458125648.34,0,8,3
1458125648.35,0,8,3
1458125648.35,0,8,3
1458125648.35,0,8,3
1458125648.35,0,8,3
1458125648.36,0,8,3
1458125648.37,0,8,3
1458125648.37,0,8,3
1458125648.38,0,8,3
1458125648.38,0,8,3
1458125648.39,0,8,3
1458125648.39,0,8,3
1458125648.39,0,8,3
1458125648.4,0,8,3
1458125648.4,0,8,3
1458125648.4,0,8,3
1458125648.41,0,8,3
1458125648.41,0,8,3
1458125648.41,0,8,3
1458125648.41,0,8,3
1458125648.42,0,8,3
1458125648.42,0,8,3
1458125648.43,0,8,3
1458125648.43,0,8,3
1458125648.43,0,8,3
1458125648.44,0,8,3
1458125648.44,0,8,3
1458125648.44,0,8,3
1458125648.44,0,8,3
1458125648.45,0,8,3
1458125648.45,0,8,3
1458125648.45,0,8,3
1458125648.45,0,8,3
1458125648.46,0,8,3
1458125648.46,0,8,3
1458125648.46,0,8,3
1458125648.46,0,8,3
1458125648.47,0,8,3
1458125648.48,0,8,3
1458125648.48,0,8,3
1458125648.49,0,8,3
1458125648.5,0,8,3
1458125648.5,0,8,3
1458125648.5,0,8,3
1458125648.51,0,8,3
1458125648.53,0,8,3
1458125648.53,0,8,3
1458125648.53,0,8,3
1458125648.54,0,8,3
1458125648.54,0,8,3
1458125648.55,0,8,3
1458125648.55,0,8,3
1458125648.55,0,8,3
1458125648.56,0,8,3
1458125648.57,0,8,3
1458125648.57,0,8,3
1458125648.57,0,8,3
1458125648.58,0,8,3
1458125648.58,0,8,3
1458125648.58,0,8,3
1458125648.58,0,8,3
1458125648.59,0,8,3
1458125648.6,0,8,3
1458125648.6,0,8,3
1458125648.6,0,8,3
1458125648.61,0,8,3
1458125648.62,0,8,3
1458125648.62,0,8,3
1458125648.63,0,8,3
1458125648.64,0,8,3
1458125648.64,0,8,3
1458125648.64,0,8,3
1458125648.64,0,8,3
1458125648.65,0,8,3
1458125648.66,0,8,3
1458125648.69,0,8,3
1458125648.7,0,8,3
1458125648.7,0,8,3
1458125648.72,0,8,3
1458125648.72,0,8,3
1458125648.73,0,8,3
1458125648.74,0,8,3
1458125648.74,0,8,3
1458125648.75,0,8,3
1458125648.75,0,8,3
1458125648.76,0,8,3
1458125648.76,0,8,3
1458125648.77,0,8,3
1458125648.77,0,8,3
1458125648.77,0,8,3
1458125648.77,0,8,3
1458125648.78,0,8,3
1458125648.79,0,8,3
1458125648.79,0,8,3
1458125648.79,0,8,3
1458125648.79,0,8,3
1458125648.81,0,8,3
1458125648.81,0,8,3
1458125648.81,0,8,3
1458125648.82,0,8,3
1458125648.82,0,8,3
1458125648.82,0,8,3
1458125648.83,0,8,3
1458125648.83,0,8,3
1458125648.83,0,8,3
1458125648.84,0,8,3
1458125648.85,0,8,3
1458125648.85,0,8,3
1458125648.85,0,8,3
1458125648.85,0,8,3
1458125648.86,0,8,3
1458125648.86,0,8,3
1458125648.86,0,8,3
1458125648.87,0,8,3
1458125648.87,0,8,3
1458125648.88,0,8,3
1458125648.88,0,8,3
1458125648.88,0,8,3
1458125648.9,0,8,3
1458125648.9,0,8,3
1458125648.9,0,8,3
1458125648.9,0,8,3
1458125648.91,0,8,3
1458125648.92,0,8,3
1458125648.92,0,8,3
1458125648.95,0,8,3
1458125648.95,0,8,3
1458125648.95,0,8,3
1458125648.96,0,8,3
1458125648.97,0,8,3
1458125648.97,0,8,3
1458125648.98,0,8,3
1458125648.98,0,8,3
1458125649.02,0,8,3
1458125649.05,0,8,3
1458125649.05,0,8,3
1458125649.05,0,8,3
1458125649.06,0,8,3
1458125649.07,0,8,3
1458125649.09,0,8,3
1458125649.09,0,8,3
1458125649.13,0,8,3
1458125649.14,0,8,3
1458125649.14,0,8,3
1458125649.15,0,8,3
1458125649.16,0,8,3
1458125649.16,0,8,3
1458125649.17,0,8,3
1458125649.2,0,8,3
1458125649.2,0,8,3
1458125649.21,0,8,3
1458125649.21,0,8,3
1458125649.21,0,8,3
1458125649.23,0,8,3
1458125649.23,0,8,3
1458125649.24,0,8,3
1458125649.25,0,8,3
1458125649.25,0,8,3
1458125649.25,0,8,3
1458125649.27,0,8,3
1458125649.28,0,8,3
1458125649.29,0,8,3
1458125649.29,0,8,3
1458125649.3,0,8,3
1458125649.31,0,8,3
1458125649.31,0,8,3
1458125649.31,0,8,3
1458125649.32,0,8,3
1458125649.32,0,8,3
1458125649.34,0,8,3
1458125649.34,0,8,3
1458125649.36,0,8,3
1458125649.36,0,8,3
1458125649.38,0,8,3
1458125649.38,0,8,3
1458125649.38,0,8,3
1458125649.4,0,8,3
1458125649.4,0,8,3
1458125649.42,0,8,3
1458125649.42,0,8,3
1458125649.42,0,8,3
1458125649.44,0,8,3
1458125649.46,0,8,3
1458125649.48,0,8,3
1458125649.48,0,8,3
1458125649.49,0,8,3
1458125649.51,0,8,3
1458125649.51,0,8,3
1458125649.54,0,8,3
1458125649.56,0,8,3
1458125649.56,0,8,3
1458125649.56,0,8,3
1458125649.59,0,8,3
1458125649.59,0,8,3
1458125649.65,0,8,3
1458125649.67,0,8,3
1458125649.67,0,8,3
1458125649.67,0,8,3
1458125649.69,0,8,3
1458125649.7,0,8,3
1458125649.7,0,8,3
1458125649.71,0,8,3
1458125649.72,0,8,3
1458125649.72,0,8,3
1458125649.73,0,8,3
1458125649.74,0,8,3
1458125649.74,0,8,3
1458125649.75,0,8,3
1458125649.75,0,8,3
1458125649.75,0,8,3
1458125649.76,0,8,3
1458125649.76,0,8,3
1458125649.77,0,8,3
1458125649.77,0,8,3
1458125649.78,0,8,3
1458125649.78,0,8,3
1458125649.78,0,8,3
1458125649.8,0,8,3
1458125649.8,0,8,3
1458125649.81,0,8,3
1458125649.81,0,8,3
1458125649.81,0,8,3
1458125649.81,0,8,3
1458125649.81,0,8,3
1458125649.82,0,8,3
1458125649.82,0,8,3
1458125649.82,0,8,3
1458125649.83,0,8,3
1458125649.83,0,8,3
1458125649.83,0,8,3
1458125649.83,0,8,3
1458125649.84,0,8,3
1458125649.85,0,8,3
1458125649.85,0,8,3
1458125649.85,0,8,3
1458125649.85,0,8,3
1458125649.86,0,8,3
1458125649.86,0,8,3
1458125649.86,0,8,3
1458125649.86,0,8,3
1458125649.87,0,8,3
1458125649.88,0,8,3
1458125649.88,0,8,3
1458125649.88,0,8,3
1458125649.88,0,8,3
1458125649.88,0,8,3
1458125649.89,0,8,3
1458125649.91,0,8,3
1458125649.92,0,8,3
1458125649.93,0,8,3
1458125649.94,0,8,3
1458125649.94,0,8,3
1458125649.95,0,8,3
1458125649.97,0,8,3
1458125649.97,0,8,3
1458125649.97,0,8,3
1458125649.98,0,8,3
1458125650.0,0,8,3
1458125650.0,0,8,3
1458125650.03,0,8,3
1458125650.03,0,8,3
1458125650.03,0,8,3
1458125650.05,0,8,3
1458125650.05,0,8,3
1458125650.05,0,8,3
1458125650.05,0,8,3
1458125650.05,0,8,3
1458125650.05,0,8,3
1458125650.06,0,8,3
1458125650.07,0,8,3
1458125650.07,0,8,3
1458125650.07,0,8,3
1458125650.07,0,8,3
1458125650.07,0,8,3
1458125650.07,0,8,3
1458125650.09,0,8,3
1458125650.09,0,8,3
1458125650.09,0,8,3
1458125650.09,0,8,3
1458125650.09,0,8,3
1458125650.09,0,8,3
1458125650.1,0,8,3
1458125650.1,0,8,3
1458125650.12,0,8,3
1458125650.12,0,8,3
1458125650.12,0,8,3
1458125650.13,0,8,3
1458125650.13,0,8,3
1458125650.13,0,8,3
1458125650.14,0,8,3
1458125650.14,0,8,3
1458125650.14,0,8,3
1458125650.15,0,8,3
1458125650.15,0,8,3
1458125650.15,0,8,3
1458125650.17,0,8,3
1458125650.18,0,8,3
1458125650.18,0,8,3
1458125650.19,0,8,3
1458125650.19,0,8,3
1458125650.2,0,8,3
1458125650.2,0,8,3
1458125650.21,0,8,3
1458125650.21,0,8,3
1458125650.21,0,8,3
1458125650.21,0,8,3
1458125650.21,0,8,3
1458125650.22,0,8,3
1458125650.23,0,8,3
1458125650.23,0,8,3
1458125650.23,0,8,3
1458125650.24,0,8,3
1458125650.24,0,8,3
1458125650.25,0,8,3
1458125650.25,0,8,3
1458125650.26,0,8,3
1458125650.29,0,8,3
1458125650.3,0,8,3
1458125650.31,0,8,3
1458125650.33,0,8,3
1458125650.34,0,8,3
1458125650.35,0,8,3
1458125650.37,0,8,3
1458125650.37,0,8,3
1458125650.38,0,8,3
1458125650.39,0,8,3
1458125650.39,0,8,3
1458125650.4,0,8,3
1458125650.4,0,8,3
1458125650.4,0,8,3
1458125650.41,0,8,3
1458125650.42,0,8,3
1458125650.43,0,8,3
1458125650.43,0,8,3
1458125650.43,0,8,3
1458125650.45,0,8,3
1458125650.45,0,8,3
1458125650.45,0,8,3
1458125650.46,0,8,3
1458125650.46,0,8,3
1458125650.46,0,8,3
1458125650.47,0,8,3
1458125650.47,0,8,3
1458125650.48,0,8,3
1458125650.48,0,8,3
1458125650.48,0,8,3
1458125650.49,0,8,3
1458125650.49,0,8,3
1458125650.5,0,8,3
1458125650.51,0,8,3
1458125650.51,0,8,3
1458125650.52,0,8,3
1458125650.52,0,8,3
1458125650.53,0,8,3
1458125650.53,0,8,3
1458125650.54,0,8,3
1458125650.55,0,8,3
1458125650.55,0,8,3
1458125650.55,0,8,3
1458125650.57,0,8,3
1458125650.58,0,8,3
1458125650.6,0,8,3
1458125650.6,0,8,3
1458125650.61,0,8,3
1458125650.61,0,8,3
1458125650.62,0,8,3
1458125650.62,0,8,3
1458125650.63,0,8,3
1458125650.63,0,8,3
1458125650.64,0,8,3
1458125650.64,0,8,3
1458125650.65,0,8,3
1458125650.65,0,8,3
1458125650.65,0,8,3
1458125650.66,0,8,3
1458125650.66,0,8,3
1458125650.66,0,8,3
1458125650.66,0,8,3
1458125650.67,0,8,3
1458125650.67,0,8,3
1458125650.67,0,8,3
1458125650.68,0,8,3
1458125650.68,0,8,3
1458125650.68,0,8,3
1458125650.68,0,8,3
1458125650.69,0,8,3
1458125650.69,0,8,3
1458125650.69,0,8,3
1458125650.71,0,8,3
1458125650.71,0,8,3
1458125650.72,0,8,3
1458125650.72,0,8,3
1458125650.73,0,8,3
1458125650.74,0,8,3
1458125650.74,0,8,3
1458125650.75,0,8,3
1458125650.75,0,8,3
1458125650.75,0,8,3
1458125650.75,0,8,3
1458125650.76,0,8,3
1458125650.76,0,8,3
1458125650.77,0,8,3
1458125650.77,0,8,3
1458125650.77,0,8,3
1458125650.77,0,8,3
1458125650.78,0,8,3
1458125650.78,0,8,3
1458125650.78,0,8,3
1458125650.78,0,8,3
1458125650.79,0,8,3
1458125650.79,0,8,3
1458125650.79,0,8,3
1458125650.8,0,8,3
1458125650.8,0,8,3
1458125650.8,0,8,3
1458125650.8,0,8,3
1458125650.82,0,8,3
1458125650.82,0,8,3
1458125650.82,0,8,3
1458125650.82,0,8,3
1458125650.83,0,8,3
1458125650.83,0,8,3
1458125650.83,0,8,3
1458125650.83,0,8,3
1458125650.83,0,8,3
1458125650.85,0,8,3
1458125650.86,0,8,3
1458125650.86,0,8,3
1458125650.87,0,8,3
1458125650.9,0,8,3
1458125650.9,0,8,3
1458125650.91,0,8,3
1458125650.92,0,8,3
1458125650.92,0,8,3
1458125650.94,0,8,3
1458125650.94,0,8,3
1458125650.96,0,8,3
1458125650.96,0,8,3
1458125650.98,0,8,3
1458125650.98,0,8,3
1458125650.99,0,8,3
1458125650.99,0,8,3
1458125651.0,0,8,3
1458125651.01,0,8,3
1458125651.02,0,8,3
1458125651.03,0,8,3
1458125651.04,0,8,3
1458125651.05,0,8,3
1458125651.06,0,8,3
1458125651.07,0,8,3
1458125651.08,0,8,3
1458125651.09,0,8,3
1458125651.09,0,8,3
1458125651.12,0,8,3
1458125651.12,0,8,3
1458125651.13,0,8,3
1458125651.13,0,8,3
1458125651.16,0,8,3
1458125651.18,0,8,3
1458125651.2,0,8,3
1458125651.21,0,8,3
1458125651.23,0,8,3
1458125651.25,0,8,3
1458125651.26,0,8,3
1458125651.27,0,8,3
1458125651.32,0,8,3
1458125651.32,0,8,3
1458125651.33,0,8,3
1458125651.33,0,8,3
1458125651.35,0,8,3
1458125651.35,0,8,3
1458125651.36,0,8,3
1458125651.37,0,8,3
1458125651.4,0,8,3
1458125651.41,0,8,3
1458125651.41,0,8,3
1458125651.45,0,8,3
1458125651.45,0,8,3
1458125651.48,0,8,3
1458125651.48,0,8,3
1458125651.49,0,8,3
1458125651.49,0,8,3
1458125651.5,0,8,3
1458125651.51,0,8,3
1458125651.52,0,8,3
1458125651.52,0,8,3
1458125651.53,0,8,3
1458125651.53,0,8,3
1458125651.53,0,8,3
1458125651.54,0,8,3
1458125651.54,0,8,3
1458125651.54,0,8,3
1458125651.54,0,8,3
1458125651.55,0,8,3
1458125651.55,0,8,3
1458125651.55,0,8,3
1458125651.56,0,8,3
1458125651.57,0,8,3
1458125651.57,0,8,3
1458125651.58,0,8,3
1458125651.58,0,8,3
1458125651.6,0,8,3
1458125651.6,0,8,3
1458125651.6,0,8,3
1458125651.61,0,8,3
1458125651.62,0,8,3
1458125651.66,0,8,3
1458125651.67,0,8,3
1458125651.68,0,8,3
1458125651.7,0,8,3
1458125651.71,0,8,3
1458125651.71,0,8,3
1458125651.73,0,8,3
1458125651.74,0,8,3
1458125651.78,0,8,3
1458125651.81,0,8,3
1458125651.83,0,8,3
1458125651.86,0,8,3
1458125651.87,0,8,3
1458125651.9,0,8,3
1458125651.91,0,8,3
1458125651.93,0,8,3
1458125651.98,0,8,3
1458125652.03,0,8,3
1458125652.05,0,8,3
1458125652.05,0,8,3
1458125652.06,0,8,3
1458125652.08,0,8,3
1458125652.09,0,8,3
1458125652.11,0,8,3
1458125652.11,0,8,3
1458125652.11,0,8,3
1458125652.12,0,8,3
1458125652.13,0,8,3
1458125652.14,0,8,3
1458125652.14,0,8,3
1458125652.15,0,8,3
1458125652.16,0,8,3
1458125652.18,0,8,3
1458125652.18,0,8,3
1458125652.18,0,8,3
1458125652.19,0,8,3
1458125652.2,0,8,3
1458125652.2,0,8,3
1458125652.2,0,8,3
1458125652.22,0,8,3
1458125652.22,0,8,3
1458125652.23,0,8,3
1458125652.24,0,8,3
1458125652.25,0,8,3
1458125652.25,0,8,3
1458125652.27,0,8,3
1458125652.27,0,8,3
1458125652.27,0,8,3
1458125652.28,0,8,3
1458125652.28,0,8,3
1458125652.28,0,8,3
1458125652.29,0,8,3
1458125652.29,0,8,3
1458125652.29,0,8,3
1458125652.29,0,8,3
1458125652.3,0,8,3
1458125652.31,0,8,3
1458125652.31,0,8,3
1458125652.32,0,8,3
1458125652.33,0,8,3
1458125652.34,0,8,3
1458125652.35,0,8,3
1458125652.35,0,8,3
1458125652.35,0,8,3
1458125652.35,0,8,3
1458125652.36,0,8,3
1458125652.36,0,8,3
1458125652.36,0,8,3
1458125652.37,0,8,3
1458125652.38,0,8,3
1458125652.39,0,8,3
1458125652.39,0,8,3
1458125652.39,0,8,3
1458125652.4,0,8,3
1458125652.4,0,8,3
1458125652.41,0,8,3
1458125652.41,0,8,3
1458125652.42,0,8,3
1458125652.42,0,8,3
1458125652.43,0,8,3
1458125652.44,0,8,3
1458125652.44,0,8,3
1458125652.46,0,8,3
1458125652.47,0,8,3
1458125652.48,0,8,3
1458125652.5,0,8,3
1458125652.5,0,8,3
1458125652.51,0,8,3
1458125652.51,0,8,3
1458125652.54,0,8,3
1458125652.54,0,8,3
1458125652.54,0,8,3
1458125652.56,0,8,3
1458125652.56,0,8,3
1458125652.58,0,8,3
1458125652.59,0,8,3
1458125652.6,0,8,3
1458125652.6,0,8,3
1458125652.61,0,8,3
1458125652.62,0,8,3
1458125652.62,0,8,3
1458125652.62,0,8,3
1458125652.63,0,8,3
1458125652.64,0,8,3
1458125652.64,0,8,3
1458125652.65,0,8,3
1458125652.66,0,8,3
1458125652.66,0,8,3
1458125652.66,0,8,3
1458125652.67,0,8,3
1458125652.67,0,8,3
1458125652.67,0,8,3
1458125652.67,0,8,3
1458125652.67,0,8,3
1458125652.68,0,8,3
1458125652.69,0,8,3
1458125652.7,0,8,3
1458125652.71,0,8,3
1458125652.71,0,8,3
1458125652.71,0,8,3
1458125652.73,0,8,3
1458125652.73,0,8,3
1458125652.73,0,8,3
1458125652.74,0,8,3
1458125652.75,0,8,3
1458125652.75,0,8,3
1458125652.76,0,8,3
1458125652.76,0,8,3
1458125652.76,0,8,3
1458125652.76,0,8,3
1458125652.77,0,8,3
1458125652.78,0,8,3
1458125652.78,0,8,3
1458125652.78,0,8,3
1458125652.79,0,8,3
1458125652.8,0,8,3
1458125652.8,0,8,3
1458125652.8,0,8,3
1458125652.81,0,8,3
1458125652.81,0,8,3
1458125652.82,0,8,3
1458125652.82,0,8,3
1458125652.84,0,8,3
1458125652.84,0,8,3
1458125652.86,0,8,3
1458125652.86,0,8,3
1458125652.87,0,8,3
1458125652.87,0,8,3
1458125652.88,0,8,3
1458125652.89,0,8,3
1458125652.9,0,8,3
1458125652.9,0,8,3
1458125652.91,0,8,3
1458125652.93,0,8,3
1458125652.93,0,8,3
1458125652.94,0,8,3
1458125652.95,0,8,3
1458125652.95,0,8,3
1458125652.95,0,8,3
1458125652.96,0,8,3
1458125652.97,0,8,3
1458125652.98,0,8,3
1458125652.99,0,8,3
1458125652.99,0,8,3
1458125653.0,0,8,3
1458125653.01,0,8,3
1458125653.01,0,8,3
1458125653.02,0,8,3
1458125653.02,0,8,3
1458125653.03,0,8,3
1458125653.03,0,8,3
1458125653.04,0,8,3
1458125653.05,0,8,3
1458125653.06,0,8,3
1458125653.08,0,8,3
1458125653.09,0,8,3
1458125653.1,0,8,3
1458125653.1,0,8,3
1458125653.11,0,8,3
1458125653.11,0,8,3
1458125653.12,0,8,3
1458125653.13,0,8,3
1458125653.14,0,8,3
1458125653.15,0,8,3
1458125653.15,0,8,3
1458125653.16,0,8,3
1458125653.17,0,8,3
1458125653.18,0,8,3
1458125653.18,0,8,3
1458125653.19,0,8,3
1458125653.21,0,8,3
1458125653.22,0,8,3
1458125653.22,0,8,3
1458125653.23,0,8,3
1458125653.23,0,8,3
1458125653.24,0,8,3
1458125653.25,0,8,3
1458125653.26,0,8,3
1458125653.26,0,8,3
1458125653.27,0,8,3
1458125653.27,0,8,3
1458125653.28,0,8,3
1458125653.29,0,8,3
1458125653.29,0,8,3
1458125653.3,0,8,3
1458125653.31,0,8,3
1458125653.31,0,8,3
1458125653.32,0,8,3
1458125653.33,0,8,3
1458125653.33,0,8,3
1458125653.34,0,8,3
1458125653.35,0,8,3
1458125653.36,0,8,3
1458125653.36,0,8,3
1458125653.37,0,8,3
1458125653.38,0,8,3
1458125653.39,0,8,3
1458125653.39,0,8,3
1458125653.4,0,8,3
1458125653.41,0,8,3
1458125653.42,0,8,3
1458125653.42,0,8,3
1458125653.43,0,8,3
1458125653.43,0,8,3
1458125653.45,0,8,3
1458125653.47,0,8,3
1458125653.47,0,8,3
1458125653.47,0,8,3
1458125653.49,0,8,3
1458125653.5,0,8,3
1458125653.5,0,8,3
1458125653.51,0,8,3
1458125653.51,0,8,3
1458125653.52,0,8,3
1458125653.52,0,8,3
1458125653.54,0,8,3
1458125653.54,0,8,3
1458125653.55,0,8,3
1458125653.55,0,8,3
1458125653.56,0,8,3
1458125653.56,0,8,3
1458125653.56,0,8,3
1458125653.56,0,8,3
1458125653.57,0,8,3
1458125653.58,0,8,3
1458125653.59,0,8,3
1458125653.6,0,8,3
1458125653.61,0,8,3
1458125653.62,0,8,3
1458125653.63,0,8,3
1458125653.64,0,8,3
1458125653.64,0,8,3
1458125653.65,0,8,3
1458125653.66,0,8,3
1458125653.67,0,8,3
1458125653.68,0,8,3
1458125653.69,0,8,3
1458125653.69,0,8,3
1458125653.7,0,8,3
1458125653.71,0,8,3
1458125653.72,0,8,3
1458125653.73,0,8,3
1458125653.74,0,8,3
1458125653.74,0,8,3
1458125653.75,0,8,3
1458125653.76,0,8,3
1458125653.77,0,8,3
1458125653.78,0,8,3
1458125653.79,0,8,3
1458125653.83,0,8,3
1458125653.83,0,8,3
1458125653.85,0,8,3
1458125653.86,0,8,3
1458125653.87,0,8,3
1458125653.88,0,8,3
1458125653.9,0,8,3
1458125653.91,0,8,3
1458125653.93,0,8,3
1458125653.93,0,8,3
1458125653.94,0,8,3
1458125653.95,0,8,3
1458125653.96,0,8,3
1458125653.97,0,8,3
1458125653.98,0,8,3
1458125653.99,0,8,3
1458125653.99,0,8,3
1458125654.0,0,8,3
1458125654.01,0,8,3
1458125654.01,0,8,3
1458125654.02,0,8,3
1458125654.03,0,8,3
1458125654.04,0,8,3
1458125654.04,0,8,3
1458125654.05,0,8,3
1458125654.06,0,8,3
1458125654.08,0,8,3
1458125654.08,0,8,3
1458125654.08,0,8,3
1458125654.09,0,8,3
1458125654.1,0,8,3
1458125654.11,0,8,3
1458125654.12,0,8,3
1458125654.12,0,8,3
1458125654.13,0,8,3
1458125654.14,0,8,3
1458125654.14,0,8,3
1458125654.15,0,8,3
1458125654.16,0,8,3
1458125654.16,0,8,3
1458125654.17,0,8,3
1458125654.17,0,8,3
1458125654.18,0,8,3
1458125654.19,0,8,3
1458125654.2,0,8,3
1458125654.2,0,8,3
1458125654.21,0,8,3
1458125654.21,0,8,3
1458125654.21,0,8,3
1458125654.23,0,8,3
1458125654.23,0,8,3
1458125654.25,0,8,3
1458125654.27,0,8,3
1458125654.28,0,8,3
1458125654.28,0,8,3
1458125654.28,0,8,3
1458125654.29,0,8,3
1458125654.3,0,8,3
1458125654.3,0,8,3
1458125654.32,0,8,3
1458125654.32,0,8,3
1458125654.33,0,8,3
1458125654.33,0,8,3
1458125654.34,0,8,3
1458125654.35,0,8,3
1458125654.36,0,8,3
1458125654.37,0,8,3
1458125654.37,0,8,3
1458125654.37,0,8,3
1458125654.37,0,8,3
1458125654.37,0,8,3
1458125654.37,0,8,3
1458125654.38,0,8,3
1458125654.38,0,8,3
1458125654.38,0,8,3
1458125654.38,0,8,3
1458125654.38,0,8,3
1458125654.38,0,8,3
1458125654.38,0,8,3
1458125654.38,0,8,3
1458125654.38,0,8,3
1458125654.38,0,8,3
1458125654.38,0,8,3
1458125654.38,0,8,3
1458125654.38,0,8,3
1458125654.39,0,8,3
1458125654.39,0,8,3
1458125654.39,0,8,3
1458125654.39,0,8,3
1458125654.39,0,8,3
1458125654.39,0,8,3
1458125654.39,0,8,3
1458125654.39,0,8,3
1458125654.39,0,8,3
1458125654.4,0,8,3
1458125654.4,0,8,3
1458125654.4,0,8,3
1458125654.4,0,8,3
1458125654.41,0,8,3
1458125654.41,0,8,3
1458125654.41,0,8,3
1458125654.41,0,8,3
1458125654.41,0,8,3
1458125654.41,0,8,3
1458125654.41,0,8,3
1458125654.41,0,8,3
1458125654.41,0,8,3
1458125654.41,0,8,3
1458125654.41,0,8,3
1458125654.41,0,8,3
1458125654.41,0,8,3
1458125654.42,0,8,3
1458125654.42,0,8,3
1458125654.42,0,8,3
1458125654.42,0,8,3
1458125654.43,0,8,3
1458125654.43,0,8,3
1458125654.43,0,8,3
1458125654.43,0,8,3
1458125654.43,0,8,3
1458125654.43,0,8,3
1458125654.44,0,8,3
1458125654.44,0,8,3
1458125654.44,0,8,3
1458125654.44,0,8,3
1458125654.44,0,8,3
1458125654.44,0,8,3
1458125654.44,0,8,3
1458125654.45,0,8,3
1458125654.45,0,8,3
1458125654.45,0,8,3
1458125654.45,0,8,3
1458125654.45,0,8,3
1458125654.45,0,8,3
1458125654.45,0,8,3
1458125654.45,0,8,3
1458125654.45,0,8,3
1458125654.45,0,8,3
1458125654.45,0,8,3
1458125654.46,0,8,3
1458125654.46,0,8,3
1458125654.46,0,8,3
1458125654.46,0,8,3
1458125654.46,0,8,3
1458125654.46,0,8,3
1458125654.46,0,8,3
1458125654.46,0,8,3
1458125654.46,0,8,3
1458125654.46,0,8,3
1458125654.46,0,8,3
1458125654.47,0,8,3
1458125654.47,0,8,3
1458125654.47,0,8,3
1458125654.47,0,8,3
1458125654.47,0,8,3
1458125654.47,0,8,3
1458125654.47,0,8,3
1458125654.47,0,8,3
1458125654.47,0,8,3
1458125654.47,0,8,3
1458125654.48,0,8,3
1458125654.48,0,8,3
1458125654.48,0,8,3
1458125654.48,0,8,3
1458125654.48,0,8,3
1458125654.49,0,8,3
1458125654.49,0,8,3
1458125654.49,0,8,3
1458125654.49,0,8,3
1458125654.49,0,8,3
1458125654.49,0,8,3
1458125654.49,0,8,3
1458125654.49,0,8,3
1458125654.49,0,8,3
1458125654.49,0,8,3
1458125654.49,0,8,3
1458125654.5,0,8,3
1458125654.5,0,8,3
1458125654.5,0,8,3
1458125654.5,0,8,3
1458125654.5,0,8,3
1458125654.5,0,8,3
1458125654.5,0,8,3
1458125654.5,0,8,3
1458125654.51,0,8,3
1458125654.51,0,8,3
1458125654.51,0,8,3
1458125654.51,0,8,3
1458125654.51,0,8,3
1458125654.51,0,8,3
1458125654.51,0,8,3
1458125654.51,0,8,3
1458125654.51,0,8,3
1458125654.51,0,8,3
1458125654.51,0,8,3
1458125654.51,0,8,3
1458125654.51,0,8,3
1458125654.52,0,8,3
1458125654.52,0,8,3
1458125654.52,0,8,3
1458125654.52,0,8,3
1458125654.52,0,8,3
1458125654.52,0,8,3
1458125654.52,0,8,3
1458125654.52,0,8,3
1458125654.52,0,8,3
1458125654.52,0,8,3
1458125654.52,0,8,3
1458125654.52,0,8,3
1458125654.52,0,8,3
1458125654.52,0,8,3
1458125654.52,0,8,3
1458125654.53,0,8,3
1458125654.53,0,8,3
1458125654.53,0,8,3
1458125654.53,0,8,3
1458125654.53,0,8,3
1458125654.53,0,8,3
1458125654.53,0,8,3
1458125654.53,0,8,3
1458125654.53,0,8,3
1458125654.53,0,8,3
1458125654.53,0,8,3
1458125654.53,0,8,3
1458125654.54,0,8,3
1458125654.54,0,8,3
1458125654.54,0,8,3
1458125654.54,0,8,3
1458125654.54,0,8,3
1458125654.54,0,8,3
1458125654.54,0,8,3
1458125654.54,0,8,3
1458125654.55,0,8,3
1458125654.55,0,8,3
1458125654.55,0,8,3
1458125654.55,0,8,3
1458125654.55,0,8,3
1458125654.55,0,8,3
1458125654.55,0,8,3
1458125654.55,0,8,3
1458125654.55,0,8,3
1458125654.55,0,8,3
1458125654.55,0,8,3
1458125654.55,0,8,3
1458125654.55,0,8,3
1458125654.55,0,8,3
1458125654.55,0,8,3
1458125654.55,0,8,3
1458125654.55,0,8,3
1458125654.56,0,8,3
1458125654.56,0,8,3
1458125654.56,0,8,3
1458125654.57,0,8,3
1458125654.57,0,8,3
1458125654.57,0,8,3
1458125654.57,0,8,3
1458125654.57,0,8,3
1458125654.57,0,8,3
1458125654.57,0,8,3
1458125654.57,0,8,3
1458125654.57,0,8,3
1458125654.57,0,8,3
1458125654.57,0,8,3
1458125654.57,0,8,3
1458125654.57,0,8,3
1458125654.57,0,8,3
1458125654.57,0,8,3
1458125654.57,0,8,3
1458125654.57,0,8,3
1458125654.57,0,8,3
1458125654.58,0,8,3
1458125654.58,0,8,3
1458125654.58,0,8,3
1458125654.58,0,8,3
1458125654.58,0,8,3
1458125654.58,0,8,3
1458125654.58,0,8,3
1458125654.58,0,8,3
1458125654.58,0,8,3
1458125654.58,0,8,3
1458125654.58,0,8,3
1458125654.58,0,8,3
1458125654.58,0,8,3
1458125654.58,0,8,3
1458125654.58,0,8,3
1458125654.58,0,8,3
1458125654.58,0,8,3
1458125654.6,0,8,3
1458125654.6,0,8,3
1458125654.6,0,8,3
1458125654.6,0,8,3
1458125654.61,0,8,3
1458125654.61,0,8,3
1458125654.61,0,8,3
1458125654.61,0,8,3
1458125654.61,0,8,3
1458125654.61,0,8,3
1458125654.61,0,8,3
1458125654.61,0,8,3
1458125654.61,0,8,3
1458125654.61,0,8,3
1458125654.62,0,8,3
1458125654.62,0,8,3
1458125654.62,0,8,3
1458125654.62,0,8,3
1458125654.62,0,8,3
1458125654.62,0,8,3
1458125654.63,0,8,3
1458125654.63,0,8,3
1458125654.63,0,8,3
1458125654.63,0,8,3
1458125654.63,0,8,3
1458125654.63,0,8,3
1458125654.63,0,8,3
1458125654.63,0,8,3
1458125654.63,0,8,3
1458125654.63,0,8,3
1458125654.63,0,8,3
1458125654.63,0,8,3
1458125654.63,0,8,3
1458125654.63,0,8,3
1458125654.64,0,8,3
1458125654.64,0,8,3
1458125654.64,0,8,3
1458125654.64,0,8,3
1458125654.64,0,8,3
1458125654.65,0,8,3
1458125654.65,0,8,3
1458125654.65,0,8,3
1458125654.65,0,8,3
1458125654.65,0,8,3
1458125654.65,0,8,3
1458125654.65,0,8,3
1458125654.65,0,8,3
1458125654.65,0,8,3
1458125654.65,0,8,3
1458125654.65,0,8,3
1458125654.65,0,8,3
1458125654.66,0,8,3
1458125654.66,0,8,3
1458125654.66,0,8,3
1458125654.66,0,8,3
1458125654.66,0,8,3
1458125654.66,0,8,3
1458125654.66,0,8,3
1458125654.66,0,8,3
1458125654.66,0,8,3
1458125654.66,0,8,3
1458125654.66,0,8,3
1458125654.67,0,8,3
1458125654.67,0,8,3
1458125654.67,0,8,3
1458125654.67,0,8,3
1458125654.67,0,8,3
1458125654.67,0,8,3
1458125654.67,0,8,3
1458125654.67,0,8,3
1458125654.68,0,8,3
1458125654.68,0,8,3
1458125654.68,0,8,3
1458125654.68,0,8,3
1458125654.68,0,8,3
1458125654.68,0,8,3
1458125654.68,0,8,3
1458125654.68,0,8,3
1458125654.68,0,8,3
1458125654.69,0,8,3
1458125654.69,0,8,3
1458125654.69,0,8,3
1458125654.69,0,8,3
1458125654.69,0,8,3
1458125654.69,0,8,3
1458125654.69,0,8,3
1458125654.7,0,8,3
1458125654.7,0,8,3
1458125654.7,0,8,3
1458125654.7,0,8,3
1458125654.7,0,8,3
1458125654.7,0,8,3
1458125654.7,0,8,3
1458125654.71,0,8,3
1458125654.71,0,8,3
1458125654.71,0,8,3
1458125654.71,0,8,3
1458125654.71,0,8,3
1458125654.71,0,8,3
1458125654.72,0,8,3
1458125654.72,0,8,3
1458125654.72,0,8,3
1458125654.72,0,8,3
1458125654.72,0,8,3
1458125654.72,0,8,3
1458125654.72,0,8,3
1458125654.72,0,8,3
1458125654.72,0,8,3
1458125654.73,0,8,3
1458125654.73,0,8,3
1458125654.73,0,8,3
1458125654.73,0,8,3
1458125654.73,0,8,3
1458125654.73,0,8,3
1458125654.73,0,8,3
1458125654.74,0,8,3
1458125654.74,0,8,3
1458125654.74,0,8,3
1458125654.74,0,8,3
1458125654.74,0,8,3
1458125654.74,0,8,3
1458125654.74,0,8,3
1458125654.74,0,8,3
1458125654.74,0,8,3
1458125654.74,0,8,3
1458125654.75,0,8,3
1458125654.75,0,8,3
1458125654.75,0,8,3
1458125654.75,0,8,3
1458125654.75,0,8,3
1458125654.76,0,8,3
1458125654.76,0,8,3
1458125654.76,0,8,3
1458125654.76,0,8,3
1458125654.76,0,8,3
1458125654.76,0,8,3
1458125654.76,0,8,3
1458125654.76,0,8,3
1458125654.76,0,8,3
1458125654.76,0,8,3
1458125654.77,0,8,3
1458125654.77,0,8,3
1458125654.77,0,8,3
1458125654.78,0,8,3
1458125654.78,0,8,3
1458125654.78,0,8,3
1458125654.78,0,8,3
1458125654.78,0,8,3
1458125654.79,0,8,3
1458125654.79,0,8,3
1458125654.79,0,8,3
1458125654.79,0,8,3
1458125654.79,0,8,3
1458125654.8,0,8,3
1458125654.8,0,8,3
1458125654.8,0,8,3
1458125654.8,0,8,3
1458125654.8,0,8,3
1458125654.8,0,8,3
1458125654.8,0,8,3
1458125654.8,0,8,3
1458125654.8,0,8,3
1458125654.8,0,8,3
1458125654.8,0,8,3
1458125654.81,0,8,3
1458125654.81,0,8,3
1458125654.81,0,8,3
1458125654.81,0,8,3
1458125654.81,0,8,3
1458125654.81,0,8,3
1458125654.81,0,8,3
1458125654.81,0,8,3
1458125654.81,0,8,3
1458125654.82,0,8,3
1458125654.82,0,8,3
1458125654.82,0,8,3
1458125654.82,0,8,3
1458125654.82,0,8,3
1458125654.82,0,8,3
1458125654.82,0,8,3
1458125654.83,0,8,3
1458125654.83,0,8,3
1458125654.84,0,8,3
1458125654.84,0,8,3
1458125654.84,0,8,3
1458125654.84,0,8,3
1458125654.85,0,8,3
1458125654.85,0,8,3
1458125654.86,0,8,3
1458125654.86,0,8,3
1458125654.86,0,8,3
1458125654.86,0,8,3
1458125654.87,0,8,3
1458125654.87,0,8,3
1458125654.87,0,8,3
1458125654.87,0,8,3
1458125654.87,0,8,3
1458125654.88,0,8,3
1458125654.88,0,8,3
1458125654.88,0,8,3
1458125654.88,0,8,3
1458125654.88,0,8,3
1458125654.88,0,8,3
1458125654.89,0,8,3
1458125654.89,0,8,3
1458125654.89,0,8,3
1458125654.9,0,8,3
1458125654.9,0,8,3
1458125654.9,0,8,3
1458125654.9,0,8,3
1458125654.9,0,8,3
1458125654.91,0,8,3
1458125654.91,0,8,3
1458125654.91,0,8,3
1458125654.91,0,8,3
1458125654.91,0,8,3
1458125654.92,0,8,3
1458125654.92,0,8,3
1458125654.92,0,8,3
1458125654.92,0,8,3
1458125654.93,0,8,3
1458125654.93,0,8,3
1458125654.93,0,8,3
1458125654.94,0,8,3
1458125654.94,0,8,3
1458125654.95,0,8,3
1458125654.95,0,8,3
1458125654.95,0,8,3
1458125654.96,0,8,3
1458125654.96,0,8,3
1458125654.96,0,8,3
1458125654.96,0,8,3
1458125654.96,0,8,3
1458125654.96,0,8,3
1458125654.96,0,8,3
1458125654.96,0,8,3
1458125654.97,0,8,3
1458125654.97,0,8,3
1458125654.97,0,8,3
1458125654.97,0,8,3
1458125654.97,0,8,3
1458125654.97,0,8,3
1458125654.98,0,8,3
1458125654.98,0,8,3
1458125654.98,0,8,3
1458125654.98,0,8,3
1458125654.98,0,8,3
1458125654.98,0,8,3
1458125654.99,0,8,3
1458125654.99,0,8,3
1458125654.99,0,8,3
1458125654.99,0,8,3
1458125654.99,0,8,3
1458125654.99,0,8,3
1458125655.0,0,8,3
1458125655.0,0,8,3
1458125655.01,0,8,3
1458125655.01,0,8,3
1458125655.01,0,8,3
1458125655.01,0,8,3
1458125655.02,0,8,3
1458125655.02,0,8,3
1458125655.02,0,8,3
1458125655.03,0,8,3
1458125655.03,0,8,3
1458125655.04,0,8,3
1458125655.04,0,8,3
1458125655.04,0,8,3
1458125655.05,0,8,3
1458125655.05,0,8,3
1458125655.05,0,8,3
1458125655.05,0,8,3
1458125655.05,0,8,3
1458125655.05,0,8,3
1458125655.05,0,8,3
1458125655.05,0,8,3
1458125655.05,0,8,3
1458125655.05,0,8,3
1458125655.05,0,8,3
1458125655.05,0,8,3
1458125655.06,0,8,3
1458125655.06,0,8,3
1458125655.06,0,8,3
1458125655.06,0,8,3
1458125655.06,0,8,3
1458125655.07,0,8,3
1458125655.07,0,8,3
1458125655.07,0,8,3
1458125655.07,0,8,3
1458125655.07,0,8,3
1458125655.07,0,8,3
1458125655.07,0,8,3
1458125655.07,0,8,3
1458125655.07,0,8,3
1458125655.07,0,8,3
1458125655.07,0,8,3
1458125655.07,0,8,3
1458125655.07,0,8,3
1458125655.07,0,8,3
1458125655.07,0,8,3
1458125655.08,0,8,3
1458125655.08,0,8,3
1458125655.08,0,8,3
1458125655.08,0,8,3
1458125655.08,0,8,3
1458125655.08,0,8,3
1458125655.08,0,8,3
1458125655.08,0,8,3
1458125655.08,0,8,3
1458125655.09,0,8,3
1458125655.09,0,8,3
1458125655.09,0,8,3
1458125655.09,0,8,3
1458125655.09,0,8,3
1458125655.09,0,8,3
1458125655.1,0,8,3
1458125655.1,0,8,3
1458125655.1,0,8,3
1458125655.1,0,8,3
1458125655.1,0,8,3
1458125655.1,0,8,3
1458125655.1,0,8,3
1458125655.1,0,8,3
1458125655.1,0,8,3
1458125655.1,0,8,3
1458125655.1,0,8,3
1458125655.1,0,8,3
1458125655.11,0,8,3
1458125655.11,0,8,3
1458125655.11,0,8,3
1458125655.11,0,8,3
1458125655.11,0,8,3
1458125655.11,0,8,3
1458125655.11,0,8,3
1458125655.11,0,8,3
1458125655.11,0,8,3
1458125655.11,0,8,3
1458125655.12,0,8,3
1458125655.12,0,8,3
1458125655.12,0,8,3
1458125655.12,0,8,3
1458125655.12,0,8,3
1458125655.12,0,8,3
1458125655.12,0,8,3
1458125655.13,0,8,3
1458125655.13,0,8,3
1458125655.13,0,8,3
1458125655.13,0,8,3
1458125655.13,0,8,3
1458125655.13,0,8,3
1458125655.13,0,8,3
1458125655.13,0,8,3
1458125655.13,0,8,3
1458125655.13,0,8,3
1458125655.13,0,8,3
1458125655.13,0,8,3
1458125655.13,0,8,3
1458125655.14,0,8,3
1458125655.14,0,8,3
1458125655.14,0,8,3
1458125655.14,0,8,3
1458125655.14,0,8,3
1458125655.14,0,8,3
1458125655.14,0,8,3
1458125655.14,0,8,3
1458125655.14,0,8,3
1458125655.14,0,8,3
1458125655.14,0,8,3
1458125655.14,0,8,3
1458125655.15,0,8,3
1458125655.15,0,8,3
1458125655.15,0,8,3
1458125655.15,0,8,3
1458125655.15,0,8,3
1458125655.15,0,8,3
1458125655.15,0,8,3
1458125655.15,0,8,3
1458125655.16,0,8,3
1458125655.16,0,8,3
1458125655.16,0,8,3
1458125655.16,0,8,3
1458125655.16,0,8,3
1458125655.16,0,8,3
1458125655.16,0,8,3
1458125655.16,0,8,3
1458125655.16,0,8,3
1458125655.16,0,8,3
1458125655.16,0,8,3
1458125655.17,0,8,3
1458125655.17,0,8,3
1458125655.17,0,8,3
1458125655.17,0,8,3
1458125655.17,0,8,3
1458125655.17,0,8,3
1458125655.17,0,8,3
1458125655.17,0,8,3
1458125655.17,0,8,3
1458125655.17,0,8,3
1458125655.17,0,8,3
1458125655.17,0,8,3
1458125655.18,0,8,3
1458125655.18,0,8,3
1458125655.18,0,8,3
1458125655.19,0,8,3
1458125655.19,0,8,3
1458125655.19,0,8,3
1458125655.19,0,8,3
1458125655.19,0,8,3
1458125655.19,0,8,3
1458125655.19,0,8,3
1458125655.19,0,8,3
1458125655.19,0,8,3
1458125655.19,0,8,3
1458125655.19,0,8,3
1458125655.19,0,8,3
1458125655.19,0,8,3
1458125655.19,0,8,3
1458125655.19,0,8,3
1458125655.19,0,8,3
1458125655.2,0,8,3
1458125655.2,0,8,3
1458125655.2,0,8,3
1458125655.2,0,8,3
1458125655.2,0,8,3
1458125655.2,0,8,3
1458125655.2,0,8,3
1458125655.2,0,8,3
1458125655.21,0,8,3
1458125655.21,0,8,3
1458125655.21,0,8,3
1458125655.21,0,8,3
1458125655.21,0,8,3
1458125655.21,0,8,3
1458125655.21,0,8,3
1458125655.21,0,8,3
1458125655.22,0,8,3
1458125655.22,0,8,3
1458125655.22,0,8,3
1458125655.22,0,8,3
1458125655.22,0,8,3
1458125655.22,0,8,3
1458125655.22,0,8,3
1458125655.22,0,8,3
1458125655.22,0,8,3
1458125655.22,0,8,3
1458125655.22,0,8,3
1458125655.22,0,8,3
1458125655.22,0,8,3
1458125655.22,0,8,3
1458125655.22,0,8,3
1458125655.22,0,8,3
1458125655.23,0,8,3
1458125655.23,0,8,3
1458125655.23,0,8,3
1458125655.24,0,8,3
1458125655.24,0,8,3
1458125655.24,0,8,3
1458125655.24,0,8,3
1458125655.24,0,8,3
1458125655.24,0,8,3
1458125655.24,0,8,3
1458125655.24,0,8,3
1458125655.24,0,8,3
1458125655.24,0,8,3
1458125655.24,0,8,3
1458125655.24,0,8,3
1458125655.25,0,8,3
1458125655.25,0,8,3
1458125655.25,0,8,3
1458125655.25,0,8,3
1458125655.25,0,8,3
1458125655.25,0,8,3
1458125655.25,0,8,3
1458125655.25,0,8,3
1458125655.25,0,8,3
1458125655.25,0,8,3
1458125655.25,0,8,3
1458125655.25,0,8,3
1458125655.26,0,8,3
1458125655.26,0,8,3
1458125655.26,0,8,3
1458125655.26,0,8,3
1458125655.26,0,8,3
1458125655.26,0,8,3
1458125655.26,0,8,3
1458125655.26,0,8,3
1458125655.26,0,8,3
1458125655.26,0,8,3
1458125655.27,0,8,3
1458125655.27,0,8,3
1458125655.27,0,8,3
1458125655.27,0,8,3
1458125655.27,0,8,3
1458125655.27,0,8,3
1458125655.27,0,8,3
1458125655.27,0,8,3
1458125655.27,0,8,3
1458125655.27,0,8,3
1458125655.27,0,8,3
1458125655.27,0,8,3
1458125655.28,0,8,3
1458125655.28,0,8,3
1458125655.28,0,8,3
1458125655.28,0,8,3
1458125655.28,0,8,3
1458125655.28,0,8,3
1458125655.28,0,8,3
1458125655.29,0,8,3
1458125655.29,0,8,3
1458125655.29,0,8,3
1458125655.29,0,8,3
1458125655.29,0,8,3
1458125655.29,0,8,3
1458125655.29,0,8,3
1458125655.29,0,8,3
1458125655.29,0,8,3
1458125655.29,0,8,3
1458125655.29,0,8,3
1458125655.3,0,8,3
1458125655.3,0,8,3
1458125655.3,0,8,3
1458125655.3,0,8,3
1458125655.3,0,8,3
1458125655.3,0,8,3
1458125655.3,0,8,3
1458125655.3,0,8,3
1458125655.31,0,8,3
1458125655.31,0,8,3
1458125655.31,0,8,3
1458125655.31,0,8,3
1458125655.31,0,8,3
1458125655.31,0,8,3
1458125655.31,0,8,3
1458125655.31,0,8,3
1458125655.31,0,8,3
1458125655.31,0,8,3
1458125655.32,0,8,3
1458125655.32,0,8,3
1458125655.32,0,8,3
1458125655.32,0,8,3
1458125655.32,0,8,3
1458125655.32,0,8,3
1458125655.32,0,8,3
1458125655.32,0,8,3
1458125655.32,0,8,3
1458125655.32,0,8,3
1458125655.32,0,8,3
1458125655.32,0,8,3
1458125655.32,0,8,3
1458125655.32,0,8,3
1458125655.32,0,8,3
1458125655.33,0,8,3
1458125655.33,0,8,3
1458125655.33,0,8,3
1458125655.33,0,8,3
1458125655.33,0,8,3
1458125655.33,0,8,3
1458125655.33,0,8,3
1458125655.33,0,8,3
1458125655.33,0,8,3
1458125655.34,0,8,3
1458125655.34,0,8,3
1458125655.34,0,8,3
1458125655.34,0,8,3
1458125655.34,0,8,3
1458125655.34,0,8,3
1458125655.34,0,8,3
1458125655.34,0,8,3
1458125655.34,0,8,3
1458125655.35,0,8,3
1458125655.35,0,8,3
1458125655.35,0,8,3
1458125655.35,0,8,3
1458125655.35,0,8,3
1458125655.35,0,8,3
1458125655.35,0,8,3
1458125655.35,0,8,3
1458125655.35,0,8,3
1458125655.35,0,8,3
1458125655.35,0,8,3
1458125655.36,0,8,3
1458125655.36,0,8,3
1458125655.36,0,8,3
1458125655.36,0,8,3
1458125655.36,0,8,3
1458125655.36,0,8,3
1458125655.36,0,8,3
1458125655.36,0,8,3
1458125655.36,0,8,3
1458125655.36,0,8,3
1458125655.36,0,8,3
1458125655.36,0,8,3
1458125655.37,0,8,3
1458125655.37,0,8,3
1458125655.37,0,8,3
1458125655.37,0,8,3
1458125655.38,0,8,3
1458125655.38,0,8,3
1458125655.38,0,8,3
1458125655.38,0,8,3
1458125655.38,0,8,3
1458125655.38,0,8,3
1458125655.39,0,8,3
1458125655.39,0,8,3
1458125655.39,0,8,3
1458125655.39,0,8,3
1458125655.39,0,8,3
1458125655.39,0,8,3
1458125655.39,0,8,3
1458125655.39,0,8,3
1458125655.39,0,8,3
1458125655.4,0,8,3
1458125655.4,0,8,3
1458125655.4,0,8,3
1458125655.4,0,8,3
1458125655.41,0,8,3
1458125655.41,0,8,3
1458125655.41,0,8,3
1458125655.41,0,8,3
1458125655.42,0,8,3
1458125655.42,0,8,3
1458125655.42,0,8,3
1458125655.42,0,8,3
1458125655.43,0,8,3
1458125655.43,0,8,3
1458125655.43,0,8,3
1458125655.43,0,8,3
1458125655.43,0,8,3
1458125655.43,0,8,3
1458125655.44,0,8,3
1458125655.44,0,8,3
1458125655.44,0,8,3
1458125655.44,0,8,3
1458125655.44,0,8,3
1458125655.45,0,8,3
1458125655.45,0,8,3
1458125655.45,0,8,3
1458125655.45,0,8,3
1458125655.45,0,8,3
1458125655.46,0,8,3
1458125655.46,0,8,3
1458125655.46,0,8,3
1458125655.46,0,8,3
1458125655.46,0,8,3
1458125655.47,0,8,3
1458125655.48,0,8,3
1458125655.48,0,8,3
1458125655.48,0,8,3
1458125655.48,0,8,3
1458125655.48,0,8,3
1458125655.48,0,8,3
1458125655.48,0,8,3
1458125655.49,0,8,3
1458125655.49,0,8,3
1458125655.49,0,8,3
1458125655.49,0,8,3
1458125655.5,0,8,3
1458125655.5,0,8,3
1458125655.5,0,8,3
1458125655.5,0,8,3
1458125655.5,0,8,3
1458125655.5,0,8,3
1458125655.5,0,8,3
1458125655.51,0,8,3
1458125655.51,0,8,3
1458125655.51,0,8,3
1458125655.51,0,8,3
1458125655.51,0,8,3
1458125655.51,0,8,3
1458125655.51,0,8,3
1458125655.51,0,8,3
1458125655.51,0,8,3
1458125655.51,0,8,3
1458125655.51,0,8,3
1458125655.51,0,8,3
1458125655.51,0,8,3
1458125655.52,0,8,3
1458125655.52,0,8,3
1458125655.52,0,8,3
1458125655.52,0,8,3
1458125655.52,0,8,3
1458125655.52,0,8,3
1458125655.52,0,8,3
1458125655.52,0,8,3
1458125655.52,0,8,3
1458125655.53,0,8,3
1458125655.53,0,8,3
1458125655.53,0,8,3
1458125655.53,0,8,3
1458125655.53,0,8,3
1458125655.53,0,8,3
1458125655.53,0,8,3
1458125655.53,0,8,3
1458125655.53,0,8,3
1458125655.53,0,8,3
1458125655.53,0,8,3
1458125655.54,0,8,3
1458125655.54,0,8,3
1458125655.54,0,8,3
1458125655.54,0,8,3
1458125655.54,0,8,3
1458125655.54,0,8,3
1458125655.54,0,8,3
1458125655.54,0,8,3
1458125655.55,0,8,3
1458125655.55,0,8,3
1458125655.55,0,8,3
1458125655.56,0,8,3
1458125655.56,0,8,3
1458125655.56,0,8,3
1458125655.56,0,8,3
1458125655.56,0,8,3
1458125655.56,0,8,3
1458125655.56,0,8,3
1458125655.56,0,8,3
1458125655.58,0,8,3
1458125655.58,0,8,3
1458125655.58,0,8,3
1458125655.58,0,8,3
1458125655.58,0,8,3
1458125655.58,0,8,3
1458125655.58,0,8,3
1458125655.59,0,8,3
1458125655.59,0,8,3
1458125655.59,0,8,3
1458125655.59,0,8,3
1458125655.59,0,8,3
1458125655.59,0,8,3
1458125655.59,0,8,3
1458125655.59,0,8,3
1458125655.59,0,8,3
1458125655.59,0,8,3
1458125655.59,0,8,3
1458125655.59,0,8,3
1458125655.59,0,8,3
1458125655.6,0,8,3
1458125655.6,0,8,3
1458125655.6,0,8,3
1458125655.61,0,8,3
1458125655.61,0,8,3
1458125655.61,0,8,3
1458125655.61,0,8,3
1458125655.61,0,8,3
1458125655.61,0,8,3
1458125655.63,0,8,3
1458125655.63,0,8,3
1458125655.64,0,8,3
1458125655.64,0,8,3
1458125655.64,0,8,3
1458125655.64,0,8,3
1458125655.64,0,8,3
1458125655.64,0,8,3
1458125655.64,0,8,3
1458125655.65,0,8,3
1458125655.65,0,8,3
1458125655.65,0,8,3
1458125655.65,0,8,3
1458125655.65,0,8,3
1458125655.65,0,8,3
1458125655.65,0,8,3
1458125655.65,0,8,3
1458125655.65,0,8,3
1458125655.65,0,8,3
1458125655.65,0,8,3
1458125655.65,0,8,3
1458125655.65,0,8,3
1458125655.66,0,8,3
1458125655.66,0,8,3
1458125655.66,0,8,3
1458125655.66,0,8,3
1458125655.66,0,8,3
1458125655.66,0,8,3
1458125655.66,0,8,3
1458125655.66,0,8,3
1458125655.66,0,8,3
1458125655.66,0,8,3
1458125655.67,0,8,3
1458125655.67,0,8,3
1458125655.67,0,8,3
1458125655.67,0,8,3
1458125655.67,0,8,3
1458125655.67,0,8,3
1458125655.67,0,8,3
1458125655.68,0,8,3
1458125655.68,0,8,3
1458125655.68,0,8,3
1458125655.69,0,8,3
1458125655.69,0,8,3
1458125655.69,0,8,3
1458125655.69,0,8,3
1458125655.7,0,8,3
1458125655.7,0,8,3
1458125655.7,0,8,3
1458125655.7,0,8,3
1458125655.7,0,8,3
1458125655.7,0,8,3
1458125655.71,0,8,3
1458125655.71,0,8,3
1458125655.71,0,8,3
1458125655.71,0,8,3
1458125655.71,0,8,3
1458125655.71,0,8,3
1458125655.71,0,8,3
1458125655.71,0,8,3
1458125655.71,0,8,3
1458125655.72,0,8,3
1458125655.72,0,8,3
1458125655.72,0,8,3
1458125655.72,0,8,3
1458125655.72,0,8,3
1458125655.72,0,8,3
1458125655.72,0,8,3
1458125655.72,0,8,3
1458125655.73,0,8,3
1458125655.73,0,8,3
1458125655.73,0,8,3
1458125655.73,0,8,3
1458125655.73,0,8,3
1458125655.73,0,8,3
1458125655.73,0,8,3
1458125655.73,0,8,3
1458125655.74,0,8,3
1458125655.74,0,8,3
1458125655.74,0,8,3
1458125655.74,0,8,3
1458125655.74,0,8,3
1458125655.75,0,8,3
1458125655.75,0,8,3
1458125655.75,0,8,3
1458125655.75,0,8,3
1458125655.75,0,8,3
1458125655.75,0,8,3
1458125655.76,0,8,3
1458125655.76,0,8,3
1458125655.76,0,8,3
1458125655.77,0,8,3
1458125655.77,0,8,3
1458125655.77,0,8,3
1458125655.77,0,8,3
1458125655.78,0,8,3
1458125655.78,0,8,3
1458125655.78,0,8,3
1458125655.78,0,8,3
1458125655.79,0,8,3
1458125655.79,0,8,3
1458125655.79,0,8,3
1458125655.79,0,8,3
1458125655.79,0,8,3
1458125655.79,0,8,3
1458125655.79,0,8,3
1458125655.79,0,8,3
1458125655.8,0,8,3
1458125655.8,0,8,3
1458125655.8,0,8,3
1458125655.8,0,8,3
1458125655.8,0,8,3
1458125655.8,0,8,3
1458125655.8,0,8,3
1458125655.8,0,8,3
1458125655.81,0,8,3
1458125655.81,0,8,3
1458125655.81,0,8,3
1458125655.81,0,8,3
1458125655.81,0,8,3
1458125655.81,0,8,3
1458125655.81,0,8,3
1458125655.81,0,8,3
1458125655.81,0,8,3
1458125655.82,0,8,3
1458125655.82,0,8,3
1458125655.82,0,8,3
1458125655.82,0,8,3
1458125655.82,0,8,3
1458125655.82,0,8,3
1458125655.83,0,8,3
1458125655.83,0,8,3
1458125655.83,0,8,3
1458125655.83,0,8,3
1458125655.83,0,8,3
1458125655.83,0,8,3
1458125655.84,0,8,3
1458125655.84,0,8,3
1458125655.84,0,8,3
1458125655.84,0,8,3
1458125655.84,0,8,3
1458125655.84,0,8,3
1458125655.85,0,8,3
1458125655.85,0,8,3
1458125655.85,0,8,3
1458125655.85,0,8,3
1458125655.85,0,8,3
1458125655.85,0,8,3
1458125655.85,0,8,3
1458125655.85,0,8,3
1458125655.86,0,8,3
1458125655.86,0,8,3
1458125655.86,0,8,3
1458125655.86,0,8,3
1458125655.86,0,8,3
1458125655.86,0,8,3
1458125655.86,0,8,3
1458125655.87,0,8,3
1458125655.87,0,8,3
1458125655.87,0,8,3
1458125655.87,0,8,3
1458125655.87,0,8,3
1458125655.87,0,8,3
1458125655.87,0,8,3
1458125655.87,0,8,3
1458125655.88,0,8,3
1458125655.88,0,8,3
1458125655.88,0,8,3
1458125655.88,0,8,3
1458125655.88,0,8,3
1458125655.88,0,8,3
1458125655.88,0,8,3
1458125655.88,0,8,3
1458125655.89,0,8,3
1458125655.89,0,8,3
1458125655.89,0,8,3
1458125655.89,0,8,3
1458125655.89,0,8,3
1458125655.89,0,8,3
1458125655.9,0,8,3
1458125655.9,0,8,3
1458125655.9,0,8,3
1458125655.9,0,8,3
1458125655.9,0,8,3
1458125655.9,0,8,3
1458125655.9,0,8,3
1458125655.91,0,8,3
1458125655.91,0,8,3
1458125655.91,0,8,3
1458125655.91,0,8,3
1458125655.91,0,8,3
1458125655.91,0,8,3
1458125655.91,0,8,3
1458125655.92,0,8,3
1458125655.92,0,8,3
1458125655.92,0,8,3
1458125655.92,0,8,3
1458125655.92,0,8,3
1458125655.92,0,8,3
1458125655.92,0,8,3
1458125655.92,0,8,3
1458125655.93,0,8,3
1458125655.93,0,8,3
1458125655.93,0,8,3
1458125655.93,0,8,3
1458125655.93,0,8,3
1458125655.93,0,8,3
1458125655.93,0,8,3
1458125655.94,0,8,3
1458125655.94,0,8,3
1458125655.94,0,8,3
1458125655.94,0,8,3
1458125655.94,0,8,3
1458125655.94,0,8,3
1458125655.94,0,8,3
1458125655.94,0,8,3
1458125655.95,0,8,3
1458125655.95,0,8,3
1458125655.95,0,8,3
1458125655.95,0,8,3
1458125655.95,0,8,3
1458125655.95,0,8,3
1458125655.95,0,8,3
1458125655.96,0,8,3
1458125655.96,0,8,3
1458125655.96,0,8,3
1458125655.96,0,8,3
1458125655.96,0,8,3
1458125655.96,0,8,3
1458125655.96,0,8,3
1458125655.97,0,8,3
1458125655.97,0,8,3
1458125655.97,0,8,3
1458125655.97,0,8,3
1458125655.97,0,8,3
1458125655.97,0,8,3
1458125655.97,0,8,3
1458125655.98,0,8,3
1458125655.98,0,8,3
1458125655.98,0,8,3
1458125655.98,0,8,3
1458125655.98,0,8,3
1458125655.98,0,8,3
1458125655.98,0,8,3
1458125655.98,0,8,3
1458125655.99,0,8,3
1458125655.99,0,8,3
1458125655.99,0,8,3
1458125655.99,0,8,3
1458125655.99,0,8,3
1458125655.99,0,8,3
1458125655.99,0,8,3
1458125656.0,0,8,3
1458125656.0,0,8,3
1458125656.0,0,8,3
1458125656.0,0,8,3
1458125656.0,0,8,3
1458125656.0,0,8,3
1458125656.0,0,8,3
1458125656.01,0,8,3
1458125656.01,0,8,3
1458125656.01,0,8,3
1458125656.01,0,8,3
1458125656.01,0,8,3
1458125656.01,0,8,3
1458125656.01,0,8,3
1458125656.01,0,8,3
1458125656.02,0,8,3
1458125656.02,0,8,3
1458125656.02,0,8,3
1458125656.02,0,8,3
1458125656.02,0,8,3
1458125656.02,0,8,3
1458125656.02,0,8,3
1458125656.03,0,8,3
1458125656.03,0,8,3
1458125656.03,0,8,3
1458125656.03,0,8,3
1458125656.03,0,8,3
1458125656.03,0,8,3
1458125656.03,0,8,3
1458125656.04,0,8,3
1458125656.04,0,8,3
1458125656.04,0,8,3
1458125656.04,0,8,3
1458125656.04,0,8,3
1458125656.04,0,8,3
1458125656.04,0,8,3
1458125656.04,0,8,3
1458125656.05,0,8,3
1458125656.05,0,8,3
1458125656.05,0,8,3
1458125656.05,0,8,3
1458125656.05,0,8,3
1458125656.05,0,8,3
1458125656.05,0,8,3
1458125656.05,0,8,3
1458125656.05,0,8,3
1458125656.06,0,8,3
1458125656.06,0,8,3
1458125656.06,0,8,3
1458125656.06,0,8,3
1458125656.06,0,8,3
1458125656.06,0,8,3
1458125656.06,0,8,3
1458125656.06,0,8,3
1458125656.07,0,8,3
1458125656.07,0,8,3
1458125656.07,0,8,3
1458125656.07,0,8,3
1458125656.07,0,8,3
1458125656.07,0,8,3
1458125656.07,0,8,3
1458125656.07,0,8,3
1458125656.08,0,8,3
1458125656.08,0,8,3
1458125656.08,0,8,3
1458125656.08,0,8,3
1458125656.08,0,8,3
1458125656.08,0,8,3
1458125656.08,0,8,3
1458125656.08,0,8,3
1458125656.09,0,8,3
1458125656.09,0,8,3
1458125656.09,0,8,3
1458125656.09,0,8,3
1458125656.1,0,8,3
1458125656.1,0,8,3
1458125656.1,0,8,3
1458125656.1,0,8,3
1458125656.1,0,8,3
1458125656.1,0,8,3
1458125656.1,0,8,3
1458125656.1,0,8,3
1458125656.11,0,8,3
1458125656.11,0,8,3
1458125656.11,0,8,3
1458125656.11,0,8,3
1458125656.11,0,8,3
1458125656.11,0,8,3
1458125656.11,0,8,3
1458125656.12,0,8,3
1458125656.12,0,8,3
1458125656.12,0,8,3
1458125656.12,0,8,3
1458125656.12,0,8,3
1458125656.12,0,8,3
1458125656.12,0,8,3
1458125656.12,0,8,3
1458125656.12,0,8,3
1458125656.12,0,8,3
1458125656.13,0,8,3
1458125656.13,0,8,3
1458125656.13,0,8,3
1458125656.13,0,8,3
1458125656.13,0,8,3
1458125656.13,0,8,3
1458125656.13,0,8,3
1458125656.13,0,8,3
1458125656.13,0,8,3
1458125656.14,0,8,3
1458125656.14,0,8,3
1458125656.14,0,8,3
1458125656.14,0,8,3
1458125656.14,0,8,3
1458125656.14,0,8,3
1458125656.16,0,8,3
1458125656.16,0,8,3
1458125656.16,0,8,3
1458125656.16,0,8,3
1458125656.16,0,8,3
1458125656.17,0,8,3
1458125656.17,0,8,3
1458125656.17,0,8,3
1458125656.17,0,8,3
1458125656.17,0,8,3
1458125656.17,0,8,3
1458125656.18,0,8,3
1458125656.18,0,8,3
1458125656.18,0,8,3
1458125656.18,0,8,3
1458125656.18,0,8,3
1458125656.18,0,8,3
1458125656.18,0,8,3
1458125656.18,0,8,3
1458125656.18,0,8,3
1458125656.18,0,8,3
1458125656.18,0,8,3
1458125656.18,0,8,3
1458125656.19,0,8,3
1458125656.19,0,8,3
1458125656.19,0,8,3
1458125656.19,0,8,3
1458125656.19,0,8,3
1458125656.19,0,8,3
1458125656.19,0,8,3
1458125656.19,0,8,3
1458125656.2,0,8,3
1458125656.2,0,8,3
1458125656.2,0,8,3
1458125656.2,0,8,3
1458125656.2,0,8,3
1458125656.2,0,8,3
1458125656.2,0,8,3
1458125656.2,0,8,3
1458125656.21,0,8,3
1458125656.21,0,8,3
1458125656.21,0,8,3
1458125656.22,0,8,3
1458125656.22,0,8,3
1458125656.22,0,8,3
1458125656.22,0,8,3
1458125656.22,0,8,3
1458125656.22,0,8,3
1458125656.22,0,8,3
1458125656.23,0,8,3
1458125656.23,0,8,3
1458125656.23,0,8,3
1458125656.23,0,8,3
1458125656.23,0,8,3
1458125656.23,0,8,3
1458125656.24,0,8,3
1458125656.24,0,8,3
1458125656.24,0,8,3
1458125656.24,0,8,3
1458125656.24,0,8,3
1458125656.24,0,8,3
1458125656.24,0,8,3
1458125656.24,0,8,3
1458125656.24,0,8,3
1458125656.24,0,8,3
1458125656.24,0,8,3
1458125656.25,0,8,3
1458125656.25,0,8,3
1458125656.25,0,8,3
1458125656.25,0,8,3
1458125656.25,0,8,3
1458125656.25,0,8,3
1458125656.25,0,8,3
1458125656.26,0,8,3
1458125656.26,0,8,3
1458125656.26,0,8,3
1458125656.26,0,8,3
1458125656.26,0,8,3
1458125656.26,0,8,3
1458125656.26,0,8,3
1458125656.27,0,8,3
1458125656.27,0,8,3
1458125656.27,0,8,3
1458125656.27,0,8,3
1458125656.27,0,8,3
1458125656.28,0,8,3
1458125656.28,0,8,3
1458125656.28,0,8,3
1458125656.28,0,8,3
1458125656.28,0,8,3
1458125656.28,0,8,3
1458125656.28,0,8,3
1458125656.29,0,8,3
1458125656.29,0,8,3
1458125656.29,0,8,3
1458125656.29,0,8,3
1458125656.29,0,8,3
1458125656.29,0,8,3
1458125656.29,0,8,3
1458125656.3,0,8,3
1458125656.3,0,8,3
1458125656.3,0,8,3
1458125656.3,0,8,3
1458125656.3,0,8,3
1458125656.3,0,8,3
1458125656.3,0,8,3
1458125656.3,0,8,3
1458125656.31,0,8,3
1458125656.31,0,8,3
1458125656.31,0,8,3
1458125656.31,0,8,3
1458125656.31,0,8,3
1458125656.31,0,8,3
1458125656.31,0,8,3
1458125656.32,0,8,3
1458125656.32,0,8,3
1458125656.32,0,8,3
1458125656.32,0,8,3
1458125656.32,0,8,3
1458125656.32,0,8,3
1458125656.33,0,8,3
1458125656.33,0,8,3
1458125656.33,0,8,3
1458125656.33,0,8,3
1458125656.33,0,8,3
1458125656.33,0,8,3
1458125656.33,0,8,3
1458125656.33,0,8,3
1458125656.34,0,8,3
1458125656.34,0,8,3
1458125656.34,0,8,3
1458125656.34,0,8,3
1458125656.34,0,8,3
1458125656.34,0,8,3
1458125656.34,0,8,3
1458125656.35,0,8,3
1458125656.35,0,8,3
1458125656.35,0,8,3
1458125656.35,0,8,3
1458125656.35,0,8,3
1458125656.35,0,8,3
1458125656.35,0,8,3
1458125656.36,0,8,3
1458125656.36,0,8,3
1458125656.36,0,8,3
1458125656.36,0,8,3
1458125656.36,0,8,3
1458125656.36,0,8,3
1458125656.36,0,8,3
1458125656.37,0,8,3
1458125656.37,0,8,3
1458125656.37,0,8,3
1458125656.37,0,8,3
1458125656.37,0,8,3
1458125656.37,0,8,3
1458125656.38,0,8,3
1458125656.38,0,8,3
1458125656.38,0,8,3
1458125656.38,0,8,3
1458125656.38,0,8,3
1458125656.38,0,8,3
1458125656.38,0,8,3
1458125656.39,0,8,3
1458125656.39,0,8,3
1458125656.39,0,8,3
1458125656.39,0,8,3
1458125656.39,0,8,3
1458125656.39,0,8,3
1458125656.39,0,8,3
1458125656.39,0,8,3
1458125656.4,0,8,3
1458125656.4,0,8,3
1458125656.4,0,8,3
1458125656.4,0,8,3
1458125656.4,0,8,3
1458125656.4,0,8,3
1458125656.4,0,8,3
1458125656.4,0,8,3
1458125656.4,0,8,3
1458125656.41,0,8,3
1458125656.41,0,8,3
1458125656.41,0,8,3
1458125656.41,0,8,3
1458125656.41,0,8,3
1458125656.41,0,8,3
1458125656.41,0,8,3
1458125656.42,0,8,3
1458125656.42,0,8,3
1458125656.42,0,8,3
1458125656.42,0,8,3
1458125656.42,0,8,3
1458125656.42,0,8,3
1458125656.42,0,8,3
1458125656.43,0,8,3
1458125656.43,0,8,3
1458125656.43,0,8,3
1458125656.43,0,8,3
1458125656.43,0,8,3
1458125656.43,0,8,3
1458125656.44,0,8,3
1458125656.44,0,8,3
1458125656.44,0,8,3
1458125656.44,0,8,3
1458125656.44,0,8,3
1458125656.44,0,8,3
1458125656.44,0,8,3
1458125656.45,0,8,3
1458125656.45,0,8,3
1458125656.45,0,8,3
1458125656.45,0,8,3
1458125656.45,0,8,3
1458125656.45,0,8,3
1458125656.45,0,8,3
1458125656.45,0,8,3
1458125656.46,0,8,3
1458125656.46,0,8,3
1458125656.46,0,8,3
1458125656.46,0,8,3
1458125656.46,0,8,3
1458125656.46,0,8,3
1458125656.46,0,8,3
1458125656.46,0,8,3
1458125656.47,0,8,3
1458125656.47,0,8,3
1458125656.47,0,8,3
1458125656.47,0,8,3
1458125656.47,0,8,3
1458125656.47,0,8,3
1458125656.47,0,8,3
1458125656.48,0,8,3
1458125656.48,0,8,3
1458125656.48,0,8,3
1458125656.48,0,8,3
1458125656.48,0,8,3
1458125656.48,0,8,3
1458125656.48,0,8,3
1458125656.49,0,8,3
1458125656.49,0,8,3
1458125656.49,0,8,3
1458125656.49,0,8,3
1458125656.49,0,8,3
1458125656.5,0,8,3
1458125656.5,0,8,3
1458125656.5,0,8,3
1458125656.5,0,8,3
1458125656.5,0,8,3
1458125656.5,0,8,3
1458125656.5,0,8,3
1458125656.51,0,8,3
1458125656.51,0,8,3
1458125656.51,0,8,3
1458125656.51,0,8,3
1458125656.51,0,8,3
1458125656.51,0,8,3
1458125656.51,0,8,3
1458125656.52,0,8,3
1458125656.52,0,8,3
1458125656.52,0,8,3
1458125656.52,0,8,3
1458125656.52,0,8,3
1458125656.52,0,8,3
1458125656.52,0,8,3
1458125656.53,0,8,3
1458125656.53,0,8,3
1458125656.53,0,8,3
1458125656.53,0,8,3
1458125656.53,0,8,3
1458125656.53,0,8,3
1458125656.53,0,8,3
1458125656.54,0,8,3
1458125656.54,0,8,3
1458125656.54,0,8,3
1458125656.54,0,8,3
1458125656.54,0,8,3
1458125656.54,0,8,3
1458125656.55,0,8,3
1458125656.55,0,8,3
1458125656.55,0,8,3
1458125656.55,0,8,3
1458125656.55,0,8,3
1458125656.56,0,8,3
1458125656.56,0,8,3
1458125656.56,0,8,3
1458125656.56,0,8,3
1458125656.56,0,8,3
1458125656.56,0,8,3
1458125656.57,0,8,3
1458125656.57,0,8,3
1458125656.57,0,8,3
1458125656.57,0,8,3
1458125656.57,0,8,3
1458125656.57,0,8,3
1458125656.57,0,8,3
1458125656.58,0,8,3
1458125656.58,0,8,3
1458125656.58,0,8,3
1458125656.58,0,8,3
1458125656.58,0,8,3
1458125656.58,0,8,3
1458125656.58,0,8,3
1458125656.58,0,8,3
1458125656.59,0,8,3
1458125656.59,0,8,3
1458125656.59,0,8,3
1458125656.59,0,8,3
1458125656.59,0,8,3
1458125656.59,0,8,3
1458125656.59,0,8,3
1458125656.6,0,8,3
1458125656.6,0,8,3
1458125656.6,0,8,3
