-T UDP -a 10.0.0.2 -rp 10120 -b 92 -z 500 -d 100 -m rttm
-T UDP -a 10.0.0.6 -rp 10121 -b 12 -z 500  -d 200 -m rttm
-T UDP -a 10.0.0.5 -rp 10150 -b 24 -z 500 -d 300 -m rttm
-T UDP -a 10.0.0.4 -rp 10140 -b 188 -z 500 -d 400 -m rttm
-T UDP -a 10.0.0.2 -rp 10141 -b 96 -z 500 -d 1000 -m rttm
-T UDP -a 10.0.0.3 -rp 10130 -b 16 -z 500 -d 500 -m rttm

