1462189316,0,0,0.0
1,0,0,0.0
2,0,0,0.0
3,0,0,0.0
4,0,0,0.0
5,0,0,0.0
6,0,0,0.0
7,0,0,0.0
8,0,0,0.0
9,0,0,0.0
10,0,0,0.0
11,0,0,0.0
12,0,0,0.0
13,0,0,0.0
14,0,0,0.0
15,0,0,0.0
16,0,0,0.0
17,0,0,0.0
18,0,0,0.0
19,0,0,0.0
20,0,0,0.0
21,0,0,0.0
22,0,0,0.0
23,0,0,0.0
24,0,0,0.0
25,0,0,0.0
26,0,0,0.0
27,0,0,0.0
28,0,0,0.0
29,0,0,0.0
30,0,0,0.0
31,0,0,0.0
32,0,0,0.0
33,0,0,0.0
34,0,0,0.0
35,0,0,0.0
36,0,0,0.0
37,0,0,0.0
38,0,0,0.0
39,0,0,0.0
40,0,0,0.0
41,0,0,0.0
42,0,0,0.0
43,0,0,0.0
44,0,0,0.0
45,0,0,0.0
46,0,0,0.0
47,0,0,0.0
48,0,0,0.0
49,0,0,0.0
50,0,0,0.0
51,0,0,0.0
52,0,0,0.0
53,0,0,0.0
54,0,0,0.0
56,0,0,0.0
57,0,0,0.0
58,3,7,2.33333333333
59,3,5,1.66666666667
60,4,7,1.75
61,4,6,1.5
62,4,5,1.25
63,4,7,1.75
64,4,5,1.25
65,4,5,1.25
66,4,5,1.25
67,4,5,1.25
68,4,6,1.5
69,7,14,2.0
70,9,16,1.77777777778
71,9,17,1.88888888889
72,9,16,1.77777777778
73,9,16,1.77777777778
74,9,15,1.66666666667
75,8,12,1.5
76,8,12,1.5
77,7,10,1.42857142857
78,7,10,1.42857142857
79,7,10,1.42857142857
80,6,9,1.5
81,6,9,1.5
82,6,9,1.5
83,6,9,1.5
84,6,9,1.5
85,6,9,1.5
86,6,9,1.5
87,6,9,1.5
88,6,9,1.5
89,6,9,1.5
90,6,9,1.5
91,6,9,1.5
92,6,9,1.5
93,6,9,1.5
94,6,9,1.5
95,6,9,1.5
96,6,9,1.5
97,6,9,1.5
98,6,9,1.5
100,6,9,1.5
101,6,9,1.5
102,6,9,1.5
103,6,9,1.5
104,6,9,1.5
105,6,9,1.5
106,6,9,1.5
107,6,9,1.5
108,6,9,1.5
109,6,9,1.5
110,6,9,1.5
111,6,9,1.5
112,6,9,1.5
