-T UDP -a 10.0.0.25 -rp 10491 -b 4 -k 50 -c 1400 -d 2 
-T UDP -a 10.0.0.32 -rp 10501 -b 140 -k 130 -c 1400 -d 4 
-T UDP -a 10.0.0.35 -rp 10511 -b 184 -k 10 -c 1400 -d 6 
-T UDP -a 10.0.0.34 -rp 10521 -b 252 -k 100 -c 1400 -d 8 
-T UDP -a 10.0.0.28 -rp 10531 -b 120 -k 190 -c 1400 -d 10 
-T UDP -a 10.0.0.31 -rp 10541 -b 60 -k 70 -c 1400 -d 12 
-T UDP -a 10.0.0.27 -rp 10551 -b 180 -k 180 -c 1400 -d 14 
