-T UDP -a 10.0.35.1 -rp 10001 -b 76 -k 200 -c 1400 -d 2 
-T UDP -a 10.0.26.1 -rp 10011 -b 204 -k 170 -c 1400 -d 4 
-T UDP -a 10.0.33.1 -rp 10021 -b 172 -k 180 -c 1400 -d 6 
-T UDP -a 10.0.21.1 -rp 10031 -b 160 -k 90 -c 1400 -d 8 
-T UDP -a 10.0.25.1 -rp 10041 -b 12 -k 100 -c 1400 -d 10 
-T UDP -a 10.0.27.1 -rp 10051 -b 168 -k 50 -c 1400 -d 12 
-T UDP -a 10.0.24.1 -rp 10061 -b 236 -k 170 -c 1400 -d 14 
