-T UDP -a 10.0.30.1 -rp 13901 -b 136 -k 200 -c 1400 -d 10 
-T UDP -a 10.0.30.1 -rp 13911 -b 164 -k 200 -c 1400 -d 20 
-T UDP -a 10.0.34.1 -rp 13921 -b 108 -k 200 -c 1400 -d 30 
-T UDP -a 10.0.34.1 -rp 13931 -b 168 -k 200 -c 1400 -d 40 
-T UDP -a 10.0.27.1 -rp 13941 -b 144 -k 200 -c 1400 -d 50 
-T UDP -a 10.0.27.1 -rp 13951 -b 244 -k 200 -c 1400 -d 60 
-T UDP -a 10.0.33.1 -rp 13961 -b 112 -k 200 -c 1400 -d 70 
-T UDP -a 10.0.33.1 -rp 13971 -b 228 -k 200 -c 1400 -d 80 
-T UDP -a 10.0.36.1 -rp 13981 -b 96 -k 200 -c 1400 -d 90 
-T UDP -a 10.0.36.1 -rp 13991 -b 112 -k 200 -c 1400 -d 100 
-T UDP -a 10.0.26.1 -rp 14001 -b 252 -k 200 -c 1400 -d 110 
-T UDP -a 10.0.26.1 -rp 14011 -b 28 -k 200 -c 1400 -d 120 
-T UDP -a 10.0.22.1 -rp 14021 -b 108 -k 200 -c 1400 -d 130 
-T UDP -a 10.0.22.1 -rp 14031 -b 76 -k 200 -c 1400 -d 140 
-T UDP -a 10.0.32.1 -rp 14041 -b 236 -k 200 -c 1400 -d 150 
-T UDP -a 10.0.32.1 -rp 14051 -b 212 -k 200 -c 1400 -d 160 
-T UDP -a 10.0.25.1 -rp 14061 -b 252 -k 200 -c 1400 -d 170 
-T UDP -a 10.0.25.1 -rp 14071 -b 196 -k 200 -c 1400 -d 180 
-T UDP -a 10.0.24.1 -rp 14081 -b 188 -k 200 -c 1400 -d 190 
-T UDP -a 10.0.24.1 -rp 14091 -b 172 -k 200 -c 1400 -d 200 
-T UDP -a 10.0.28.1 -rp 14101 -b 116 -k 200 -c 1400 -d 210 
-T UDP -a 10.0.28.1 -rp 14111 -b 4 -k 200 -c 1400 -d 220 
-T UDP -a 10.0.29.1 -rp 14121 -b 92 -k 200 -c 1400 -d 230 
-T UDP -a 10.0.29.1 -rp 14131 -b 112 -k 200 -c 1400 -d 240 
-T UDP -a 10.0.21.1 -rp 14141 -b 8 -k 200 -c 1400 -d 250 
-T UDP -a 10.0.21.1 -rp 14151 -b 244 -k 200 -c 1400 -d 260 
-T UDP -a 10.0.31.1 -rp 14161 -b 80 -k 200 -c 1400 -d 270 
-T UDP -a 10.0.31.1 -rp 14171 -b 148 -k 200 -c 1400 -d 280 
-T UDP -a 10.0.23.1 -rp 14181 -b 80 -k 200 -c 1400 -d 290 
-T UDP -a 10.0.23.1 -rp 14191 -b 24 -k 200 -c 1400 -d 300 
