-T UDP -a 10.0.24.1 -rp 11201 -b 204 -k 200 -c 1400 -d 10 
-T UDP -a 10.0.24.1 -rp 11211 -b 40 -k 200 -c 1400 -d 20 
-T UDP -a 10.0.23.1 -rp 11221 -b 220 -k 200 -c 1400 -d 30 
-T UDP -a 10.0.23.1 -rp 11231 -b 136 -k 200 -c 1400 -d 40 
-T UDP -a 10.0.27.1 -rp 11241 -b 132 -k 200 -c 1400 -d 50 
-T UDP -a 10.0.27.1 -rp 11251 -b 152 -k 200 -c 1400 -d 60 
-T UDP -a 10.0.28.1 -rp 11261 -b 168 -k 200 -c 1400 -d 70 
-T UDP -a 10.0.28.1 -rp 11271 -b 20 -k 200 -c 1400 -d 80 
-T UDP -a 10.0.31.1 -rp 11281 -b 64 -k 200 -c 1400 -d 90 
-T UDP -a 10.0.31.1 -rp 11291 -b 20 -k 200 -c 1400 -d 100 
-T UDP -a 10.0.25.1 -rp 11301 -b 52 -k 200 -c 1400 -d 110 
-T UDP -a 10.0.25.1 -rp 11311 -b 192 -k 200 -c 1400 -d 120 
-T UDP -a 10.0.21.1 -rp 11321 -b 212 -k 200 -c 1400 -d 130 
-T UDP -a 10.0.21.1 -rp 11331 -b 52 -k 200 -c 1400 -d 140 
-T UDP -a 10.0.30.1 -rp 11341 -b 56 -k 200 -c 1400 -d 150 
-T UDP -a 10.0.30.1 -rp 11351 -b 172 -k 200 -c 1400 -d 160 
-T UDP -a 10.0.36.1 -rp 11361 -b 80 -k 200 -c 1400 -d 170 
-T UDP -a 10.0.36.1 -rp 11371 -b 72 -k 200 -c 1400 -d 180 
-T UDP -a 10.0.26.1 -rp 11381 -b 84 -k 200 -c 1400 -d 190 
-T UDP -a 10.0.26.1 -rp 11391 -b 176 -k 200 -c 1400 -d 200 
-T UDP -a 10.0.34.1 -rp 11401 -b 36 -k 200 -c 1400 -d 210 
-T UDP -a 10.0.34.1 -rp 11411 -b 232 -k 200 -c 1400 -d 220 
-T UDP -a 10.0.32.1 -rp 11421 -b 148 -k 200 -c 1400 -d 230 
-T UDP -a 10.0.32.1 -rp 11431 -b 152 -k 200 -c 1400 -d 240 
-T UDP -a 10.0.35.1 -rp 11441 -b 120 -k 200 -c 1400 -d 250 
-T UDP -a 10.0.35.1 -rp 11451 -b 220 -k 200 -c 1400 -d 260 
-T UDP -a 10.0.33.1 -rp 11461 -b 204 -k 200 -c 1400 -d 270 
-T UDP -a 10.0.33.1 -rp 11471 -b 64 -k 200 -c 1400 -d 280 
-T UDP -a 10.0.22.1 -rp 11481 -b 144 -k 200 -c 1400 -d 290 
-T UDP -a 10.0.22.1 -rp 11491 -b 168 -k 200 -c 1400 -d 300 
