-T UDP -a 10.0.33.1 -rp 12101 -b 28 -k 200 -c 1400 -d 10 
-T UDP -a 10.0.33.1 -rp 12111 -b 144 -k 200 -c 1400 -d 20 
-T UDP -a 10.0.23.1 -rp 12121 -b 160 -k 200 -c 1400 -d 30 
-T UDP -a 10.0.23.1 -rp 12131 -b 96 -k 200 -c 1400 -d 40 
-T UDP -a 10.0.26.1 -rp 12141 -b 204 -k 200 -c 1400 -d 50 
-T UDP -a 10.0.26.1 -rp 12151 -b 120 -k 200 -c 1400 -d 60 
-T UDP -a 10.0.30.1 -rp 12161 -b 204 -k 200 -c 1400 -d 70 
-T UDP -a 10.0.30.1 -rp 12171 -b 32 -k 200 -c 1400 -d 80 
-T UDP -a 10.0.32.1 -rp 12181 -b 164 -k 200 -c 1400 -d 90 
-T UDP -a 10.0.32.1 -rp 12191 -b 232 -k 200 -c 1400 -d 100 
-T UDP -a 10.0.28.1 -rp 12201 -b 76 -k 200 -c 1400 -d 110 
-T UDP -a 10.0.28.1 -rp 12211 -b 116 -k 200 -c 1400 -d 120 
-T UDP -a 10.0.35.1 -rp 12221 -b 224 -k 200 -c 1400 -d 130 
-T UDP -a 10.0.35.1 -rp 12231 -b 68 -k 200 -c 1400 -d 140 
-T UDP -a 10.0.24.1 -rp 12241 -b 228 -k 200 -c 1400 -d 150 
-T UDP -a 10.0.24.1 -rp 12251 -b 216 -k 200 -c 1400 -d 160 
-T UDP -a 10.0.31.1 -rp 12261 -b 24 -k 200 -c 1400 -d 170 
-T UDP -a 10.0.31.1 -rp 12271 -b 140 -k 200 -c 1400 -d 180 
-T UDP -a 10.0.29.1 -rp 12281 -b 216 -k 200 -c 1400 -d 190 
-T UDP -a 10.0.29.1 -rp 12291 -b 188 -k 200 -c 1400 -d 200 
-T UDP -a 10.0.27.1 -rp 12301 -b 16 -k 200 -c 1400 -d 210 
-T UDP -a 10.0.27.1 -rp 12311 -b 92 -k 200 -c 1400 -d 220 
-T UDP -a 10.0.21.1 -rp 12321 -b 112 -k 200 -c 1400 -d 230 
-T UDP -a 10.0.21.1 -rp 12331 -b 248 -k 200 -c 1400 -d 240 
-T UDP -a 10.0.36.1 -rp 12341 -b 108 -k 200 -c 1400 -d 250 
-T UDP -a 10.0.36.1 -rp 12351 -b 96 -k 200 -c 1400 -d 260 
-T UDP -a 10.0.25.1 -rp 12361 -b 60 -k 200 -c 1400 -d 270 
-T UDP -a 10.0.25.1 -rp 12371 -b 64 -k 200 -c 1400 -d 280 
-T UDP -a 10.0.22.1 -rp 12381 -b 232 -k 200 -c 1400 -d 290 
-T UDP -a 10.0.22.1 -rp 12391 -b 132 -k 200 -c 1400 -d 300 
