-T UDP -a 10.0.0.32 -rp 14501 -b 84 -k 4 -c 1400 -d 10 -m rttm
-T UDP -a 10.0.0.32 -rp 14511 -b 248 -k 4 -c 1400 -d 20 -m rttm
-T UDP -a 10.0.0.29 -rp 14521 -b 52 -k 4 -c 1400 -d 30 -m rttm
-T UDP -a 10.0.0.29 -rp 14531 -b 196 -k 4 -c 1400 -d 40 -m rttm
-T UDP -a 10.0.0.31 -rp 14541 -b 64 -k 4 -c 1400 -d 50 -m rttm
-T UDP -a 10.0.0.31 -rp 14551 -b 20 -k 4 -c 1400 -d 60 -m rttm
-T UDP -a 10.0.0.36 -rp 14561 -b 168 -k 4 -c 1400 -d 70 -m rttm
-T UDP -a 10.0.0.36 -rp 14571 -b 88 -k 10240 -c 1400 -d 80 -m rttm
-T UDP -a 10.0.0.21 -rp 14581 -b 108 -k 4 -c 1400 -d 90 -m rttm
-T UDP -a 10.0.0.21 -rp 14591 -b 172 -k 4 -c 1400 -d 100 -m rttm
-T UDP -a 10.0.0.35 -rp 14601 -b 84 -k 4 -c 1400 -d 110 -m rttm
-T UDP -a 10.0.0.35 -rp 14611 -b 172 -k 4 -c 1400 -d 120 -m rttm
-T UDP -a 10.0.0.33 -rp 14621 -b 72 -k 4 -c 1400 -d 130 -m rttm
-T UDP -a 10.0.0.33 -rp 14631 -b 244 -k 4 -c 1400 -d 140 -m rttm
-T UDP -a 10.0.0.22 -rp 14641 -b 68 -k 4 -c 1400 -d 150 -m rttm
-T UDP -a 10.0.0.22 -rp 14651 -b 84 -k 10240 -c 1400 -d 160 -m rttm
-T UDP -a 10.0.0.28 -rp 14661 -b 48 -k 4 -c 1400 -d 170 -m rttm
-T UDP -a 10.0.0.28 -rp 14671 -b 96 -k 4 -c 1400 -d 180 -m rttm
-T UDP -a 10.0.0.26 -rp 14681 -b 60 -k 4 -c 1400 -d 190 -m rttm
-T UDP -a 10.0.0.26 -rp 14691 -b 196 -k 4 -c 1400 -d 200 -m rttm
-T UDP -a 10.0.0.23 -rp 14701 -b 228 -k 4 -c 1400 -d 210 -m rttm
-T UDP -a 10.0.0.23 -rp 14711 -b 24 -k 4 -c 1400 -d 220 -m rttm
-T UDP -a 10.0.0.24 -rp 14721 -b 64 -k 4 -c 1400 -d 230 -m rttm
-T UDP -a 10.0.0.24 -rp 14731 -b 52 -k 10240 -c 1400 -d 240 -m rttm
-T UDP -a 10.0.0.27 -rp 14741 -b 176 -k 4 -c 1400 -d 250 -m rttm
-T UDP -a 10.0.0.27 -rp 14751 -b 32 -k 4 -c 1400 -d 260 -m rttm
-T UDP -a 10.0.0.25 -rp 14761 -b 108 -k 4 -c 1400 -d 270 -m rttm
-T UDP -a 10.0.0.25 -rp 14771 -b 16 -k 4 -c 1400 -d 280 -m rttm
-T UDP -a 10.0.0.30 -rp 14781 -b 216 -k 4 -c 1400 -d 290 -m rttm
-T UDP -a 10.0.0.30 -rp 14791 -b 176 -k 4 -c 1400 -d 300 -m rttm
