Source,Destination,Weight
1,314,1
1,309,1
1,221,2
1,220,2
1,308,1
1,219,2
2,3,1
2,52,2
3,2,1
3,132,3
4,8,1
4,11,1
4,19,1
4,24,1
4,16,1
4,17,1
4,18,1
4,165,21
4,99,11
4,28,1
4,156,2
4,20,1
4,25,1
4,13,1
4,14,1
4,15,1
4,6,1
4,254,4
4,26,1
4,10,1
4,27,1
4,9,1
4,7,1
5,8,1
5,11,1
5,97,11
5,24,1
5,16,1
5,17,1
5,18,1
5,28,1
5,253,4
5,25,1
5,13,1
5,14,1
5,15,1
5,23,1
5,6,1
5,26,1
5,10,1
5,27,1
5,7,1
5,9,1
6,8,1
6,252,4
6,24,1
6,4,1
6,16,1
6,12,1
6,18,1
6,17,1
6,28,1
6,100,11
6,22,1
6,21,1
6,195,22
6,98,11
6,5,1
6,95,11
6,13,1
6,14,1
6,15,1
6,26,1
6,10,1
6,9,1
6,7,1
7,8,1
7,255,4
7,11,1
7,19,1
7,24,1
7,4,1
7,16,1
7,194,22
7,17,1
7,18,1
7,28,1
7,22,1
7,100,11
7,21,1
7,195,22
7,111,11
7,25,1
7,98,11
7,5,1
7,13,1
7,15,1
7,14,1
7,6,1
7,254,4
7,26,1
7,10,1
7,27,1
7,9,1
8,252,4
8,11,1
8,24,1
8,12,1
8,194,22
8,4,1
8,16,1
8,18,1
8,17,1
8,28,1
8,22,1
8,21,1
8,25,1
8,98,11
8,5,1
8,95,11
8,13,1
8,15,1
8,14,1
8,6,1
8,26,1
8,27,1
8,10,1
8,9,1
8,7,1
9,8,1
9,6,1
9,4,1
9,5,1
9,27,1
9,7,1
10,8,1
10,6,1
10,4,1
10,5,1
10,27,1
10,7,1
11,8,1
11,4,1
11,5,1
11,27,1
11,7,1
12,8,1
12,6,1
13,6,1
13,8,1
13,4,1
13,98,11
13,5,1
13,27,1
13,7,1
14,6,1
14,8,1
14,4,1
14,5,1
14,274,4
14,27,1
14,7,1
15,8,1
15,6,1
15,4,1
15,5,1
15,27,1
15,7,1
16,8,1
16,6,1
16,4,1
16,5,1
16,27,1
16,7,1
17,8,1
17,6,1
17,4,1
17,5,1
17,27,1
17,7,1
18,6,1
18,8,1
18,4,1
18,5,1
18,27,1
18,7,1
19,4,1
19,7,1
20,4,1
21,6,1
21,8,1
21,7,1
22,8,1
22,6,1
22,7,1
23,5,1
24,8,1
24,6,1
24,4,1
24,5,1
24,27,1
24,7,1
25,8,1
25,4,1
25,5,1
25,27,1
25,7,1
26,6,1
26,8,1
26,4,1
26,5,1
26,27,1
26,7,1
27,8,1
27,11,1
27,24,1
27,4,1
27,16,1
27,17,1
27,18,1
27,28,1
27,25,1
27,5,1
27,13,1
27,15,1
27,14,1
27,26,1
27,10,1
27,9,1
27,7,1
28,8,1
28,6,1
28,4,1
28,5,1
28,27,1
28,7,1
29,226,2
30,224,2
31,225,2
31,223,2
32,36,1
32,37,1
32,38,1
33,36,1
33,37,1
33,38,1
34,36,1
34,37,1
34,38,1
34,191,5
35,36,1
35,44,1
35,37,1
35,116,7
36,220,6
36,43,1
36,166,8
36,66,6
36,41,1
36,40,1
36,38,1
36,45,1
36,44,1
36,95,7
36,47,1
36,35,1
36,48,1
36,33,1
36,46,1
36,32,1
36,34,1
36,188,5
36,37,1
37,185,5
37,97,7
37,43,1
37,238,4
37,38,1
37,40,1
37,41,1
37,45,1
37,167,8
37,47,1
37,36,1
37,35,1
37,48,1
37,64,6
37,33,1
37,221,6
37,46,1
37,32,1
37,34,1
37,186,5
38,185,5
38,47,1
38,36,1
38,48,1
38,33,1
38,46,1
38,32,1
38,43,1
38,186,5
38,34,1
38,37,1
38,224,6
38,39,1
38,40,1
38,41,1
38,45,1
39,38,1
40,36,1
40,37,1
40,38,1
41,36,1
41,37,1
41,38,1
42,57,11
43,36,1
43,37,1
43,38,1
44,35,1
44,36,1
45,36,1
45,37,1
45,38,1
46,36,1
46,37,1
46,38,1
47,36,1
47,37,1
47,83,6
47,112,7
47,38,1
48,36,1
48,37,1
48,38,1
49,268,2
49,50,1
50,269,2
50,49,1
51,152,3
51,155,3
51,52,1
51,154,3
52,2,2
52,51,1
53,54,1
53,55,1
54,58,1
54,53,1
54,61,1
54,55,1
54,296,9
54,127,2
54,64,9
54,60,1
54,56,1
54,67,9
54,57,1
54,66,9
54,59,1
55,58,1
55,126,2
55,53,1
55,61,1
55,296,9
55,64,9
55,60,1
55,56,1
55,57,1
55,54,1
55,98,7
55,297,9
55,59,1
56,54,1
56,55,1
57,54,1
57,55,1
57,42,11
58,54,1
58,55,1
59,54,1
59,55,1
60,54,1
60,55,1
61,54,1
61,55,1
62,144,6
63,165,7
63,90,1
63,99,8
63,67,1
63,72,1
63,73,1
63,68,1
63,82,1
63,91,1
63,77,1
63,65,1
63,76,1
63,78,1
63,89,1
63,64,1
63,70,1
63,80,1
63,79,1
63,71,1
63,74,1
63,81,1
64,55,9
64,90,1
64,83,1
64,75,1
64,67,1
64,73,1
64,88,1
64,72,1
64,82,1
64,68,1
64,85,1
64,91,1
64,77,1
64,98,8
64,76,1
64,66,1
64,78,1
64,89,1
64,167,7
64,63,1
64,269,8
64,54,9
64,70,1
64,37,6
64,71,1
64,79,1
64,80,1
64,74,1
64,81,1
65,90,1
65,67,1
65,73,1
65,72,1
65,82,1
65,68,1
65,243,3
65,278,16
65,77,1
65,91,1
65,98,8
65,66,1
65,76,1
65,78,1
65,89,1
65,63,1
65,268,8
65,276,16
65,70,1
65,80,1
65,71,1
65,79,1
65,74,1
65,81,1
66,252,16
66,170,7
66,90,1
66,84,1
66,67,1
66,75,1
66,88,1
66,73,1
66,72,1
66,136,5
66,82,1
66,68,1
66,85,1
66,91,1
66,77,1
66,65,1
66,98,8
66,76,1
66,78,1
66,89,1
66,36,6
66,64,1
66,242,3
66,54,9
66,70,1
66,79,1
66,71,1
66,80,1
66,74,1
66,81,1
67,169,7
67,262,15
67,90,1
67,87,1
67,166,7
67,73,1
67,72,1
67,136,5
67,82,1
67,68,1
67,243,3
67,91,1
67,65,1
67,77,1
67,98,8
67,76,1
67,66,1
67,78,1
67,89,1
67,63,1
67,95,8
67,64,1
67,54,9
67,70,1
67,71,1
67,79,1
67,80,1
67,74,1
67,81,1
68,63,1
68,64,1
68,86,1
68,270,8
68,67,1
68,73,1
68,82,1
68,70,1
68,65,1
68,80,1
68,66,1
68,81,1
69,99,8
70,63,1
70,68,1
70,65,1
70,64,1
70,66,1
70,67,1
71,63,1
71,64,1
71,98,8
71,65,1
71,66,1
71,67,1
72,63,1
72,65,1
72,64,1
72,66,1
72,67,1
73,63,1
73,68,1
73,65,1
73,64,1
73,66,1
73,67,1
74,63,1
74,64,1
74,65,1
74,66,1
74,67,1
75,64,1
75,66,1
76,63,1
76,65,1
76,64,1
76,66,1
76,67,1
77,63,1
77,64,1
77,98,8
77,65,1
77,66,1
77,112,8
77,67,1
77,116,8
78,63,1
78,65,1
78,64,1
78,66,1
78,67,1
79,63,1
79,65,1
79,64,1
79,66,1
79,67,1
80,63,1
80,68,1
80,65,1
80,64,1
80,66,1
80,67,1
81,63,1
81,68,1
81,65,1
81,64,1
81,66,1
81,67,1
82,63,1
82,68,1
82,65,1
82,64,1
82,66,1
82,67,1
83,47,6
83,64,1
83,84,1
84,66,1
84,83,1
85,64,1
85,66,1
86,68,1
87,67,1
88,64,1
88,66,1
89,63,1
89,64,1
89,65,1
89,66,1
89,67,1
90,63,1
90,64,1
90,65,1
90,66,1
90,67,1
91,63,1
91,64,1
91,65,1
91,66,1
91,67,1
92,93,1
92,272,4
92,158,33
92,132,3
93,273,4
93,152,6
93,92,1
93,133,3
94,95,1
94,97,1
94,98,1
94,165,13
94,99,1
95,110,1
95,123,1
95,108,1
95,99,1
95,138,5
95,105,1
95,139,5
95,67,8
95,100,1
95,111,1
95,98,1
95,113,1
95,102,1
95,115,1
95,116,1
95,8,11
95,97,1
95,117,1
95,104,1
95,165,13
95,109,1
95,119,1
95,124,1
95,120,1
95,112,1
95,94,1
95,121,1
95,36,7
95,106,1
95,6,11
95,96,1
95,114,1
95,101,1
95,103,1
95,122,1
96,95,1
96,97,1
96,98,1
96,165,13
96,99,1
97,241,2
97,185,9
97,110,1
97,123,1
97,108,1
97,99,1
97,105,1
97,118,1
97,125,1
97,111,1
97,98,1
97,186,9
97,113,1
97,115,1
97,102,1
97,116,1
97,200,12
97,117,1
97,104,1
97,165,13
97,109,1
97,107,1
97,124,1
97,136,5
97,145,5
97,5,11
97,112,1
97,94,1
97,121,1
97,95,1
97,106,1
97,96,1
97,114,1
97,101,1
97,37,7
97,103,1
97,122,1
98,241,2
98,255,13
98,55,7
98,110,1
98,123,1
98,108,1
98,99,1
98,105,1
98,67,8
98,118,1
98,125,1
98,111,1
98,65,8
98,77,8
98,66,8
98,113,1
98,115,1
98,102,1
98,116,1
98,7,11
98,8,11
98,97,1
98,117,1
98,104,1
98,165,13
98,109,1
98,119,1
98,107,1
98,124,1
98,120,1
98,112,1
98,94,1
98,121,1
98,137,5
98,95,1
98,64,8
98,13,11
98,106,1
98,96,1
98,6,11
98,114,1
98,101,1
98,71,8
98,103,1
98,122,1
99,204,12
99,97,1
99,110,1
99,123,1
99,117,1
99,104,1
99,4,11
99,109,1
99,108,1
99,138,5
99,105,1
99,124,1
99,187,9
99,111,1
99,125,1
99,69,8
99,98,1
99,112,1
99,121,1
99,94,1
99,63,8
99,95,1
99,106,1
99,96,1
99,113,1
99,114,1
99,101,1
99,115,1
99,102,1
99,116,1
99,122,1
99,103,1
100,6,11
100,95,1
100,7,11
101,95,1
101,97,1
101,98,1
101,165,13
101,99,1
102,95,1
102,97,1
102,98,1
102,165,13
102,99,1
103,95,1
103,97,1
103,98,1
103,165,13
103,99,1
104,95,1
104,97,1
104,98,1
104,165,13
104,99,1
105,95,1
105,97,1
105,165,13
105,98,1
105,99,1
106,95,1
106,97,1
106,98,1
106,165,13
106,99,1
107,97,1
107,98,1
107,109,1
108,95,1
108,97,1
108,98,1
108,165,13
108,99,1
109,95,1
109,97,1
109,165,13
109,98,1
109,107,1
109,99,1
109,227,11
110,95,1
110,97,1
110,98,1
110,165,13
110,99,1
111,95,1
111,97,1
111,165,13
111,98,1
111,99,1
111,7,11
112,95,1
112,47,7
112,97,1
112,98,1
112,77,8
112,165,13
112,142,5
112,99,1
113,95,1
113,97,1
113,165,13
113,98,1
113,99,1
114,95,1
114,97,1
114,98,1
114,165,13
114,99,1
115,95,1
115,97,1
115,98,1
115,165,13
115,99,1
116,35,7
116,95,1
116,97,1
116,98,1
116,77,8
116,165,13
116,99,1
117,95,1
117,97,1
117,165,13
117,98,1
117,99,1
118,97,1
118,98,1
119,95,1
119,98,1
120,95,1
120,98,1
121,95,1
121,97,1
121,98,1
121,165,13
121,99,1
122,95,1
122,97,1
122,98,1
122,165,13
122,99,1
123,95,1
123,97,1
123,98,1
123,165,13
123,99,1
124,95,1
124,97,1
124,98,1
124,165,13
124,99,1
125,97,1
125,98,1
125,165,13
125,99,1
126,55,2
127,54,2
128,152,4
129,154,4
130,160,4
130,131,1
130,133,4
131,192,4
131,130,1
132,92,3
132,3,3
132,133,1
132,161,5
133,93,3
133,132,1
133,130,4
134,135,1
134,302,16
134,303,16
135,134,1
135,277,57
136,137,1
136,144,1
136,97,5
136,143,1
136,146,1
136,142,1
136,147,1
136,140,1
136,138,1
136,139,1
136,67,5
136,149,2
136,145,1
136,263,14
136,66,5
137,198,10
137,144,1
137,143,1
137,146,1
137,142,1
137,147,1
137,140,1
137,138,1
137,148,2
137,139,1
137,141,1
137,150,2
137,136,1
137,145,1
137,98,5
138,137,1
138,201,10
138,95,5
138,144,1
138,143,1
138,146,1
138,142,1
138,165,10
138,99,5
138,140,1
138,141,1
138,151,2
138,136,1
138,145,1
139,137,1
139,201,10
139,95,5
139,144,1
139,143,1
139,146,1
139,142,1
139,140,1
139,151,2
139,141,1
139,136,1
139,145,1
140,137,1
140,136,1
140,138,1
140,139,1
141,137,1
141,138,1
141,139,1
142,137,1
142,136,1
142,112,5
142,138,1
142,139,1
143,137,1
143,136,1
143,145,1
143,138,1
143,139,1
144,137,1
144,136,1
144,62,6
144,138,1
144,139,1
145,137,1
145,136,1
145,143,1
145,97,5
145,138,1
145,139,1
146,137,1
146,136,1
146,138,1
146,139,1
147,137,1
147,136,1
148,137,2
149,136,2
150,137,2
151,138,2
151,139,2
152,93,6
152,153,1
152,193,3
152,51,3
152,154,1
152,128,4
153,152,1
153,162,29
154,152,1
154,51,3
154,157,30
154,129,4
154,163,29
155,164,29
155,51,3
155,157,30
155,163,29
156,4,2
157,166,2
157,155,30
157,158,1
157,219,3
157,154,30
158,167,2
158,92,33
158,157,1
158,221,3
159,160,1
159,193,5
160,159,1
160,130,4
161,132,5
162,166,1
162,153,29
162,172,1
163,166,1
163,155,29
163,154,29
164,155,29
164,166,1
164,172,1
165,204,2
165,97,13
165,110,13
165,123,13
165,117,13
165,4,21
165,104,13
165,109,13
165,108,13
165,138,10
165,105,13
165,124,13
165,187,9
165,111,13
165,125,13
165,98,13
165,112,13
165,121,13
165,94,13
165,63,7
165,95,13
165,106,13
165,96,13
165,113,13
165,114,13
165,101,13
165,115,13
165,102,13
165,116,13
165,122,13
165,103,13
166,164,1
166,198,2
166,183,1
166,162,1
166,184,1
166,180,1
166,174,1
166,168,1
166,177,1
166,172,1
166,67,7
166,173,1
166,167,1
166,36,8
166,221,3
166,179,1
166,175,1
166,176,1
166,157,2
166,163,1
167,168,1
167,174,1
167,180,1
167,158,2
167,169,1
167,170,1
167,64,7
167,177,1
167,179,1
167,178,1
167,175,1
167,166,1
167,176,1
167,37,8
168,167,1
168,200,2
168,174,1
168,180,1
168,169,1
168,177,1
168,172,1
168,175,1
168,179,1
168,166,1
168,176,1
168,219,3
169,167,1
169,200,2
169,168,1
169,174,1
169,180,1
169,170,1
169,177,1
169,221,3
169,181,1
169,179,1
169,175,1
169,67,7
169,182,1
169,173,1
169,176,1
170,182,1
170,173,1
170,171,1
170,167,1
170,169,1
170,66,7
170,172,1
170,199,2
170,181,1
171,173,1
171,170,1
171,172,1
171,178,1
171,219,3
172,166,1
172,171,1
172,173,1
172,164,1
172,183,1
172,162,1
172,184,1
172,168,1
172,170,1
173,166,1
173,171,1
173,268,2
173,169,1
173,170,1
173,172,1
174,167,1
174,166,1
174,168,1
174,169,1
174,224,3
175,167,1
175,166,1
175,168,1
175,169,1
175,177,1
176,167,1
176,166,1
176,168,1
176,169,1
176,177,1
177,167,1
177,166,1
177,176,1
177,168,1
177,169,1
177,175,1
178,167,1
178,171,1
179,167,1
179,166,1
179,168,1
179,169,1
180,167,1
180,166,1
180,168,1
180,169,1
181,182,1
181,170,1
181,169,1
182,169,1
182,170,1
182,181,1
183,166,1
183,172,1
184,166,1
184,172,1
185,189,1
185,187,1
185,97,9
185,188,1
185,37,5
185,190,1
185,191,1
185,38,5
186,189,1
186,187,1
186,97,9
186,188,1
186,37,5
186,190,1
186,38,5
186,191,1
187,185,1
187,189,1
187,186,1
187,188,1
187,165,9
187,99,9
187,191,1
188,187,1
188,185,1
188,189,1
188,36,5
188,186,1
188,191,1
189,187,1
189,185,1
189,186,1
189,188,1
190,185,1
190,186,1
191,187,1
191,185,1
191,34,5
191,186,1
191,188,1
192,193,1
192,131,4
193,152,3
193,159,5
193,192,1
194,8,22
194,196,1
194,195,1
194,275,21
194,277,21
194,276,21
194,7,22
194,197,1
195,6,22
195,196,1
195,194,1
195,277,21
195,197,1
195,7,22
196,195,1
196,194,1
197,195,1
197,194,1
198,200,1
198,203,1
198,205,1
198,199,1
198,166,2
198,137,10
198,208,1
198,275,21
198,209,1
198,210,1
198,211,1
198,212,1
198,206,1
198,214,1
198,207,1
198,215,1
199,202,1
199,200,1
199,198,1
199,201,1
199,203,1
199,204,1
199,170,2
199,278,21
199,208,1
199,269,3
199,211,1
199,210,1
199,276,21
199,212,1
199,206,1
199,214,1
199,207,1
199,222,2
199,215,1
200,198,1
200,201,1
200,168,2
200,97,12
200,204,1
200,169,2
200,199,1
200,208,1
200,211,1
200,210,1
200,209,1
200,212,1
200,206,1
200,277,21
200,214,1
200,207,1
200,215,1
201,200,1
201,203,1
201,204,1
201,243,7
201,138,10
201,139,10
201,199,1
202,268,3
202,242,7
202,199,1
203,198,1
203,201,1
203,268,3
203,204,1
203,242,7
203,199,1
204,200,1
204,201,1
204,203,1
204,165,2
204,213,1
204,99,12
204,220,2
204,199,1
205,198,1
206,198,1
206,200,1
206,199,1
207,200,1
207,198,1
207,199,1
208,200,1
208,198,1
208,199,1
209,198,1
209,200,1
210,200,1
210,198,1
210,199,1
211,200,1
211,198,1
211,199,1
212,200,1
212,198,1
212,199,1
213,204,1
214,198,1
214,200,1
214,199,1
215,198,1
215,200,1
215,199,1
216,217,1
216,278,2
216,276,2
217,216,1
217,277,2
218,221,1
218,219,1
219,310,2
219,225,1
219,239,2
219,168,3
219,226,1
219,236,1
219,311,2
219,171,3
219,237,4
219,312,2
219,306,2
219,228,1
219,315,2
219,230,1
219,232,1
219,1,2
219,305,2
219,233,1
219,229,1
219,224,1
219,157,3
219,218,1
219,222,1
219,235,1
219,223,1
220,310,2
220,240,2
220,226,1
220,204,2
220,236,1
220,311,2
220,312,2
220,228,1
220,306,2
220,307,2
220,315,2
220,36,6
220,1,2
220,232,1
220,230,1
220,305,2
220,233,1
220,221,1
220,229,1
220,254,21
220,224,1
220,234,1
220,235,1
220,222,1
220,223,1
221,166,3
221,310,2
221,225,1
221,252,21
221,1,2
221,312,2
221,230,1
221,232,1
221,226,1
221,37,6
221,224,1
221,169,3
221,233,1
221,305,2
221,158,3
221,228,1
221,306,2
221,231,1
221,236,1
221,311,2
221,235,1
221,222,1
221,218,1
221,220,1
221,229,1
221,227,1
221,315,2
222,221,1
222,220,1
222,199,2
222,219,1
222,223,1
223,225,1
223,224,1
223,234,1
223,31,2
223,220,1
223,222,1
223,219,1
224,225,1
224,174,3
224,30,2
224,221,1
224,220,1
224,38,6
224,223,1
224,219,1
225,224,1
225,31,2
225,221,1
225,227,1
225,219,1
225,223,1
226,29,2
226,220,1
226,221,1
226,219,1
227,225,1
227,109,11
227,221,1
228,221,1
228,220,1
228,219,1
229,221,1
229,220,1
229,219,1
230,221,1
230,220,1
230,219,1
231,221,1
232,221,1
232,220,1
232,219,1
233,220,1
233,221,1
233,219,1
234,220,1
234,223,1
235,221,1
235,220,1
235,219,1
236,221,1
236,220,1
236,219,1
237,219,4
238,37,4
239,240,1
239,219,2
240,239,1
240,220,2
241,97,2
241,98,2
242,202,7
242,251,1
242,203,7
242,248,1
242,250,1
242,249,1
242,245,1
242,244,1
242,243,1
242,246,1
242,66,3
243,201,7
243,251,1
243,247,1
243,242,1
243,67,3
243,250,1
243,245,1
243,249,1
243,244,1
243,246,1
243,65,3
244,243,1
244,242,1
245,243,1
245,300,16
245,242,1
246,243,1
246,242,1
247,243,1
248,242,1
249,243,1
249,242,1
250,243,1
250,242,1
251,243,1
251,242,1
252,8,4
252,255,1
252,296,7
252,221,21
252,6,4
252,254,1
252,259,1
252,253,1
252,257,1
252,256,1
252,66,16
253,252,1
253,255,1
253,276,2
253,254,1
253,258,1
253,257,1
253,278,2
253,5,4
253,297,7
254,252,1
254,253,1
254,4,4
254,277,2
254,256,1
254,220,21
254,7,4
255,252,1
255,253,1
255,98,13
255,275,2
255,260,2
255,256,1
255,7,4
256,252,1
256,255,1
256,254,1
256,259,1
256,277,2
257,252,1
257,253,1
258,253,1
259,252,1
259,256,1
260,255,2
261,266,1
261,262,1
261,263,1
261,265,1
262,296,2
262,261,1
262,264,1
262,263,1
262,67,15
263,136,14
263,296,2
263,262,1
263,261,1
263,264,1
264,262,1
264,263,1
265,261,1
266,261,1
267,304,28
267,303,28
268,202,3
268,203,3
268,269,1
268,49,2
268,270,1
268,271,1
268,173,2
268,65,8
269,268,1
269,64,8
269,50,2
269,270,1
269,199,3
269,271,1
270,68,8
270,268,1
270,269,1
271,268,1
271,269,1
272,273,1
272,92,4
273,93,4
273,272,1
274,275,1
274,278,1
274,276,1
274,277,1
274,14,4
275,198,21
275,288,1
275,279,1
275,255,2
275,194,21
275,280,1
275,281,1
275,283,1
275,291,1
275,274,1
275,287,1
275,286,1
275,304,44
275,282,1
275,285,1
275,284,1
275,292,1
275,302,44
275,294,62
275,277,1
276,279,1
276,194,21
276,280,1
276,199,21
276,281,1
276,289,1
276,253,2
276,290,1
276,283,1
276,65,16
276,291,1
276,287,1
276,274,1
276,286,1
276,282,1
276,284,1
276,285,1
276,292,1
276,216,2
276,277,1
277,200,21
277,288,1
277,279,1
277,135,57
277,194,21
277,280,1
277,289,1
277,281,1
277,290,1
277,195,21
277,283,1
277,278,1
277,291,1
277,274,1
277,287,1
277,286,1
277,282,1
277,284,1
277,285,1
277,275,1
277,292,1
277,276,1
277,294,62
277,217,2
277,254,2
277,256,2
278,279,1
278,280,1
278,199,21
278,281,1
278,289,1
278,253,2
278,290,1
278,283,1
278,65,16
278,291,1
278,287,1
278,274,1
278,286,1
278,282,1
278,285,1
278,284,1
278,292,1
278,216,2
278,277,1
279,278,1
279,275,1
279,277,1
279,276,1
280,275,1
280,278,1
280,276,1
280,277,1
281,278,1
281,275,1
281,277,1
281,276,1
282,278,1
282,275,1
282,276,1
282,277,1
283,278,1
283,275,1
283,277,1
283,276,1
284,278,1
284,275,1
284,277,1
284,276,1
285,278,1
285,275,1
285,277,1
285,276,1
286,278,1
286,275,1
286,277,1
286,276,1
287,278,1
287,275,1
287,277,1
287,276,1
288,275,1
288,277,1
289,278,1
289,277,1
289,276,1
290,278,1
290,277,1
290,276,1
291,278,1
291,275,1
291,277,1
291,276,1
292,278,1
292,275,1
292,277,1
292,276,1
293,296,64
293,295,1
294,295,1
294,275,62
294,277,62
295,293,1
295,294,1
296,252,7
296,298,1
296,55,9
296,300,1
296,262,2
296,301,1
296,293,64
296,54,9
296,299,1
296,263,2
296,297,1
296,303,40
297,253,7
297,298,1
297,296,1
297,55,9
297,299,1
297,303,40
298,296,1
298,299,1
298,297,1
299,298,1
299,296,1
299,297,1
300,245,16
300,296,1
301,296,1
302,134,16
302,275,44
302,303,1
303,304,1
303,134,16
303,296,40
303,267,28
303,297,40
303,302,1
304,267,28
304,275,44
304,303,1
305,314,1
305,313,1
305,309,1
305,220,2
305,221,2
305,219,2
305,308,1
306,314,1
306,313,1
306,309,1
306,220,2
306,221,2
306,219,2
306,308,1
307,314,1
307,313,1
307,309,1
307,220,2
307,308,1
308,310,1
308,1,1
308,312,1
308,305,1
308,306,1
308,311,1
308,315,1
308,307,1
309,310,1
309,1,1
309,312,1
309,305,1
309,306,1
309,311,1
309,315,1
309,307,1
310,314,1
310,313,1
310,309,1
310,220,2
310,221,2
310,219,2
310,308,1
311,314,1
311,313,1
311,309,1
311,221,2
311,220,2
311,308,1
311,219,2
312,309,1
312,221,2
312,220,2
312,308,1
312,219,2
313,310,1
313,305,1
313,306,1
313,311,1
313,307,1
313,315,1
314,310,1
314,1,1
314,305,1
314,306,1
314,311,1
314,307,1
314,315,1
315,314,1
315,313,1
315,309,1
315,221,2
315,220,2
315,308,1
315,219,2
