-T UDP -a 10.0.0.29 -rp 11801 -b 244 -k 4 -c 1400 -d 10 -m rttm
-T UDP -a 10.0.0.29 -rp 11811 -b 12 -k 4 -c 1400 -d 20 -m rttm
-T UDP -a 10.0.0.28 -rp 11821 -b 228 -k 4 -c 1400 -d 30 -m rttm
-T UDP -a 10.0.0.28 -rp 11831 -b 172 -k 4 -c 1400 -d 40 -m rttm
-T UDP -a 10.0.0.25 -rp 11841 -b 248 -k 4 -c 1400 -d 50 -m rttm
-T UDP -a 10.0.0.25 -rp 11851 -b 16 -k 4 -c 1400 -d 60 -m rttm
-T UDP -a 10.0.0.31 -rp 11861 -b 156 -k 4 -c 1400 -d 70 -m rttm
-T UDP -a 10.0.0.31 -rp 11871 -b 192 -k 10240 -c 1400 -d 80 -m rttm
-T UDP -a 10.0.0.27 -rp 11881 -b 132 -k 4 -c 1400 -d 90 -m rttm
-T UDP -a 10.0.0.27 -rp 11891 -b 236 -k 4 -c 1400 -d 100 -m rttm
-T UDP -a 10.0.0.34 -rp 11901 -b 64 -k 4 -c 1400 -d 110 -m rttm
-T UDP -a 10.0.0.34 -rp 11911 -b 52 -k 4 -c 1400 -d 120 -m rttm
-T UDP -a 10.0.0.26 -rp 11921 -b 184 -k 4 -c 1400 -d 130 -m rttm
-T UDP -a 10.0.0.26 -rp 11931 -b 160 -k 4 -c 1400 -d 140 -m rttm
-T UDP -a 10.0.0.22 -rp 11941 -b 76 -k 4 -c 1400 -d 150 -m rttm
-T UDP -a 10.0.0.22 -rp 11951 -b 204 -k 10240 -c 1400 -d 160 -m rttm
-T UDP -a 10.0.0.33 -rp 11961 -b 160 -k 4 -c 1400 -d 170 -m rttm
-T UDP -a 10.0.0.33 -rp 11971 -b 20 -k 4 -c 1400 -d 180 -m rttm
-T UDP -a 10.0.0.30 -rp 11981 -b 212 -k 4 -c 1400 -d 190 -m rttm
-T UDP -a 10.0.0.30 -rp 11991 -b 196 -k 4 -c 1400 -d 200 -m rttm
-T UDP -a 10.0.0.35 -rp 12001 -b 80 -k 4 -c 1400 -d 210 -m rttm
-T UDP -a 10.0.0.35 -rp 12011 -b 172 -k 4 -c 1400 -d 220 -m rttm
-T UDP -a 10.0.0.24 -rp 12021 -b 60 -k 4 -c 1400 -d 230 -m rttm
-T UDP -a 10.0.0.24 -rp 12031 -b 68 -k 10240 -c 1400 -d 240 -m rttm
-T UDP -a 10.0.0.32 -rp 12041 -b 156 -k 4 -c 1400 -d 250 -m rttm
-T UDP -a 10.0.0.32 -rp 12051 -b 16 -k 4 -c 1400 -d 260 -m rttm
-T UDP -a 10.0.0.23 -rp 12061 -b 208 -k 4 -c 1400 -d 270 -m rttm
-T UDP -a 10.0.0.23 -rp 12071 -b 176 -k 4 -c 1400 -d 280 -m rttm
-T UDP -a 10.0.0.36 -rp 12081 -b 60 -k 4 -c 1400 -d 290 -m rttm
-T UDP -a 10.0.0.36 -rp 12091 -b 108 -k 4 -c 1400 -d 300 -m rttm
