Host,Switch,Weight,Bandwidth,TotalNodes: 2,TotalLinks: 10,src,dst
1,1,1,10,,,h1,s1
2,1,1,10,,,h2,s1
3,1,1,10,,,h3,s1
4,1,1,10,,,h4,s1
5,1,1,10,,,h5,s1
6,2,1,10,,,h6,s2
7,2,1,10,,,h7,s2
8,2,1,10,,,h8,s2
9,2,1,10,,,h9,s2
10,2,1,10,,,h10,s2

