\relax 
\providecommand*\caption@xref[2]{\@setref\relax\@undefined{#1}}
\newlabel{fig:Simpletopology}{{\caption@xref {fig:Simpletopology}{ on input line 22}}{1}}
\@writefile{lof}{\contentsline {figure}{\numberline {1}{\ignorespaces Simple Topology with initial placement of NF's and available cores. \relax }}{1}}
\select@language{english}
\@writefile{toc}{\select@language{english}}
\@writefile{lof}{\select@language{english}}
\@writefile{lot}{\select@language{english}}
\@writefile{toc}{\contentsline {section}{\numberline {1}Motivation Example}{1}}
\newlabel{ToyUseCase}{{1}{1}}
\@writefile{toc}{\contentsline {subsection}{\numberline {1.1}\textbf  {Service Instantiation, Consolidation and Utilization}}{1}}
\newlabel{UseCaseTable}{{1.1}{1}}
\@writefile{toc}{\contentsline {subsection}{\numberline {1.2}Use case Description}{1}}
\newlabel{UsecaseDesc}{{1.2}{1}}
\@writefile{toc}{\contentsline {subsection}{\numberline {1.3}Results}{2}}
\newlabel{UseCaseRes}{{1.3}{2}}
\@writefile{toc}{\contentsline {subsection}{\numberline {1.4}UseCaseAnalysis}{2}}
\@writefile{toc}{\contentsline {subsection}{\numberline {1.5}Discussion}{2}}
\@writefile{toc}{\contentsline {section}{\numberline {2}Fault Tolerance}{2}}
