-T UDP -a 10.0.0.35 -rp 13301 -b 40 -k 10240 -c 1400 -d 10 -m rttm
-T UDP -a 10.0.0.35 -rp 13311 -b 12 -k 10240 -c 1400 -d 20 -m rttm
-T UDP -a 10.0.0.28 -rp 13321 -b 184 -k 10240 -c 1400 -d 30 -m rttm
-T UDP -a 10.0.0.28 -rp 13331 -b 212 -k 10240 -c 1400 -d 40 -m rttm
-T UDP -a 10.0.0.27 -rp 13341 -b 160 -k 10240 -c 1400 -d 50 -m rttm
-T UDP -a 10.0.0.27 -rp 13351 -b 84 -k 10240 -c 1400 -d 60 -m rttm
-T UDP -a 10.0.0.36 -rp 13361 -b 92 -k 10240 -c 1400 -d 70 -m rttm
-T UDP -a 10.0.0.36 -rp 13371 -b 208 -k 10240 -c 1400 -d 80 -m rttm
