Source,Destination,Weight,TotalNodes: 87,TotalLinks: 86,src,dst
1,10,1,,,London+UnitedKingdom209,London+UnitedKingdom287
1,7,2,,,London+UnitedKingdom209,Bracknell+UnitedKingdom279
1,9,3,,,London+UnitedKingdom209,Paris+France193
1,3,29,,,London+UnitedKingdom209,New+York+NY239
1,4,3,,,London+UnitedKingdom209,Amsterdam+Netherlands227
1,2,1,,,London+UnitedKingdom209,London+UnitedKingdom289
1,11,1,,,London+UnitedKingdom209,London+UnitedKingdom288
1,8,1,,,London+UnitedKingdom209,London+UnitedKingdom293
1,5,2,,,London+UnitedKingdom209,Bracknell+UnitedKingdom278
1,6,1,,,London+UnitedKingdom209,London+UnitedKingdom201
2,20,1,,,London+UnitedKingdom289,London+UnitedKingdom208
3,18,1,,,New+York+NY239,New+York+NY240
3,19,29,,,New+York+NY239,London+UnitedKingdom207
4,33,2,,,Amsterdam+Netherlands227,Brussels+Belgium136
4,40,2,,,Amsterdam+Netherlands227,Dusseldorf+Germany163
4,81,2,,,Amsterdam+Netherlands227,Rotterdam+Netherlands228
4,43,3,,,Amsterdam+Netherlands227,Frankfurt+Germany169
5,35,2,,,Bracknell+UnitedKingdom278,London+UnitedKingdom291
6,79,1,,,London+UnitedKingdom201,London+UnitedKingdom200
6,47,3,,,London+UnitedKingdom201,Paris+France196
9,31,3,,,Paris+France193,Brussels+Belgium135
9,58,4,,,Paris+France193,Geneva+Switzerland139
9,71,4,,,Paris+France193,Geneva+Switzerland141
9,75,4,,,Paris+France193,Geneva+Switzerland143
9,72,4,,,Paris+France193,Geneva+Switzerland142
9,67,4,,,Paris+France193,Geneva+Switzerland140
11,13,3,,,London+UnitedKingdom288,Manchester+UnitedKingdom177
12,15,1,,,Copenhagen+Denmark179,Copenhagen+Denmark182
12,17,1,,,Copenhagen+Denmark179,Copenhagen+Denmark272
12,14,4,,,Copenhagen+Denmark179,Stockholm+Sweden231
12,16,1,,,Copenhagen+Denmark179,Copenhagen+Denmark271
13,49,6,,,Manchester+UnitedKingdom177,Copenhagen+Denmark181
13,50,6,,,Manchester+UnitedKingdom177,Copenhagen+Denmark183
14,56,1,,,Stockholm+Sweden231,Stockholm+Sweden232
14,61,1,,,Stockholm+Sweden231,Stockholm+Sweden303
16,63,4,,,Copenhagen+Denmark271,Stockholm+Sweden304
16,60,4,,,Copenhagen+Denmark271,Stockholm+Sweden302
16,62,1,,,Copenhagen+Denmark271,Copenhagen+Denmark270
21,24,4,,,Munich+Germany266,Dusseldorf+Germany261
21,22,1,,,Munich+Germany266,Munich+Germany267
21,23,5,,,Munich+Germany266,Hamburg+Germany264
22,30,3,,,Munich+Germany267,Vienna+Austria126
22,27,3,,,Munich+Germany267,Vienna+Austria242
22,28,4,,,Munich+Germany267,Dusseldorf+Germany260
22,25,4,,,Munich+Germany267,Berlin+Germany162
22,29,1,,,Munich+Germany267,Munich+Germany176
22,26,3,,,Munich+Germany267,Vienna+Austria129
23,85,1,,,Hamburg+Germany264,Hamburg+Germany265
24,36,1,,,Dusseldorf+Germany261,Dusseldorf+Germany164
25,54,1,,,Berlin+Germany162,Berlin+Germany161
25,53,1,,,Berlin+Germany162,Berlin+Germany160
26,83,1,,,Vienna+Austria129,Vienna+Austria130
26,80,1,,,Vienna+Austria129,Vienna+Austria125
26,73,1,,,Vienna+Austria129,Vienna+Austria123
27,55,4,,,Vienna+Austria242,Berlin+Germany259
28,39,4,,,Dusseldorf+Germany260,Geneva+Switzerland250
28,37,2,,,Dusseldorf+Germany260,Frankfurt+Germany263
28,38,2,,,Dusseldorf+Germany260,Frankfurt+Germany168
29,41,3,,,Munich+Germany176,Frankfurt+Germany170
31,34,1,,,Brussels+Belgium135,Brussels+Belgium246
31,32,1,,,Brussels+Belgium135,Brussels+Belgium247
32,48,2,,,Brussels+Belgium247,Antwerp+Belgium244
37,42,1,,,Frankfurt+Germany263,Frankfurt+Germany166
41,44,4,,,Frankfurt+Germany170,Geneva+Switzerland144
41,46,4,,,Frankfurt+Germany170,Geneva+Switzerland146
41,45,4,,,Frankfurt+Germany170,Geneva+Switzerland145
44,77,3,,,Geneva+Switzerland144,Milan+Italy217
44,78,3,,,Geneva+Switzerland144,Milan+Italy218
44,76,3,,,Geneva+Switzerland144,Milan+Italy219
47,87,3,,,Paris+France196,Antwerp+Belgium137
48,82,1,,,Antwerp+Belgium244,Antwerp+Belgium243
51,52,4,,,Rome+Italy222,Milan+Italy221
52,59,1,,,Milan+Italy221,Milan+Italy220
54,57,3,,,Berlin+Germany161,Prague+CzechRepublic155
57,70,1,,,Prague+CzechRepublic155,Prague+CzechRepublic157
57,69,3,,,Prague+CzechRepublic155,Bratislava+Slovakia237
57,68,3,,,Prague+CzechRepublic155,Bratislava+Slovakia236
64,65,1,,,Amsterdam+Netherlands297,Amsterdam+Netherlands298
64,66,2,,,Amsterdam+Netherlands297,Rotterdam+Netherlands299
70,74,3,,,Prague+CzechRepublic157,Vienna+Austria124
78,84,5,,,Milan+Italy218,Barcelona+Spain273
85,86,5,,,Hamburg+Germany265,Vienna+Austria241
66,82,2,,,Rotterdam+Netherlands299,Antwerp+Belgium243
58,59,3,,,Geneva+Switzerland139,Milan+Italy220
24,40,1,,,Dusseldorf+Germany261,Dusseldorf+Germany163
12,13,6,,,Copenhagen+Denmark179,Manchester+UnitedKingdom177
